# Blender v2.75 (sub 0) OBJ File: 'untitled.blend'
# www.blender.org
mtllib Carrot.mtl
o Cylinder.001
v 0.506914 0.335233 0.248035
v 0.532581 0.298511 -0.302499
v 0.307586 0.390798 0.010581
v 0.733477 -0.263442 0.354930
v 0.243822 -0.224783 0.499815
v 0.727017 -0.456658 0.121110
v 0.190902 0.148438 0.431192
v 0.518072 0.398859 -0.037032
v 0.305623 0.264815 0.295731
v 0.584774 0.098839 0.418726
v -1.480012 -0.307285 -0.370181
v 0.646486 -0.133318 0.443165
v -0.570868 0.171064 0.172000
v -0.464482 0.190564 0.158767
v -0.390332 0.256984 -0.016679
v -1.097205 -0.536984 -0.468200
v -0.227414 0.186384 -0.273439
v -3.013861 -0.537353 -0.006703
v -1.844550 -0.186165 -0.069026
v -1.975774 -0.259962 -0.130297
v -1.869814 -0.215363 0.101786
v -0.461779 0.207347 -0.062795
v -3.195958 -0.644560 -0.169611
v -3.083621 -0.643963 0.202121
v -0.939837 -0.126980 -0.355324
v -4.400898 -1.076042 0.157661
v -1.061374 -0.917138 0.013300
v -0.800506 -0.050027 0.377692
v -4.417877 -1.008060 0.099808
v -4.178239 -1.134807 0.233145
v -0.427849 -0.323779 -0.482259
v -3.263229 -0.926356 0.326677
v -3.384933 -0.881528 0.268493
v -4.269717 -1.382650 0.109419
v -0.875950 -0.427673 0.484562
v -0.941601 -0.769087 -0.325434
v -1.110891 -0.143483 -0.379018
v -4.443661 -1.035448 -0.068427
v -3.874642 -1.378885 -0.006648
v -0.657446 -0.231107 0.495384
v -1.022869 0.048152 0.184976
v -1.107250 -0.882502 0.149015
v -1.011776 -0.296539 0.477861
v -0.782410 -0.055430 -0.388337
v -1.056996 0.041151 -0.152075
v -0.640821 -0.347958 -0.522341
v -0.236444 -0.713932 -0.185683
v -0.216204 -0.741823 0.130282
v -1.516604 -0.311195 0.378007
v -2.124068 -0.464113 0.324087
v -1.078600 -0.821720 -0.245361
v -1.803796 -0.937307 0.260902
v -1.617283 -0.552536 -0.432016
v -1.121352 -0.773126 0.310567
v -0.932775 -0.715788 0.376646
v -1.613647 -0.509880 0.419526
v -0.925077 -0.863995 0.158735
v -1.743172 -0.293545 -0.261311
v -1.693208 -0.267495 0.276834
v -1.299194 -0.807333 -0.327888
v -1.168553 -0.584770 0.439081
v -2.006574 -0.814622 0.363506
v -2.542448 -0.985616 -0.333749
v -2.601082 -0.773430 -0.379297
v -1.914019 -0.205920 -0.002446
v -3.008624 -0.563119 0.086150
v -1.930280 -0.567359 0.395419
v -3.012871 -0.896026 -0.337929
v -2.656097 -1.144791 0.141532
v -2.227977 -0.684197 0.379525
v -2.061001 -0.675979 -0.364238
v -2.245024 -0.684899 -0.402601
v -1.670212 -0.959991 -0.135558
v -2.436291 -1.141640 -0.074033
v -1.995547 -0.734546 -0.388479
v -2.215657 -0.393974 0.245853
v -1.928121 -0.458193 -0.356679
v -2.137317 -0.396144 -0.247198
v -1.210966 -0.112388 0.326999
v -0.577152 0.206354 0.002471
v -2.921859 -1.147502 0.218419
v -3.089953 -0.600985 -0.129154
v -3.255153 -1.214531 -0.189026
v -2.620678 -0.849236 0.355178
v -2.963819 -0.846129 0.337082
v -2.802622 -0.821052 0.302090
v -3.297712 -1.088030 -0.285448
v -3.251522 -0.630702 -0.011127
v -2.704697 -1.100310 0.249606
v -3.230842 -1.253426 -0.049013
v -2.746319 -1.027048 -0.288210
v -2.681054 -1.134299 -0.205052
v -2.856004 -0.702548 -0.287940
v -3.597216 -0.967428 0.284297
v -4.816131 -1.246879 0.091640
v -4.258687 -1.190333 0.194376
v -3.135984 -0.620330 0.108779
v -4.332850 -1.434821 -0.039121
v -4.415625 -1.144350 -0.199699
v -3.670940 -0.884664 0.227209
v -3.857145 -0.828506 -0.065918
v -4.083691 -1.269626 0.215872
v -3.830436 -0.879475 -0.162991
v -2.907741 -1.020452 0.299323
v -3.986903 -1.322142 -0.180025
v -3.534399 -1.017730 -0.291629
v -3.449576 -0.797387 -0.230423
v -4.351921 -1.296798 -0.207064
v -3.283157 -1.117203 0.262165
v -3.799420 -0.995891 -0.247748
v -3.900563 -0.824405 0.046376
v -4.303209 -1.113324 -0.196009
v -4.136345 -1.225484 -0.235379
v -3.803077 -0.968211 0.225590
v -4.224693 -1.312690 -0.170921
v -4.392950 -1.177843 0.216593
v -3.878383 -0.815542 0.114863
v -3.395484 -0.990740 0.309887
v -0.903230 -0.400208 -0.497349
v -0.944427 -0.108214 0.347486
v -0.129054 0.005284 -0.449084
v 0.087691 0.258398 -0.319477
v -0.293180 -0.330374 0.496226
v 0.144549 0.318363 0.250987
v -0.162469 0.192902 0.278131
v -0.380624 0.016642 0.427804
v 0.258662 -0.654123 -0.002989
v -0.421631 0.035466 -0.404370
v -0.116166 -0.005758 0.461276
v 0.180752 0.093796 -0.475092
v 0.315789 -0.584100 0.202340
v 0.284699 -0.415006 0.433379
v 0.192903 0.006922 0.489383
v -0.281776 -0.269503 -0.529982
v 0.197076 -0.155602 -0.527463
v 0.287533 -0.444915 -0.383768
v 0.317320 -0.561434 -0.267099
v -0.399855 -0.487251 0.453568
v 0.112721 0.396068 -0.024594
v -0.468049 -0.064905 0.442409
v -4.763701 -1.406788 -0.090764
v -4.797529 -1.229150 -0.090095
v -4.710243 -1.401516 0.100180
v 0.797826 -0.294563 -0.283320
v 0.609172 0.056313 -0.481252
v 0.681277 0.325670 -0.108772
v 0.723813 0.102398 0.320802
v 0.751749 0.132310 0.048390
v 0.795176 -0.060572 0.092549
v 0.792779 -0.049700 -0.110154
v 1.045974 0.011125 0.123361
v 1.055095 -0.075088 -0.039460
v -4.852984 -1.384653 0.009579
v -4.857904 -1.292927 0.023695
v -2.746655 -0.628947 0.315762
v -3.644540 -1.261293 0.205430
v -4.325516 -1.313901 0.185322
v -3.362905 -0.902473 -0.269151
v -0.303901 -0.550107 -0.410111
v 1.013492 0.137840 -0.133515
v 1.005349 0.204577 0.059115
vt 0.116720 0.057516
vt 0.066823 0.090423
vt 0.054219 0.064300
vt 0.490295 0.971682
vt 0.522390 0.902394
vt 0.559675 0.968376
vt 0.723847 0.912514
vt 0.758862 0.897301
vt 0.747067 0.972986
vt 0.506260 0.094911
vt 0.483684 0.227910
vt 0.470044 0.119320
vt 0.288715 0.901367
vt 0.335870 0.893066
vt 0.309626 0.909233
vt 0.184037 0.022824
vt 0.196987 0.110175
vt 0.133528 0.022036
vt 0.136130 0.088606
vt 0.404662 0.784770
vt 0.459108 0.781738
vt 0.460317 0.807619
vt 0.908817 0.125004
vt 0.962545 0.138301
vt 0.926750 0.148220
vt 0.633191 0.313607
vt 0.716860 0.334550
vt 0.648740 0.341256
vt 0.542506 0.804637
vt 0.469844 0.751421
vt 0.547700 0.732663
vt 0.140743 0.199779
vt 0.087319 0.215605
vt 0.087825 0.194109
vt 0.030840 0.259782
vt 0.023035 0.183473
vt 0.429231 0.400344
vt 0.453313 0.510023
vt 0.402850 0.615242
vt 0.059154 0.026504
vt 0.257492 0.094762
vt 0.224300 0.025909
vt 0.261692 0.020510
vt 0.540764 0.702736
vt 0.303168 0.021423
vt 0.308376 0.092186
vt 0.366267 0.091499
vt 0.359987 0.021837
vt 0.715248 0.106464
vt 0.729886 0.019396
vt 0.756408 0.090597
vt 0.025890 0.021599
vt 0.512470 0.525365
vt 0.555564 0.559091
vt 0.489889 0.577337
vt 0.396367 0.086560
vt 0.469290 0.698201
vt 0.334942 0.296747
vt 0.300686 0.345614
vt 0.259447 0.315125
vt 0.859082 0.006208
vt 0.947317 0.039107
vt 0.805024 0.034851
vt 0.216366 0.094857
vt 0.009225 0.089423
vt 0.743264 0.192305
vt 0.387095 0.056098
vt 0.410193 0.680840
vt 0.442403 0.660298
vt 0.993474 0.111788
vt 0.318188 0.000588
vt 0.288060 0.000860
vt 0.788469 0.107844
vt 0.815090 0.095312
vt 0.811325 0.132817
vt 0.055794 0.000818
vt 0.104100 0.000624
vt 0.406116 0.897218
vt 0.132529 0.214814
vt 0.079285 0.300696
vt 0.540916 0.677742
vt 0.136694 0.179257
vt 0.169772 0.698141
vt 0.116772 0.682854
vt 0.163550 0.664054
vt 0.754011 0.302437
vt 0.194048 0.155503
vt 0.111777 0.911641
vt 0.149974 0.907361
vt 0.114264 0.974571
vt 0.709691 0.973503
vt 0.365860 0.308397
vt 0.386339 0.391591
vt 0.355063 0.421738
vt 0.093361 0.917777
vt 0.469832 0.078447
vt 0.481554 0.016328
vt 0.510094 0.009790
vt 0.507568 0.075135
vt 0.174746 0.293460
vt 0.150029 0.439210
vt 0.141585 0.985592
vt 0.046210 0.334650
vt 0.057986 0.426879
vt 0.038587 0.392915
vt 0.290896 0.208170
vt 0.135839 0.699601
vt 0.584332 0.537518
vt 0.587026 0.548117
vt 0.528813 0.085071
vt 0.338000 0.528065
vt 0.299649 0.495128
vt 0.383020 0.500441
vt 0.247431 0.348171
vt 0.229742 0.320104
vt 0.389514 0.260810
vt 0.383047 0.286430
vt 0.035778 0.291598
vt 0.320145 0.177289
vt 0.384053 0.208881
vt 0.359366 0.242064
vt 0.585157 0.689559
vt 0.639131 0.091174
vt 0.664864 0.191749
vt 0.573160 0.835125
vt 0.529181 0.603448
vt 0.604468 0.202924
vt 0.751176 0.346153
vt 0.812402 0.253516
vt 0.810239 0.295142
vt 0.803456 0.252180
vt 0.348664 0.470088
vt 0.383780 0.417164
vt 0.474647 0.491144
vt 0.486300 0.466054
vt 0.548813 0.490495
vt 0.141812 0.458924
vt 0.109797 0.444521
vt 0.705317 0.586684
vt 0.766563 0.441797
vt 0.773907 0.586368
vt 0.764558 0.618558
vt 0.684596 0.443894
vt 0.260108 0.459305
vt 0.174392 0.449807
vt 0.165289 0.470809
vt 0.234339 0.368920
vt 0.597434 0.344530
vt 0.137125 0.654246
vt 0.670093 0.622015
vt 0.632030 0.374131
vt 0.009924 0.306950
vt 0.764718 0.311277
vt 0.771099 0.337310
vt 0.605745 0.355532
vt 0.323295 0.603740
vt 0.278750 0.622494
vt 0.480247 0.393040
vt 0.673115 0.714225
vt 0.647393 0.638244
vt 0.725176 0.712157
vt 0.111079 0.656570
vt 0.080600 0.671537
vt 0.050111 0.608189
vt 0.052508 0.502518
vt 0.064944 0.516347
vt 0.511524 0.350916
vt 0.379888 0.609796
vt 0.775570 0.671282
vt 0.160824 0.670402
vt 0.577110 0.519821
vt 0.552768 0.295968
vt 0.568926 0.347930
vt 0.637859 0.591817
vt 0.461542 0.098695
vt 0.431431 0.264156
vt 0.445714 0.130362
vt 0.509715 0.184669
vt 0.445309 0.360589
vt 0.536660 0.183227
vt 0.281715 0.792367
vt 0.272476 0.658674
vt 0.298116 0.658496
vt 0.374678 0.780674
vt 0.361300 0.715412
vt 0.343882 0.657327
vt 0.120217 0.819671
vt 0.106037 0.812211
vt 0.809312 0.192047
vt 0.810612 0.229778
vt 0.803059 0.231822
vt 0.084561 0.791345
vt 0.518407 0.255683
vt 0.265145 0.651328
vt 0.262899 0.633235
vt 0.339352 0.633007
vt 0.352407 0.766656
vt 0.337390 0.738462
vt 0.358210 0.735464
vt 0.687662 0.911148
vt 0.490770 0.270861
vt 0.478015 0.320977
vt 0.454534 0.265808
vt 0.640792 0.615374
vt 0.649485 0.726800
vt 0.170631 0.833184
vt 0.155496 0.806633
vt 0.093729 0.894213
vt 0.726961 0.823584
vt 0.689646 0.854963
vt 0.345263 0.871792
vt 0.303161 0.865246
vt 0.309118 0.975040
vt 0.346122 0.914871
vt 0.347797 0.974267
vt 0.383815 0.664332
vt 0.786107 0.267155
vt 0.799387 0.289201
vt 0.791606 0.310279
vt 0.352183 0.808075
vt 0.800398 0.210930
vt 0.363125 0.806239
vt 0.388334 0.804863
vt 0.300557 0.726719
vt 0.342263 0.712139
vt 0.776794 0.790598
vt 0.366151 0.909755
vt 0.680720 0.888442
vt 0.671117 0.745125
vt 0.687658 0.893458
vt 0.785684 0.463204
vt 0.794511 0.444390
vt 0.794420 0.465915
vt 0.675239 0.882515
vt 0.175753 0.775448
vt 0.091473 0.809373
vt 0.805620 0.244697
vt 0.796872 0.517272
vt 0.013925 0.211327
vt 0.571098 0.891610
vt 0.522450 0.846259
vt 0.019571 0.146411
vt 0.055022 0.145708
vt 0.384307 0.138387
vt 0.459685 0.895519
vt 0.224141 0.274863
vt 0.201992 0.199499
vt 0.387392 0.173783
vt 0.607300 0.093561
vt 0.655132 0.006060
vt 0.412648 0.969167
vt 0.907559 0.074364
vt 0.870278 0.069319
vt 0.879511 0.093839
vt 0.820038 0.481795
vt 0.821222 0.500927
vt 0.798252 0.493606
vt 0.321636 0.998209
vt 0.122220 0.990628
vt 0.813176 0.209904
vt 0.827063 0.192044
vt 0.827063 0.216443
vt 0.484134 0.000420
vt 0.726637 0.996656
vt 0.798459 0.475394
vt 0.807693 0.525937
vt 0.807109 0.543697
vt 0.784854 0.535653
vt 0.800680 0.389421
vt 0.822697 0.391800
vt 0.800984 0.399041
vt 0.821056 0.460848
vt 0.798321 0.465214
vt 0.798444 0.445177
vt 0.800810 0.372700
vt 0.339784 0.990366
vt 0.796607 0.354135
vt 0.800828 0.340736
vt 0.812274 0.354084
vt 0.790563 0.167499
vt 0.824675 0.153476
vt 0.837353 0.175372
vt 0.806712 0.185727
vt 0.822570 0.376670
vn -0.010600 0.970400 0.241200
vn -0.076100 0.856500 0.510400
vn 0.031100 0.787600 0.615400
vn 0.488500 0.222700 -0.843600
vn -0.085600 0.449600 -0.889100
vn 0.230800 0.784400 -0.575600
vn 0.045700 -0.982400 -0.181100
vn 0.072900 -0.816800 0.572200
vn -0.251100 -0.721300 0.645400
vn -0.165000 0.372600 -0.913200
vn -0.059200 0.073600 -0.995500
vn -0.120300 -0.282200 -0.951800
vn -0.108600 -0.175800 0.978400
vn 0.188500 -0.453200 0.871200
vn -0.161500 0.786800 -0.595700
vn 0.194600 0.979800 -0.045000
vn -0.140800 0.987500 -0.071000
vn 0.106400 -0.539400 -0.835300
vn -0.006400 -0.055300 -0.998400
vn -0.114500 -0.052100 -0.992000
vn 0.704200 0.691900 -0.159100
vn 0.028200 -0.751700 -0.658900
vn 0.147700 -0.988100 -0.042500
vn 0.116400 -0.837300 -0.534200
vn -0.151600 0.580200 -0.800200
vn -0.003300 0.000200 -1.000000
vn -0.263200 0.544800 -0.796200
vn -0.276900 0.936400 -0.215600
vn -0.166400 0.904800 0.392000
vn -0.216000 0.910900 0.351500
vn -0.259800 0.561300 0.785700
vn -0.128500 0.529700 0.838300
vn -0.006100 -0.472800 -0.881100
vn -0.028700 -0.085600 -0.995900
vn 0.127600 -0.663000 -0.737600
vn 0.218000 0.832000 0.510100
vn 0.203800 -0.564500 0.799800
vn 0.709500 -0.681400 0.179700
vn 0.742900 -0.341500 0.575600
vn -0.171400 0.546700 -0.819600
vn 0.450500 -0.044600 0.891600
vn 0.092700 -0.124600 0.987900
vn 0.013100 0.225100 0.974200
vn 0.304500 0.414000 0.857800
vn 0.298900 -0.953900 -0.027900
vn 0.274500 -0.856100 0.437900
vn -0.213200 0.412200 -0.885800
vn -0.237000 0.674200 -0.699400
vn -0.135300 0.152300 -0.979000
vn -0.052000 0.579000 0.813700
vn -0.102000 0.151700 -0.983100
vn -0.014300 -0.071000 0.997300
vn 0.001500 -0.384700 0.923000
vn 0.058100 -0.634800 0.770500
vn 0.807300 -0.354500 -0.471700
vn 0.188300 -0.923300 0.334800
vn -0.004800 -0.337600 -0.941300
vn 0.781200 0.387700 0.489300
vn 0.220800 -0.527200 -0.820600
vn -0.127000 0.991600 -0.022100
vn -0.263900 0.878300 0.398700
vn -0.129200 0.602600 -0.787500
vn -0.373400 0.923900 -0.082600
vn -0.247000 0.837500 -0.487300
vn -0.303600 0.924200 0.231600
vn -0.357100 0.919200 -0.165900
vn 0.133300 -0.907500 0.398300
vn -0.213700 0.800100 -0.560500
vn -0.397000 0.838400 0.373400
vn -0.384000 0.844800 -0.372500
vn -0.676400 0.388000 0.626000
vn -0.392400 -0.691200 -0.606800
vn 0.050100 0.321200 0.945700
vn -0.271200 0.446300 0.852800
vn -0.152800 0.149800 0.976800
vn -0.235400 0.494900 0.836500
vn 0.029900 -0.368000 -0.929300
vn -0.657600 0.463800 -0.593600
vn -0.211700 0.367400 -0.905700
vn -0.264800 0.882100 -0.389400
vn -0.490000 0.801300 -0.343200
vn -0.206900 0.679600 0.703800
vn -0.270700 0.655400 0.705100
vn 0.029300 -0.300700 0.953200
vn -0.192500 0.981000 -0.024100
vn -0.256700 0.965600 -0.040800
vn 0.007300 0.092800 0.995600
vn 0.014500 -0.310500 0.950400
vn -0.141800 0.425500 0.893700
vn 0.047800 -0.714500 0.698000
vn -0.188400 0.539700 0.820500
vn -0.108800 -0.077600 0.991000
vn -0.073200 0.250000 0.965500
vn -0.058200 0.182700 0.981400
vn 0.306800 -0.814800 -0.491900
vn 0.178800 -0.920400 -0.347600
vn -0.250000 0.456600 -0.853800
vn 0.111400 -0.900000 0.421300
vn -0.167700 0.140100 0.975800
vn -0.020800 0.374700 -0.926900
vn -0.020200 0.186300 -0.982300
vn -0.208300 0.634100 -0.744700
vn -0.267900 0.907300 0.324100
vn 0.171500 -0.977300 -0.124000
vn 0.117500 -0.734100 0.668800
vn 0.071700 -0.661300 0.746700
vn 0.143600 -0.946900 0.287600
vn 0.175700 -0.922900 -0.342500
vn -0.203800 0.882100 -0.424600
vn -0.384200 0.923200 -0.012600
vn 0.089900 -0.826600 -0.555500
vn -0.137400 -0.160600 0.977400
vn -0.182400 0.096500 -0.978500
vn 0.097100 -0.810500 -0.577600
vn -0.034900 -0.401900 -0.915000
vn 0.159200 -0.984800 -0.068700
vn -0.302800 0.890300 0.340100
vn -0.258300 0.713400 0.651400
vn -0.202000 0.433900 0.878000
vn -0.230500 0.761500 0.605800
vn -0.155000 0.360500 -0.919800
vn 0.084200 -0.803400 0.589500
vn -0.020300 -0.541000 -0.840800
vn 0.054300 -0.491700 -0.869000
vn -0.185600 0.363400 -0.913000
vn -0.271600 0.688700 -0.672200
vn 0.087100 -0.728400 0.679500
vn 0.091700 -0.321100 0.942600
vn -0.198600 0.413500 0.888500
vn -0.171800 0.095200 0.980500
vn -0.021500 0.094500 0.995300
vn -0.309500 0.947200 -0.083500
vn -0.289100 0.850700 0.438900
vn -0.114900 0.140900 0.983300
vn -0.196500 0.515800 -0.833800
vn 0.013200 -0.130600 0.991300
vn -0.164900 0.394700 0.903800
vn -0.069700 -0.022800 0.997300
vn -0.094600 0.193900 -0.976400
vn -0.029000 0.056800 -0.998000
vn -0.006400 -0.324600 -0.945800
vn -0.303400 0.895600 -0.325300
vn 0.147100 -0.989100 -0.008500
vn -0.210300 0.071400 0.975000
vn -0.075800 -0.461300 0.884000
vn -0.062400 0.167600 0.983900
vn -0.231300 0.505800 0.831000
vn 0.008500 -0.357200 0.934000
vn -0.132500 0.455500 -0.880300
vn -0.118900 0.397200 0.910000
vn -0.202200 0.716300 0.667900
vn 0.078600 -0.105100 -0.991300
vn 0.870000 -0.062300 -0.489100
vn 0.848400 -0.341200 0.404700
vn 0.766300 0.617700 0.176500
vn 0.423000 0.478900 -0.769200
vn -0.816300 -0.573700 0.066900
vn -0.977300 0.194600 0.084000
vn 0.692000 -0.676600 -0.251700
vn 0.616700 -0.158700 0.771100
vn 0.386000 0.838700 0.384100
usemtl Material
s 1
f 3/1/1 124/2/2 9/3/3
f 145/4/4 130/5/5 2/6/6
f 98/7/7 34/8/8 143/9/9
f 112/10/10 106/11/11 113/12/12
f 34/13/8 96/14/13 157/15/14
f 2/16/6 122/17/15 8/18/16
f 8/18/16 122/17/15 139/19/17
f 159/20/18 31/21/19 134/22/20
f 146/23/21 2/24/6 8/25/16
f 36/26/22 27/27/23 51/28/24
f 8/18/16 139/19/17 3/1/1
f 128/29/25 46/30/26 44/31/27
f 22/32/28 13/33/29 14/34/30
f 13/33/29 28/35/31 126/36/32
f 63/37/33 75/38/34 60/39/35
f 1/40/36 8/18/16 3/1/1
f 132/41/37 6/42/38 4/43/39
f 25/44/40 44/31/27 46/30/26
f 132/41/37 4/43/39 12/45/41
f 12/45/41 5/46/42 132/41/37
f 12/45/41 133/47/43 5/46/42
f 133/47/43 12/45/41 10/48/44
f 1/40/36 3/1/1 9/3/3
f 127/49/45 6/50/38 131/51/46
f 10/52/44 1/40/36 9/3/3
f 77/53/47 58/54/48 53/55/49
f 7/56/50 133/47/43 10/48/44
f 46/30/26 119/57/51 25/44/40
f 35/58/52 61/59/53 55/60/54
f 6/61/38 144/62/55 4/63/39
f 131/64/46 6/42/38 132/41/37
f 31/21/19 128/29/25 134/22/20
f 7/65/50 9/3/3 124/2/2
f 48/66/56 27/27/23 127/49/45
f 9/67/3 7/56/50 10/48/44
f 159/20/18 36/68/22 16/69/57
f 145/70/4 2/24/6 146/23/21
f 12/45/41 147/71/58 10/48/44
f 12/45/41 4/72/39 147/71/58
f 10/73/44 147/74/58 1/75/36
f 1/40/36 147/76/58 146/77/21
f 134/22/20 136/78/59 159/20/18
f 146/77/21 8/18/16 1/40/36
f 13/33/29 126/36/32 14/34/30
f 13/33/29 22/32/28 80/79/60
f 41/80/61 13/33/29 80/79/60
f 159/20/18 46/30/26 31/21/19
f 25/44/40 119/57/51 37/81/62
f 14/34/30 15/82/63 22/32/28
f 23/83/64 97/84/65 82/85/66
f 27/27/23 48/66/56 57/86/67
f 17/87/68 22/32/28 15/82/63
f 29/88/69 38/89/70 95/90/71
f 98/7/7 143/9/9 141/91/72
f 43/92/73 49/93/74 56/94/75
f 95/90/71 26/95/76 29/88/69
f 15/82/63 14/34/30 139/19/17
f 108/96/77 141/97/72 142/98/78
f 108/96/77 142/98/78 99/99/79
f 3/1/1 139/19/17 124/2/2
f 45/100/80 19/101/81 80/79/60
f 38/89/70 142/102/78 95/90/71
f 79/103/82 59/104/83 49/105/74
f 55/60/54 132/41/37 138/106/84
f 88/107/85 97/84/65 23/83/64
f 58/54/48 65/108/86 19/109/81
f 99/99/79 142/98/78 38/110/70
f 53/55/49 119/57/51 16/69/57
f 55/60/54 138/106/84 35/58/52
f 70/111/87 62/112/88 50/113/89
f 54/114/90 57/115/67 55/60/54
f 55/60/54 61/59/53 54/114/90
f 80/79/60 22/32/28 45/100/80
f 35/58/52 28/116/31 120/117/91
f 41/80/61 79/103/82 120/118/91
f 138/106/84 123/119/92 140/120/93
f 35/58/52 40/121/94 28/116/31
f 13/33/29 41/80/61 28/35/31
f 45/122/80 44/31/27 25/44/40
f 45/100/80 22/32/28 17/87/68
f 31/21/19 46/30/26 128/29/25
f 36/26/22 137/123/95 47/124/96
f 45/122/80 17/125/68 128/29/25
f 45/122/80 25/44/40 37/81/62
f 16/69/57 46/30/26 159/20/18
f 37/81/62 11/126/97 58/54/48
f 16/69/57 119/57/51 46/30/26
f 47/124/96 27/27/23 36/26/22
f 127/49/45 27/27/23 47/124/96
f 128/29/25 44/31/27 45/122/80
f 137/123/95 36/26/22 159/127/18
f 42/128/98 27/27/23 57/86/67
f 79/129/82 49/130/74 43/131/73
f 50/113/89 67/132/99 59/133/83
f 62/112/88 56/94/75 67/132/99
f 71/134/100 72/135/101 78/136/102
f 77/53/47 71/134/100 78/136/102
f 11/126/97 37/81/62 53/55/49
f 65/137/86 21/138/103 19/101/81
f 42/128/98 74/139/104 27/27/23
f 52/140/105 89/141/106 69/142/107
f 27/27/23 74/139/104 73/143/108
f 49/93/74 59/133/83 56/94/75
f 52/144/105 54/114/90 61/59/53
f 65/137/86 58/145/48 20/146/109
f 42/147/98 54/114/90 52/144/105
f 62/112/88 35/58/52 56/94/75
f 36/26/22 51/28/24 16/148/57
f 35/58/52 62/112/88 61/59/53
f 43/92/73 56/94/75 35/58/52
f 65/137/86 20/146/109 18/149/110
f 51/28/24 92/150/111 60/151/35
f 21/138/103 59/104/83 79/103/82
f 52/144/105 61/59/53 62/112/88
f 120/118/91 79/103/82 43/152/73
f 42/128/98 57/153/67 54/154/90
f 41/80/61 21/138/103 79/103/82
f 16/69/57 60/39/35 75/38/34
f 75/38/34 53/55/49 16/69/57
f 53/55/49 37/81/62 119/57/51
f 58/54/48 77/53/47 78/136/102
f 58/54/48 11/126/97 53/55/49
f 27/27/23 73/143/108 51/28/24
f 60/155/35 16/148/57 51/28/24
f 58/54/48 19/109/81 45/122/80
f 84/156/112 89/157/106 62/112/88
f 63/37/33 64/158/113 72/135/101
f 73/143/108 92/150/111 51/28/24
f 92/150/111 83/159/114 91/160/115
f 90/161/116 74/139/104 69/142/107
f 21/138/103 66/162/117 24/163/118
f 62/112/88 89/157/106 52/144/105
f 155/164/119 50/165/89 76/166/120
f 42/128/98 69/142/107 74/139/104
f 59/104/83 76/166/120 50/165/89
f 71/134/100 77/53/47 75/38/34
f 56/94/75 59/133/83 67/132/99
f 62/112/88 67/132/99 50/113/89
f 72/135/101 75/38/34 63/37/33
f 72/135/101 64/158/113 93/167/121
f 155/168/119 84/156/112 70/111/87
f 84/156/112 62/112/88 70/111/87
f 35/58/52 120/117/91 43/92/73
f 21/138/103 24/163/118 76/166/120
f 50/113/89 155/168/119 70/111/87
f 81/169/122 90/161/116 69/142/107
f 65/137/86 18/149/110 66/162/117
f 20/146/109 82/170/66 18/149/110
f 20/171/109 58/54/48 78/136/102
f 23/172/64 82/173/66 20/171/109
f 78/136/102 23/172/64 20/171/109
f 77/53/47 53/55/49 75/38/34
f 93/167/121 78/136/102 72/135/101
f 78/136/102 93/167/121 23/172/64
f 65/137/86 66/162/117 21/138/103
f 60/151/35 92/150/111 63/174/33
f 92/150/111 73/143/108 74/139/104
f 69/142/107 42/128/98 52/140/105
f 71/134/100 75/38/34 72/135/101
f 120/118/91 28/35/31 41/80/61
f 37/81/62 58/54/48 45/122/80
f 115/175/123 83/176/114 105/177/124
f 106/11/11 112/10/10 110/178/125
f 64/158/113 63/37/33 91/179/115
f 103/180/126 112/10/10 38/110/70
f 156/181/127 81/182/122 104/183/128
f 100/184/129 33/185/130 85/186/131
f 97/84/65 111/187/132 117/188/133
f 85/189/131 33/190/130 32/191/134
f 24/163/118 117/188/133 100/192/129
f 110/178/125 107/193/135 106/11/11
f 89/157/106 81/194/122 69/195/107
f 86/196/136 89/157/106 84/156/112
f 104/183/128 86/196/136 85/186/131
f 155/168/119 85/186/131 86/196/136
f 24/163/118 155/164/119 76/166/120
f 94/197/137 118/198/138 33/199/130
f 108/200/77 98/7/7 141/91/72
f 97/84/65 18/149/110 82/85/66
f 81/182/122 89/157/106 104/183/128
f 91/179/115 93/167/121 64/158/113
f 104/183/128 89/157/106 86/196/136
f 158/201/139 107/193/135 93/167/121
f 68/202/140 87/203/141 158/201/139
f 74/139/104 83/159/114 92/150/111
f 158/201/139 93/167/121 68/202/140
f 155/168/119 86/196/136 84/156/112
f 74/139/104 90/161/116 83/159/114
f 107/193/135 23/172/64 93/167/121
f 29/88/69 117/188/133 111/187/132
f 92/150/111 91/204/115 63/174/33
f 91/179/115 68/202/140 93/167/121
f 68/202/140 91/179/115 87/203/141
f 91/160/115 83/159/114 87/205/141
f 103/206/126 38/89/70 101/207/142
f 29/88/69 111/187/132 38/89/70
f 29/88/69 26/208/76 117/188/133
f 39/209/143 105/210/124 90/161/116
f 30/211/144 102/212/145 118/198/138
f 143/213/9 116/214/146 95/215/71
f 96/14/13 116/214/146 157/15/14
f 143/213/9 157/15/14 116/214/146
f 85/186/131 155/168/119 24/216/118
f 143/213/9 34/13/8 157/15/14
f 114/217/147 94/218/137 33/219/130
f 101/207/142 38/89/70 111/187/132
f 94/220/137 30/211/144 118/198/138
f 114/217/147 30/221/144 94/218/137
f 23/83/64 111/187/132 88/107/85
f 97/84/65 66/162/117 18/149/110
f 114/222/147 100/184/129 117/223/133
f 118/198/138 102/212/145 109/224/148
f 59/104/83 21/138/103 76/166/120
f 104/183/128 85/186/131 32/225/134
f 103/180/126 110/178/125 112/10/10
f 81/169/122 156/226/127 39/209/143
f 39/209/143 90/161/116 81/169/122
f 109/224/148 102/212/145 156/181/127
f 107/193/135 103/180/126 23/172/64
f 114/222/147 33/199/130 100/184/129
f 113/12/12 106/11/11 87/203/141
f 30/211/144 26/227/76 96/14/13
f 21/138/103 80/79/60 19/101/81
f 115/228/123 87/205/141 83/229/114
f 30/211/144 114/222/147 26/227/76
f 98/7/7 108/200/77 115/230/123
f 108/96/77 99/99/79 112/10/10
f 99/99/79 38/110/70 112/10/10
f 115/175/123 112/10/10 113/12/12
f 98/7/7 105/210/124 39/209/143
f 98/7/7 115/230/123 105/210/124
f 115/175/123 108/96/77 112/10/10
f 102/212/145 96/14/13 34/13/8
f 116/231/146 96/232/13 26/233/76
f 34/13/8 156/181/127 102/212/145
f 156/226/127 34/8/8 39/209/143
f 115/228/123 113/234/12 87/205/141
f 90/161/116 105/210/124 83/159/114
f 23/83/64 103/235/126 101/207/142
f 96/14/13 102/212/145 30/211/144
f 98/7/7 39/209/143 34/8/8
f 109/224/148 104/183/128 32/225/134
f 117/188/133 26/208/76 114/236/147
f 118/237/138 32/191/134 33/190/130
f 101/207/142 111/187/132 23/83/64
f 103/180/126 107/193/135 110/178/125
f 156/181/127 104/183/128 109/224/148
f 158/201/139 106/11/11 107/193/135
f 158/201/139 87/203/141 106/11/11
f 32/225/134 118/198/138 109/224/148
f 100/184/129 85/186/131 24/216/118
f 26/233/76 95/238/71 116/231/146
f 66/162/117 97/84/65 24/163/118
f 97/84/65 117/188/133 24/163/118
f 111/187/132 97/84/65 88/107/85
f 40/121/94 35/58/52 138/106/84
f 126/36/32 28/35/31 140/239/93
f 140/120/93 28/116/31 40/121/94
f 122/240/15 130/5/5 121/241/149
f 129/242/150 124/2/2 125/243/151
f 48/66/56 127/49/45 131/51/46
f 123/119/92 133/47/43 129/244/150
f 121/241/149 17/125/68 122/240/15
f 2/6/6 130/5/5 122/240/15
f 17/87/68 139/19/17 122/17/15
f 135/245/152 134/22/20 121/241/149
f 121/241/149 134/22/20 128/29/25
f 57/246/67 48/247/56 132/41/37
f 133/47/43 7/56/50 129/244/150
f 21/138/103 41/80/61 80/79/60
f 40/121/94 138/106/84 140/120/93
f 138/106/84 5/46/42 123/119/92
f 7/65/50 124/2/2 129/242/150
f 132/41/37 5/46/42 138/106/84
f 124/2/2 14/34/30 125/243/151
f 132/41/37 55/60/54 57/246/67
f 14/34/30 124/2/2 139/19/17
f 126/248/32 140/120/93 123/119/92
f 136/78/59 134/22/20 135/245/152
f 125/243/151 14/34/30 126/36/32
f 130/5/5 135/245/152 121/241/149
f 17/125/68 121/241/149 128/29/25
f 139/19/17 17/87/68 15/82/63
f 130/5/5 145/4/4 135/245/152
f 136/249/59 144/250/55 137/123/95
f 136/78/59 145/4/4 144/251/55
f 137/123/95 6/50/38 127/49/45
f 144/62/55 146/23/21 150/252/153
f 147/74/58 4/63/39 149/253/154
f 4/63/39 144/62/55 150/252/153
f 146/23/21 147/74/58 148/254/155
f 150/255/153 148/256/155 160/257/156
f 5/46/42 133/47/43 123/119/92
f 132/41/37 48/247/56 131/64/46
f 135/245/152 145/4/4 136/78/59
f 143/213/9 95/215/71 153/258/157
f 95/90/71 142/102/78 154/259/158
f 123/119/92 129/244/150 126/248/32
f 125/243/151 126/36/32 129/242/150
f 137/123/95 144/250/55 6/50/38
f 137/123/95 127/49/45 47/124/96
f 137/123/95 159/127/18 136/249/59
f 144/260/55 145/261/4 146/262/21
f 148/254/155 147/74/58 149/253/154
f 150/252/153 146/23/21 148/254/155
f 149/253/154 4/63/39 150/252/153
f 142/98/78 141/97/72 153/263/157
f 141/91/72 143/9/9 153/264/157
f 150/255/153 160/257/156 152/265/159
f 149/266/154 150/267/153 152/268/159
f 151/269/160 149/270/154 152/271/159
f 148/272/155 161/273/161 160/274/156
f 149/270/154 151/269/160 161/275/161
f 153/258/157 95/215/71 154/276/158
f 154/277/158 142/278/78 153/279/157
f 152/280/159 160/281/156 161/282/161
f 161/282/161 151/283/160 152/280/159
f 148/284/155 149/270/154 161/275/161
