# Blender v2.75 (sub 0) OBJ File: 'Urn.blend'
# www.blender.org
mtllib Full_Urn_COL.mtl
o Cylinder
v 0.006959 0.000649 -0.118862
v 0.006959 0.640365 -0.167217
v 0.091007 0.000649 -0.084048
v 0.125199 0.640365 -0.118240
v 0.125821 0.000649 -0.000000
v 0.174176 0.640365 0.000000
v 0.091007 0.000649 0.084048
v 0.125199 0.640365 0.118240
v 0.006959 0.000649 0.118862
v 0.006959 0.640365 0.167217
v -0.077089 0.000649 0.084048
v -0.111281 0.640365 0.118240
v -0.111903 0.000649 -0.000000
v -0.160258 0.640365 -0.000000
v -0.077089 0.000649 -0.084048
v -0.111281 0.640365 -0.118240
v 0.006959 0.226958 -0.216116
v 0.159776 0.226958 -0.152817
v 0.223075 0.226958 0.000000
v 0.159776 0.226958 0.152817
v 0.006959 0.226958 0.216116
v -0.145858 0.226958 0.152817
v -0.209157 0.226958 -0.000000
v -0.145858 0.226958 -0.152817
v 0.006959 0.551560 -0.252898
v 0.185785 0.551560 -0.178826
v 0.259857 0.551560 0.000000
v 0.185785 0.551560 0.178826
v 0.006959 0.551560 0.252898
v -0.171867 0.551560 0.178826
v -0.245939 0.551560 -0.000000
v -0.171867 0.551560 -0.178826
v 0.006959 0.701541 -0.167217
v 0.125199 0.701541 -0.118240
v 0.174176 0.701541 0.000000
v 0.125199 0.701541 0.118240
v 0.006959 0.701541 0.167217
v -0.111281 0.701541 0.118240
v -0.160258 0.701541 -0.000000
v -0.111281 0.701541 -0.118240
v 0.006959 0.718090 -0.000000
vn 0.000000 0.410400 -0.911900
vn 0.644800 0.410400 -0.644800
vn 0.675900 0.293700 -0.675900
vn 0.911900 0.410400 0.000000
vn 0.955900 0.293700 0.000000
vn 0.644800 0.410400 0.644800
vn 0.675900 0.293700 0.675900
vn 0.000000 0.410400 0.911900
vn -0.644800 0.410400 0.644800
vn -0.675900 0.293700 0.675900
vn -0.911900 0.410400 0.000000
vn -0.955900 0.293700 0.000000
vn 0.800500 0.599300 0.000000
vn 0.566000 0.599300 0.566000
vn -0.675900 0.293700 -0.675900
vn -0.644800 0.410400 -0.644800
vn 0.000000 -0.775000 -0.632000
vn 0.632000 -0.775000 0.000000
vn 0.000000 -0.775000 0.632000
vn -0.968700 -0.248000 0.000000
vn -0.685000 -0.248000 -0.685000
vn -0.446900 -0.775000 -0.446900
vn 0.000000 -0.248000 -0.968700
vn -0.685000 -0.248000 0.685000
vn -0.632000 -0.775000 0.000000
vn 0.000000 -0.248000 0.968700
vn 0.685000 -0.248000 0.685000
vn 0.968700 -0.248000 0.000000
vn 0.446900 -0.775000 0.446900
vn 0.446900 -0.775000 -0.446900
vn 0.685000 -0.248000 -0.685000
vn 0.000000 0.293700 -0.955900
vn 0.000000 0.293700 0.955900
vn -0.566000 0.599300 0.566000
vn -0.800500 0.599300 0.000000
vn 0.000000 0.599300 0.800500
vn 0.566000 0.599300 -0.566000
vn -0.566000 0.599300 -0.566000
vn 0.000000 0.599300 -0.800500
vn 0.000000 1.000000 0.000000
vn -0.446900 -0.775000 0.446900
usemtl None
s 1
f 2//1 4//2 26//3
f 4//2 6//4 27//5
f 27//5 6//4 8//6
f 28//7 8//6 10//8
f 10//8 12//9 30//10
f 12//9 14//11 31//12
f 6//4 35//13 36//14
f 32//15 16//16 2//1
f 14//11 16//16 32//15
f 1//17 5//18 9//19
f 23//20 24//21 15//22
f 24//21 17//23 1//17
f 22//24 23//20 13//25
f 9//19 21//26 22//24
f 20//27 21//26 9//19
f 19//28 20//27 7//29
f 3//30 18//31 19//28
f 17//23 18//31 3//30
f 31//12 32//15 24//21
f 32//15 25//32 17//23
f 30//10 31//12 23//20
f 29//33 30//10 22//24
f 28//7 29//33 21//26
f 27//5 28//7 20//27
f 18//31 26//3 27//5
f 25//32 26//3 18//31
f 12//9 38//34 39//35
f 8//6 36//14 37//36
f 16//16 14//11 39//35
f 4//2 34//37 35//13
f 10//8 37//36 38//34
f 2//1 16//16 40//38
f 4//2 2//1 33//39
f 33//39 40//38 41//40
f 39//35 38//34 41//40
f 37//36 36//14 41//40
f 35//13 34//37 41//40
f 40//38 39//35 41//40
f 38//34 37//36 41//40
f 36//14 35//13 41//40
f 34//37 33//39 41//40
f 25//32 2//1 26//3
f 26//3 4//2 27//5
f 28//7 27//5 8//6
f 29//33 28//7 10//8
f 29//33 10//8 30//10
f 30//10 12//9 31//12
f 8//6 6//4 36//14
f 25//32 32//15 2//1
f 31//12 14//11 32//15
f 9//19 15//22 1//17
f 9//19 11//41 13//25
f 5//18 7//29 9//19
f 1//17 3//30 5//18
f 9//19 13//25 15//22
f 13//25 23//20 15//22
f 15//22 24//21 1//17
f 11//41 22//24 13//25
f 11//41 9//19 22//24
f 7//29 20//27 9//19
f 5//18 19//28 7//29
f 5//18 3//30 19//28
f 1//17 17//23 3//30
f 23//20 31//12 24//21
f 24//21 32//15 17//23
f 22//24 30//10 23//20
f 21//26 29//33 22//24
f 20//27 28//7 21//26
f 19//28 27//5 20//27
f 19//28 18//31 27//5
f 17//23 25//32 18//31
f 14//11 12//9 39//35
f 10//8 8//6 37//36
f 40//38 16//16 39//35
f 6//4 4//2 35//13
f 12//9 10//8 38//34
f 33//39 2//1 40//38
f 34//37 4//2 33//39
