# Blender v2.75 (sub 0) OBJ File: 'untitled.blend'
# www.blender.org
mtllib Feather.mtl
o Cube
v 0.149794 0.010257 -0.124116
v -0.149360 0.000780 0.098785
v -0.113140 0.000852 0.129162
v -0.059486 0.000534 -0.037052
v 0.005117 0.000852 0.004631
v -0.108113 0.000831 0.012085
v -0.051879 0.001122 0.065042
v -0.148019 0.000740 0.075235
v -0.079879 0.000629 0.092889
v -0.094083 0.000854 0.113372
v 0.042297 0.000581 -0.111838
v 0.072432 0.000758 -0.067272
v 0.088250 0.000805 -0.117732
v 0.101618 0.010488 -0.105942
v 0.082513 0.009572 -0.084074
v 0.150983 0.011706 -0.120621
v 0.000151 0.013349 -0.047122
v -0.064636 0.013459 0.008872
v -0.119090 0.011299 0.070236
v -0.141866 0.002987 0.120041
v -0.137079 0.008780 0.100403
v 0.055605 0.008453 -0.082812
v 0.086595 0.008571 -0.093687
v 0.041435 0.000831 -0.033695
v 0.000042 0.008629 -0.047043
v 0.030121 0.000849 -0.016143
v 0.054193 0.013173 -0.080886
v 0.058746 0.000837 -0.047574
v -0.069746 0.000830 -0.022032
v -0.031339 0.000842 0.042645
v -0.092066 0.000841 -0.009927
v -0.066678 0.008731 0.010865
v -0.131192 0.000835 0.037713
v -0.117342 0.006678 0.067952
v -0.127341 0.001403 0.129094
vt 0.953313 0.879487
vt 0.967832 0.953965
vt 0.921152 0.987828
vt 0.214088 0.143382
vt 0.006075 0.032979
vt 0.003876 0.044078
vt 0.719504 0.542046
vt 0.498857 0.323346
vt 0.481933 0.518254
vt 0.670323 0.744499
vt 0.764358 0.851828
vt 0.712581 0.534717
vt 0.603434 0.660293
vt 0.885926 0.758629
vt 0.811275 0.928649
vt 0.874163 0.988163
vt 0.891792 0.767186
vt 0.318785 0.197639
vt 0.259728 0.244481
vt 0.225818 0.180885
vt 0.313404 0.191502
vt 0.162869 0.100282
vt 0.207651 0.054926
vt 0.359859 0.077117
vt 0.987181 0.785863
vt 0.993775 0.873473
vt 0.933789 0.642594
vt 0.858027 0.546556
vt 0.697865 0.357714
vt 0.498487 0.323060
vt 0.362431 0.371898
vt 0.400194 0.438792
vt 0.305505 0.319937
vt 0.730470 0.416641
vt 0.804353 0.462385
vn -0.240400 0.966600 0.089100
vn -0.683900 -0.107900 0.721500
vn -0.201500 -0.161700 0.966000
vn 0.132900 -0.969400 0.206300
vn 0.603000 -0.179400 -0.777300
vn 0.968500 0.209200 0.135200
vn 0.037800 -0.998700 0.034900
vn 0.025800 -0.998600 0.046200
vn 0.646300 -0.234400 0.726100
vn 0.705600 -0.189400 0.682800
vn 0.751700 -0.203400 0.627200
vn -0.054100 0.997000 -0.054900
vn 0.713500 -0.215200 0.666700
vn 0.067400 -0.997700 0.001800
vn 0.759100 -0.147300 0.634000
vn 0.365600 -0.133100 0.921200
vn -0.104800 0.994400 -0.016200
vn 0.041600 0.999100 -0.009200
vn 0.761700 -0.474300 0.441500
vn 0.489100 -0.113200 0.864900
vn 0.001200 -0.999800 0.015800
vn -0.212300 0.022000 -0.976900
vn 0.226300 -0.377800 -0.897800
vn -0.318600 -0.266600 -0.909600
vn -0.885500 -0.282700 -0.368700
vn -0.916300 -0.381700 0.121300
vn -0.778900 -0.246500 -0.576700
vn -0.724600 -0.298400 -0.621200
vn -0.657900 -0.312500 -0.685200
vn -0.036800 0.997100 -0.066400
vn 0.630400 -0.302100 0.715000
vn 0.727500 -0.209700 0.653200
vn 0.666600 -0.314000 0.676000
vn -0.647000 -0.436000 -0.625500
vn -0.666100 -0.266000 -0.696800
usemtl Material
s 1
f 21/1/1 20/2/2 35/3/3
f 23/4/4 1/5/5 16/6/6
f 32/7/7 25/8/8 5/9/9
f 32/7/7 7/10/10 9/11/11
f 18/12/12 7/10/10 30/13/13
f 34/14/14 9/11/11 10/15/15
f 35/3/3 20/2/2 3/16/16
f 19/17/17 21/1/1 10/15/15
f 27/18/18 12/19/19 15/20/20
f 22/21/21 23/4/4 15/20/20
f 27/18/18 15/20/20 16/6/6
f 1/5/5 14/22/22 27/18/18
f 13/23/23 23/4/4 22/21/21
f 14/22/22 13/23/23 27/18/18
f 13/23/23 11/24/24 27/18/18
f 8/25/25 21/1/1 19/17/17
f 2/26/26 8/25/25 20/2/2
f 33/27/27 8/25/25 19/17/17
f 6/28/28 32/7/7 34/14/14
f 11/24/24 4/29/29 17/30/30
f 4/29/29 25/8/8 32/7/7
f 2/26/26 20/2/2 21/1/1
f 27/18/18 17/30/30 24/31/31
f 25/8/8 26/32/32 5/9/9
f 17/30/30 26/32/32 24/31/31
f 27/18/18 28/33/33 12/19/19
f 11/24/24 22/21/21 25/8/8
f 22/21/21 28/33/33 24/31/31
f 4/29/29 29/34/34 18/12/12
f 18/12/12 30/13/13 5/9/9
f 6/28/28 31/35/35 32/7/7
f 29/34/34 31/35/35 18/12/12
f 6/28/28 33/27/27 19/17/17
f 18/12/12 19/17/17 7/10/10
f 3/16/16 10/15/15 21/1/1
f 21/1/1 35/3/3 3/16/16
f 15/20/20 23/4/4 16/6/6
f 26/32/32 17/30/30 5/9/9
f 34/14/14 32/7/7 9/11/11
f 20/2/2 34/14/14 10/15/15
f 7/10/10 19/17/17 9/11/11
f 20/2/2 10/15/15 3/16/16
f 9/11/11 19/17/17 10/15/15
f 28/33/33 22/21/21 12/19/19
f 12/19/19 22/21/21 15/20/20
f 13/23/23 14/22/22 23/4/4
f 16/6/6 1/5/5 27/18/18
f 11/24/24 13/23/23 22/21/21
f 20/2/2 8/25/25 34/14/14
f 31/35/35 6/28/28 18/12/12
f 33/27/27 6/28/28 34/14/14
f 14/22/22 1/5/5 23/4/4
f 8/25/25 2/26/26 21/1/1
f 27/18/18 11/24/24 17/30/30
f 26/32/32 25/8/8 24/31/31
f 28/33/33 27/18/18 24/31/31
f 4/29/29 11/24/24 25/8/8
f 25/8/8 22/21/21 24/31/31
f 31/35/35 29/34/34 32/7/7
f 7/10/10 32/7/7 30/13/13
f 17/30/30 18/12/12 5/9/9
f 17/30/30 4/29/29 18/12/12
f 29/34/34 4/29/29 32/7/7
f 30/13/13 32/7/7 5/9/9
f 8/25/25 33/27/27 34/14/14
f 18/12/12 6/28/28 19/17/17
