# Blender v2.75 (sub 0) OBJ File: 'untitled.blend'
# www.blender.org
mtllib Feather_COL.mtl
o Cube.002_Cube.003
v -0.171444 -0.000008 0.085236
v -0.171444 0.014361 0.085236
v 0.148436 -0.000008 -0.128211
v 0.148436 0.014361 -0.128211
v -0.126080 -0.000008 0.146057
v -0.126080 0.014361 0.146057
v 0.154430 -0.000008 -0.120176
v 0.154430 0.014361 -0.120176
v -0.041615 0.014361 -0.050356
v -0.041615 -0.000008 -0.050356
v 0.001855 0.014361 0.007925
v 0.001855 -0.000008 0.007925
v 0.042040 0.014361 -0.113704
v 0.073029 -0.000008 -0.066809
v 0.042040 -0.000008 -0.113704
v 0.073029 0.014361 -0.066809
v -0.112024 -0.000008 0.007672
v -0.062113 0.014361 0.076991
v -0.112024 0.014361 0.007672
v -0.062113 -0.000008 0.076991
vn -0.135100 0.000000 -0.990800
vn 0.801600 0.000000 -0.597900
vn 0.733700 0.000000 0.679500
vn -0.801600 0.000000 0.597900
vn 0.000000 -1.000000 0.000000
vn 0.000000 1.000000 0.000000
vn 0.724100 0.000000 0.689600
vn -0.636000 -0.000000 -0.771700
vn 0.548300 0.000000 0.836300
vn -0.603700 -0.000000 -0.797200
vn -0.793800 -0.000000 -0.608100
usemtl None
s off
f 4//1 3//1 15//1
f 8//2 7//2 3//2
f 6//3 5//3 20//3
f 2//4 1//4 5//4
f 3//5 7//5 14//5
f 16//6 8//6 4//6
f 11//6 9//6 19//6
f 17//5 10//5 12//5
f 11//7 12//7 14//7
f 9//8 10//8 17//8
f 16//9 14//9 7//9
f 16//6 13//6 9//6
f 10//5 15//5 14//5
f 13//10 15//10 10//10
f 19//11 17//11 1//11
f 1//5 17//5 20//5
f 18//6 19//6 2//6
f 18//3 20//3 12//3
f 13//1 4//1 15//1
f 4//2 8//2 3//2
f 18//3 6//3 20//3
f 6//4 2//4 5//4
f 15//5 3//5 14//5
f 13//6 16//6 4//6
f 18//6 11//6 19//6
f 20//5 17//5 12//5
f 16//7 11//7 14//7
f 19//8 9//8 17//8
f 8//9 16//9 7//9
f 11//6 16//6 9//6
f 12//5 10//5 14//5
f 9//10 13//10 10//10
f 2//11 19//11 1//11
f 5//5 1//5 20//5
f 6//6 18//6 2//6
f 11//3 18//3 12//3
