# Blender v2.75 (sub 0) OBJ File: 'untitled.blend'
# www.blender.org
mtllib Ink_Pot_COL.mtl
o Cube.001_Cube.002
v -0.056911 0.078668 0.056911
v -0.056911 0.078668 -0.056911
v 0.056911 0.078668 0.056911
v 0.056911 0.078668 -0.056911
v -0.056911 0.000000 0.056911
v -0.056911 0.000000 -0.056911
v 0.056911 0.000000 -0.056911
v 0.056911 0.000000 0.056911
vn 0.000000 -1.000000 0.000000
vn 0.000000 1.000000 0.000000
vn 0.000000 0.000000 1.000000
vn 1.000000 0.000000 0.000000
vn 0.000000 0.000000 -1.000000
vn -1.000000 0.000000 0.000000
usemtl None
s off
f 6//1 7//1 8//1
f 4//2 2//2 1//2
f 1//3 5//3 8//3
f 3//4 8//4 7//4
f 4//5 7//5 6//5
f 2//6 6//6 5//6
f 5//1 6//1 8//1
f 3//2 4//2 1//2
f 3//3 1//3 8//3
f 4//4 3//4 7//4
f 2//5 4//5 6//5
f 1//6 2//6 5//6
