# Blender v2.75 (sub 0) OBJ File: 'axe.blend'
# www.blender.org
mtllib Small_Axe.mtl
o Cube.003_Cube.006
v 0.010209 0.004759 0.054266
v 0.000918 0.001516 0.065241
v 0.003603 0.002992 -0.112791
v 0.010194 0.005488 -0.108720
v 0.006715 0.004842 0.103630
v -0.005716 0.001285 -0.087981
v 0.013877 0.004899 -0.143946
v 0.016078 0.010416 -0.105773
v -0.009016 0.001551 0.130610
v 0.015115 0.011053 0.086552
v -0.010581 0.000897 0.082880
v -0.006361 0.002245 -0.109480
v 0.010563 0.002875 -0.157888
v 0.019144 0.007976 -0.143551
v 0.016713 0.010206 0.054756
v 0.001664 0.004910 0.143577
v 0.013775 0.010284 0.106532
v -0.013629 0.002191 -0.083486
v 0.024314 0.006823 -0.163931
v 0.018742 0.016503 -0.104191
v 0.022552 0.011911 -0.143122
v -0.010057 0.005076 0.183314
v -0.011622 0.004562 0.183314
v 0.018978 0.015000 0.055236
v 0.015828 0.014983 0.117645
v -0.017282 0.002665 0.050354
v -0.003689 0.002913 -0.160617
v 0.010651 0.002232 -0.186591
v 0.023781 0.002952 -0.186402
v 0.024497 0.016536 -0.143187
v 0.006571 0.008648 0.157370
v 0.000623 0.007713 0.183314
v -0.028474 0.001601 0.127033
v 0.019347 0.019785 0.055352
v 0.017029 0.019855 0.092960
v 0.010185 0.012276 0.157554
v -0.021436 0.002859 0.085565
v -0.019921 0.004453 -0.084643
v 0.043588 0.005498 -0.205814
v 0.030133 0.013450 -0.162278
v 0.018351 0.021088 -0.104487
v -0.029515 0.005115 0.183314
v 0.014686 0.019712 0.134188
v -0.025604 0.007139 0.051101
v 0.001429 0.004025 -0.189334
v -0.011046 0.005978 -0.166614
v 0.017126 0.002917 -0.193879
v 0.020514 0.003145 -0.194787
v 0.023641 0.003458 -0.197914
v 0.023690 0.003469 -0.198096
v 0.024589 0.003696 -0.201452
v 0.037122 0.007977 -0.183804
v 0.023484 0.022795 -0.143039
v 0.030864 0.019684 -0.161594
v 0.009144 0.013497 0.183314
v 0.005530 0.010648 0.183314
v -0.040431 0.004953 0.127162
v -0.033660 0.005909 0.103988
v 0.016713 0.025990 0.054756
v 0.013737 0.026186 0.098093
v 0.011413 0.019765 0.161583
v -0.029399 0.007130 0.083420
v -0.024967 0.007527 -0.086206
v 0.006983 0.005540 -0.203673
v 0.008056 0.005416 -0.203517
v 0.007699 0.005216 -0.202186
v 0.008844 0.004368 -0.197914
v 0.011971 0.003541 -0.194787
v 0.016243 0.002955 -0.193642
v 0.024786 0.003869 -0.202186
v 0.024323 0.004237 -0.203913
v 0.030631 0.010270 -0.229549
v 0.051653 0.007566 -0.206211
v 0.041977 0.013455 -0.182234
v 0.016079 0.025780 -0.105773
v 0.042590 0.019688 -0.181341
v -0.041472 0.007747 0.183314
v 0.008451 0.025985 0.158449
v -0.030274 0.013109 0.050658
v -0.007044 0.008016 -0.191413
v -0.015778 0.009262 -0.165966
v 0.009463 0.009605 -0.219035
v 0.016119 0.006795 -0.210696
v 0.011971 0.006800 -0.209584
v 0.008844 0.006170 -0.206457
v 0.044554 0.008348 -0.221062
v 0.024169 0.004410 -0.204487
v 0.026810 0.008616 -0.221518
v 0.049100 0.007662 -0.214729
v 0.057821 0.010956 -0.205531
v 0.028292 0.025600 -0.162713
v 0.019145 0.028220 -0.143550
v 0.039942 0.025619 -0.182766
v 0.010372 0.019377 0.183314
v -0.048499 0.011346 0.183314
v -0.047457 0.009537 0.125455
v -0.034181 0.013041 0.082896
v 0.010209 0.031437 0.054265
v 0.001664 0.031286 0.143577
v 0.007409 0.024260 0.183314
v -0.029522 0.013476 -0.085933
v -0.002260 0.010008 -0.209212
v -0.021435 0.013425 -0.149387
v 0.023641 0.004975 -0.206457
v 0.020514 0.006089 -0.209584
v 0.016243 0.006792 -0.210729
v 0.039482 0.010621 -0.227566
v 0.012937 0.010252 -0.226020
v 0.056921 0.011056 -0.213296
v 0.061383 0.016593 -0.204894
v 0.010194 0.030708 -0.108720
v 0.060260 0.022454 -0.205147
v -0.040462 0.013056 0.103126
v 0.006715 0.031354 0.103629
v 0.000623 0.028422 0.183314
v -0.031269 0.019360 0.051038
v -0.007506 0.014516 -0.211589
v -0.018859 0.015513 -0.171238
v 0.000450 0.014586 -0.229019
v 0.045811 0.013325 -0.226322
v 0.021683 0.016180 -0.238470
v 0.055028 0.012471 -0.219153
v 0.016300 0.015720 -0.238842
v 0.060761 0.016592 -0.212359
v 0.024348 0.030119 -0.168354
v 0.013877 0.031297 -0.143945
v 0.054304 0.027582 -0.206038
v -0.051145 0.013065 0.145514
v -0.051378 0.013978 0.127391
v -0.041268 0.019824 0.102229
v 0.000918 0.034680 0.065240
v -0.011622 0.031573 0.183314
v -0.009016 0.034645 0.130609
v -0.035056 0.019819 0.082195
v -0.030266 0.018098 -0.088730
v 0.024640 0.016846 -0.238238
v 0.023308 0.016486 -0.238343
v 0.019830 0.015946 -0.238616
v 0.007047 0.016761 -0.239034
v 0.017820 0.015803 -0.238774
v 0.003603 0.033204 -0.112791
v 0.058459 0.023971 -0.213220
v -0.052186 0.014116 0.183314
v -0.052074 0.019749 0.126781
v -0.030876 0.027685 0.082000
v -0.029874 0.023385 0.043916
v 0.000453 0.017243 -0.235531
v -0.008094 0.019264 -0.213360
v -0.019222 0.022606 -0.165736
v 0.048168 0.019308 -0.225690
v 0.025631 0.017244 -0.238161
v 0.021683 0.020016 -0.238470
v 0.019830 0.020250 -0.238616
v 0.011627 0.015978 -0.239260
v 0.017820 0.020394 -0.238774
v 0.057412 0.019535 -0.218534
v 0.010563 0.033321 -0.157889
v 0.043588 0.030698 -0.205814
v 0.049100 0.028534 -0.214730
v -0.052456 0.019761 0.146218
v -0.047458 0.026659 0.125456
v -0.038309 0.026224 0.103306
v -0.005716 0.034912 -0.087981
v -0.010581 0.035299 0.082880
v -0.029522 0.022721 -0.085933
v -0.002487 0.018781 -0.229240
v 0.026447 0.018098 -0.238096
v 0.026241 0.017665 -0.238113
v 0.024640 0.019350 -0.238238
v 0.023308 0.019710 -0.238343
v 0.013638 0.015823 -0.239102
v 0.009774 0.016215 -0.239405
v 0.013638 0.020373 -0.239102
v 0.023781 0.033244 -0.186402
v -0.006361 0.033951 -0.109479
v 0.053693 0.024649 -0.219326
v -0.053497 0.019373 0.183314
v -0.049701 0.024505 0.129340
v -0.028473 0.034595 0.127033
v -0.025604 0.029057 0.051099
v -0.031192 0.031389 0.103823
v -0.024967 0.028669 -0.086204
v 0.005827 0.017258 -0.239715
v 0.003658 0.018665 -0.239066
v 0.000450 0.021611 -0.229019
v -0.007485 0.025962 -0.200049
v 0.026241 0.018531 -0.238113
v 0.025631 0.018952 -0.238161
v 0.030631 0.025927 -0.229549
v 0.042467 0.025054 -0.226917
v 0.011627 0.020218 -0.239260
v 0.008150 0.016518 -0.239533
v 0.009774 0.019981 -0.239405
v 0.013059 0.020399 -0.238630
v 0.010651 0.033964 -0.186591
v 0.023690 0.032727 -0.198095
v 0.024589 0.032500 -0.201452
v 0.044556 0.027848 -0.221061
v -0.050742 0.023098 0.183314
v -0.040431 0.031243 0.127162
v -0.048499 0.024789 0.183314
v -0.013629 0.034005 -0.083485
v -0.021437 0.033337 0.085568
v -0.029515 0.031020 0.183314
v 0.006518 0.019223 -0.239624
v 0.005217 0.017672 -0.239763
v 0.005011 0.018098 -0.239779
v -0.015777 0.026933 -0.165967
v 0.008150 0.019679 -0.239533
v 0.023641 0.032738 -0.197914
v 0.020514 0.033051 -0.194787
v 0.017126 0.033279 -0.193879
v 0.024323 0.031959 -0.203913
v 0.024786 0.032327 -0.202186
v -0.003689 0.033283 -0.160618
v -0.017282 0.033531 0.050355
v -0.019922 0.031743 -0.084646
v 0.005217 0.018524 -0.239763
v -0.002261 0.026193 -0.209211
v -0.011044 0.030218 -0.166612
v 0.012937 0.025944 -0.226020
v 0.016243 0.033241 -0.193642
v 0.011971 0.032656 -0.194787
v 0.008844 0.031829 -0.197914
v 0.007699 0.030981 -0.202186
v 0.008056 0.030782 -0.203518
v 0.006983 0.030657 -0.203675
v 0.026797 0.027581 -0.221517
v 0.024168 0.031785 -0.204493
v 0.001429 0.032172 -0.189334
v -0.041472 0.028388 0.183314
v 0.009466 0.026591 -0.219035
v 0.008844 0.030027 -0.206457
v 0.011971 0.029396 -0.209584
v 0.016120 0.029401 -0.210696
v 0.016243 0.029404 -0.210729
v 0.020514 0.030107 -0.209584
v 0.023641 0.031221 -0.206457
v 0.079496 0.013395 0.142391
v 0.108678 0.018098 0.125006
v 0.114989 0.017478 0.149837
v 0.083227 0.013294 0.226318
v 0.072919 0.023470 0.146443
v 0.115465 0.018709 0.152763
v 0.119327 0.017483 0.228243
v 0.058002 0.011795 0.153976
v 0.085378 0.022805 0.226429
v 0.032651 0.009608 0.223567
v 0.031829 0.026488 0.164854
v 0.119015 0.018751 0.228245
v 0.029835 0.009436 0.165618
v 0.032218 0.026646 0.223543
v 0.013447 0.006864 0.171979
v 0.013445 0.029333 0.171974
v 0.013413 0.006809 0.222520
v 0.013413 0.029387 0.222520
v 0.005747 0.004432 0.172105
v 0.000639 0.033218 0.222064
v 0.000634 0.002977 0.222054
v 0.005746 0.031764 0.172107
v -0.001693 0.002409 0.164078
v -0.001046 0.033631 0.165222
v -0.013006 0.035401 0.221810
v -0.013006 0.000795 0.221810
v -0.012983 0.000530 0.154478
v -0.012965 0.035664 0.154508
v -0.026602 0.000151 0.221605
v -0.026602 0.036045 0.221605
v -0.023815 0.000107 0.149601
v -0.023813 0.036089 0.149632
v -0.052119 0.002247 0.221212
v -0.034912 0.000581 0.149570
v -0.038176 0.035453 0.150125
v -0.045833 0.001518 0.154404
v -0.052125 0.033948 0.221209
v -0.056712 0.002941 0.163090
v -0.078597 0.006817 0.220985
v -0.056712 0.033255 0.163090
v -0.078597 0.029379 0.220985
v -0.078597 0.006817 0.163090
v -0.078597 0.029379 0.163090
v -0.015999 0.029428 0.212192
v -0.018026 0.029752 0.224916
v -0.012172 0.025354 0.225108
v -0.008832 0.020964 0.212431
v -0.026091 0.032375 0.224652
v -0.018026 0.006444 0.224916
v -0.009241 0.019545 0.224979
v -0.033253 0.033196 0.211619
v -0.026091 0.003821 0.224652
v -0.010990 0.012089 0.225073
v -0.009379 0.014072 0.212410
v -0.035010 0.032805 0.224339
v -0.015999 0.006768 0.212192
v -0.043431 0.031044 0.224061
v -0.035009 0.003391 0.224339
v -0.033253 0.003000 0.211619
v -0.044120 0.031175 0.211211
v -0.043431 0.005152 0.224061
v -0.050294 0.027285 0.223832
v -0.051977 0.025637 0.211008
v -0.050294 0.008911 0.223832
v -0.044120 0.005021 0.211211
v -0.054962 0.020965 0.223482
v -0.054379 0.014055 0.223699
v -0.054554 0.019545 0.210919
v -0.052534 0.011159 0.210989
vt 0.707774 0.604522
vt 0.688200 0.631274
vt 0.674251 0.220531
vt 0.689834 0.228877
vt 0.707776 0.718825
vt 0.197328 0.684586
vt 0.141924 0.335681
vt 0.154918 0.275976
vt 0.691004 0.147135
vt 0.707953 0.234710
vt 0.194491 0.837188
vt 0.220570 0.770485
vt 0.729842 0.678109
vt 0.178131 0.728409
vt 0.134980 0.286550
vt 0.680555 0.115532
vt 0.704842 0.147205
vt 0.727479 0.604593
vt 0.220961 0.863438
vt 0.728692 0.724370
vt 0.126959 0.348212
vt 0.157073 0.170674
vt 0.709367 0.099459
vt 0.734949 0.702745
vt 0.736537 0.331991
vt 0.752724 0.335630
vt 0.716901 0.147625
vt 0.704018 0.811664
vt 0.207490 0.957855
vt 0.873808 0.678355
vt 0.868590 0.568601
vt 0.873808 0.446982
vt 0.747692 0.703839
vt 0.737139 0.776228
vt 0.747472 0.848057
vt 0.735035 0.822401
vt 0.446743 0.240662
vt 0.466812 0.313819
vt 0.483841 0.622234
vt 0.126797 0.168602
vt 0.149308 0.104980
vt 0.699690 0.047795
vt 0.799726 0.740199
vt 0.787250 0.743393
vt 0.777865 0.697432
vt 0.752671 0.245427
vt 0.740358 0.245586
vt 0.719863 0.842660
vt 0.887816 0.725257
vt 0.887816 0.847340
vt 0.884348 0.847240
vt 0.230266 0.954477
vt 0.387919 0.631118
vt 0.424585 0.529026
vt 0.424585 0.760751
vt 0.760535 0.704134
vt 0.760648 0.791051
vt 0.339607 0.785175
vt 0.339607 0.893594
vt 0.326862 0.868864
vt 0.402420 0.535212
vt 0.410613 0.453872
vt 0.498325 0.623398
vt 0.481685 0.801791
vt 0.176753 0.101494
vt 0.734949 0.000000
vt 0.799489 0.693746
vt 0.765084 0.334991
vt 0.812091 0.737964
vt 0.731757 0.842487
vt 0.711360 0.903372
vt 0.387327 0.760889
vt 0.760164 0.886330
vt 0.740318 0.940345
vt 0.487818 0.310107
vt 0.467935 0.231935
vt 0.129878 0.101238
vt 0.500093 0.813818
vt 0.160918 0.086327
vt 0.174522 0.066724
vt 0.213156 0.050995
vt 0.730529 0.051685
vt 0.781341 0.642931
vt 0.769572 0.245840
vt 0.309164 0.954567
vt 0.313909 0.911306
vt 0.325943 0.954567
vt 0.734949 0.902002
vt 0.724315 0.902587
vt 0.496347 0.131884
vt 0.470683 0.135013
vt 0.467719 0.005400
vt 0.490311 0.186709
vt 0.777403 0.702866
vt 0.777864 0.803033
vt 0.760358 0.949681
vt 0.488529 0.234954
vt 0.511973 0.625776
vt 0.137864 0.066630
vt 0.479727 0.868964
vt 0.143004 0.079382
vt 0.150136 0.085702
vt 0.174772 0.064970
vt 0.173432 0.061117
vt 0.230266 0.047527
vt 0.206325 0.103062
vt 0.799375 0.640221
vt 0.835585 0.737557
vt 0.818705 0.736352
vt 0.828374 0.693864
vt 0.777864 0.332109
vt 0.828252 0.641425
vt 0.812211 0.694241
vt 0.743513 0.999876
vt 0.492309 0.002576
vt 0.777303 0.942560
vt 0.505028 0.309965
vt 0.475051 0.903196
vt 0.500763 0.871716
vt 0.513124 0.811186
vt 0.139816 0.030348
vt 0.141119 0.059650
vt 0.211707 0.015530
vt 0.181001 0.000000
vt 0.174864 0.019664
vt 0.222684 0.028761
vt 0.419081 0.887785
vt 0.420146 0.954947
vt 0.406318 0.898219
vt 0.795469 0.574980
vt 0.812091 0.641256
vt 0.845070 0.695109
vt 0.562705 0.626650
vt 0.571524 0.710093
vt 0.554644 0.710933
vt 0.845070 0.642233
vt 0.759249 0.999893
vt 0.509886 0.000893
vt 0.515730 0.134113
vt 0.505859 0.234974
vt 0.596123 0.285057
vt 0.576087 0.284198
vt 0.600338 0.190494
vt 0.605488 0.057645
vt 0.582380 0.087142
vt 0.772579 1.000000
vt 0.528825 0.624015
vt 0.498761 0.913713
vt 0.526223 0.771720
vt 0.479732 0.939029
vt 0.155446 0.047641
vt 0.164443 0.049074
vt 0.427403 0.655778
vt 0.425553 0.617874
vt 0.433133 0.636618
vt 0.145277 0.013273
vt 0.391387 0.886703
vt 0.407251 0.875449
vt 0.812091 0.572126
vt 0.818368 0.572126
vt 0.568977 0.757335
vt 0.544065 0.631208
vt 0.834303 0.572809
vt 0.845070 0.688019
vt 0.867114 0.678355
vt 0.867114 0.734035
vt 0.513060 0.187017
vt 0.581335 0.176230
vt 0.594582 0.000000
vt 0.612432 0.002855
vt 0.973794 0.665501
vt 0.990713 0.664213
vt 0.991346 0.739189
vt 0.985226 0.351928
vt 0.515082 0.917897
vt 1.000000 0.103224
vt 0.996081 0.164352
vt 0.978626 0.153441
vt 0.984544 0.204210
vt 0.504626 0.959810
vt 0.443768 0.648774
vt 0.437212 0.586817
vt 0.424585 0.673090
vt 0.444417 0.675834
vt 0.528894 0.916068
vt 0.559345 0.923403
vt 0.538530 0.953585
vt 0.437931 0.687948
vt 0.420146 0.866078
vt 0.877568 0.941407
vt 0.889774 0.931852
vt 0.887654 0.954585
vt 0.553372 0.768898
vt 0.581610 0.809067
vt 0.541007 0.709471
vt 0.612432 0.870622
vt 0.593723 0.870858
vt 0.523847 0.087117
vt 0.987508 0.846718
vt 0.990955 0.787548
vt 1.000000 0.840898
vt 0.972637 0.785862
vt 0.558661 0.255494
vt 0.126797 0.013498
vt 0.118094 0.104307
vt 0.101925 0.009191
vt 0.117173 0.197220
vt 0.092800 0.130114
vt 0.972994 0.737975
vt 0.972608 0.345851
vt 0.528894 0.822510
vt 0.475993 0.955885
vt 0.441274 0.592261
vt 0.439320 0.589832
vt 0.435045 0.583331
vt 0.559345 0.903649
vt 0.431321 0.576670
vt 0.432921 0.579503
vt 0.849735 0.847340
vt 0.865809 0.852252
vt 0.863765 0.865377
vt 0.865809 0.953098
vt 0.528894 0.636231
vt 0.605239 0.887309
vt 0.520451 0.000000
vt 0.528894 0.128696
vt 0.971890 0.845635
vt 0.094742 0.282697
vt 0.110330 0.311152
vt 0.049189 0.690625
vt 0.660293 0.651222
vt 0.659111 0.721377
vt 0.637258 0.721695
vt 0.962984 0.648807
vt 0.509837 0.974744
vt 0.981803 0.057376
vt 0.968910 0.053591
vt 0.959724 0.166227
vt 0.538381 0.887309
vt 0.865809 0.892209
vt 0.849086 0.890417
vt 0.442994 0.594012
vt 0.875946 0.880088
vt 0.865972 0.881806
vt 0.865809 0.877939
vt 0.877302 0.876003
vt 0.865929 0.873593
vt 0.446402 0.493383
vt 0.446402 0.514982
vt 0.445421 0.504193
vt 0.878482 0.871509
vt 0.866350 0.868938
vt 0.866735 0.865443
vt 0.844173 0.864114
vt 0.873529 0.970285
vt 0.344256 0.893594
vt 0.344256 0.955005
vt 0.326862 0.920081
vt 0.572287 0.863901
vt 0.529449 0.737794
vt 0.441762 0.554782
vt 0.443789 0.576670
vt 0.424679 0.571750
vt 0.972454 0.890168
vt 0.990609 0.888026
vt 0.988899 0.974746
vt 0.663944 0.769144
vt 0.674251 0.830009
vt 0.654000 0.827102
vt 0.646538 0.772392
vt 0.037232 0.630729
vt 0.076026 0.238618
vt 0.873808 0.548630
vt 0.878883 0.446982
vt 0.878883 0.662479
vt 0.952576 0.736205
vt 0.960425 0.352047
vt 0.553235 0.887767
vt 0.974986 0.000000
vt 0.970588 0.015393
vt 0.861602 0.944862
vt 0.444417 0.595019
vt 0.873008 0.886442
vt 0.867048 0.887516
vt 0.866392 0.885040
vt 0.874490 0.883612
vt 0.445726 0.499524
vt 0.445322 0.508535
vt 0.880093 0.861984
vt 0.889774 0.971198
vt 0.542794 0.808714
vt 0.105156 0.916357
vt 0.126797 0.920682
vt 0.113677 0.938763
vt 0.050764 0.795915
vt 0.029584 0.679771
vt 0.424585 0.554469
vt 0.974580 0.975262
vt 0.660792 0.836083
vt 0.671470 0.872173
vt 0.051391 0.132052
vt 0.651270 0.636807
vt 0.632625 0.651882
vt 0.626306 0.770749
vt 0.655629 0.355417
vt 0.673977 0.356475
vt 0.446515 0.453872
vt 0.446515 0.469714
vt 0.443789 0.455709
vt 0.670513 0.025780
vt 0.664290 0.000000
vt 0.670887 0.009299
vt 0.674251 0.064382
vt 0.660710 0.025459
vt 0.674001 0.176860
vt 0.657276 0.095874
vt 0.831972 0.874024
vt 0.860526 0.945442
vt 0.862817 0.945002
vt 0.871563 0.888473
vt 0.867919 0.889140
vt 0.435532 0.465492
vt 0.442537 0.499642
vt 0.433106 0.468826
vt 0.430010 0.523730
vt 0.430809 0.471718
vt 0.437978 0.461839
vt 0.880485 0.857323
vt 0.868070 0.859436
vt 0.869281 0.854948
vt 0.446637 0.475891
vt 0.445913 0.473293
vt 0.446637 0.469714
vt 0.870645 0.850865
vt 0.880597 0.852974
vt 0.444877 0.518790
vt 0.443789 0.520032
vt 0.444900 0.509115
vt 0.831094 0.856210
vt 0.070035 0.865331
vt 0.042855 0.861465
vt 0.067284 0.900077
vt 0.102318 0.951858
vt 0.438850 0.537111
vt 0.667427 0.952675
vt 0.656038 0.952449
vt 0.634894 0.827807
vt 0.649557 0.951611
vt 0.021939 0.618024
vt 0.053929 0.229228
vt 0.064699 0.003519
vt 0.612432 0.725142
vt 0.446222 0.527796
vt 0.446222 0.535313
vt 0.443789 0.533162
vt 0.445201 0.493383
vt 0.445201 0.509115
vt 0.443789 0.494424
vt 0.445913 0.484319
vt 0.443789 0.472803
vt 0.445913 0.469714
vt 0.660487 0.175919
vt 0.835932 0.904565
vt 0.870206 0.889624
vt 0.868980 0.889851
vt 0.428740 0.474057
vt 0.426984 0.475754
vt 0.443789 0.453872
vt 0.444282 0.484319
vt 0.443789 0.493383
vt 0.880444 0.849110
vt 0.872091 0.847340
vt 0.444883 0.523468
vt 0.066369 0.891658
vt 0.060826 0.883471
vt 0.065936 0.905681
vt 0.067453 0.901837
vt 0.070665 0.967020
vt 0.020401 0.797585
vt 0.052521 0.311017
vt 0.038566 0.184612
vt 0.026037 0.128325
vt 0.642308 0.356533
vt 0.612449 0.646295
vt 0.446046 0.549756
vt 0.446046 0.555793
vt 0.443901 0.552555
vt 0.374406 0.744853
vt 0.371439 0.738193
vt 0.374406 0.735865
vt 0.444512 0.554989
vt 0.444959 0.535313
vt 0.444959 0.549756
vt 0.443789 0.535600
vt 0.424585 0.960008
vt 0.437696 0.940067
vt 0.427437 0.966042
vt 0.445451 0.521913
vt 0.446160 0.525783
vt 0.444955 0.525783
vt 0.651434 0.072378
vt 0.647510 0.172624
vt 0.880597 0.931852
vt 0.030654 0.982805
vt 0.034956 0.953278
vt 0.444900 0.527796
vt 0.445502 0.559758
vt 0.446046 0.571466
vt 0.445325 0.563617
vt 0.043029 0.880778
vt 0.035504 0.887021
vt 0.065288 0.947236
vt 0.022626 0.864991
vt 0.632788 0.948159
vt 0.008159 0.618931
vt 0.039432 0.000000
vt 0.444955 0.518615
vt 0.446402 0.521913
vt 0.443789 0.553899
vt 0.437696 0.976625
vt 0.008262 0.909956
vt 0.000000 0.887369
vt 0.029795 0.899731
vt 0.029860 0.936122
vt 0.007442 0.956649
vt 0.630785 0.115382
vt 0.857236 0.945442
vt 0.857236 0.977026
vt 0.831094 0.967255
vt 0.032753 0.906764
vt 0.046780 0.918975
vt 0.056093 0.917644
vt 0.002898 0.809295
vt 0.629006 0.079631
vt 0.433527 0.780448
vt 0.436329 0.781014
vt 0.436332 0.856093
vt 0.433527 0.856709
vt 0.424585 0.859131
vt 0.889837 0.916935
vt 0.880597 0.915266
vt 0.880597 0.849347
vt 0.878883 0.620347
vt 0.878883 0.539104
vt 0.888164 0.536665
vt 0.595070 0.889400
vt 0.595327 0.889391
vt 0.595072 0.956343
vt 0.878883 0.534923
vt 0.878883 0.448706
vt 0.888004 0.446982
vt 0.604402 0.887309
vt 0.604402 0.958435
vt 0.595327 0.956352
vt 0.433573 0.777149
vt 0.424585 0.777745
vt 0.424585 0.688069
vt 0.888166 0.622803
vt 0.888166 0.700524
vt 0.878883 0.697226
vt 0.442518 0.776258
vt 0.433573 0.688598
vt 0.340673 0.782283
vt 0.336085 0.700053
vt 0.340684 0.701478
vt 0.327253 0.698783
vt 0.327255 0.785147
vt 0.326862 0.698748
vt 0.919430 0.163745
vt 0.952576 0.234265
vt 0.899768 0.245427
vt 0.743110 0.161619
vt 0.369561 0.532311
vt 0.342440 0.550141
vt 0.356926 0.453872
vt 0.442658 0.862206
vt 0.445949 0.868946
vt 0.443949 0.926154
vt 0.734949 0.245427
vt 0.897645 0.112476
vt 0.373882 0.588698
vt 0.446743 0.023947
vt 0.400879 0.105489
vt 0.388508 0.008194
vt 0.445949 0.687954
vt 0.291233 0.532400
vt 0.265636 0.537374
vt 0.276909 0.453872
vt 0.754742 0.044816
vt 0.334438 0.653690
vt 0.233340 0.076874
vt 0.442518 0.687948
vt 0.280321 0.454592
vt 0.255715 0.654366
vt 0.876504 0.045667
vt 0.380333 0.658567
vt 0.361637 0.199727
vt 0.230266 0.000000
vt 0.301569 0.655367
vt 0.865023 0.006515
vt 0.238570 0.198802
vt 0.248182 0.698866
vt 0.759113 0.000000
vt 0.387327 0.698748
vt 0.346224 0.241634
vt 0.308946 0.698866
vt 0.863578 0.439059
vt 0.866142 0.555687
vt 0.846681 0.439992
vt 0.424588 0.932874
vt 0.424585 0.866336
vt 0.440684 0.859131
vt 0.240243 0.241698
vt 0.319256 0.728388
vt 0.838384 0.555687
vt 0.440684 0.940067
vt 0.345581 0.258974
vt 0.240618 0.270501
vt 0.237870 0.728401
vt 0.929034 0.255772
vt 0.807472 0.263383
vt 0.823985 0.245427
vt 0.777919 0.835877
vt 0.777865 0.755016
vt 0.798217 0.841408
vt 0.359730 0.274316
vt 0.325130 0.759896
vt 0.929040 0.287746
vt 0.800800 0.749072
vt 0.240782 0.301594
vt 0.231998 0.759896
vt 0.787761 0.290207
vt 0.831841 0.847340
vt 0.381854 0.301453
vt 0.230266 0.791285
vt 0.929040 0.319195
vt 0.831841 0.743393
vt 0.241047 0.332836
vt 0.326862 0.791285
vt 0.777865 0.315411
vt 0.884348 0.847340
vt 0.861828 0.839938
vt 0.884348 0.738889
vt 0.391956 0.326398
vt 0.235906 0.850197
vt 0.778094 0.340801
vt 0.845070 0.678355
vt 0.851281 0.572126
vt 0.868590 0.678355
vt 0.390921 0.359625
vt 0.928838 0.377315
vt 0.788503 0.365482
vt 0.321220 0.850212
vt 0.861828 0.847340
vt 0.838594 0.845949
vt 0.861828 0.740791
vt 0.831841 0.742692
vt 0.242002 0.392050
vt 0.806965 0.389795
vt 0.248205 0.911306
vt 0.806379 0.946171
vt 0.831094 0.847340
vt 0.831094 0.950813
vt 0.363918 0.402745
vt 0.928870 0.436959
vt 0.777865 0.939695
vt 0.783535 0.850149
vt 0.308923 0.911306
vt 0.242917 0.453872
vt 0.807380 0.439059
vt 0.345576 0.877575
vt 0.391387 0.866078
vt 0.391387 0.955848
vt 0.777865 0.571332
vt 0.777865 0.439059
vt 0.838384 0.439853
vt 0.364299 0.453872
vt 0.345576 0.944386
vt 0.838384 0.572126
vt 0.727032 0.975488
vt 0.701137 0.976701
vt 0.702477 0.957982
vt 0.727032 0.946007
vt 0.586490 0.887309
vt 0.559345 0.909242
vt 0.559650 0.891095
vt 0.355977 0.847705
vt 0.418583 0.843450
vt 0.368548 0.860403
vt 0.230266 0.924613
vt 0.256912 0.911306
vt 0.256623 0.928712
vt 0.586086 0.926456
vt 0.424585 0.824371
vt 0.347886 0.829584
vt 0.404331 0.860699
vt 0.230284 0.944974
vt 0.384528 0.866078
vt 0.559363 0.929743
vt 0.345576 0.809091
vt 0.371439 0.747176
vt 0.344600 0.723860
vt 0.371439 0.727543
vt 0.371426 0.704557
vt 0.256912 0.950653
vt 0.559622 0.949480
vt 0.424585 0.803721
vt 0.701137 0.906454
vt 0.701137 0.947188
vt 0.674251 0.924013
vt 0.344819 0.698748
vt 0.586490 0.951883
vt 0.418766 0.784620
vt 0.349215 0.789346
vt 0.674376 0.903372
vt 0.282328 0.911363
vt 0.256912 0.930120
vt 0.257534 0.911306
vt 0.358425 0.772831
vt 0.385150 0.698748
vt 0.385150 0.735865
vt 0.371439 0.710304
vt 0.282328 0.935647
vt 0.407779 0.769477
vt 0.304559 0.976647
vt 0.282328 0.976647
vt 0.301868 0.947080
vt 0.259394 0.951265
vt 0.309164 0.930684
vt 0.282328 0.913228
vt 0.309164 0.911306
vt 0.393433 0.760996
vt 0.728122 0.903372
vt 0.727564 0.920882
vt 0.701343 0.917057
vt 0.374794 0.760889
vt 0.282333 0.939537
vt 0.308945 0.947080
vt 0.701137 0.937569
vt 0.728122 0.946007
vt 0.173460 0.075126
vt 0.173514 0.074694
vt 0.167751 0.083233
vt 0.140102 0.066685
vt 0.139676 0.069857
vt 0.159161 0.087125
vt 0.155199 0.047753
vt 0.146904 0.051514
vt 0.172999 0.059830
vt 0.171506 0.055421
vt 0.066416 0.892089
vt 0.054093 0.880281
vt 0.031762 0.896519
vt 0.032088 0.899703
vt 0.052321 0.879462
vt 0.065418 0.906977
vt 0.038241 0.914989
vt 0.046534 0.918860
vt 0.063667 0.911366
vt 0.442518 0.853804
vt 0.442518 0.783192
vt 0.424585 0.777853
vt 0.889837 0.847340
vt 0.586490 0.956330
vt 0.586490 0.889415
vt 0.888004 0.536665
vt 0.426443 0.687948
vt 0.426443 0.777853
vt 0.878883 0.626100
vt 0.442518 0.689561
vt 0.344600 0.702992
vt 0.344600 0.780465
vt 0.339528 0.701008
vt 0.336085 0.784055
vt 0.339528 0.782837
vt 0.334501 0.699525
vt 0.326862 0.785175
vt 0.334501 0.784551
vn 0.498700 -0.866600 0.013900
vn 0.208300 -0.978000 0.011900
vn 0.206900 -0.978200 0.013000
vn 0.484300 -0.874100 0.036200
vn 0.453100 -0.890400 0.042700
vn 0.012900 -0.999700 -0.019600
vn 0.405300 -0.910500 0.081400
vn 0.786000 -0.615500 0.056800
vn -0.109500 -0.993300 0.037500
vn 0.846900 -0.529700 0.046900
vn -0.051300 -0.998700 -0.006800
vn 0.000000 -0.999800 -0.020800
vn 0.197100 -0.979000 0.052300
vn 0.621800 -0.769800 0.144000
vn 0.790700 -0.611700 0.025200
vn 0.374800 -0.925300 0.057500
vn 0.747700 -0.662300 0.047300
vn -0.231800 -0.972500 -0.021400
vn 0.505000 -0.835400 0.217100
vn 0.983500 -0.169300 0.063300
vn 0.824600 -0.530600 0.196100
vn 0.273800 -0.959100 0.071700
vn 0.139700 -0.988100 0.063700
vn 0.967300 -0.250000 0.042700
vn 0.960800 -0.268100 0.069600
vn -0.353600 -0.935200 -0.014400
vn -0.215000 -0.975500 -0.045800
vn -0.053500 -0.996200 -0.068000
vn 0.162400 -0.985000 0.056900
vn 0.960900 -0.122200 0.248300
vn 0.588800 -0.805100 0.071400
vn 0.376000 -0.923100 0.080500
vn -0.136800 -0.990600 -0.002100
vn 0.987300 0.153500 0.041000
vn 0.992800 0.111100 0.043700
vn 0.870700 -0.484500 0.084400
vn -0.315700 -0.946300 -0.069900
vn -0.427900 -0.903300 -0.032000
vn 0.165500 -0.985900 -0.023600
vn 0.818300 -0.437000 0.373400
vn 0.959200 0.274800 0.066100
vn -0.128700 -0.990200 0.054000
vn 0.977200 0.184900 0.104000
vn -0.638800 -0.768300 -0.039800
vn -0.272200 -0.950200 -0.151700
vn -0.460800 -0.881000 -0.107100
vn -0.154900 -0.697300 -0.699800
vn -0.629000 -0.732700 -0.259800
vn 0.518100 -0.793100 0.320200
vn 0.886500 0.407200 0.219600
vn 0.902600 0.149300 0.403600
vn 0.855200 -0.513900 0.067000
vn 0.565600 -0.820200 0.085900
vn -0.409500 -0.910800 -0.053100
vn -0.525200 -0.832300 -0.177200
vn 0.803700 0.594600 0.022900
vn 0.778200 0.625500 0.056400
vn 0.986100 0.144600 0.081000
vn -0.618600 -0.776100 -0.122200
vn -0.667500 -0.742900 -0.049900
vn -0.195600 -0.954100 -0.226500
vn 0.470700 -0.749900 -0.464900
vn 0.220600 -0.723300 -0.654300
vn -0.619500 -0.760500 -0.194500
vn -0.689100 -0.724300 0.020500
vn 0.378000 -0.922800 0.074900
vn 0.735200 -0.437000 0.518200
vn 0.773000 0.631700 0.057600
vn 0.809400 0.155100 0.566300
vn -0.340600 -0.939300 0.040400
vn 0.716700 0.692500 0.082500
vn -0.913700 -0.402400 -0.056000
vn -0.560400 -0.804900 -0.195100
vn -0.710000 -0.688400 -0.148600
vn -0.179500 -0.955500 -0.234000
vn 0.574300 -0.810300 0.116100
vn 0.217400 -0.899000 -0.380100
vn 0.064400 -0.888000 -0.455300
vn -0.091500 -0.967200 -0.236800
vn 0.293400 -0.928400 -0.228000
vn 0.685500 -0.703300 0.188400
vn 0.714300 0.630800 0.303100
vn 0.629400 0.762100 0.151900
vn 0.660500 0.593200 0.460200
vn 0.984800 0.166400 0.050100
vn -0.538100 -0.842600 0.019800
vn -0.674000 -0.720400 -0.163400
vn -0.891000 -0.414100 -0.185900
vn 0.497200 0.867500 0.011200
vn 0.389000 0.919300 0.059100
vn 0.714000 0.696700 0.069100
vn -0.913900 -0.402800 -0.049200
vn -0.424200 -0.871000 -0.247800
vn -0.903700 -0.410300 -0.122700
vn -0.090900 -0.842200 0.531400
vn -0.450900 -0.801600 0.392500
vn 0.276100 -0.730100 -0.625100
vn -0.141500 -0.952400 -0.270100
vn 0.649800 -0.722800 -0.235100
vn 0.946900 -0.171700 0.271800
vn 0.484300 0.874100 0.036200
vn 0.852700 0.464000 0.240000
vn -0.838600 -0.438800 -0.322900
vn 0.464200 0.883900 0.056500
vn 0.387800 0.918400 0.078700
vn -0.996200 0.062800 -0.059600
vn -0.800000 -0.531300 -0.278500
vn -0.944600 -0.244100 -0.219300
vn -0.434700 -0.847500 -0.304500
vn 0.490000 -0.421800 -0.762800
vn 0.129600 -0.413900 -0.901000
vn 0.622200 -0.522400 -0.583100
vn 0.005000 -0.555100 -0.831700
vn 0.951400 -0.155600 -0.265700
vn 0.424600 0.883300 0.198600
vn 0.405500 0.910300 0.082800
vn 0.487700 0.865100 0.116800
vn -0.864200 -0.503000 0.000100
vn -0.908100 -0.380400 -0.174600
vn -0.927000 0.153400 -0.342100
vn 0.208300 0.978000 0.011900
vn 0.105600 0.992200 0.066300
vn -0.115000 0.992600 0.037500
vn -0.963500 0.166900 -0.209100
vn -0.996200 0.000800 -0.086600
vn 0.183600 -0.355500 -0.916400
vn 0.151900 -0.390300 -0.908000
vn 0.107000 -0.435400 -0.893800
vn -0.152900 -0.714300 -0.682800
vn 0.077400 -0.450300 -0.889500
vn 0.206900 0.978200 0.013000
vn 0.759200 0.596000 -0.261500
vn -0.839500 -0.543200 -0.012700
vn -0.960100 0.172500 -0.220000
vn -0.702300 0.697700 -0.141500
vn -0.886000 0.463200 -0.022400
vn -0.758000 -0.301600 -0.578300
vn -0.921100 0.225500 -0.317200
vn -0.918100 0.360300 -0.165000
vn 0.558500 0.102900 -0.823100
vn 0.223100 -0.326300 -0.918500
vn 0.131300 0.414300 -0.900600
vn 0.107000 0.435400 -0.893800
vn -0.027800 -0.904200 -0.426200
vn 0.048900 0.500900 -0.864100
vn 0.770700 0.112700 -0.627200
vn 0.187900 0.980900 0.050900
vn 0.174100 0.984200 -0.030300
vn 0.295500 0.931800 -0.210900
vn -0.986400 0.163900 -0.009800
vn -0.691400 0.697800 -0.187200
vn -0.723400 0.641300 -0.255600
vn 0.012900 0.999700 -0.019600
vn -0.051300 0.998700 -0.006700
vn -0.914100 0.402400 -0.049200
vn -0.893200 0.235100 -0.383200
vn 0.343900 0.001300 -0.939000
vn 0.285200 -0.216500 -0.933700
vn 0.179200 0.358300 -0.916200
vn 0.152500 0.398500 -0.904400
vn -0.034700 -0.970600 -0.238000
vn -0.060400 -0.807300 -0.587100
vn 0.043600 0.687500 -0.724800
vn 0.161800 0.985200 0.056400
vn 0.000000 0.999800 -0.020800
vn 0.553000 0.626600 -0.549000
vn -0.981300 0.190700 -0.025500
vn -0.801900 0.594800 -0.055800
vn -0.133500 0.991000 0.002100
vn -0.617600 0.784900 -0.050200
vn -0.453300 0.880900 -0.136200
vn -0.668000 0.742500 -0.050400
vn 0.001900 -0.570500 -0.821300
vn -0.587700 0.326100 -0.740500
vn -0.453800 0.829300 -0.326000
vn -0.617900 0.753400 -0.224600
vn 0.285600 0.211900 -0.934600
vn 0.218000 0.305500 -0.926800
vn 0.077500 0.882100 -0.464700
vn 0.363700 0.621000 -0.694300
vn -0.031100 0.707200 -0.706300
vn -0.233900 -0.656800 -0.716800
vn -0.103300 0.810800 -0.576100
vn -0.092500 0.963200 -0.252400
vn -0.053500 0.996200 -0.068000
vn -0.629000 0.732600 -0.259800
vn 0.191100 0.917700 -0.348200
vn -0.716000 0.698100 -0.003300
vn -0.415200 0.907700 -0.060800
vn -0.538100 0.842600 0.021900
vn -0.231700 0.972500 -0.021400
vn -0.329400 0.941300 -0.073300
vn -0.128700 0.990100 0.055100
vn -0.016800 0.552500 -0.833300
vn -0.286100 -0.360600 -0.887700
vn -0.321700 -0.083200 -0.943100
vn -0.686400 0.713600 -0.139900
vn -0.278000 0.863900 -0.420000
vn -0.514000 0.776500 -0.364500
vn -0.268000 0.764400 -0.586400
vn -0.689400 0.724100 0.020700
vn -0.619500 0.760500 -0.194500
vn -0.215000 0.975500 -0.045800
vn -0.353600 0.935200 -0.014400
vn -0.427900 0.903300 -0.032100
vn -0.153700 0.316400 -0.936100
vn -0.382800 0.891000 -0.243900
vn -0.461200 0.880500 -0.109500
vn -0.146500 0.950600 -0.273700
vn 0.220700 0.723300 -0.654300
vn 0.470700 0.749900 -0.464800
vn -0.091100 0.967300 -0.236700
vn -0.283300 0.947500 -0.148100
vn -0.340600 0.939300 0.041400
vn -0.197500 0.953600 -0.227000
vn -0.179400 0.955500 -0.234000
vn 0.574400 0.810300 0.116000
vn -0.090700 0.842200 0.531400
vn -0.450900 0.801600 0.392500
vn 0.601100 -0.783900 -0.155400
vn 0.662700 -0.748500 0.023400
vn 0.662700 0.748500 0.023400
vn 0.601100 0.783900 -0.155300
vn 0.323600 -0.848200 0.419200
vn 0.323800 0.848200 0.419100
vn 0.145200 -0.794800 0.589300
vn 0.145500 0.794800 0.589200
vn -0.072800 0.707800 -0.702600
vn -0.268000 -0.764400 -0.586400
vn -0.072800 -0.707800 -0.702600
vn -0.651400 -0.751400 0.105500
vn -0.651400 0.751300 0.105500
vn -0.514100 -0.776500 -0.364500
vn -0.750100 -0.661200 0.003100
vn -0.749800 0.661500 0.003200
vn -0.646500 0.729900 -0.222000
vn -0.646500 -0.729900 -0.222000
vn -0.282600 -0.722100 -0.631400
vn 0.504200 0.004500 -0.863600
vn 0.787400 -0.591000 -0.175100
vn 0.030200 -0.712100 0.701400
vn -0.256100 0.739200 -0.622900
vn 0.817600 0.570700 -0.076100
vn 0.674600 -0.465400 0.572900
vn -0.237100 -0.736400 -0.633600
vn 0.032200 0.712700 0.700700
vn 0.037100 -0.697800 0.715300
vn -0.198800 0.711300 -0.674200
vn 0.526600 0.594500 0.607700
vn -0.189700 -0.711100 -0.677000
vn 0.036600 0.697600 0.715500
vn 0.046000 -0.725700 -0.686400
vn 0.045000 0.725500 -0.686700
vn 0.117500 -0.679000 0.724600
vn 0.117800 0.679000 0.724600
vn 0.462600 -0.742900 -0.483900
vn 0.144700 0.706000 0.693200
vn 0.144900 -0.706200 0.693000
vn 0.458000 0.740700 -0.491500
vn 0.586900 -0.647200 -0.486400
vn 0.583700 0.657900 -0.475800
vn 0.063100 0.715100 0.696100
vn 0.063000 -0.715000 0.696300
vn 0.427800 -0.672900 -0.603500
vn 0.433900 0.671700 -0.600400
vn -0.022800 -0.719700 0.693900
vn -0.022400 0.719500 0.694100
vn 0.152000 -0.672400 -0.724400
vn 0.141000 0.671300 -0.727600
vn -0.099000 -0.710500 0.696600
vn -0.181400 -0.665800 -0.723700
vn -0.270200 0.651300 -0.709000
vn -0.434600 -0.665000 -0.607300
vn -0.099400 0.710300 0.696800
vn -0.328300 -0.767300 -0.550900
vn -0.621900 -0.521300 0.584300
vn -0.310400 0.766100 -0.562800
vn -0.621900 0.521300 0.584300
vn -0.620300 -0.520100 -0.587100
vn -0.620300 0.520100 -0.587100
vn 0.518500 0.855000 -0.007500
vn 0.305200 0.651300 0.694700
vn 0.551200 0.472800 0.687400
vn 0.954900 0.296500 0.015900
vn 0.115300 0.724800 0.679300
vn 0.317000 -0.647700 0.692800
vn 0.756400 0.089200 0.648000
vn -0.009200 0.999900 -0.005100
vn 0.115300 -0.724800 0.679300
vn 0.623700 -0.403800 0.669200
vn 0.921300 -0.388300 0.021200
vn -0.086800 0.723600 0.684700
vn 0.508000 -0.861300 0.000900
vn -0.265400 0.684300 0.679200
vn -0.086800 -0.723600 0.684700
vn -0.009200 -0.999900 -0.005100
vn -0.379400 0.925200 0.005700
vn -0.265400 -0.684300 0.679200
vn -0.506500 0.555000 0.659800
vn -0.771500 0.635100 -0.036000
vn -0.494700 -0.563500 0.661600
vn -0.384500 -0.923100 0.002500
vn -0.783100 0.206600 0.586600
vn -0.729600 -0.267100 0.629500
vn -0.993700 0.084400 -0.073700
vn -0.823600 -0.564900 -0.051300
vn -0.154900 0.697400 -0.699700
usemtl Material.001
s 1
f 1/1/1 2/2/2 3/3/3
f 4/4/4 1/1/1 3/3/3
f 2/2/2 1/1/1 5/5/5
f 2/6/2 6/7/6 3/8/3
f 7/9/7 4/4/4 3/3/3
f 1/1/1 4/4/4 8/10/8
f 9/11/9 2/6/2 5/12/5
f 1/1/1 10/13/10 5/5/5
f 11/14/11 6/7/6 2/6/2
f 6/7/6 12/15/12 3/8/3
f 7/9/7 3/3/3 13/16/13
f 14/17/14 4/4/4 7/9/7
f 15/18/15 1/1/1 8/10/8
f 8/10/8 4/4/4 14/17/14
f 16/19/16 9/11/9 5/12/5
f 11/14/11 2/6/2 9/11/9
f 1/1/1 15/18/15 10/13/10
f 10/13/10 17/20/17 5/5/5
f 11/14/11 18/21/18 6/7/6
f 6/7/6 18/21/18 12/15/12
f 13/22/13 3/8/3 12/15/12
f 19/23/19 7/9/7 13/16/13
f 14/17/14 7/9/7 19/23/19
f 15/24/15 8/25/8 20/26/20
f 21/27/21 8/10/8 14/17/14
f 16/28/16 5/5/5 17/20/17
f 9/11/9 16/19/16 22/29/22
f 11/30/11 9/31/9 23/32/23
f 15/24/15 24/33/24 10/34/10
f 10/34/10 25/35/25 17/36/17
f 11/37/11 26/38/26 18/39/18
f 12/15/12 18/21/18 27/40/27
f 13/22/13 12/15/12 28/41/28
f 19/23/19 13/16/13 29/42/29
f 21/43/21 14/44/14 19/45/19
f 24/33/24 15/24/15 20/26/20
f 30/46/30 20/26/20 8/25/8
f 21/47/21 30/46/30 8/25/8
f 31/48/31 16/28/16 17/20/17
f 9/49/9 22/50/22 23/51/23
f 16/19/16 32/52/32 22/29/22
f 33/53/33 11/54/11 23/55/23
f 10/34/10 24/33/24 34/56/34
f 10/34/10 35/57/35 25/35/25
f 36/58/36 17/59/17 25/60/25
f 37/61/37 26/62/26 11/54/11
f 26/38/26 38/63/38 18/39/18
f 12/15/12 27/40/27 28/41/28
f 27/64/27 18/39/18 38/63/38
f 29/65/29 13/22/13 28/41/28
f 39/66/39 19/23/19 29/42/29
f 40/67/40 21/43/21 19/45/19
f 34/56/34 24/33/24 20/26/20
f 41/68/41 20/26/20 30/46/30
f 30/69/30 21/43/21 40/67/40
f 31/48/31 17/20/17 36/70/36
f 16/28/16 31/48/31 32/71/32
f 42/72/42 33/53/33 23/55/23
f 37/61/37 11/54/11 33/53/33
f 35/57/35 10/34/10 34/56/34
f 25/35/25 35/57/35 43/73/43
f 36/74/36 25/35/25 43/73/43
f 44/75/44 26/38/26 37/76/37
f 26/38/26 44/75/44 38/63/38
f 28/41/28 27/40/27 45/77/45
f 38/63/38 46/78/46 27/64/27
f 29/65/29 28/41/28 47/79/47
f 51/80/48 39/81/39 29/65/29
f 52/82/49 19/23/19 39/66/39
f 40/67/40 19/45/19 52/83/49
f 20/26/20 41/68/41 34/56/34
f 53/84/50 41/68/41 30/46/30
f 54/85/51 30/86/30 40/87/40
f 31/48/31 36/70/36 55/88/52
f 31/48/31 56/89/53 32/71/32
f 57/90/54 33/91/33 42/92/42
f 58/93/55 37/76/37 33/91/33
f 34/56/34 59/94/56 35/57/35
f 35/57/35 60/95/57 43/73/43
f 61/96/58 36/74/36 43/73/43
f 62/97/59 44/75/44 37/76/37
f 44/75/44 63/98/60 38/63/38
f 28/41/28 45/77/45 64/99/61
f 27/64/27 46/78/46 45/100/45
f 38/63/38 63/98/60 46/78/46
f 28/41/28 67/101/62 68/102/63
f 39/81/39 70/103/64 71/104/65
f 73/105/66 52/106/49 39/81/39
f 74/107/67 40/67/40 52/83/49
f 34/56/34 41/68/41 59/94/56
f 53/108/50 30/109/30 54/110/51
f 75/111/68 41/68/41 53/84/50
f 76/112/69 54/110/51 40/113/40
f 56/89/53 31/48/31 55/88/52
f 36/74/36 61/96/58 55/114/52
f 77/115/70 57/90/54 42/92/42
f 57/90/54 58/93/55 33/91/33
f 62/97/59 37/76/37 58/93/55
f 59/94/56 60/95/57 35/57/35
f 60/95/57 78/116/71 43/73/43
f 43/73/43 78/116/71 61/96/58
f 79/117/72 44/75/44 62/97/59
f 44/75/44 79/117/72 63/98/60
f 64/118/61 45/100/45 80/119/73
f 45/100/45 46/78/46 80/119/73
f 63/98/60 81/120/74 46/78/46
f 64/99/61 82/121/75 85/122/76
f 86/123/77 39/81/39 72/124/78
f 88/125/79 72/124/78 71/104/65
f 73/105/66 39/81/39 89/126/80
f 90/127/81 52/128/49 73/129/66
f 74/107/67 52/83/49 90/130/81
f 74/131/67 76/112/69 40/113/40
f 41/68/41 75/111/68 59/94/56
f 53/108/50 54/110/51 91/132/82
f 75/133/68 53/134/50 92/135/83
f 54/110/51 76/112/69 93/136/84
f 61/96/58 94/137/85 55/114/52
f 57/90/54 77/115/70 95/138/86
f 96/139/87 58/93/55 57/90/54
f 97/140/88 62/97/59 58/93/55
f 59/141/56 98/142/89 60/143/57
f 78/144/71 60/143/57 99/145/90
f 61/96/58 78/116/71 100/146/91
f 97/140/88 79/117/72 62/97/59
f 79/117/72 101/147/92 63/98/60
f 102/148/93 64/118/61 80/119/73
f 46/78/46 81/120/74 80/119/73
f 81/120/74 63/98/60 103/149/94
f 82/150/75 64/118/61 102/148/93
f 106/151/95 88/125/79 105/152/96
f 86/153/77 72/154/78 107/155/97
f 39/81/39 86/123/77 89/126/80
f 88/125/79 108/156/98 72/124/78
f 73/129/66 89/157/80 109/158/99
f 90/127/81 73/129/66 109/158/99
f 110/159/100 74/107/67 90/130/81
f 76/112/69 74/131/67 110/160/100
f 59/141/56 75/133/68 98/142/89
f 92/135/83 53/134/50 91/161/82
f 91/132/82 54/110/51 93/136/84
f 111/162/101 75/133/68 92/135/83
f 93/136/84 76/112/69 112/163/102
f 94/137/85 61/96/58 100/146/91
f 96/139/87 57/90/54 95/138/86
f 113/164/103 58/165/55 96/166/87
f 113/167/103 97/140/88 58/93/55
f 60/143/57 98/142/89 114/168/104
f 78/144/71 99/145/90 115/169/105
f 60/143/57 114/168/104 99/145/90
f 100/170/91 78/144/71 115/169/105
f 116/171/106 79/172/72 97/173/88
f 79/172/72 116/171/106 101/174/92
f 63/98/60 101/147/92 103/149/94
f 102/148/93 80/119/73 117/175/107
f 80/176/73 81/177/74 118/178/108
f 103/179/94 118/178/108 81/177/74
f 82/150/75 102/148/93 119/180/109
f 88/125/79 82/121/75 108/156/98
f 86/153/77 107/155/97 120/181/110
f 107/155/97 72/154/78 121/182/111
f 89/183/80 86/153/77 122/184/112
f 108/185/98 123/186/113 72/187/78
f 109/188/99 89/183/80 122/184/112
f 90/127/81 109/158/99 124/189/114
f 110/190/100 90/191/81 124/192/114
f 76/112/69 110/160/100 112/163/102
f 75/133/68 111/162/101 98/142/89
f 92/135/83 91/161/82 125/193/115
f 91/161/82 93/194/84 125/193/115
f 111/162/101 92/135/83 126/195/116
f 93/194/84 112/196/102 127/197/117
f 128/198/118 96/139/87 95/138/86
f 129/199/119 113/200/103 96/201/87
f 113/200/103 130/202/120 97/173/88
f 98/142/89 131/203/121 114/168/104
f 115/204/105 99/205/90 132/206/122
f 99/205/90 114/207/104 133/208/123
f 134/209/124 116/171/106 97/173/88
f 116/171/106 135/210/125 101/174/92
f 103/179/94 101/174/92 135/210/125
f 102/148/93 117/175/107 119/180/109
f 117/175/107 80/119/73 118/211/108
f 135/210/125 118/178/108 103/179/94
f 108/212/98 82/150/75 119/180/109
f 122/184/112 86/153/77 120/181/110
f 120/181/110 107/155/97 136/213/126
f 107/155/97 121/182/111 137/214/127
f 72/154/78 138/215/128 121/182/111
f 108/185/98 139/216/129 123/186/113
f 72/154/78 123/217/113 140/218/130
f 124/219/114 109/220/99 122/221/112
f 112/222/102 110/190/100 124/192/114
f 98/142/89 111/162/101 141/223/131
f 126/195/116 92/135/83 125/193/115
f 125/193/115 93/194/84 127/197/117
f 111/162/101 126/195/116 141/223/131
f 127/197/117 112/196/102 142/224/132
f 143/225/133 128/198/118 95/138/86
f 129/226/119 96/139/87 128/198/118
f 129/199/119 144/227/134 113/200/103
f 144/227/134 130/202/120 113/200/103
f 130/202/120 134/209/124 97/173/88
f 131/228/121 98/229/89 141/230/131
f 114/207/104 131/228/121 133/208/123
f 99/205/90 133/208/123 132/206/122
f 116/231/106 134/232/124 145/233/135
f 116/171/106 146/234/136 135/210/125
f 119/180/109 117/175/107 147/235/137
f 117/236/107 118/178/108 148/237/138
f 118/178/108 135/210/125 149/238/139
f 108/185/98 119/239/109 139/216/129
f 122/221/112 120/240/110 150/241/140
f 120/181/110 136/213/126 151/242/141
f 107/155/97 137/214/127 136/213/126
f 152/243/142 137/244/127 121/245/111
f 72/154/78 140/218/130 138/215/128
f 153/246/143 121/245/111 138/247/128
f 123/248/113 139/249/129 154/250/144
f 155/251/145 140/252/130 123/253/113
f 124/219/114 122/221/112 156/254/146
f 142/255/132 112/222/102 124/192/114
f 126/256/116 125/257/115 157/258/147
f 125/193/115 127/197/117 158/259/148
f 141/223/131 126/195/116 157/260/147
f 159/261/149 127/262/117 142/263/132
f 160/264/150 128/265/118 143/266/133
f 129/199/119 128/265/118 160/264/150
f 144/227/134 129/199/119 160/264/150
f 130/267/120 144/268/134 161/269/151
f 134/232/124 130/267/120 162/270/152
f 163/271/153 131/228/121 141/230/131
f 131/228/121 164/272/154 133/208/123
f 133/273/123 164/274/154 132/275/122
f 146/234/136 116/171/106 145/276/135
f 145/233/135 134/232/124 162/270/152
f 146/234/136 165/277/155 135/210/125
f 119/239/109 147/278/137 139/216/129
f 147/279/137 117/236/107 166/280/156
f 117/236/107 148/237/138 166/280/156
f 118/178/108 149/238/139 148/237/138
f 165/277/155 149/238/139 135/210/125
f 156/254/146 122/221/112 150/241/140
f 150/241/140 120/240/110 167/281/157
f 120/181/110 151/242/141 168/282/158
f 169/283/159 151/284/141 136/285/126
f 170/286/160 136/285/126 137/244/127
f 121/245/111 153/246/143 152/243/142
f 137/244/127 152/243/142 170/286/160
f 138/247/128 140/252/130 155/251/145
f 138/247/128 155/251/145 153/246/143
f 171/287/161 123/248/113 154/250/144
f 139/249/129 172/288/162 154/250/144
f 173/289/163 155/251/145 123/253/113
f 142/255/132 124/192/114 156/290/146
f 157/260/147 125/193/115 174/291/164
f 125/193/115 158/259/148 174/291/164
f 158/292/148 127/293/117 159/294/149
f 141/230/131 157/295/147 175/296/165
f 159/261/149 142/263/132 176/297/166
f 177/298/167 160/264/150 143/266/133
f 178/299/168 144/268/134 160/300/150
f 162/270/152 130/267/120 161/269/151
f 161/269/151 144/268/134 178/299/168
f 175/296/165 163/271/153 141/230/131
f 131/228/121 163/271/153 164/272/154
f 164/272/154 179/301/169 132/206/122
f 146/302/136 145/233/135 180/303/170
f 145/233/135 162/270/152 181/304/171
f 182/305/172 165/306/155 146/302/136
f 139/307/129 147/308/137 183/309/173
f 166/310/156 184/311/174 147/312/137
f 166/310/156 148/313/138 185/314/175
f 149/315/139 186/316/176 148/313/138
f 165/306/155 182/305/172 149/315/139
f 176/317/166 156/254/146 150/241/140
f 187/318/177 150/241/140 167/281/157
f 120/240/110 168/319/158 167/281/157
f 188/320/178 168/321/158 151/284/141
f 136/285/126 170/286/160 169/283/159
f 151/284/141 169/283/159 188/320/178
f 153/322/143 189/323/179 152/324/142
f 152/324/142 190/325/180 170/326/160
f 155/327/145 189/323/179 153/322/143
f 191/328/181 171/329/161 154/330/144
f 173/289/163 123/253/113 171/329/161
f 139/331/129 192/332/182 172/333/162
f 154/330/144 172/334/162 193/335/183
f 173/336/163 194/337/184 155/338/145
f 176/317/166 142/339/132 156/254/146
f 157/295/147 174/340/164 195/341/185
f 174/340/164 158/292/148 197/342/186
f 198/343/187 158/292/148 159/294/149
f 175/296/165 157/295/147 195/341/185
f 198/344/187 159/261/149 176/297/166
f 160/300/150 177/345/167 199/346/188
f 178/299/168 160/300/150 199/346/188
f 162/270/152 161/269/151 200/347/189
f 161/269/151 178/299/168 201/348/190
f 202/349/191 163/271/153 175/296/165
f 163/271/153 202/349/191 164/272/154
f 164/272/154 203/350/192 179/301/169
f 179/301/169 204/351/193 132/206/122
f 180/303/170 182/305/172 146/302/136
f 180/303/170 145/233/135 203/352/192
f 203/352/192 145/233/135 181/304/171
f 181/304/171 162/270/152 200/347/189
f 205/353/194 139/354/129 183/355/173
f 183/356/173 147/357/137 206/358/195
f 166/310/156 185/314/175 184/311/174
f 147/359/137 184/360/174 207/361/196
f 148/313/138 186/316/176 185/314/175
f 149/315/139 208/362/197 186/316/176
f 182/305/172 208/362/197 149/315/139
f 190/363/180 176/317/166 150/241/140
f 168/321/158 187/364/177 167/365/157
f 190/363/180 150/241/140 187/318/177
f 188/320/178 187/364/177 168/321/158
f 170/326/160 190/325/180 169/366/159
f 169/366/159 190/325/180 188/367/178
f 189/323/179 190/325/180 152/324/142
f 194/368/184 189/323/179 155/327/145
f 154/330/144 193/335/183 191/328/181
f 171/329/161 191/328/181 173/289/163
f 209/369/198 192/248/182 139/370/129
f 209/371/198 172/334/162 192/372/182
f 193/335/183 172/334/162 209/371/198
f 191/373/181 194/337/184 173/336/163
f 174/340/164 210/374/199 211/375/200
f 213/376/201 214/377/202 158/292/148
f 198/343/187 189/378/179 158/292/148
f 215/379/203 175/296/165 195/341/185
f 198/344/187 176/297/166 190/325/180
f 178/299/168 199/346/188 201/348/190
f 200/347/189 161/269/151 201/348/190
f 202/349/191 175/296/165 215/379/203
f 164/272/154 202/349/191 216/380/204
f 216/380/204 203/350/192 164/272/154
f 203/350/192 181/381/171 179/301/169
f 179/301/169 200/382/189 204/351/193
f 217/383/205 182/305/172 180/303/170
f 216/384/204 180/303/170 203/352/192
f 181/381/171 200/382/189 179/301/169
f 205/385/194 183/386/173 218/387/206
f 139/388/129 205/389/194 209/390/198
f 183/386/173 206/391/195 218/387/206
f 206/392/195 147/393/137 207/394/196
f 184/395/174 185/396/175 205/397/194
f 184/398/174 218/399/206 207/400/196
f 186/316/176 219/401/207 185/314/175
f 208/362/197 220/402/208 186/316/176
f 208/362/197 182/305/172 220/402/208
f 188/320/178 190/403/180 187/364/177
f 189/323/179 198/344/187 190/325/180
f 194/404/184 221/405/209 189/378/179
f 193/406/183 194/337/184 191/373/181
f 209/407/198 194/408/184 193/409/183
f 195/341/185 223/410/210 224/411/211
f 213/376/201 189/378/179 228/412/212
f 215/379/203 195/341/185 230/413/213
f 231/414/214 200/347/189 201/348/190
f 202/349/191 215/379/203 217/415/205
f 202/349/191 217/415/205 216/380/204
f 200/382/189 231/416/214 204/351/193
f 216/384/204 217/383/205 180/303/170
f 182/305/172 217/383/205 220/402/208
f 218/417/206 184/249/174 205/418/194
f 194/408/184 209/407/198 205/386/194
f 218/387/206 206/391/195 207/419/196
f 205/397/194 185/396/175 194/420/184
f 219/421/207 186/422/176 227/423/215
f 219/421/207 232/424/216 185/425/175
f 220/402/208 230/426/213 186/316/176
f 185/427/175 221/428/209 194/429/184
f 221/405/209 228/412/212 189/378/179
f 230/413/213 195/341/185 227/423/215
f 227/423/215 233/430/217 232/424/216
f 236/431/218 237/432/219 228/412/212
f 220/433/208 215/379/203 230/413/213
f 220/433/208 217/415/205 215/379/203
f 227/423/215 232/424/216 219/421/207
f 186/316/176 230/426/213 227/434/215
f 232/424/216 221/405/209 185/425/175
f 232/424/216 228/412/212 221/405/209
f 66/435/220 65/436/221 226/437/222
f 66/435/220 225/438/223 224/439/211
f 85/440/76 84/441/224 234/442/225
f 67/443/62 224/444/211 223/445/210
f 83/446/226 106/447/95 235/448/227
f 68/449/63 223/450/210 222/451/228
f 105/452/96 237/453/219 236/454/218
f 48/455/229 69/456/230 222/457/228
f 104/458/231 238/459/232 237/460/219
f 49/461/233 48/455/229 211/462/200
f 87/463/234 214/464/202 229/465/235
f 196/466/236 50/467/237 210/468/199
f 239/469/238 240/470/239 241/471/240
f 242/472/241 239/469/238 241/471/240
f 239/473/238 243/474/242 240/475/239
f 244/476/243 241/477/240 240/478/239
f 245/479/244 242/472/241 241/471/240
f 246/480/245 239/469/238 242/472/241
f 246/481/245 243/474/242 239/473/238
f 240/482/239 243/483/242 244/484/243
f 245/485/244 241/477/240 244/476/243
f 247/486/246 242/487/241 245/488/244
f 248/489/247 246/480/245 242/472/241
f 246/481/245 249/490/248 243/474/242
f 243/483/242 247/491/246 244/484/243
f 250/492/249 245/485/244 244/476/243
f 250/493/249 247/486/246 245/488/244
f 248/494/247 242/487/241 247/486/246
f 251/495/250 246/480/245 248/489/247
f 251/496/250 249/490/248 246/481/245
f 243/483/242 249/497/248 247/491/246
f 244/484/243 247/491/246 250/498/249
f 247/486/246 252/499/251 248/494/247
f 253/500/252 251/495/250 248/489/247
f 254/468/253 249/490/248 251/496/250
f 249/497/248 252/501/251 247/491/246
f 248/494/247 252/499/251 255/502/254
f 255/503/254 253/500/252 248/489/247
f 253/504/252 254/468/253 251/496/250
f 249/497/248 254/505/253 252/501/251
f 252/499/251 256/506/255 255/502/254
f 253/507/252 255/508/254 257/509/256
f 254/510/253 253/511/252 257/512/256
f 254/505/253 256/513/255 252/501/251
f 256/506/255 258/514/257 255/502/254
f 255/508/254 259/515/258 257/509/256
f 260/516/259 254/510/253 257/512/256
f 254/505/253 260/517/259 256/513/255
f 260/517/259 258/518/257 256/513/255
f 258/514/257 259/519/258 255/502/254
f 259/520/258 261/521/260 257/522/256
f 260/523/259 257/524/256 262/525/261
f 262/526/261 258/518/257 260/517/259
f 258/514/257 263/527/262 259/519/258
f 259/520/258 264/528/263 261/521/260
f 257/524/256 261/529/260 262/525/261
f 263/530/262 258/518/257 262/526/261
f 263/527/262 264/531/263 259/519/258
f 264/528/263 265/532/264 261/521/260
f 266/533/265 262/525/261 261/529/260
f 266/534/265 263/530/262 262/526/261
f 264/531/263 263/527/262 267/535/266
f 264/528/263 267/536/266 265/532/264
f 265/537/264 266/533/265 261/529/260
f 268/538/267 263/530/262 266/534/265
f 263/527/262 268/539/267 267/535/266
f 267/536/266 269/540/268 265/532/264
f 270/541/269 266/542/265 265/543/264
f 270/544/269 268/538/267 266/534/265
f 267/535/266 268/539/267 271/545/270
f 267/536/266 272/546/271 269/540/268
f 269/547/268 270/548/269 265/549/264
f 273/550/272 268/538/267 270/544/269
f 271/551/270 274/552/273 267/536/266
f 268/539/267 275/553/274 271/545/270
f 274/552/273 272/546/271 267/536/266
f 269/554/268 272/555/271 270/556/269
f 272/555/271 273/557/272 270/556/269
f 273/550/272 275/558/274 268/538/267
f 276/559/275 274/552/273 271/551/270
f 277/560/276 271/545/270 275/553/274
f 274/561/273 273/562/272 272/563/271
f 273/550/272 278/564/277 275/558/274
f 271/551/270 277/565/276 276/559/275
f 276/566/275 278/567/277 274/561/273
f 279/568/278 277/560/276 275/553/274
f 278/567/277 273/562/272 274/561/273
f 279/569/278 275/558/274 278/564/277
f 277/565/276 280/570/279 276/559/275
f 281/571/280 278/572/277 276/573/275
f 280/574/279 277/575/276 279/576/278
f 281/577/280 279/569/278 278/564/277
f 280/578/279 281/571/280 276/573/275
f 281/579/280 280/574/279 279/576/278
f 282/580/281 283/581/282 284/582/283
f 285/583/284 282/580/281 284/582/283
f 282/584/281 286/585/285 283/586/282
f 283/587/282 287/588/286 284/589/283
f 285/590/284 284/591/283 288/592/287
f 282/584/281 289/593/288 286/585/285
f 290/594/289 283/587/282 286/595/285
f 290/594/289 287/588/286 283/587/282
f 284/589/283 287/588/286 291/596/290
f 292/597/291 285/590/284 288/592/287
f 291/596/290 288/598/287 284/589/283
f 289/593/288 293/599/292 286/585/285
f 290/594/289 286/595/285 293/600/292
f 290/601/289 294/602/293 287/603/286
f 287/603/286 294/602/293 291/604/290
f 291/605/290 292/597/291 288/592/287
f 289/593/288 295/606/294 293/599/292
f 293/600/292 296/607/295 290/594/289
f 297/608/296 294/609/293 290/610/289
f 294/602/293 292/611/291 291/604/290
f 289/593/288 298/612/297 295/606/294
f 299/613/298 293/600/292 295/614/294
f 293/600/292 299/613/298 296/607/295
f 296/615/295 297/608/296 290/610/289
f 298/616/297 300/617/299 295/618/294
f 295/614/294 300/619/299 299/613/298
f 299/620/298 297/621/296 296/622/295
f 298/616/297 301/623/300 300/617/299
f 299/613/298 300/619/299 302/624/301
f 303/625/302 297/626/296 299/627/298
f 301/623/300 304/628/303 300/617/299
f 302/629/301 303/630/302 299/631/298
f 300/619/299 305/632/304 302/624/301
f 301/633/300 306/634/305 304/635/303
f 305/632/304 300/619/299 304/636/303
f 307/637/306 303/630/302 302/629/301
f 305/638/304 307/637/306 302/629/301
f 304/635/303 306/634/305 305/639/304
f 306/634/305 307/640/306 305/639/304
f 49/641/233 50/642/237 29/65/29
f 29/65/29 47/79/47 48/643/229
f 48/643/229 49/641/233 29/65/29
f 50/642/237 51/80/48 29/65/29
f 64/99/61 65/644/221 66/645/220
f 69/646/230 47/79/47 28/41/28
f 64/99/61 66/645/220 67/101/62
f 68/102/63 69/646/230 28/41/28
f 28/41/28 64/99/61 67/101/62
f 71/104/65 72/124/78 39/81/39
f 39/81/39 51/80/48 70/103/64
f 82/121/75 83/647/226 84/648/224
f 85/122/76 65/644/221 64/99/61
f 82/121/75 84/648/224 85/122/76
f 87/649/234 88/125/79 71/104/65
f 88/125/79 87/649/234 104/650/231
f 106/151/95 83/647/226 82/121/75
f 88/125/79 104/650/231 105/152/96
f 88/125/79 106/151/95 82/121/75
f 196/651/236 174/340/164 197/342/186
f 174/340/164 212/652/307 195/341/185
f 174/340/164 196/651/236 210/374/199
f 211/375/200 212/652/307 174/340/164
f 214/377/202 197/342/186 158/292/148
f 158/292/148 189/378/179 213/376/201
f 225/653/223 226/654/222 227/423/215
f 195/341/185 212/652/307 222/655/228
f 224/411/211 227/423/215 195/341/185
f 195/341/185 222/655/228 223/410/210
f 224/411/211 225/653/223 227/423/215
f 229/656/235 213/376/201 228/412/212
f 234/657/225 235/658/227 232/424/216
f 233/430/217 227/423/215 226/654/222
f 233/430/217 234/657/225 232/424/216
f 238/659/232 229/656/235 228/412/212
f 236/431/218 232/424/216 235/658/227
f 237/432/219 238/659/232 228/412/212
f 228/412/212 232/424/216 236/431/218
f 226/437/222 225/438/223 66/435/220
f 65/436/221 233/660/217 226/437/222
f 233/660/217 65/436/221 85/661/76
f 67/662/62 66/435/220 224/439/211
f 233/663/217 85/440/76 234/442/225
f 68/458/63 67/443/62 223/445/210
f 235/448/227 234/664/225 84/665/224
f 106/447/95 236/454/218 235/448/227
f 235/448/227 84/665/224 83/446/226
f 69/666/230 68/449/63 222/451/228
f 106/447/95 105/452/96 236/454/218
f 222/457/228 211/462/200 48/455/229
f 211/462/200 222/457/228 212/667/307
f 48/455/229 47/668/47 69/456/230
f 105/669/96 104/458/231 237/460/219
f 210/670/199 49/461/233 211/462/200
f 229/465/235 238/671/232 104/672/231
f 214/464/202 213/673/201 229/465/235
f 87/463/234 70/674/64 214/464/202
f 229/465/235 104/672/231 87/463/234
f 87/463/234 71/675/65 70/674/64
f 50/467/237 196/466/236 70/674/64
f 214/464/202 196/466/236 197/676/186
f 50/467/237 49/677/233 210/468/199
f 70/674/64 51/678/48 50/467/237
f 70/674/64 196/466/236 214/464/202
