#name "FL-G"
#participants 1
set_dialogue_color 1 0 0.52 0.95
set_dialogue_voice 1 8
set_character_pos 1 -184.646 8.84513 74.0562 -16
send_character_message 1 "set_animation \"Data\Animations\r_actionidle.anm\""
send_character_message 1 "set_eye_dir -185.208 9.98688 73.5013 1"
send_character_message 1 "set_head_target -183.19 10.5367 74.5312 1"
set_cam -185.83 9.5746 70.9311 0 -150.31 0 66.3989
say 1 "Ghost" "..."
send_character_message 1 "set_head_target -183.19 10.5367 74.5312 0"
send_character_message 1 "set_animation \"Data/Animations/lanterntouch_lethal.anm\""
say 1 "Ghost" "..."
send_character_message 1 "set_animation \"Data\Animations\r_actionidle.anm\""
say 1 "Ghost" "These brainless people deserve to die..."
send_level_message "loadlevel Data/Levels/t2/s2/b3.xml"
