# Blender v2.75 (sub 0) OBJ File: 'Rocks.blend'
# www.blender.org
mtllib Rock_4.mtl
o Cube_Cube.001
v -0.131906 0.018997 -0.025823
v -0.108514 0.020681 -0.077882
v -0.093130 -0.000505 -0.065794
v -0.107552 -0.005556 -0.019761
v 0.040249 0.023056 -0.094799
v 0.093044 0.034853 -0.073520
v 0.087405 0.007584 -0.067218
v 0.032279 -0.004088 -0.077005
v 0.129210 0.019471 0.030681
v 0.108204 0.023328 0.076870
v 0.092819 -0.000475 0.070922
v 0.107122 -0.005554 0.025616
v -0.042717 0.018992 0.104541
v -0.107552 0.020681 0.081812
v -0.092802 -0.000505 0.070994
v -0.031752 -0.005556 0.082994
v 0.035707 -0.013666 -0.025753
v 0.105233 -0.002764 -0.020548
v -0.035789 0.076404 -0.025631
v -0.030775 0.068103 -0.075983
v -0.092298 0.062680 -0.065260
v -0.107325 0.068025 -0.019542
v -0.131845 0.018997 0.031556
v -0.107552 -0.005556 0.025616
v -0.092526 0.062008 0.070014
v -0.104527 0.059942 0.016703
v -0.131845 0.043550 0.031556
v -0.107552 0.041867 0.081812
v -0.131972 0.043550 -0.025955
v -0.108787 0.041867 -0.078427
v -0.039031 0.018997 -0.093774
v -0.030227 0.000214 -0.077458
v -0.039031 0.043550 -0.093774
v 0.034710 0.068711 -0.076431
v 0.036723 0.049160 -0.091292
v 0.084965 0.068750 -0.061402
v 0.093476 0.051729 -0.069497
v 0.124367 0.025324 -0.027002
v 0.101980 0.067498 -0.022158
v 0.123312 0.047190 -0.023949
v 0.105423 0.068103 0.025559
v 0.127794 0.043551 0.031486
v 0.092892 0.063042 0.069131
v 0.107250 0.042155 0.081296
v 0.050670 0.018920 0.091481
v 0.032913 -0.005562 0.081786
v 0.037223 0.068061 0.076771
v 0.050301 0.043546 0.105694
v -0.033974 0.068099 0.085552
v -0.044591 0.043550 0.107660
v 0.035851 -0.013874 0.031556
v -0.035851 -0.013874 0.031556
v -0.035848 -0.013856 -0.025705
v -0.035851 0.076422 0.031556
v 0.035896 0.076420 0.031179
v 0.036523 0.076422 -0.025812
vt 0.589321 0.630138
vt 0.626758 0.506252
vt 0.689805 0.535135
vt 0.772160 0.862615
vt 0.756626 0.982607
vt 0.695537 0.968665
vt 0.245382 0.893446
vt 0.254787 0.772701
vt 0.324879 0.779784
vt 0.849676 0.145893
vt 0.869745 0.002210
vt 0.927722 0.037107
vt 0.131290 0.169730
vt 0.006207 0.175864
vt 0.032598 0.045369
vt 0.518072 0.177698
vt 0.397864 0.203832
vt 0.405543 0.055090
vt 0.589190 0.766770
vt 0.673430 0.752767
vt 0.689805 0.860863
vt 0.673617 0.644712
vt 0.894948 0.538916
vt 0.869256 0.655304
vt 0.793201 0.616858
vt 0.391965 0.905622
vt 0.332099 0.905622
vt 0.336204 0.772701
vt 0.876996 0.732082
vt 0.792328 0.747469
vt 0.180996 0.779252
vt 0.180993 0.654282
vt 0.240856 0.654839
vt 0.894948 0.846040
vt 0.830953 0.878821
vt 0.185892 0.517703
vt 0.237553 0.518914
vt 0.772160 0.674583
vt 0.710610 0.692361
vt 0.699116 0.540653
vt 0.694331 0.840555
vt 0.584664 0.548222
vt 0.572885 0.696455
vt 0.499880 0.673738
vt 0.992002 0.173387
vt 0.932247 0.170256
vt 0.946190 0.002210
vt 0.566934 0.851674
vt 0.506916 0.854003
vt 0.996594 0.352634
vt 0.932335 0.358516
vt 0.584664 0.968721
vt 0.539029 0.986126
vt 0.997737 0.481770
vt 0.956380 0.479594
vt 0.002263 0.645862
vt 0.084840 0.633791
vt 0.087048 0.754700
vt 0.006818 0.517703
vt 0.087048 0.534365
vt 0.162714 0.633586
vt 0.091574 0.642514
vt 0.128778 0.517703
vt 0.013708 0.917460
vt 0.002263 0.787833
vt 0.055987 0.783671
vt 0.176468 0.742174
vt 0.098759 0.767975
vt 0.304185 0.639991
vt 0.245382 0.639732
vt 0.253638 0.517703
vt 0.098933 0.792019
vt 0.164454 0.772394
vt 0.173829 0.900403
vt 0.307275 0.768281
vt 0.260897 0.759935
vt 0.863497 0.369817
vt 0.927560 0.327434
vt 0.927722 0.472859
vt 0.926284 0.175206
vt 0.495355 0.534712
vt 0.491886 0.656275
vt 0.399545 0.624860
vt 0.822983 0.510305
vt 0.794390 0.368041
vt 0.478124 0.815224
vt 0.397864 0.841152
vt 0.792328 0.144585
vt 0.495355 0.959185
vt 0.440519 0.997790
vt 0.311801 0.681080
vt 0.311924 0.519009
vt 0.363405 0.517703
vt 0.271004 0.171930
vt 0.259786 0.002210
vt 0.369592 0.038409
vt 0.147164 0.004729
vt 0.361311 0.480318
vt 0.250009 0.513283
vt 0.267738 0.342629
vt 0.393338 0.335378
vt 0.139387 0.511266
vt 0.128147 0.340078
vt 0.027831 0.475018
vt 0.002263 0.324765
vt 0.656439 0.160905
vt 0.600278 0.002210
vt 0.732831 0.015142
vt 0.511599 0.006514
vt 0.786012 0.453583
vt 0.684228 0.496103
vt 0.676940 0.330551
vt 0.787803 0.320038
vt 0.567743 0.501832
vt 0.539216 0.348623
vt 0.467677 0.473106
vt 0.416312 0.358729
vt 0.327573 0.893446
vt 0.627752 0.886527
vt 0.834978 0.515331
vt 0.387860 0.772701
vt 0.240856 0.779586
vt 0.759698 0.506252
vt 0.526590 0.506252
vt 0.997737 0.004402
vt 0.023243 0.779252
vt 0.176468 0.532724
vt 0.055987 0.919130
vt 0.307275 0.522789
vt 0.091574 0.900403
vt 0.869076 0.510912
vt 0.438076 0.506252
vt 0.372199 0.681080
vt 0.393338 0.181377
vt 0.787803 0.149248
vn -0.907900 -0.371000 -0.194900
vn -0.605400 -0.335700 -0.721700
vn -0.327600 -0.823700 -0.462800
vn 0.177100 -0.214900 -0.960400
vn 0.616300 -0.037600 -0.786600
vn 0.484100 -0.645000 -0.591300
vn 0.935200 -0.318400 0.154900
vn 0.658000 -0.305800 0.688100
vn 0.380500 -0.751100 0.539400
vn -0.130400 -0.411200 0.902200
vn -0.645600 -0.322600 0.692200
vn -0.364200 -0.816800 0.447300
vn 0.085400 -0.989500 -0.116800
vn 0.088300 -0.834800 -0.543400
vn -0.079700 0.994500 -0.068100
vn -0.077100 0.848600 -0.523400
vn -0.330400 0.830300 -0.448900
vn -0.907100 -0.366400 0.207100
vn -0.446200 -0.888300 0.108300
vn -0.445300 -0.889200 -0.105100
vn -0.378500 0.850000 0.366300
vn -0.388700 0.917800 0.081500
vn -0.870400 0.457400 0.182300
vn -0.447300 0.894300 0.010800
vn -0.902900 0.394400 -0.170900
vn -0.604700 0.329700 -0.725000
vn -0.094000 -0.345500 -0.933700
vn -0.040200 -0.839300 -0.542100
vn -0.109200 0.308700 -0.944900
vn 0.070300 0.845500 -0.529300
vn 0.139700 0.375800 -0.916100
vn 0.401900 0.810500 -0.426000
vn 0.615600 0.382400 -0.689000
vn 0.914400 -0.234400 -0.329900
vn 0.508300 -0.836100 -0.206100
vn 0.476800 -0.876000 0.072300
vn 0.457200 0.879700 -0.131000
vn 0.876600 0.404200 -0.260800
vn 0.465100 0.880700 0.089800
vn 0.915800 0.364500 0.168600
vn 0.379100 0.829100 0.411000
vn 0.651300 0.238100 0.720500
vn 0.205400 -0.456000 0.865900
vn 0.104000 -0.807400 0.580800
vn -0.064700 -0.870700 0.487500
vn 0.085600 0.910900 0.403500
vn 0.223900 0.176900 0.958400
vn -0.076100 0.876100 0.476000
vn -0.172700 0.298900 0.938500
vn -0.649200 0.337200 0.681800
vn 0.065900 -0.994900 0.075800
vn -0.059700 -0.994800 0.081800
vn -0.046800 -0.991300 -0.123100
vn -0.101300 0.992600 0.067100
vn 0.061300 0.994300 0.086900
vn 0.053300 0.996500 -0.064400
usemtl Material.003
s 1
f 1/1/1 2/2/2 3/3/3
f 5/4/4 6/5/5 7/6/6
f 9/7/7 10/8/8 11/9/9
f 13/10/10 14/11/11 15/12/12
f 17/13/13 8/14/14 7/15/6
f 19/16/15 20/17/16 21/18/17
f 23/19/18 24/20/19 15/21/12
f 23/19/18 1/1/1 4/22/20
f 25/23/21 26/24/22 27/25/23
f 27/26/23 23/27/18 14/28/11
f 26/24/22 22/29/24 29/30/25
f 27/31/23 29/32/25 1/33/1
f 21/34/17 30/35/26 29/30/25
f 29/32/25 30/36/26 2/37/2
f 31/38/27 32/39/28 3/40/3
f 5/4/4 8/41/14 32/39/28
f 21/42/17 20/43/16 33/44/29
f 33/45/29 31/46/27 2/47/2
f 20/43/16 34/48/30 35/49/31
f 35/50/31 5/51/4 31/46/27
f 36/52/32 37/53/33 35/49/31
f 35/50/31 37/54/33 6/55/5
f 38/56/34 18/57/35 7/58/6
f 9/59/7 12/60/36 18/57/35
f 39/61/37 40/62/38 37/63/33
f 37/64/33 40/65/38 38/66/34
f 41/67/39 42/68/40 40/62/38
f 42/69/40 9/70/7 38/71/34
f 43/72/41 44/73/42 42/74/40
f 42/69/40 44/75/42 10/76/8
f 45/77/43 46/78/44 11/79/9
f 13/10/10 16/80/45 46/78/44
f 43/81/41 47/82/46 48/83/47
f 44/84/42 48/85/47 45/77/43
f 49/86/48 50/87/49 48/83/47
f 48/85/47 50/88/49 13/10/10
f 25/89/21 28/90/50 50/87/49
f 50/91/49 28/92/50 14/93/11
f 51/94/51 12/95/36 11/96/9
f 51/94/51 17/13/13 18/97/35
f 15/98/12 24/99/19 52/100/52
f 16/101/45 52/100/52 51/94/51
f 4/102/20 53/103/53 52/100/52
f 52/100/52 53/103/53 17/13/13
f 3/104/3 32/105/28 53/103/53
f 32/105/28 8/14/14 17/13/13
f 54/106/54 26/107/22 25/108/21
f 19/16/15 22/109/24 26/107/22
f 43/110/41 41/111/39 55/112/55
f 47/113/46 55/112/55 54/106/54
f 39/114/37 56/115/56 55/112/55
f 55/112/55 56/115/56 19/16/15
f 36/116/32 34/117/30 56/115/56
f 56/115/56 34/117/30 20/17/16
f 4/22/20 1/1/1 3/3/3
f 8/41/14 5/4/4 7/6/6
f 12/118/36 9/7/7 11/9/9
f 16/80/45 13/10/10 15/12/12
f 18/97/35 17/13/13 7/15/6
f 22/109/24 19/16/15 21/18/17
f 14/119/11 23/19/18 15/21/12
f 24/20/19 23/19/18 4/22/20
f 28/120/50 25/23/21 27/25/23
f 28/121/50 27/26/23 14/28/11
f 27/25/23 26/24/22 29/30/25
f 23/122/18 27/31/23 1/33/1
f 22/29/24 21/34/17 29/30/25
f 1/33/1 29/32/25 2/37/2
f 2/123/2 31/38/27 3/40/3
f 31/38/27 5/4/4 32/39/28
f 30/124/26 21/42/17 33/44/29
f 30/125/26 33/45/29 2/47/2
f 33/44/29 20/43/16 35/49/31
f 33/45/29 35/50/31 31/46/27
f 34/48/30 36/52/32 35/49/31
f 5/51/4 35/50/31 6/55/5
f 6/126/5 38/56/34 7/58/6
f 38/56/34 9/59/7 18/57/35
f 36/127/32 39/61/37 37/63/33
f 6/128/5 37/64/33 38/66/34
f 39/61/37 41/67/39 40/62/38
f 40/129/38 42/69/40 38/71/34
f 41/130/39 43/72/41 42/74/40
f 9/70/7 42/69/40 10/76/8
f 10/131/8 45/77/43 11/79/9
f 45/77/43 13/10/10 46/78/44
f 44/132/42 43/81/41 48/83/47
f 10/131/8 44/84/42 45/77/43
f 47/82/46 49/86/48 48/83/47
f 45/77/43 48/85/47 13/10/10
f 49/86/48 25/89/21 50/87/49
f 13/133/10 50/91/49 14/93/11
f 46/134/44 51/94/51 11/96/9
f 12/95/36 51/94/51 18/97/35
f 16/101/45 15/98/12 52/100/52
f 46/134/44 16/101/45 51/94/51
f 24/99/19 4/102/20 52/100/52
f 51/94/51 52/100/52 17/13/13
f 4/102/20 3/104/3 53/103/53
f 53/103/53 32/105/28 17/13/13
f 49/135/48 54/106/54 25/108/21
f 54/106/54 19/16/15 26/107/22
f 47/113/46 43/110/41 55/112/55
f 49/135/48 47/113/46 54/106/54
f 41/111/39 39/114/37 55/112/55
f 54/106/54 55/112/55 19/16/15
f 39/114/37 36/116/32 56/115/56
f 19/16/15 56/115/56 20/17/16
