# Blender v2.75 (sub 0) OBJ File: 'Rocks.blend'
# www.blender.org
mtllib Rock_Stack_COL.mtl
o Icosphere.000_Icosphere.004
v -0.012953 0.483591 -0.022872
v -0.007702 0.485289 0.005063
v -0.000219 0.490165 -0.011779
v -0.023755 0.487893 -0.001472
v -0.022210 0.492047 -0.016811
v -0.013208 0.491993 0.003869
v -0.028756 0.462255 -0.009868
v -0.004615 0.469190 -0.035042
v -0.018779 0.469968 0.017453
v -0.038463 0.477752 -0.017409
v -0.013834 0.483337 0.007761
v -0.036982 0.473377 0.002121
v 0.006646 0.480787 -0.033542
v 0.023376 0.478028 -0.006031
v 0.019276 0.464744 -0.007588
v -0.014373 0.429701 -0.034371
v 0.020720 0.436582 0.021968
v -0.008771 0.433917 0.024372
v -0.035089 0.435519 -0.011225
v -0.006484 0.458612 -0.041967
v -0.027250 0.441867 -0.044176
v -0.030550 0.455990 -0.034770
v 0.013869 0.430509 -0.021223
v 0.000937 0.442686 -0.052464
v 0.028342 0.448524 -0.012859
v 0.023227 0.460664 -0.008839
v 0.028214 0.452366 0.025027
v 0.010829 0.465784 0.022734
v 0.003456 0.456467 0.037752
v -0.017572 0.455046 0.033512
v -0.041142 0.450668 -0.017332
v -0.024370 0.463642 0.005433
v 0.017536 0.299538 -0.019295
v 0.001762 0.306375 0.062765
v 0.058486 0.310946 0.034936
v 0.062907 0.315531 -0.021209
v -0.043657 0.301904 -0.000574
v 0.086971 0.342792 -0.006692
v 0.025193 0.336624 0.070344
v -0.059418 0.312907 0.051807
v -0.073020 0.353986 0.048020
v -0.075268 0.327747 -0.024965
v 0.003134 0.312272 -0.060212
v 0.055255 0.337447 -0.051840
v 0.061757 0.342611 0.042098
v -0.028841 0.336626 0.076374
v -0.085380 0.349804 -0.001037
v -0.025659 0.336034 -0.065177
v 0.013366 0.384390 0.017178
v -0.012499 0.374405 0.068604
v -0.054466 0.371412 -0.026179
v -0.000051 0.358672 -0.056999
v 0.068651 0.358664 -0.028383
v -0.006546 0.377372 -0.029964
v 0.061714 0.379721 -0.006449
v 0.063908 0.390498 -0.034759
v -0.004907 0.382575 0.064494
v 0.048618 0.390818 0.038330
v -0.056632 0.383128 0.036391
v -0.026688 0.403188 0.069911
v -0.049730 0.397167 -0.032768
v -0.067960 0.408045 0.004009
v 0.017983 0.397076 -0.062576
v -0.023372 0.415468 -0.055161
v 0.054513 0.423793 0.016154
v 0.029352 0.411990 0.057276
v -0.056266 0.410608 0.047632
v -0.004336 0.432572 0.032184
v 0.020283 0.424914 -0.050856
v 0.060291 -0.008728 -0.043227
v 0.046236 0.007878 0.105657
v 0.104568 0.018711 0.065052
v 0.114201 0.011797 -0.007406
v -0.044260 -0.003366 -0.035435
v 0.132034 0.059189 0.032783
v -0.080534 0.009676 0.098466
v 0.014211 0.044631 0.148119
v -0.119811 0.019086 0.017223
v -0.133517 0.055469 0.075455
v -0.064970 0.021297 -0.098310
v -0.097225 0.057060 -0.099371
v 0.089984 0.019217 -0.076198
v 0.023986 0.011626 -0.107540
v 0.079738 0.059250 -0.113368
v 0.090333 0.059189 0.104976
v -0.096921 0.055383 0.121173
v -0.136912 0.055260 -0.022524
v -0.018356 0.056541 -0.132259
v 0.137544 0.060848 -0.050953
v 0.049142 0.099677 0.114944
v 0.112008 0.108883 0.037018
v 0.013809 0.141565 0.072661
v -0.096764 0.100116 0.086713
v -0.034767 0.107107 0.118465
v -0.117531 0.104638 -0.023635
v -0.024667 0.133305 -0.057326
v -0.023965 0.107859 -0.114248
v 0.094057 0.103875 -0.073133
v 0.062828 0.137653 0.005102
v -0.070212 0.227790 -0.046717
v -0.020380 0.225276 -0.054557
v 0.052019 0.240138 -0.035263
v 0.056955 0.237978 0.053835
v -0.058778 0.225355 0.044826
v 0.088496 0.247437 0.001673
v -0.079296 0.290287 -0.025766
v 0.002087 0.298359 -0.057126
v -0.063419 0.283001 -0.059893
v -0.107645 0.245129 -0.016473
v -0.057739 0.217027 0.008734
v -0.097338 0.276217 0.007444
v -0.098281 0.256277 -0.057355
v 0.010919 0.246438 -0.066168
v -0.060462 0.254458 -0.081541
v 0.030792 0.274820 -0.067524
v 0.048182 0.302052 -0.027285
v 0.098732 0.280664 -0.009802
v 0.067018 0.306816 0.021722
v 0.084477 0.281724 0.054645
v 0.028350 0.279980 0.081122
v 0.050500 0.265696 0.083874
v 0.014108 0.232976 0.061214
v -0.051834 0.263927 0.062263
v -0.092576 0.256919 0.036250
v 0.032997 0.222213 0.030752
v -0.016324 0.292635 0.058398
v -0.116702 0.155337 0.062328
v -0.140367 0.172460 -0.022392
v -0.116567 0.140605 -0.020356
v -0.093555 0.133616 0.046959
v -0.023946 0.180521 -0.116271
v 0.037462 0.195759 -0.124501
v 0.034912 0.157735 -0.117417
v -0.020747 0.144296 -0.095258
v 0.125210 0.182806 -0.056162
v 0.130739 0.189235 -0.002720
v 0.091866 0.145904 -0.069854
v 0.018117 0.177928 0.104082
v -0.051538 0.172523 0.115996
v -0.033171 0.138136 0.094152
v 0.005465 0.127510 -0.023351
v -0.042337 0.215101 -0.082924
v -0.118306 0.203753 -0.018729
v -0.105044 0.204363 0.031282
v -0.022893 0.211249 0.091071
v -0.099330 0.182793 0.083758
v -0.130074 0.182710 0.035155
v -0.095647 0.173638 -0.069649
v 0.032038 0.220574 -0.107727
v 0.089255 0.189579 -0.102732
v 0.087973 0.218991 -0.068162
v 0.106368 0.216148 -0.001644
v 0.108794 0.147062 0.002257
v 0.094113 0.192021 0.049581
v -0.008110 0.226623 -0.016260
vt 0.793641 0.480544
vt 0.707758 0.775194
vt 0.702586 0.526860
vt 0.229290 0.746832
vt 0.218755 0.522547
vt 0.337632 0.736584
vt 0.268353 0.398788
vt 0.022169 0.328689
vt 0.097148 0.069031
vt 0.704115 0.094070
vt 0.819590 0.476587
vt 0.709074 0.331219
vt 0.885480 0.480544
vt 0.961587 0.635958
vt 0.881937 0.661154
vt 0.594791 0.397727
vt 0.558081 0.534820
vt 0.404382 0.450160
vt 0.342849 0.064209
vt 0.621171 0.100685
vt 0.393612 0.371113
vt 0.549322 0.393770
vt 0.338060 0.292399
vt 0.125309 0.466806
vt 0.030873 0.094117
vt 0.958124 0.821464
vt 0.958124 0.968494
vt 0.881937 0.899155
vt 0.720627 0.694091
vt 0.793641 0.894696
vt 0.697046 0.842699
vt 0.344086 0.678627
vt 0.455018 0.658062
vt 0.398381 0.817376
vt 0.906776 0.724396
vt 0.337632 0.595151
vt 0.395779 0.393770
vt 0.379684 0.225474
vt 0.819590 0.001979
vt 0.783337 0.196230
vt 0.690717 0.076794
vt 0.275434 0.486031
vt 0.240005 0.014958
vt 0.929480 0.251619
vt 0.912653 0.072993
vt 0.984239 0.073805
vt 0.558418 0.731311
vt 0.462794 0.869857
vt 0.461171 0.690465
vt 0.316090 0.936845
vt 0.245522 0.841529
vt 0.316090 0.762543
vt 0.877993 0.480544
vt 0.849442 0.717449
vt 0.799316 0.550878
vt 0.001972 0.654718
vt 0.119064 0.587175
vt 0.054809 0.737380
vt 0.608444 0.619528
vt 0.627352 0.436355
vt 0.679112 0.627286
vt 0.869024 0.465334
vt 0.823535 0.345863
vt 0.923415 0.372034
vt 0.576335 0.003807
vt 0.172029 0.812019
vt 0.337632 0.758586
vt 0.666508 0.198648
vt 0.589252 0.701447
vt 0.626758 0.506252
vt 0.684078 0.593095
vt 0.726095 0.110290
vt 0.452492 0.417194
vt 0.451106 0.035907
vt 0.654454 0.875483
vt 0.894948 0.538916
vt 0.850276 0.851218
vt 0.792733 0.686790
vt 0.761287 0.527721
vt 0.728595 0.891110
vt 0.699116 0.540653
vt 0.014617 0.724409
vt 0.085994 0.581838
vt 0.087048 0.754700
vt 0.486724 0.887077
vt 0.430827 0.962198
vt 0.448244 0.531654
vt 0.723071 0.466243
vt 0.332169 0.048201
vt 0.104295 0.442311
vt 0.021842 0.102271
vt 0.834978 0.515331
vt 0.544166 0.534647
vt 0.555294 0.958260
vt 0.506916 0.854003
vt 0.006818 0.517703
vt 0.924211 0.450218
vt 0.826384 0.484982
vt 0.876036 0.053652
vt 0.366458 0.457027
vt 0.689805 0.535135
vt 0.772160 0.862615
vt 0.756626 0.982607
vt 0.695537 0.968665
vt 0.245382 0.893446
vt 0.254787 0.772701
vt 0.324879 0.779784
vt 0.812925 0.145055
vt 0.869745 0.002210
vt 0.927491 0.059299
vt 0.185051 0.229007
vt 0.005926 0.186469
vt 0.032598 0.045369
vt 0.590571 0.247451
vt 0.408411 0.292387
vt 0.405543 0.055090
vt 0.673522 0.699920
vt 0.689805 0.860863
vt 0.876077 0.722965
vt 0.793201 0.616858
vt 0.391965 0.905622
vt 0.332099 0.905622
vt 0.363941 0.772701
vt 0.180996 0.779252
vt 0.180993 0.654282
vt 0.240856 0.719946
vt 0.894948 0.846040
vt 0.830953 0.878821
vt 0.792328 0.747469
vt 0.772160 0.674583
vt 0.695490 0.830001
vt 0.584664 0.548222
vt 0.569483 0.785195
vt 0.499880 0.673738
vt 0.584664 0.968721
vt 0.539029 0.986126
vt 0.002263 0.645862
vt 0.170022 0.691281
vt 0.091574 0.642514
vt 0.128778 0.517703
vt 0.098759 0.767975
vt 0.098933 0.792019
vt 0.164454 0.772394
vt 0.173829 0.900403
vt 0.833350 0.510442
vt 0.794390 0.368041
vt 0.397864 0.841152
vt 0.399545 0.624860
vt 0.440519 0.997790
vt 0.206013 0.003413
vt 0.373666 0.062932
vt 0.195907 0.512297
vt 0.027831 0.475018
vt 0.786137 0.444276
vt 0.629634 0.498788
vt 0.753101 0.082958
vt 0.470503 0.468189
vt 0.327573 0.893446
vt 0.522130 0.006003
vt 0.627752 0.886527
vt 0.209076 0.518247
vt 0.759698 0.506252
vt 0.526590 0.506252
vt 0.023243 0.779252
vt 0.176468 0.532724
vt 0.091574 0.900403
vt 0.438076 0.506252
vt 0.495113 0.543184
vt 0.354016 0.514595
vt 0.320093 0.614568
vt 0.257919 0.501956
vt 0.807956 0.530898
vt 0.854785 0.451815
vt 0.844290 0.693916
vt 0.997081 0.310397
vt 0.906413 0.321977
vt 0.904655 0.258927
vt 0.913683 0.464031
vt 0.915197 0.723787
vt 0.226603 0.766527
vt 0.302176 0.740114
vt 0.308204 0.904439
vt 0.628880 0.090725
vt 0.390019 0.306157
vt 0.463651 0.030369
vt 0.115186 0.021864
vt 0.300326 0.112598
vt 0.315352 0.394271
vt 0.132767 0.514447
vt 0.155444 0.597874
vt 0.014171 0.629181
vt 0.554288 0.785145
vt 0.617228 0.782804
vt 0.587623 0.929665
vt 0.990392 0.201713
vt 0.920084 0.254051
vt 0.940434 0.101553
vt 0.872467 0.076325
vt 0.892331 0.295248
vt 0.818779 0.223587
vt 0.647279 0.529044
vt 0.638991 0.720254
vt 0.558816 0.728773
vt 0.696407 0.213710
vt 0.773648 0.124718
vt 0.797386 0.366194
vt 0.514520 0.519163
vt 0.446161 0.706916
vt 0.380218 0.692369
vt 0.686450 0.327835
vt 0.505364 0.426365
vt 0.026426 0.241453
vt 0.248590 0.914052
vt 0.188410 0.896796
vt 0.100929 0.432953
vt 0.778911 0.997562
vt 0.691326 0.997562
vt 0.732226 0.893775
vt 0.650174 0.929688
vt 0.997562 0.374625
vt 0.870828 0.962178
vt 0.840264 0.735587
vt 0.914911 0.767138
vt 0.840969 0.342357
vt 0.405838 0.533302
vt 0.706695 0.407484
vt 0.923130 0.438364
vt 0.974081 0.542462
vt 0.927716 0.719006
vt 0.975514 0.740988
vt 0.269080 0.419654
vt 0.341347 0.178370
vt 0.360054 0.369749
vt 0.183534 0.583600
vt 0.099166 0.626472
vt 0.372770 0.824285
vt 0.432261 0.809246
vt 0.407111 0.914866
vt 0.162910 0.882871
vt 0.106952 0.916378
vt 0.111028 0.759628
vt 0.201090 0.661350
vt 0.246699 0.653103
vt 0.594398 0.129439
vt 0.477203 0.005180
vt 0.639660 0.038651
vt 0.906185 0.580890
vt 0.774287 0.747376
vt 0.768102 0.874951
vt 0.698597 0.801540
vt 0.396528 0.155121
vt 0.258011 0.044751
vt 0.846082 0.099519
vt 0.662358 0.469335
vt 0.631723 0.590636
vt 0.602047 0.482066
vt 0.787214 0.291800
vt 0.800456 0.388682
vt 0.773651 0.124717
vt 0.931839 0.769140
vt 0.920621 0.632709
vt 0.594094 0.399366
vt 0.461074 0.439840
vt 0.747962 0.463637
vt 0.797282 0.510383
vt 0.469035 0.895654
vt 0.837001 0.002438
vt 0.899778 0.052317
vt 0.150721 0.683862
vt 0.915197 0.440434
vt 0.681141 0.164311
vt 0.651205 0.002033
vt 0.580621 0.158827
vt 0.548583 0.041110
vt 0.341145 0.582789
vt 0.221339 0.438331
vt 0.381606 0.412913
vt 0.325416 0.991967
vt 0.342304 0.878063
vt 0.425724 0.951062
vt 0.872674 0.340454
vt 0.972168 0.224430
vt 0.986348 0.340454
vt 0.831881 0.511081
vt 0.885862 0.347074
vt 0.918558 0.486449
vt 0.017877 0.706883
vt 0.129053 0.697713
vt 0.002122 0.815301
vt 0.754154 0.919900
vt 0.665590 0.885358
vt 0.703267 0.736063
vt 0.811896 0.559263
vt 0.794246 0.715442
vt 0.665590 0.500494
vt 0.835548 0.775579
vt 0.941820 0.678602
vt 0.943874 0.879637
vt 0.405003 0.193797
vt 0.221454 0.208517
vt 0.283701 0.038157
vt 0.440666 0.237161
vt 0.303132 0.343008
vt 0.434528 0.326485
vt 0.872674 0.083105
vt 0.979104 0.047343
vt 0.891345 0.220364
vt 0.490487 0.612054
vt 0.002122 0.565886
vt 0.104018 0.452402
vt 0.047685 0.693647
vt 0.212918 0.795373
vt 0.133298 0.712403
vt 0.212918 0.697713
vt 0.425724 0.841543
vt 0.463854 0.008019
vt 0.918558 0.649596
vt 0.585546 0.728359
vt 0.608905 0.850011
vt 0.494732 0.834651
vt 0.504603 0.935796
vt 0.281164 0.974565
vt 0.221339 0.841543
vt 0.321171 0.873733
vt 0.768290 0.244166
vt 0.712795 0.002033
vt 0.778154 0.056195
vt 0.658390 0.104526
vt 0.145178 0.636742
vt 0.129053 0.852755
vt 0.016903 0.907410
vt 0.825871 0.422856
vt 0.686248 0.347074
vt 0.868429 0.046487
vt 0.782399 0.134435
vt 0.802203 0.002033
vt 0.868429 0.219122
vt 0.818549 0.308948
vt 0.924822 0.522956
vt 0.997878 0.347074
vt 0.997864 0.596142
vt 0.661345 0.662494
vt 0.579101 0.722226
vt 0.558239 0.486428
vt 0.221339 0.695837
vt 0.432579 0.831948
vt 0.224572 0.831987
vt 0.415187 0.633686
vt 0.023483 0.260723
vt 0.058513 0.103631
vt 0.217097 0.176525
vt 0.205004 0.417195
vt 0.001590 0.230257
vt 0.175812 0.355696
vt 0.055815 0.355916
vt 0.049227 0.102599
vt 0.301122 0.239208
vt 0.270657 0.586542
vt 0.291164 0.714903
vt 0.200083 0.665729
vt 0.381119 0.848775
vt 0.381119 0.998237
vt 0.304302 0.921770
vt 0.034246 0.880148
vt 0.001590 0.760154
vt 0.101949 0.770332
vt 0.869905 0.222023
vt 0.871162 0.087293
vt 0.954997 0.191627
vt 0.200084 0.507331
vt 0.355622 0.720034
vt 0.101949 0.956596
vt 0.907906 0.866243
vt 0.863867 0.974589
vt 0.827807 0.817239
vt 0.657870 0.568104
vt 0.614154 0.653527
vt 0.552755 0.512131
vt 0.749010 0.625856
vt 0.749689 0.441029
vt 0.843264 0.575104
vt 0.304302 0.133045
vt 0.352547 0.012588
vt 0.486435 0.027248
vt 0.336163 0.709127
vt 0.304302 0.586504
vt 0.435044 0.650681
vt 0.645871 0.429466
vt 0.738457 0.520309
vt 0.113773 0.547290
vt 0.196903 0.756627
vt 0.085813 0.724434
vt 0.236957 0.004158
vt 0.007889 0.504310
vt 0.738457 0.655811
vt 0.196903 0.389439
vt 0.073580 0.364016
vt 0.782197 0.157750
vt 0.810277 0.001763
vt 0.866725 0.184792
vt 0.567215 0.363767
vt 0.743391 0.975081
vt 0.741637 0.806569
vt 0.824628 0.869258
vt 0.238688 0.364016
vt 0.291164 0.458490
vt 0.552755 0.839937
vt 0.552982 0.728677
vt 0.637964 0.779941
vt 0.855119 0.363767
vt 0.945304 0.462664
vt 0.848390 0.474776
vt 0.639043 0.001763
vt 0.661876 0.164159
vt 0.575045 0.154688
vt 0.200083 0.776048
vt 0.290660 0.749814
vt 0.207202 0.940161
vt 0.292980 0.989115
vt 0.384298 0.909721
vt 0.391687 0.720034
vt 0.472267 0.745333
vt 0.954997 0.001763
vt 0.907906 0.736170
vt 0.824628 0.736170
vt 0.783956 0.307160
vt 0.670467 0.659337
vt 0.779018 0.001763
vt 0.779018 0.219981
vt 0.676827 0.105615
vt 0.665056 0.259616
vt 0.661876 0.328516
vt 0.670467 0.904420
vt 0.194464 0.761904
vt 0.194464 0.924251
vt 0.109017 0.786065
vt 0.111573 0.978117
vt 0.998410 0.775056
vt 0.917893 0.860563
vt 0.911085 0.736170
vt 0.998410 0.936713
vt 0.472267 0.957429
vt 0.845210 0.416971
vt 0.845210 0.732644
vt 0.491272 0.250104
vt 0.563890 0.111643
vt 0.396553 0.313824
vt 0.550430 0.360241
vt 0.482544 0.473271
vt 0.409285 0.382502
vn 0.044300 -0.450600 -0.891600
vn -0.896200 -0.145500 0.419000
vn -0.710500 0.465900 -0.527300
vn 0.440200 -0.432700 0.786700
vn 0.947200 0.214100 -0.238700
vn -0.065800 0.673000 0.736700
vn -0.134300 -0.936200 -0.324900
vn 0.728400 -0.683400 0.048500
vn 0.081900 -0.696500 0.712800
vn -0.648400 -0.707900 0.280100
vn -0.272700 0.164100 0.948000
vn -0.741900 -0.329100 -0.584200
vn -0.943500 0.293200 -0.154100
vn 0.154000 -0.312300 -0.937400
vn -0.444300 0.420800 -0.790900
vn 0.819400 -0.237100 -0.521800
vn 0.717900 0.672700 0.179000
vn -0.723200 0.441400 0.531100
vn 0.443200 0.377200 0.813200
vn -0.071000 0.969000 0.236500
vn 0.722700 -0.421400 0.547800
vn 0.232500 0.782000 -0.578200
vn -0.885500 0.054500 0.461300
vn -0.841000 0.322300 -0.434500
vn -0.424200 -0.899000 -0.109100
vn -0.010100 0.869700 0.493500
vn 0.424100 0.486700 -0.763700
vn -0.145000 -0.252900 0.956500
vn -0.042100 -0.439300 -0.897300
vn 0.692100 -0.712100 0.117600
vn 0.889600 0.393700 0.231500
vn -0.751000 -0.437000 0.494900
vn -0.956100 -0.019500 -0.292300
vn -0.539600 -0.808500 -0.234700
vn -0.372200 0.021600 -0.927900
vn 0.149400 0.251700 -0.956200
vn 0.132500 -0.614900 -0.777300
vn 0.940100 0.024700 -0.340100
vn 0.969400 0.140800 0.201000
vn 0.616700 -0.749200 0.241400
vn 0.434000 -0.012700 0.900800
vn -0.232400 -0.003200 0.972600
vn 0.027000 -0.819100 0.573000
vn 0.049700 -0.996600 -0.066000
vn -0.189600 -0.805100 -0.561900
vn -0.059100 0.997800 0.029800
vn -0.357200 0.803400 -0.476500
vn -0.576200 0.793300 -0.196800
vn -0.326400 -0.920600 0.214500
vn -0.011400 0.832900 0.553200
vn -0.415300 0.885100 0.210000
vn -0.615300 0.376400 0.692500
vn -0.900500 0.319400 0.294900
vn -0.646400 -0.045900 -0.761600
vn 0.068700 0.827300 -0.557500
vn 0.611700 0.144000 -0.777800
vn 0.473600 -0.793700 -0.381700
vn 0.425200 0.861500 -0.277400
vn 0.489400 0.857400 0.158700
vn 0.648500 0.226900 0.726600
vn 0.317500 -0.126300 -0.939800
vn 0.492000 -0.843300 -0.216300
vn -0.154000 -0.936800 -0.314200
vn 0.593500 0.774800 -0.217700
vn 0.849800 0.148300 0.505800
vn 0.954500 -0.041200 -0.295400
vn -0.582900 -0.229500 -0.779500
vn 0.519300 -0.733200 0.438900
vn 0.082600 0.254200 0.963600
vn -0.268000 -0.799200 0.538000
vn 0.221800 0.931900 0.286900
vn 0.055000 0.799700 -0.597800
vn -0.735300 -0.647500 0.200300
vn -0.566300 0.660100 -0.493400
vn -0.979800 0.199400 -0.016300
vn -0.475300 0.866500 0.152700
vn -0.585300 0.217500 0.781100
vn -0.246400 -0.110000 -0.962900
vn 0.085100 -0.874000 -0.478400
vn -0.334000 -0.864900 -0.374600
vn -0.467500 0.875800 -0.120100
vn 0.022800 0.852400 -0.522300
vn -0.320700 0.749600 -0.578900
vn -0.935900 -0.351200 -0.027400
vn -0.237800 -0.969600 0.056800
vn -0.814400 -0.007200 -0.580300
vn 0.296200 -0.496300 -0.816000
vn 0.496800 -0.699700 -0.513400
vn 0.246100 0.900000 -0.359700
vn 0.913000 0.243900 -0.326900
vn 0.426200 0.179800 -0.886600
vn 0.779700 0.273400 0.563300
vn -0.036200 0.485000 0.873700
vn 0.336500 -0.085100 0.937800
vn 0.222600 -0.967000 0.123400
vn 0.772700 -0.626500 -0.102300
vn 0.493500 -0.739000 0.458500
vn -0.427000 0.160500 0.889900
vn -0.784100 0.027600 0.620000
vn -0.342400 -0.737400 0.582200
vn 0.312000 0.941500 0.127400
vn -0.755300 0.616600 0.222100
vn -0.012700 -0.734500 0.678400
vn -0.240800 0.825400 0.510500
vn 0.597300 -0.697600 0.395600
vn 0.125900 -0.979700 -0.155900
vn 0.592900 -0.746400 -0.302200
vn 0.082800 -0.787200 0.611000
vn -0.322300 -0.941000 -0.102900
vn 0.991400 0.129800 -0.012700
vn 0.412600 -0.007200 0.910900
vn 0.742200 0.307400 0.595500
vn -0.230200 -0.095900 0.968400
vn -0.582900 -0.650800 0.486400
vn -0.780700 0.392200 0.486500
vn -0.965200 0.247700 -0.083500
vn 0.194100 0.979100 0.060600
vn -0.456800 0.787600 -0.413600
vn 0.034500 -0.635400 -0.771400
vn -0.793200 -0.365600 -0.487000
vn 0.539500 -0.044600 -0.840800
vn 0.609100 0.688900 -0.393000
vn -0.333300 -0.026800 -0.942400
vn 0.060000 0.650800 -0.756900
vn -0.020200 0.739200 0.673100
vn 0.655600 -0.655500 0.374800
vn 0.199100 -0.968400 -0.150300
vn 0.662900 -0.748600 -0.008200
vn 0.260900 -0.823400 0.503900
vn -0.194500 -0.973800 -0.118000
vn 0.967200 -0.020100 0.253200
vn -0.350500 -0.819700 0.452900
vn 0.111900 -0.191300 0.975100
vn -0.658200 -0.752400 -0.023500
vn -0.934100 -0.035100 0.355300
vn 0.543200 -0.668700 -0.507700
vn 0.096700 -0.737300 -0.668600
vn 0.483600 0.015800 -0.875100
vn 0.693000 0.021500 0.720600
vn -0.555900 -0.022600 0.831000
vn -0.959200 -0.138900 -0.246200
vn -0.391100 -0.714700 -0.579900
vn -0.713400 -0.023700 -0.700300
vn -0.097800 -0.083300 -0.991700
vn 0.944300 0.021700 -0.328300
vn 0.368000 0.576900 0.729200
vn 0.718800 0.654000 0.235600
vn 0.040200 0.948900 0.313000
vn -0.553300 0.732900 0.395800
vn -0.184600 0.658700 0.729400
vn 0.513900 0.712700 -0.477500
vn 0.299100 0.952100 -0.062900
vn -0.689600 0.703900 -0.170200
vn -0.132200 0.670100 -0.730400
vn -0.132000 0.958200 -0.253900
usemtl Material.005
s 1
f 1/1/1 4/2/2 5/3/3
f 2/4/4 3/5/5 6/6/6
f 1/7/1 3/8/5 2/9/4
f 1/10/1 2/11/4 4/12/2
f 4/13/2 2/14/4 6/15/6
f 1/16/1 5/17/3 3/18/5
f 3/19/5 5/20/3 6/21/6
f 5/20/3 4/22/2 6/21/6
f 54/23/7 55/24/8 57/25/9
f 59/26/10 57/27/9 60/28/11
f 61/29/12 59/30/10 62/31/13
f 63/1/14 61/29/12 64/3/15
f 55/32/8 56/33/16 65/34/17
f 59/26/10 60/28/11 67/35/18
f 60/4/11 66/5/19 68/36/20
f 62/22/13 67/37/18 68/38/20
f 56/39/16 54/40/7 63/41/14
f 56/42/16 55/24/8 54/23/7
f 55/24/8 58/8/21 57/25/9
f 54/40/7 59/11/10 61/12/12
f 54/23/7 57/25/9 59/43/10
f 54/40/7 61/12/12 63/41/14
f 56/44/16 63/45/14 69/46/22
f 58/47/21 55/48/8 65/49/17
f 60/50/11 57/51/9 66/52/19
f 57/53/9 58/54/21 66/55/19
f 62/13/13 59/14/10 67/15/18
f 56/16/16 69/17/22 65/18/17
f 58/56/21 65/57/17 66/58/19
f 61/59/12 62/60/13 64/61/15
f 63/62/14 64/63/15 69/64/22
f 65/19/17 69/65/22 68/38/20
f 68/66/20 66/58/19 65/57/17
f 67/67/18 60/4/11 68/36/20
f 64/68/15 62/22/13 68/38/20
f 69/65/22 64/68/15 68/38/20
usemtl Material.003
f 12/69/23 10/70/24 7/71/25
f 11/72/26 13/73/27 10/74/24
f 12/69/23 7/71/25 9/75/28
f 11/76/26 10/77/24 12/78/23
f 10/79/24 8/80/29 7/81/25
f 13/82/27 15/83/30 8/84/29
f 11/85/26 9/86/28 14/87/31
f 14/88/31 13/73/27 11/72/26
f 15/89/30 7/90/25 8/91/29
f 9/92/28 11/76/26 12/78/23
f 10/93/24 13/94/27 8/95/29
f 13/82/27 14/96/31 15/83/30
f 15/97/30 14/98/31 9/99/28
f 15/89/30 9/100/28 7/90/25
f 127/69/32 128/70/33 129/101/34
f 131/102/35 132/103/36 133/104/37
f 135/105/38 136/106/39 153/107/40
f 138/108/41 139/109/42 140/110/43
f 141/111/44 134/112/45 133/113/37
f 155/114/46 142/115/47 143/116/48
f 127/69/32 130/117/49 140/118/43
f 145/76/50 144/119/51 146/120/52
f 146/121/52 127/122/32 139/123/42
f 146/124/52 147/125/53 127/126/32
f 143/127/48 128/128/33 147/129/53
f 148/130/54 134/131/45 129/81/34
f 143/132/48 142/133/47 148/134/54
f 149/135/55 132/136/36 131/95/35
f 150/137/56 137/83/57 133/84/37
f 151/138/58 150/139/56 132/140/36
f 151/138/58 135/141/38 150/139/56
f 152/142/59 136/143/39 135/144/38
f 138/108/41 140/110/43 153/97/40
f 136/145/39 154/146/60 153/97/40
f 145/85/50 138/147/41 154/148/60
f 145/85/50 139/149/42 138/147/41
f 141/111/44 137/150/57 153/151/40
f 140/100/43 130/152/49 141/111/44
f 129/153/34 134/112/45 141/111/44
f 152/154/59 151/155/58 155/114/46
f 152/154/59 155/114/46 145/156/50
f 151/155/58 149/157/55 155/114/46
f 130/117/49 127/69/32 129/101/34
f 134/131/45 131/102/35 133/104/37
f 137/158/57 135/105/38 153/107/40
f 137/150/57 141/111/44 133/113/37
f 144/159/51 155/114/46 143/116/48
f 139/160/42 127/69/32 140/118/43
f 139/92/42 145/76/50 146/120/52
f 146/120/52 144/119/51 147/129/53
f 144/119/51 143/127/48 147/129/53
f 127/126/32 147/125/53 128/161/33
f 128/162/33 148/130/54 129/81/34
f 148/130/54 131/102/35 134/131/45
f 128/163/33 143/132/48 148/134/54
f 148/134/54 142/133/47 131/95/35
f 142/133/47 149/135/55 131/95/35
f 132/164/36 150/137/56 133/84/37
f 150/137/56 135/96/38 137/83/57
f 149/165/55 151/138/58 132/140/36
f 151/166/58 152/142/59 135/144/38
f 136/167/39 152/168/59 154/148/60
f 152/168/59 145/85/50 154/148/60
f 153/97/40 154/146/60 138/108/41
f 153/151/40 140/100/43 141/111/44
f 130/152/49 129/153/34 141/111/44
f 145/156/50 155/114/46 144/159/51
f 155/114/46 149/157/55 142/115/47
usemtl Material.004
f 24/169/61 23/170/62 16/171/63
f 26/172/64 27/173/65 25/174/66
f 21/175/67 24/176/61 16/177/63
f 25/174/66 17/178/68 23/179/62
f 25/174/66 27/173/65 17/178/68
f 29/180/69 18/181/70 17/182/68
f 18/183/70 23/184/62 17/185/68
f 28/186/71 26/187/64 20/188/72
f 21/189/67 16/190/63 19/191/73
f 22/192/74 21/193/67 31/194/75
f 20/195/72 24/196/61 22/197/74
f 20/198/72 26/199/64 24/200/61
f 26/201/64 28/202/71 27/203/65
f 31/204/75 19/205/73 18/206/70
f 28/207/71 32/208/76 30/209/77
f 19/210/73 16/211/63 18/183/70
f 28/186/71 20/188/72 32/212/76
f 27/213/65 28/214/71 29/180/69
f 32/212/76 20/188/72 22/215/74
f 29/216/69 30/217/77 18/218/70
f 19/219/73 31/194/75 21/193/67
f 22/220/74 24/176/61 21/175/67
f 24/221/61 25/222/66 23/223/62
f 24/200/61 26/199/64 25/224/66
f 27/213/65 29/180/69 17/182/68
f 29/225/69 28/207/71 30/209/77
f 30/226/77 31/204/75 18/206/70
f 30/227/77 32/228/76 31/229/75
f 32/228/76 22/230/74 31/229/75
f 16/211/63 23/184/62 18/183/70
f 114/169/78 101/170/79 100/171/80
f 106/231/81 107/232/82 108/233/83
f 109/189/84 100/234/80 110/235/85
f 108/236/83 114/237/78 112/238/86
f 113/239/87 102/240/88 101/241/79
f 116/172/89 117/173/90 115/174/91
f 119/180/92 120/242/93 121/243/94
f 125/244/95 105/245/96 103/246/97
f 109/175/84 112/176/86 100/177/80
f 115/174/91 102/247/88 113/179/87
f 115/174/91 117/173/90 102/247/88
f 119/180/92 103/181/97 105/182/96
f 123/248/98 124/249/99 104/250/100
f 125/244/95 102/251/88 105/245/96
f 125/244/95 101/184/79 102/251/88
f 118/186/101 116/252/89 106/231/81
f 109/189/84 110/235/85 104/191/100
f 111/192/102 109/193/84 124/194/99
f 106/195/81 112/196/86 111/197/102
f 108/253/83 107/199/82 114/200/78
f 107/254/82 116/255/89 115/256/91
f 116/255/89 118/202/101 117/203/90
f 121/226/94 122/257/103 103/258/97
f 123/204/98 104/259/100 122/257/103
f 118/207/101 126/208/104 120/209/93
f 111/230/102 124/260/99 123/261/98
f 104/210/100 110/262/85 125/244/95
f 100/263/80 101/184/79 110/262/85
f 118/186/101 106/231/81 126/212/104
f 117/213/90 118/214/101 119/180/92
f 121/264/94 120/265/93 123/248/98
f 126/212/104 106/231/81 111/215/102
f 112/238/86 114/237/78 100/266/80
f 119/216/92 121/217/94 103/218/97
f 106/231/81 116/252/89 107/232/82
f 104/219/100 124/194/99 109/193/84
f 111/220/102 112/176/86 109/175/84
f 112/267/86 106/268/81 108/253/83
f 114/269/78 113/239/87 101/241/79
f 114/221/78 115/222/91 113/223/87
f 114/200/78 107/199/82 115/224/91
f 102/247/88 117/173/90 105/270/96
f 117/213/90 119/180/92 105/182/96
f 119/225/92 118/207/101 120/209/93
f 121/226/94 123/204/98 122/257/103
f 120/227/93 126/228/104 123/261/98
f 126/228/104 111/230/102 123/261/98
f 122/271/103 125/244/95 103/246/97
f 122/271/103 104/210/100 125/244/95
f 110/262/85 101/184/79 125/244/95
usemtl Material.006
f 35/272/105 33/273/106 36/274/107
f 33/275/106 34/276/108 37/277/109
f 35/278/105 36/279/107 38/280/110
f 34/281/108 35/282/105 39/283/111
f 35/284/105 38/285/110 45/286/112
f 34/287/108 39/288/111 46/289/113
f 40/290/114 41/291/115 47/292/116
f 45/293/112 38/294/110 49/295/117
f 47/296/116 41/297/115 51/298/118
f 34/299/108 33/300/106 35/301/105
f 36/274/107 33/273/106 43/302/119
f 37/303/109 34/299/108 40/304/114
f 37/305/109 40/306/114 42/307/120
f 33/275/106 37/277/109 43/308/119
f 37/309/109 42/310/120 43/311/119
f 38/312/110 44/313/121 53/314/122
f 38/280/110 36/279/107 44/315/121
f 36/274/107 43/302/119 44/316/121
f 39/317/111 35/284/105 45/286/112
f 41/318/115 40/319/114 46/320/113
f 40/319/114 34/321/108 46/320/113
f 42/322/120 40/323/114 47/324/116
f 44/325/121 48/326/123 52/327/124
f 44/325/121 43/328/119 48/326/123
f 43/311/119 42/310/120 48/329/123
f 46/289/113 50/330/125 41/331/115
f 46/289/113 39/288/111 50/330/125
f 39/332/111 45/293/112 50/333/125
f 48/334/123 51/335/118 52/336/124
f 48/334/123 42/337/120 51/335/118
f 42/337/120 47/338/116 51/335/118
f 44/339/121 52/340/124 53/341/122
f 38/342/110 53/343/122 49/344/117
f 50/333/125 45/293/112 49/295/117
f 51/345/118 50/346/125 49/347/117
f 51/345/118 41/348/115 50/346/125
f 52/349/124 51/350/118 49/351/117
f 49/351/117 53/352/122 52/349/124
usemtl Material.002
f 72/353/126 70/354/127 73/355/128
f 70/354/127 71/356/129 74/357/130
f 72/358/126 73/359/128 75/360/131
f 76/361/132 71/362/129 77/363/133
f 78/364/134 76/365/132 79/366/135
f 82/367/136 83/368/137 84/369/138
f 72/358/126 75/360/131 85/370/139
f 76/361/132 77/363/133 86/371/140
f 78/364/134 79/366/135 87/372/141
f 80/373/142 81/374/143 88/375/144
f 82/376/136 84/377/138 89/378/145
f 90/379/146 91/380/147 92/381/148
f 93/382/149 94/383/150 92/384/148
f 91/385/147 98/386/151 99/387/152
f 70/354/127 72/353/126 71/356/129
f 73/388/128 70/389/127 82/376/136
f 74/390/130 76/391/132 78/392/134
f 74/357/130 71/356/129 76/393/132
f 74/390/130 78/392/134 80/394/142
f 70/389/127 83/395/137 82/376/136
f 70/396/127 74/390/130 83/397/137
f 74/390/130 80/394/142 83/397/137
f 75/398/131 89/399/145 91/400/147
f 75/401/131 73/388/128 89/378/145
f 73/388/128 82/376/136 89/378/145
f 77/402/133 85/403/139 90/404/146
f 77/405/133 71/406/129 85/370/139
f 71/406/129 72/358/126 85/370/139
f 79/407/135 86/408/140 93/409/149
f 79/410/135 76/411/132 86/412/140
f 81/413/143 87/414/141 95/415/153
f 81/416/143 80/417/142 87/418/141
f 80/417/142 78/419/134 87/418/141
f 84/420/138 88/421/144 97/422/154
f 84/369/138 83/368/137 88/423/144
f 83/424/137 80/373/142 88/375/144
f 85/403/139 91/425/147 90/404/146
f 85/426/139 75/398/131 91/400/147
f 86/408/140 94/427/150 93/409/149
f 86/428/140 77/429/133 94/430/150
f 77/429/133 90/431/146 94/430/150
f 87/414/141 79/432/135 95/415/153
f 79/407/135 93/409/149 95/433/153
f 88/434/144 81/435/143 97/436/154
f 81/435/143 95/437/153 97/436/154
f 89/438/145 98/439/151 91/440/147
f 89/438/145 84/441/138 98/439/151
f 84/420/138 97/422/154 98/442/151
f 92/381/148 91/380/147 99/443/152
f 94/444/150 90/379/146 92/381/148
f 96/445/155 92/384/148 99/446/152
f 96/445/155 95/447/153 92/384/148
f 95/447/153 93/382/149 92/384/148
f 97/448/154 95/447/153 96/445/155
f 99/387/152 98/386/151 96/449/155
f 98/386/151 97/450/154 96/449/155
