# Blender v2.75 (sub 0) OBJ File: 'Rocks.blend'
# www.blender.org
mtllib Rock_2.mtl
o Cube.001_Cube.002
v -0.109212 0.021143 -0.029818
v -0.088435 0.020939 -0.061342
v -0.071618 0.007787 -0.052489
v -0.083121 0.005551 -0.025946
v 0.041834 0.021727 -0.066416
v 0.075412 0.026378 -0.050068
v 0.066865 0.012627 -0.043748
v 0.039088 0.007032 -0.051200
v 0.094595 0.025621 0.034965
v 0.074669 0.026778 0.060327
v 0.065199 0.012984 0.052481
v 0.078839 0.008134 0.031935
v -0.043392 0.025137 0.076236
v -0.082763 0.027921 0.065345
v -0.070082 0.012818 0.056667
v -0.037244 0.007689 0.064825
v 0.044386 -0.001755 -0.029869
v 0.081720 0.006312 -0.025322
v -0.051348 0.083886 -0.028861
v -0.041143 0.077386 -0.062816
v -0.082376 0.074754 -0.047486
v -0.093789 0.080727 -0.021119
v -0.101677 0.024647 0.037695
v -0.111197 0.022010 0.004936
v -0.084864 0.005786 0.003192
v -0.081134 0.007590 0.031486
v -0.104753 0.066474 0.038505
v -0.119751 0.064279 0.007407
v -0.128862 0.042773 0.002617
v -0.114355 0.045748 0.037613
v -0.119538 0.061964 -0.026264
v -0.095304 0.058792 -0.054917
v -0.098589 0.038924 -0.066976
v -0.126514 0.041362 -0.035587
v -0.043425 0.018323 -0.071407
v 0.001459 0.018098 -0.074279
v 0.001819 0.002680 -0.057411
v -0.037489 0.003318 -0.057569
v -0.045635 0.059738 -0.075520
v 0.000738 0.060079 -0.082730
v 0.000176 0.038285 -0.085993
v -0.049737 0.037905 -0.081181
v 0.038080 0.060439 -0.069295
v 0.070041 0.063529 -0.048179
v 0.081716 0.046053 -0.060041
v 0.043452 0.041398 -0.074547
v 0.102271 0.023758 -0.031354
v 0.102200 0.024086 0.002301
v 0.084268 0.006014 0.003043
v 0.096412 0.069508 -0.025046
v 0.101918 0.069555 0.008535
v 0.114141 0.047184 -0.000349
v 0.109834 0.047092 -0.038161
v 0.099763 0.066906 0.037983
v 0.081389 0.063618 0.064157
v 0.090875 0.046370 0.067969
v 0.108657 0.046814 0.036189
v 0.041654 0.025595 0.072743
v -0.000424 0.024632 0.077268
v -0.000472 0.007411 0.063305
v 0.038457 0.009457 0.058492
v 0.045623 0.067014 0.079542
v 0.000888 0.067144 0.078372
v 0.000801 0.045669 0.082372
v 0.049852 0.046431 0.083430
v -0.044772 0.066861 0.076989
v -0.083403 0.064369 0.065763
v -0.090501 0.046355 0.068081
v -0.048488 0.046189 0.081224
v 0.044124 -0.001193 0.037287
v 0.047137 -0.005023 0.003010
v -0.044080 -0.001094 0.037195
v -0.046116 -0.003488 0.002741
v -0.000066 -0.005632 0.002948
v 0.000000 -0.003251 0.038381
v -0.043309 -0.003062 -0.032293
v 0.000671 -0.004536 -0.031512
v -0.041989 0.085692 0.034473
v -0.050917 0.088046 0.004598
v -0.094124 0.082543 0.006517
v -0.084173 0.080176 0.033330
v 0.043487 0.083937 0.035395
v 0.045036 0.087522 0.007434
v 0.002931 0.086600 0.002860
v 0.004499 0.087622 0.036619
v 0.040865 0.081600 -0.028911
v 0.036659 0.078306 -0.060959
v 0.000991 0.078830 -0.067547
v 0.000742 0.081490 -0.034318
v -0.069904 0.077734 0.056203
v 0.061508 0.074972 -0.044221
v 0.076084 0.079892 -0.021110
v 0.082184 0.082498 0.008922
v 0.074656 0.076494 0.033803
v 0.064587 0.071961 0.052825
v 0.038337 0.078143 0.061608
v 0.001575 0.083265 0.066615
v -0.036911 0.081436 0.063081
vt 0.354016 0.514595
vt 0.332666 0.565426
vt 0.261063 0.539479
vt 0.102076 0.787165
vt 0.102076 0.883531
vt 0.062581 0.867992
vt 0.694796 0.937956
vt 0.699326 0.891395
vt 0.764662 0.882456
vt 0.748191 0.100140
vt 0.760911 0.002438
vt 0.805660 0.030480
vt 0.002438 0.825976
vt 0.050267 0.792440
vt 0.284068 0.310778
vt 0.360054 0.254644
vt 0.360054 0.369749
vt 0.182160 0.505167
vt 0.183534 0.583600
vt 0.112603 0.588752
vt 0.555265 0.752094
vt 0.610125 0.747869
vt 0.606824 0.835926
vt 0.372770 0.824285
vt 0.423147 0.811529
vt 0.417815 0.913329
vt 0.163751 0.916378
vt 0.106952 0.916378
vt 0.109901 0.813804
vt 0.807499 0.854248
vt 0.804848 0.733008
vt 0.861526 0.737135
vt 0.807956 0.530898
vt 0.851426 0.519732
vt 0.858045 0.619157
vt 0.473912 0.886081
vt 0.539157 0.883987
vt 0.544043 0.957719
vt 0.188410 0.896796
vt 0.191076 0.811694
vt 0.250619 0.824727
vt 0.198148 0.734146
vt 0.201090 0.661350
vt 0.246699 0.653103
vt 0.745617 0.210749
vt 0.803505 0.211811
vt 0.804929 0.314708
vt 0.798743 0.539166
vt 0.799972 0.654496
vt 0.743790 0.655641
vt 0.797015 0.870650
vt 0.750435 0.877580
vt 0.745785 0.775060
vt 0.532155 0.101188
vt 0.537492 0.002438
vt 0.612909 0.019705
vt 0.612283 0.343719
vt 0.521433 0.345421
vt 0.526771 0.225000
vt 0.364930 0.315030
vt 0.369567 0.212085
vt 0.436590 0.218985
vt 0.200408 0.339912
vt 0.235881 0.447635
vt 0.161780 0.446549
vt 0.107663 0.105386
vt 0.156848 0.205201
vt 0.072284 0.231403
vt 0.285576 0.064261
vt 0.333548 0.146569
vt 0.251470 0.176992
vt 0.273170 0.462866
vt 0.188615 0.531463
vt 0.997562 0.319120
vt 0.905127 0.311247
vt 0.904655 0.258927
vt 0.469035 0.800038
vt 0.469035 0.895654
vt 0.035014 0.696304
vt 0.908775 0.618305
vt 0.915197 0.723787
vt 0.902180 0.523036
vt 0.484083 0.800038
vt 0.544043 0.807088
vt 0.250595 0.735230
vt 0.302176 0.740114
vt 0.308204 0.826797
vt 0.691326 0.997562
vt 0.778015 0.941223
vt 0.802227 0.115165
vt 0.693326 0.769689
vt 0.704747 0.869915
vt 0.445973 0.104216
vt 0.462851 0.005833
vt 0.390400 0.114536
vt 0.303922 0.422068
vt 0.096235 0.521310
vt 0.040574 0.603193
vt 0.605475 0.929651
vt 0.658394 0.841982
vt 0.077605 0.475925
vt 0.165701 0.452511
vt 0.552687 0.839289
vt 0.983951 0.088117
vt 0.920904 0.088806
vt 0.945813 0.002438
vt 0.982793 0.163314
vt 0.904655 0.176269
vt 0.911481 0.364260
vt 0.995746 0.228769
vt 0.920084 0.254051
vt 0.899778 0.052317
vt 0.860663 0.104844
vt 0.810537 0.086536
vt 0.160853 0.800886
vt 0.111797 0.722673
vt 0.863482 0.857880
vt 0.914911 0.848573
vt 0.910362 0.966444
vt 0.914911 0.733858
vt 0.815102 0.989599
vt 0.874469 0.219236
vt 0.818779 0.223587
vt 0.899778 0.326939
vt 0.840969 0.342357
vt 0.809314 0.625635
vt 0.861746 0.727609
vt 0.662358 0.469335
vt 0.637217 0.555927
vt 0.593295 0.550531
vt 0.632127 0.634919
vt 0.599405 0.647550
vt 0.081666 0.966924
vt 0.028129 0.921583
vt 0.855451 0.438364
vt 0.915197 0.440434
vt 0.308204 0.913110
vt 0.617780 0.738127
vt 0.560030 0.742993
vt 0.662358 0.700563
vt 0.486238 0.535542
vt 0.444876 0.494373
vt 0.514822 0.450737
vt 0.442673 0.590448
vt 0.390844 0.548255
vt 0.415392 0.641289
vt 0.364930 0.627330
vt 0.748967 0.320633
vt 0.805660 0.385890
vt 0.691326 0.332222
vt 0.764364 0.408049
vt 0.696407 0.213710
vt 0.794229 0.450246
vt 0.744905 0.536785
vt 0.442692 0.710607
vt 0.387535 0.723497
vt 0.975514 0.456606
vt 0.973622 0.553340
vt 0.921737 0.553662
vt 0.799972 0.772375
vt 0.973205 0.654386
vt 0.920074 0.671445
vt 0.975514 0.740988
vt 0.931839 0.769140
vt 0.622145 0.112517
vt 0.665834 0.057190
vt 0.619973 0.228577
vt 0.678297 0.128433
vt 0.686450 0.327835
vt 0.080460 0.678986
vt 0.594206 0.439090
vt 0.519392 0.445861
vt 0.429897 0.333999
vt 0.443132 0.437987
vt 0.354016 0.648227
vt 0.284237 0.640853
vt 0.119704 0.344069
vt 0.093508 0.431295
vt 0.046074 0.356375
vt 0.491782 0.658376
vt 0.547810 0.741079
vt 0.546437 0.610290
vt 0.202235 0.082710
vt 0.152008 0.002438
vt 0.223133 0.017323
vt 0.364930 0.920922
vt 0.475467 0.972924
vt 0.248590 0.914052
vt 0.041375 0.133569
vt 0.188410 0.452511
vt 0.994603 0.265416
vt 0.090432 0.683862
vt 0.778911 0.997562
vt 0.691326 0.658687
vt 0.015167 0.556147
vt 0.650174 0.929688
vt 0.558406 0.929688
vt 0.995746 0.018129
vt 0.997562 0.374625
vt 0.837001 0.002438
vt 0.150721 0.683862
vt 0.864155 0.980746
vt 0.804848 0.728132
vt 0.606052 0.450737
vt 0.552687 0.656969
vt 0.547810 0.498664
vt 0.712005 0.433488
vt 0.749018 0.438364
vt 0.923130 0.438364
vt 0.686450 0.231300
vt 0.002438 0.678986
vt 0.002438 0.264689
vt 0.490297 0.795162
vt 0.072106 0.014337
vn -0.445000 -0.648000 -0.618100
vn -0.291700 -0.853900 -0.430900
vn -0.378100 -0.917100 -0.125900
vn 0.305800 -0.546200 -0.779800
vn 0.428700 -0.550600 -0.716200
vn 0.378600 -0.713800 -0.589100
vn 0.437000 -0.622300 0.649400
vn 0.357400 -0.743400 0.565300
vn 0.500100 -0.812400 0.299800
vn -0.152900 -0.427900 0.890800
vn -0.484400 -0.498500 0.718900
vn -0.346300 -0.782800 0.517000
vn 0.156600 -0.951100 -0.266100
vn 0.215800 -0.823900 -0.523900
vn -0.054000 0.983200 -0.174300
vn -0.143400 0.842500 -0.519200
vn -0.348700 0.800200 -0.487900
vn -0.675300 -0.726200 0.128500
vn -0.386500 -0.921000 0.047800
vn -0.407100 -0.883700 0.230800
vn -0.791100 0.594400 0.144500
vn -0.976600 -0.155500 0.148300
vn -0.871900 -0.071700 0.484300
vn -0.475100 0.579200 -0.662400
vn -0.558400 -0.015100 -0.829400
vn -0.910400 -0.117000 -0.396900
vn 0.093000 -0.608500 -0.788000
vn 0.085000 -0.869300 -0.486900
vn -0.095400 -0.858100 -0.504600
vn -0.232700 0.439600 -0.867500
vn 0.087600 0.383500 -0.919400
vn 0.087500 -0.160500 -0.983100
vn 0.409200 0.631400 -0.658600
vn 0.472700 0.120600 -0.872900
vn 0.353000 -0.018300 -0.935400
vn 0.797100 -0.598000 0.084000
vn 0.527500 -0.847700 0.055100
vn 0.446500 -0.845600 -0.292500
vn 0.582000 0.735300 -0.347300
vn 0.745400 0.666400 0.016200
vn 0.999100 0.039800 0.010300
vn 0.681000 0.661200 0.314600
vn 0.424100 0.669700 0.609600
vn 0.648600 -0.095400 0.755100
vn 0.052300 -0.439300 0.896800
vn 0.066800 -0.794800 0.603200
vn 0.152000 -0.783000 0.603100
vn 0.182600 0.583800 0.791100
vn -0.002600 0.433600 0.901100
vn -0.000500 -0.047200 0.998900
vn -0.465300 0.527800 0.710500
vn -0.601300 -0.020800 0.798700
vn -0.173000 -0.017800 0.984700
vn 0.145800 -0.989200 0.014700
vn -0.152000 -0.966900 0.204900
vn -0.142200 -0.989300 0.030400
vn -0.003100 -0.999800 0.017900
vn 0.034500 -0.986500 -0.159800
vn -0.052900 0.998600 -0.006500
vn -0.372800 0.925600 0.064800
vn -0.317000 0.914500 0.251200
vn 0.088600 0.996000 -0.009700
vn 0.000700 0.996900 -0.078500
vn 0.019800 0.996000 0.087300
vn 0.270900 0.781000 -0.562700
vn 0.037200 0.861800 -0.505900
vn 0.012900 0.992600 -0.120800
vn -0.625100 -0.752000 -0.209100
vn 0.712100 -0.615000 0.338600
vn 0.946700 -0.073500 0.313500
vn -0.121600 -0.785600 0.606700
vn -0.368400 0.904300 -0.215400
vn -0.685600 -0.614800 0.389800
vn -0.670900 0.608600 0.423600
vn -0.735700 0.614800 -0.284100
vn -0.135000 -0.595400 -0.791900
vn -0.213500 -0.084600 -0.973200
vn 0.360900 0.392600 -0.845900
vn 0.391900 0.784100 -0.481200
vn 0.716200 -0.593200 -0.367500
vn 0.846600 0.136400 -0.514400
vn 0.277900 0.916100 -0.288900
vn 0.326700 0.943100 0.062200
vn 0.239100 0.926000 0.292200
vn 0.253700 0.908300 0.332500
vn 0.164400 -0.562500 0.810300
vn 0.207300 -0.136100 0.968700
vn 0.182800 0.903600 0.387300
vn 0.046500 0.848100 0.527700
vn -0.148800 0.484000 0.862300
vn -0.107200 0.881600 0.459700
vn -0.277500 0.862600 0.423000
vn 0.157000 -0.943500 0.291700
vn 0.016000 -0.972400 0.232900
vn -0.123000 -0.982300 -0.141300
vn -0.074800 0.990200 0.117800
vn 0.181900 0.962300 0.202000
vn 0.071800 0.984800 -0.157800
usemtl Material.004
s 1
f 2/1/1 3/2/2 4/3/3
f 5/4/4 6/5/5 7/6/6
f 10/7/7 11/8/8 12/9/9
f 13/10/10 14/11/11 15/12/12
f 17/13/13 8/14/14 7/6/6
f 19/15/15 20/16/16 21/17/17
f 24/18/18 25/19/19 26/20/20
f 28/21/21 29/22/22 30/23/23
f 32/24/24 33/25/25 34/26/26
f 36/27/27 37/28/28 38/29/29
f 39/30/30 40/31/31 41/32/32
f 44/33/33 45/34/34 46/35/35
f 48/36/36 49/37/37 18/38/38
f 50/39/39 51/40/40 52/41/41
f 54/42/42 55/43/43 56/44/44
f 59/45/45 60/46/46 61/47/47
f 62/48/48 63/49/49 64/50/50
f 67/51/51 68/52/52 69/53/53
f 71/54/54 49/55/37 12/56/9
f 72/57/55 73/58/56 74/59/57
f 38/60/29 37/61/28 77/62/58
f 79/63/59 80/64/60 81/65/61
f 83/66/62 84/67/63 85/68/64
f 87/69/65 88/70/66 89/71/67
f 1/72/68 4/3/3 25/73/19
f 29/74/22 34/75/26 1/76/68
f 33/25/25 2/77/1 1/78/68
f 5/4/4 8/14/14 37/79/28
f 46/35/35 5/80/4 36/81/27
f 46/35/35 45/34/34 6/82/5
f 9/83/69 12/84/9 49/37/37
f 57/85/70 9/86/69 48/87/36
f 56/88/44 10/7/7 9/89/69
f 59/45/45 13/10/10 16/90/71
f 64/50/50 69/53/53 13/91/10
f 69/53/53 68/52/52 14/92/11
f 71/54/54 17/93/13 18/94/38
f 74/59/57 77/62/58 17/93/13
f 77/62/58 37/61/28 8/95/14
f 79/63/59 19/15/15 22/96/72
f 84/67/63 89/71/67 19/15/15
f 89/71/67 88/70/66 20/16/16
f 23/97/73 26/20/20 15/98/12
f 68/99/52 30/23/23 23/100/73
f 30/101/23 29/102/22 24/18/18
f 27/103/74 30/23/23 68/99/52
f 81/104/61 27/105/74 67/106/51
f 80/107/60 28/108/21 27/105/74
f 31/109/75 34/75/26 29/74/22
f 22/110/72 31/111/75 28/108/21
f 22/112/72 21/113/17 32/114/24
f 35/115/76 38/29/29 3/116/2
f 42/117/77 35/118/76 2/119/1
f 41/32/32 36/120/27 35/118/76
f 32/121/24 39/30/30 42/117/77
f 21/113/17 20/122/16 39/123/30
f 20/122/16 88/124/66 40/125/31
f 43/126/78 46/35/35 41/127/32
f 88/128/66 87/129/65 43/130/78
f 91/131/79 44/132/33 43/130/78
f 6/5/5 47/133/80 18/134/38
f 45/34/34 53/135/81 47/136/80
f 52/41/41 48/87/36 47/137/80
f 44/132/33 50/138/39 53/139/81
f 92/140/82 50/138/39 44/132/33
f 93/141/83 51/142/40 50/143/39
f 51/40/40 54/42/42 57/85/70
f 93/141/83 94/144/84 54/145/42
f 94/144/84 95/146/85 55/147/43
f 58/148/86 61/47/47 11/149/8
f 65/150/87 58/148/86 10/151/7
f 64/152/50 59/45/45 58/148/86
f 55/153/43 62/48/48 65/154/87
f 95/146/85 96/155/88 62/156/48
f 96/157/88 97/158/89 63/159/49
f 66/160/90 69/53/53 64/50/50
f 98/161/91 66/162/90 63/159/49
f 90/163/92 67/164/51 66/162/90
f 70/165/93 12/56/9 11/166/8
f 75/167/94 70/165/93 61/168/47
f 74/59/57 71/54/54 70/165/93
f 16/169/71 72/57/55 75/167/94
f 15/98/12 26/20/20 72/170/55
f 26/171/20 25/172/19 73/58/56
f 76/173/95 77/62/58 74/59/57
f 4/174/3 76/173/95 73/58/56
f 3/2/2 38/175/29 76/176/95
f 78/177/96 81/65/61 90/178/92
f 85/68/64 78/177/96 98/179/91
f 84/67/63 79/63/59 78/177/96
f 96/155/88 82/180/97 85/181/64
f 95/146/85 94/144/84 82/180/97
f 94/144/84 93/141/83 83/182/62
f 86/183/98 89/71/67 84/67/63
f 92/184/82 86/183/98 83/66/62
f 91/185/79 87/69/65 86/183/98
f 1/72/68 2/1/1 4/3/3
f 8/14/14 5/4/4 7/6/6
f 9/89/69 10/7/7 12/9/9
f 16/90/71 13/10/10 15/12/12
f 18/134/38 17/13/13 7/6/6
f 22/96/72 19/15/15 21/17/17
f 23/97/73 24/18/18 26/20/20
f 27/103/74 28/21/21 30/23/23
f 31/186/75 32/24/24 34/26/26
f 35/115/76 36/27/27 38/29/29
f 42/117/77 39/30/30 41/32/32
f 43/126/78 44/33/33 46/35/35
f 47/187/80 48/36/36 18/38/38
f 53/188/81 50/39/39 52/41/41
f 57/85/70 54/42/42 56/44/44
f 58/148/86 59/45/45 61/47/47
f 65/154/87 62/48/48 64/50/50
f 66/160/90 67/51/51 69/53/53
f 70/165/93 71/54/54 12/56/9
f 75/167/94 72/57/55 74/59/57
f 76/173/95 38/60/29 77/62/58
f 78/177/96 79/63/59 81/65/61
f 82/189/97 83/66/62 85/68/64
f 86/183/98 87/69/65 89/71/67
f 24/190/18 1/72/68 25/73/19
f 24/191/18 29/74/22 1/76/68
f 34/26/26 33/25/25 1/78/68
f 36/192/27 5/4/4 37/79/28
f 41/127/32 46/35/35 36/81/27
f 5/80/4 46/35/35 6/82/5
f 48/36/36 9/83/69 49/37/37
f 52/41/41 57/85/70 48/87/36
f 57/193/70 56/88/44 9/89/69
f 60/46/46 59/45/45 16/90/71
f 59/194/45 64/50/50 13/91/10
f 13/91/10 69/53/53 14/92/11
f 49/55/37 71/54/54 18/94/38
f 71/54/54 74/59/57 17/93/13
f 17/93/13 77/62/58 8/95/14
f 80/64/60 79/63/59 22/96/72
f 79/63/59 84/67/63 19/15/15
f 19/15/15 89/71/67 20/16/16
f 14/195/11 23/97/73 15/98/12
f 14/196/11 68/99/52 23/100/73
f 23/97/73 30/101/23 24/18/18
f 67/197/51 27/103/74 68/99/52
f 90/198/92 81/104/61 67/106/51
f 81/104/61 80/107/60 27/105/74
f 28/199/21 31/109/75 29/74/22
f 80/107/60 22/110/72 28/108/21
f 31/200/75 22/112/72 32/114/24
f 2/201/1 35/115/76 3/116/2
f 33/202/25 42/117/77 2/119/1
f 42/117/77 41/32/32 35/118/76
f 33/202/25 32/121/24 42/117/77
f 32/114/24 21/113/17 39/123/30
f 39/123/30 20/122/16 40/125/31
f 40/203/31 43/126/78 41/127/32
f 40/204/31 88/128/66 43/130/78
f 87/129/65 91/131/79 43/130/78
f 7/6/6 6/5/5 18/134/38
f 6/82/5 45/34/34 47/136/80
f 53/188/81 52/41/41 47/137/80
f 45/205/34 44/132/33 53/139/81
f 91/131/79 92/140/82 44/132/33
f 92/206/82 93/141/83 50/143/39
f 52/41/41 51/40/40 57/85/70
f 51/142/40 93/141/83 54/145/42
f 54/145/42 94/144/84 55/147/43
f 10/151/7 58/148/86 11/149/8
f 56/207/44 65/150/87 10/151/7
f 65/150/87 64/152/50 58/148/86
f 56/208/44 55/153/43 65/154/87
f 55/147/43 95/146/85 62/156/48
f 62/209/48 96/157/88 63/159/49
f 63/49/49 66/160/90 64/50/50
f 97/158/89 98/161/91 63/159/49
f 98/161/91 90/163/92 66/162/90
f 61/168/47 70/165/93 11/166/8
f 60/210/46 75/167/94 61/168/47
f 75/167/94 74/59/57 70/165/93
f 60/210/46 16/169/71 75/167/94
f 16/211/71 15/98/12 72/170/55
f 72/57/55 26/171/20 73/58/56
f 73/58/56 76/173/95 74/59/57
f 25/172/19 4/174/3 73/58/56
f 4/3/3 3/2/2 76/176/95
f 98/179/91 78/177/96 90/178/92
f 97/212/89 85/68/64 98/179/91
f 85/68/64 84/67/63 78/177/96
f 97/213/89 96/155/88 85/181/64
f 96/155/88 95/146/85 82/180/97
f 82/180/97 94/144/84 83/182/62
f 83/66/62 86/183/98 84/67/63
f 93/214/83 92/184/82 83/66/62
f 92/184/82 91/185/79 86/183/98
