# Blender v2.75 (sub 0) OBJ File: 'Rocks.blend'
# www.blender.org
mtllib Rock_1.mtl
o Icosphere.002
v 0.000193 -0.008890 0.002646
v 0.045166 0.001370 0.030811
v -0.018682 -0.005579 0.051812
v 0.088668 0.017547 0.055749
v 0.096706 0.016454 0.003865
v -0.060770 -0.003248 0.002875
v -0.018776 0.001718 -0.046930
v 0.044738 -0.001744 -0.025086
v 0.120518 0.046398 0.035122
v -0.035119 0.014747 0.090607
v 0.033070 0.009678 0.085935
v -0.000005 0.046408 0.105937
v -0.107162 0.023183 -0.005066
v -0.087326 0.009323 0.054629
v -0.117587 0.050649 0.030848
v -0.033818 0.028115 -0.079972
v -0.084480 0.017935 -0.051776
v -0.074369 0.047359 -0.079437
v 0.077030 0.022570 -0.042305
v 0.033213 0.012167 -0.079439
v 0.066939 0.047280 -0.069194
v 0.073458 0.049424 0.080563
v -0.074686 0.046411 0.086346
v -0.112761 0.056925 -0.038813
v 0.001784 0.045570 -0.099607
v 0.114651 0.048728 -0.015931
v 0.030010 0.072067 0.089038
v 0.091124 0.071961 0.046316
v 0.019144 0.104498 0.055694
v -0.092511 0.078670 0.057421
v -0.046123 0.096952 0.087859
v -0.054277 0.106885 0.035208
v -0.091556 0.078580 -0.050753
v -0.107544 0.084340 0.002839
v -0.054043 0.106641 -0.028061
v 0.027612 0.068976 -0.083445
v -0.033637 0.082714 -0.079803
v 0.015425 0.098178 -0.038622
v 0.108894 0.076919 0.004783
v 0.077340 0.076485 -0.037538
v 0.054256 0.094240 0.003848
v -0.000368 0.116468 0.003587
vt 0.221339 0.234199
vt 0.221867 0.115883
vt 0.330121 0.209841
vt 0.651205 0.002033
vt 0.651205 0.117438
vt 0.548583 0.041110
vt 0.316974 0.502440
vt 0.221339 0.438331
vt 0.348990 0.371917
vt 0.439390 0.485540
vt 0.359501 0.610826
vt 0.325416 0.991967
vt 0.342304 0.878063
vt 0.425724 0.951062
vt 0.872674 0.340454
vt 0.972168 0.224430
vt 0.986348 0.340454
vt 0.754154 0.829364
vt 0.754154 0.962768
vt 0.665590 0.885358
vt 0.097792 0.551216
vt 0.057764 0.428662
vt 0.145178 0.464108
vt 0.700731 0.211963
vt 0.655450 0.097065
vt 0.751753 0.155120
vt 0.833851 0.437882
vt 0.885862 0.347074
vt 0.918558 0.486449
vt 0.017877 0.706883
vt 0.129053 0.697713
vt 0.002122 0.815301
vt 0.703267 0.736063
vt 0.145178 0.636742
vt 0.778154 0.297283
vt 0.771918 0.488871
vt 0.751121 0.650486
vt 0.665590 0.500494
vt 0.442039 0.709505
vt 0.440768 0.837477
vt 0.339452 0.769077
vt 0.848764 0.824545
vt 0.943874 0.741656
vt 0.943874 0.879637
vt 0.002122 0.268853
vt 0.002923 0.131608
vt 0.118086 0.224717
vt 0.217094 0.424596
vt 0.119605 0.364914
vt 0.214058 0.301433
vt 0.336830 0.070522
vt 0.434528 0.187472
vt 0.224402 0.002033
vt 0.548953 0.177396
vt 0.467922 0.120473
vt 0.239853 0.584726
vt 0.872674 0.083105
vt 0.979104 0.002033
vt 0.979104 0.143035
vt 0.303132 0.343008
vt 0.434528 0.326485
vt 0.002122 0.565886
vt 0.490487 0.347074
vt 0.891345 0.220364
vt 0.438773 0.245264
vt 0.490487 0.612054
vt 0.047685 0.693647
vt 0.212918 0.795373
vt 0.133298 0.712403
vt 0.212918 0.697713
vt 0.425724 0.841543
vt 0.463854 0.008019
vt 0.825871 0.422856
vt 0.825871 0.583870
vt 0.918558 0.649596
vt 0.830116 0.576663
vt 0.608905 0.726292
vt 0.494732 0.834651
vt 0.506835 0.735323
vt 0.608905 0.850011
vt 0.504603 0.935796
vt 0.868429 0.219122
vt 0.831698 0.323663
vt 0.786560 0.273148
vt 0.321171 0.997967
vt 0.239912 0.950434
vt 0.321171 0.873733
vt 0.221339 0.841543
vt 0.712795 0.002033
vt 0.778154 0.056195
vt 0.800482 0.724835
vt 0.700970 0.731997
vt 0.129053 0.852755
vt 0.016903 0.907410
vt 0.686248 0.347074
vt 0.830116 0.755451
vt 0.941008 0.653663
vt 0.442039 0.616120
vt 0.347295 0.624061
vt 0.868429 0.046487
vt 0.782399 0.134435
vt 0.802203 0.002033
vt 0.922803 0.581462
vt 0.997768 0.495332
vt 0.997878 0.610413
vt 0.928207 0.424875
vt 0.997878 0.347074
vt 0.624149 0.492251
vt 0.537513 0.603469
vt 0.494732 0.480946
vt 0.661345 0.662494
vt 0.579101 0.722226
vt 0.538141 0.359891
vt 0.661345 0.347074
vt 0.221339 0.695837
vt 0.224572 0.831987
vt 0.125393 0.069973
vt 0.217094 0.176660
vt 0.039885 0.002033
vn 0.036000 -0.998600 -0.039200
vn 0.230500 -0.966200 0.115300
vn -0.040700 -0.970000 0.239700
vn 0.562500 -0.689700 0.456000
vn 0.605100 -0.789200 -0.104700
vn -0.275900 -0.958400 -0.073100
vn -0.110200 -0.924300 -0.365500
vn 0.261200 -0.950300 -0.169100
vn 0.945500 -0.043600 0.322500
vn -0.202700 -0.616800 0.760500
vn 0.246300 -0.701300 0.668900
vn 0.058000 -0.012900 0.998200
vn -0.783800 -0.613200 -0.097800
vn -0.584100 -0.708700 0.395700
vn -0.962000 -0.027600 0.271600
vn -0.208300 -0.651400 -0.729600
vn -0.519200 -0.705000 -0.483200
vn -0.491600 -0.081100 -0.867000
vn 0.611500 -0.632100 -0.475800
vn 0.265800 -0.676300 -0.687000
vn 0.637300 0.050000 -0.768900
vn 0.537200 0.131200 0.833200
vn -0.557500 -0.076200 0.826600
vn -0.912300 0.060100 -0.405000
vn 0.032600 -0.056600 -0.997800
vn 0.904000 -0.056200 -0.423800
vn 0.308700 0.530600 0.789400
vn 0.531300 0.716100 0.452700
vn 0.254200 0.898300 0.358300
vn -0.700900 0.528800 0.478600
vn -0.237700 0.683400 0.690200
vn -0.280000 0.948600 0.147100
vn -0.577500 0.618900 -0.532300
vn -0.748700 0.662800 -0.002400
vn -0.232700 0.935900 -0.264400
vn 0.319500 0.564900 -0.760800
vn -0.133900 0.668200 -0.731800
vn 0.216600 0.899200 -0.380100
vn 0.686700 0.723900 -0.066200
vn 0.504600 0.720800 -0.475100
vn 0.357600 0.932400 -0.052200
vn 0.119300 0.990500 -0.068300
usemtl Material.006
s 1
f 1/1/1 2/2/2 3/3/3
f 4/4/4 2/5/2 5/6/5
f 1/7/1 3/8/3 6/9/6
f 1/7/1 6/9/6 7/10/7
f 1/7/1 7/10/7 8/11/8
f 4/12/4 5/13/5 9/14/9
f 10/15/10 11/16/11 12/17/12
f 13/18/13 14/19/14 15/20/15
f 16/21/16 17/22/17 18/23/18
f 19/24/19 20/25/20 21/26/21
f 4/27/4 9/28/9 22/29/22
f 10/30/10 12/31/12 23/32/23
f 13/18/13 15/20/15 24/33/24
f 16/21/16 18/23/18 25/34/25
f 19/24/19 21/26/21 26/35/26
f 27/36/27 28/37/28 29/38/29
f 30/39/30 31/40/31 32/41/32
f 33/42/33 34/43/34 35/44/35
f 36/45/36 37/46/37 38/47/38
f 39/48/39 40/49/40 41/50/41
f 3/3/3 11/51/11 10/52/10
f 3/3/3 2/2/2 11/51/11
f 2/2/2 4/53/4 11/51/11
f 5/6/5 8/54/8 19/55/19
f 5/6/5 2/5/2 8/54/8
f 2/56/2 1/7/1 8/11/8
f 6/57/6 14/58/14 13/59/13
f 6/60/6 3/3/3 14/61/14
f 3/3/3 10/52/10 14/61/14
f 7/62/7 17/22/17 16/21/16
f 7/10/7 6/9/6 17/63/17
f 6/57/6 13/59/13 17/64/17
f 8/54/8 20/65/20 19/55/19
f 8/11/8 7/10/7 20/66/20
f 7/62/7 16/21/16 20/67/20
f 9/68/9 26/69/26 39/70/39
f 9/14/9 5/13/5 26/71/26
f 5/6/5 19/55/19 26/72/26
f 12/73/12 22/74/22 27/36/27
f 12/75/12 11/76/11 22/29/22
f 11/76/11 4/27/4 22/29/22
f 15/77/15 23/78/23 30/79/30
f 15/77/15 14/80/14 23/78/23
f 14/80/14 10/81/10 23/78/23
f 18/82/18 24/83/24 33/84/33
f 18/85/18 17/86/17 24/87/24
f 17/86/17 13/88/13 24/87/24
f 21/26/21 25/89/25 36/90/36
f 21/26/21 20/25/20 25/89/25
f 20/67/20 16/21/16 25/34/25
f 22/74/22 28/37/28 27/36/27
f 22/74/22 9/91/9 28/37/28
f 9/91/9 39/92/39 28/37/28
f 23/32/23 31/93/31 30/94/30
f 23/32/23 12/31/12 31/93/31
f 12/73/12 27/36/27 31/95/31
f 24/96/24 34/43/34 33/42/33
f 24/96/24 15/97/15 34/43/34
f 15/98/15 30/39/30 34/99/34
f 25/100/25 37/101/37 36/102/36
f 25/100/25 18/82/18 37/101/37
f 18/82/18 33/84/33 37/101/37
f 26/103/26 40/104/40 39/105/39
f 26/103/26 21/106/21 40/104/40
f 21/106/21 36/107/36 40/104/40
f 29/108/29 41/109/41 42/110/42
f 29/108/29 28/111/28 41/109/41
f 28/111/28 39/112/39 41/109/41
f 32/113/32 29/108/29 42/110/42
f 32/113/32 31/114/31 29/108/29
f 31/95/31 27/36/27 29/38/29
f 35/115/35 32/41/32 42/116/42
f 35/115/35 34/99/34 32/41/32
f 34/99/34 30/39/30 32/41/32
f 38/47/38 35/117/35 42/118/42
f 38/47/38 37/46/37 35/117/35
f 37/46/37 33/119/33 35/117/35
f 41/50/41 38/47/38 42/118/42
f 41/50/41 40/49/40 38/47/38
f 40/49/40 36/45/36 38/47/38
