#name "Meet"
#participants 3

say 2 "???" "One thing I just don't get..."
say 2 "???" "Why him?"
say 3 "????" "The prisoner?"
say 2 "???" "Yeah - [wait 0.3]the one with the blue hoodie."
say 2 "???" "I've never seen him. [wait 0.3]At least, [wait 0.2]not in the city."
say 2 "???" "Then again, [wait 0.4]I bet the only times he's seen the richer districts is when he's stealing something."
say 3 "????" "[wait 0.3]But, [wait 0.2]I saw 'im in the Empry. [wait 0.3]A bit [wait 0.2]quiet, [wait 0.4]though."
say 2 "???" "Really? [wait 0.3]You mean someone that young can get in the Empry?"
say 3 "????" "Right? [wait 0.5]Usually it's a bunch of retired warriors and old guys."
say 3 "????" "I can't imagine someone like him givin' a speech. [wait 0.3]Definitely isn't retired."
say 3 "????" "He must have inherited. [wait 0.3]Only way I can explain it."
say 2 "???" "[wait 0.3]Some weird things have been happening, [wait 0.4]anyways."
say 3 "????" "[wait 0.2]Whatever they're doing in the Empry, [wait 0.4]I don't exactly care much."
say 3 "????" "As long as we're all in good hands."
say 2 "???" "And not starving."
