# Blender v2.75 (sub 0) OBJ File: ''
# www.blender.org
mtllib Pickaxe.mtl
o Cube
v 0.009891 0.033410 0.472657
v 0.006056 0.024493 0.472781
v 0.006056 0.018741 0.058970
v 0.009891 0.027657 0.058846
v 0.007609 0.037090 0.058715
v 0.007609 0.042843 0.472526
v -0.003378 0.022211 0.472812
v -0.003378 0.016459 0.059002
v 0.011343 0.012414 0.054411
v 0.017591 0.026941 0.054209
v 0.013872 0.042312 0.053996
v -0.001308 0.046678 0.472472
v -0.001308 0.040925 0.058662
v -0.012295 0.026046 0.472759
v -0.012295 0.020293 0.058949
v -0.004029 0.008695 0.054463
v 0.013835 0.008746 0.003060
v 0.021222 0.025919 0.002821
v -0.000657 0.048559 0.053909
v 0.016826 0.044090 0.002569
v -0.010743 0.038643 0.058694
v -0.010743 0.044395 0.472504
v -0.014577 0.035479 0.472628
v -0.014577 0.029727 0.058818
v -0.018558 0.014943 0.054376
v -0.004337 0.004350 0.003121
v 0.013835 0.004591 -0.295844
v 0.021222 0.021764 -0.296083
v -0.016029 0.044841 0.053961
v -0.000350 0.051475 0.002466
v 0.016826 0.039934 -0.296336
v -0.022277 0.030313 0.054163
v -0.021512 0.011736 0.003018
v -0.004336 0.001099 -0.230779
v 0.002895 0.002791 -0.234897
v 0.005891 0.003379 -0.244750
v 0.002895 0.002516 -0.254661
v -0.004336 0.000710 -0.258730
v -0.004336 0.000195 -0.295783
v 0.004887 0.015072 -0.304626
v 0.008187 0.022747 -0.304733
v -0.018522 0.047079 0.002527
v -0.000350 0.047320 -0.296438
v -0.000350 0.047835 -0.259385
v 0.006485 0.044953 -0.255251
v 0.009317 0.043873 -0.245313
v 0.006485 0.045227 -0.235487
v -0.000350 0.048223 -0.231434
v 0.006223 0.030866 -0.304846
v -0.025908 0.029906 0.002766
v -0.021512 0.007580 -0.295886
v -0.011172 0.003706 -0.254677
v -0.014003 0.005062 -0.244774
v -0.011172 0.003981 -0.234913
v -0.003234 0.013108 -0.304599
v -0.010909 0.016408 -0.304645
v -0.012874 0.024528 -0.304758
v -0.009573 0.032203 -0.304864
v -0.001452 0.034167 -0.304892
v -0.007581 0.046417 -0.235503
v -0.010577 0.045556 -0.245337
v -0.007581 0.046142 -0.255267
v -0.018521 0.042924 -0.296377
v -0.025908 0.025751 -0.296139
v -0.143304 0.005156 0.472658
v -0.229110 0.001261 0.446451
v -0.225061 0.000839 0.440721
v -0.141279 0.004838 0.462089
v -0.220375 0.104511 0.445016
v -0.136381 0.086983 0.471520
v -0.216325 0.104089 0.439286
v -0.051635 0.008360 0.484849
v -0.134356 0.086665 0.460951
v -0.046524 0.068765 0.484009
v -0.051635 0.008146 0.469441
v -0.046524 0.068551 0.468601
v 0.033213 0.001183 0.484949
v 0.038323 0.061588 0.484109
v 0.033213 0.000969 0.469541
v 0.038323 0.061374 0.468701
v 0.115888 0.005146 0.477487
v 0.119141 0.043589 0.476953
v 0.118353 0.043518 0.467019
v 0.115101 0.005075 0.467553
v 0.158651 0.009579 0.466719
v 0.160526 0.031741 0.466411
v 0.159697 0.031711 0.459223
v 0.157822 0.009549 0.459531
v 0.198343 0.014214 0.451793
v 0.198841 0.020094 0.451711
v 0.197970 0.020106 0.447269
v 0.197472 0.014226 0.447351
v 0.207160 0.016339 0.445271
v 0.021222 0.022474 -0.245016
v 0.013835 0.005301 -0.244777
v 0.016826 0.040644 -0.245268
v -0.021512 0.008290 -0.244819
v -0.018521 0.043634 -0.245310
v -0.025908 0.026461 -0.245071
vt 0.944772 0.879280
vt 0.925806 0.879307
vt 0.925805 0.001855
vt 0.944772 0.001828
vt 0.960877 0.002003
vt 0.960877 0.879455
vt 0.905667 0.879334
vt 0.905667 0.001828
vt 0.922889 0.001911
vt 0.603289 0.970688
vt 0.593036 0.998031
vt 0.570671 0.960402
vt 0.591923 0.927713
vt 0.591923 0.951564
vt 0.848052 0.879387
vt 0.848052 0.001876
vt 0.866379 0.001828
vt 0.887032 0.879373
vt 0.887032 0.001868
vt 0.622234 0.970760
vt 0.630311 0.998172
vt 0.684565 0.744802
vt 0.679819 0.635693
vt 0.723935 0.635631
vt 0.570671 0.913472
vt 0.600491 0.885427
vt 0.753571 0.745093
vt 0.721884 0.744749
vt 0.884116 0.001893
vt 0.884116 0.879403
vt 0.982802 0.001828
vt 0.998542 0.002857
vt 0.998542 0.877808
vt 0.637389 0.956506
vt 0.660131 0.970126
vt 0.600684 0.001828
vt 0.634570 0.001991
vt 0.633557 0.111058
vt 0.679819 0.110175
vt 0.679819 0.001891
vt 0.723935 0.001828
vt 0.626022 0.913530
vt 0.607078 0.913459
vt 0.512844 0.744829
vt 0.506700 0.635785
vt 0.549328 0.635673
vt 0.723935 0.110113
vt 0.761394 0.002235
vt 0.963793 0.876864
vt 0.963793 0.001914
vt 0.637389 0.932655
vt 0.660131 0.923196
vt 0.671237 0.001913
vt 0.676903 0.110967
vt 0.549328 0.080402
vt 0.532363 0.089127
vt 0.506700 0.001940
vt 0.676903 0.837365
vt 0.650345 0.881770
vt 0.635732 0.844960
vt 0.637766 0.885568
vt 0.583803 0.744862
vt 0.548905 0.744735
vt 0.647600 0.825116
vt 0.647600 0.800312
vt 0.772295 0.001828
vt 0.803264 0.003852
vt 0.800920 0.113313
vt 0.549328 0.001828
vt 0.590583 0.001979
vt 0.606082 0.881770
vt 0.615951 0.844960
vt 0.600127 0.805274
vt 0.840667 0.003684
vt 0.845136 0.113115
vt 0.641492 0.748556
vt 0.676903 0.781859
vt 0.764310 0.634941
vt 0.800920 0.637334
vt 0.800920 0.745309
vt 0.570671 0.848467
vt 0.600127 0.830078
vt 0.570671 0.792962
vt 0.597229 0.748557
vt 0.611995 0.785430
vt 0.631776 0.785430
vt 0.845136 0.637136
vt 0.845136 0.745111
vt 0.523373 0.888938
vt 0.506700 0.881953
vt 0.506700 0.755504
vt 0.523373 0.748519
vt 0.540122 0.755504
vt 0.715991 0.748891
vt 0.732538 0.749567
vt 0.732537 0.866768
vt 0.732033 0.992416
vt 0.715991 0.997996
vt 0.715991 0.876274
vt 0.749411 0.748750
vt 0.749411 0.871572
vt 0.732033 0.876265
vt 0.749308 0.875370
vt 0.713075 0.882184
vt 0.697139 0.889170
vt 0.697139 0.748750
vt 0.679819 0.882184
vt 0.679819 0.755735
vt 0.451197 0.179298
vt 0.494002 0.001828
vt 0.503784 0.010224
vt 0.001458 0.916104
vt 0.019636 0.730778
vt 0.158510 0.730778
vt 0.552159 0.960039
vt 0.543038 0.962628
vt 0.543038 0.751108
vt 0.197783 0.736120
vt 0.336657 0.736120
vt 0.354835 0.912225
vt 0.376725 0.742915
vt 0.394642 0.738872
vt 0.429309 0.916650
vt 0.037815 0.536009
vt 0.140332 0.536009
vt 0.458278 0.368327
vt 0.432225 0.368761
vt 0.215962 0.547375
vt 0.318478 0.547375
vt 0.357751 0.548598
vt 0.383805 0.548976
vt 0.037815 0.356358
vt 0.140331 0.356358
vt 0.433990 0.548053
vt 0.318478 0.366823
vt 0.359469 0.368273
vt 0.385523 0.368652
vt 0.056451 0.184843
vt 0.460043 0.547619
vt 0.464811 0.715898
vt 0.448032 0.717843
vt 0.299842 0.194523
vt 0.215962 0.366823
vt 0.373517 0.193572
vt 0.070267 0.098027
vt 0.107879 0.098027
vt 0.248414 0.104987
vt 0.286026 0.104987
vt 0.390297 0.195490
vt 0.392373 0.103565
vt 0.479009 0.802460
vt 0.466874 0.804415
vt 0.084083 0.018593
vt 0.272210 0.021937
vt 0.404510 0.105504
vt 0.418193 0.020185
vt 0.500170 0.882416
vt 0.492677 0.884382
vt 0.094063 0.018593
vt 0.089073 0.001828
vt 0.262230 0.021937
vt 0.267220 0.001828
vt 0.425686 0.022145
vt 0.429309 0.001828
vt 0.503783 0.901569
vt 0.761394 0.110520
vt 0.764310 0.110921
vt 0.590583 0.110270
vt 0.572547 0.110204
vt 0.565746 0.089142
vt 0.525336 0.110183
vt 0.506700 0.110232
vt 0.532363 0.131038
vt 0.565746 0.131053
vt 0.549328 0.139673
vt 0.590583 0.635824
vt 0.633558 0.666326
vt 0.633558 0.744900
vt 0.593499 0.744708
vt 0.676903 0.744808
vt 0.650808 0.657610
vt 0.657953 0.636557
vt 0.676903 0.636517
vt 0.593499 0.636417
vt 0.611012 0.636501
vt 0.617616 0.657570
vt 0.593499 0.110866
vt 0.617616 0.615659
vt 0.650808 0.615699
vt 0.633557 0.607056
vt 0.922889 0.879416
vt 0.866379 0.879339
vt 0.761394 0.636038
vt 0.982802 0.876779
vt 0.764310 0.742917
vt 0.540122 0.881953
vt 0.715991 0.871713
vt 0.749308 0.997091
vt 0.713075 0.755735
vt 0.469115 0.183278
vt 0.176689 0.916104
vt 0.552159 0.748519
vt 0.179605 0.912225
vt 0.419529 0.925116
vt 0.121695 0.184843
vt 0.234598 0.194523
vn 0.996400 -0.084300 0.001200
vn 0.645000 -0.764100 0.010600
vn 0.526200 -0.615400 0.586800
vn 0.838500 -0.063400 0.541200
vn 0.623500 0.534200 0.570800
vn 0.764200 0.644900 -0.008900
vn -0.084300 -0.996300 0.013800
vn -0.070900 -0.830900 0.551900
vn 0.565000 -0.662700 0.491500
vn 0.871300 -0.067000 0.486100
vn 0.070900 0.845900 0.528600
vn -0.764200 -0.644900 0.008900
vn -0.623500 -0.518100 0.585400
vn -0.073700 -0.864500 0.497200
vn 0.644500 -0.763100 0.047700
vn 0.995800 -0.083700 0.036300
vn 0.669500 0.571700 0.474300
vn 0.073700 0.878000 0.472900
vn -0.526200 0.631500 0.569400
vn -0.645000 0.764100 -0.010600
vn -0.838500 0.078400 0.539200
vn -0.669500 -0.558200 0.490000
vn -0.084200 -0.995200 0.049000
vn 0.580800 -0.694100 -0.425200
vn 0.895800 -0.081900 -0.436800
vn 0.763700 0.645000 0.028100
vn 0.084200 0.996200 0.021300
vn 0.688200 0.574700 -0.442800
vn -0.871300 0.080400 0.484000
vn -0.763700 -0.643900 0.046100
vn 0.073300 0.873500 0.481300
vn -0.181700 0.874100 0.450400
vn 0.223100 -0.277400 -0.934500
vn -0.565000 0.676100 0.472900
vn 0.338500 -0.041700 -0.940000
vn 0.264400 0.210000 -0.941300
vn -0.995800 0.084700 0.033900
vn 0.075800 0.889600 -0.450400
vn -0.580800 0.682100 -0.444300
vn -0.075800 -0.901800 -0.425500
vn -0.028600 -0.351500 -0.935700
vn -0.338500 0.015500 -0.940800
vn -0.644500 0.764100 0.026500
vn -0.996400 0.084300 -0.001200
vn -0.895800 0.069700 -0.438900
vn -0.688200 -0.586800 -0.426600
vn -0.264400 -0.236100 -0.935100
vn -0.223100 0.251300 -0.941800
vn 0.028600 0.325300 -0.945200
vn -0.073300 -0.873500 -0.481300
vn 0.181600 -0.873700 -0.451200
vn 0.324700 0.818000 -0.474700
vn 0.073300 0.859800 -0.505400
vn -0.181600 0.860900 -0.475300
vn 0.416900 -0.908800 0.011700
vn 0.563700 0.825900 -0.012400
vn -0.563600 -0.825900 0.010600
vn -0.324700 -0.830900 -0.451800
vn 0.181700 -0.861200 0.474600
vn 0.324900 0.831300 0.451000
vn -0.416900 0.908800 -0.013500
vn -0.073300 -0.859800 0.505400
vn -0.324900 -0.818400 0.474000
vn -0.135300 -0.665800 0.733800
vn -0.803100 -0.526000 0.279800
vn -0.294300 -0.629300 -0.719200
vn -0.019800 0.699000 0.714800
vn -0.702700 0.661000 0.263300
vn -0.186100 0.649700 -0.737000
vn 0.266500 0.692000 -0.670900
vn 0.144900 -0.745200 -0.650900
vn -0.069900 -0.665100 0.743400
vn 0.044600 0.687700 0.724600
vn 0.013500 -0.714200 -0.699800
vn 0.131600 0.682200 -0.719200
vn 0.016100 -0.703400 0.710600
vn 0.135700 0.710000 0.691000
vn -0.020200 -0.733100 -0.679800
vn 0.101700 0.707100 -0.699800
vn 0.165700 -0.689200 0.705300
vn -0.009300 -0.733900 -0.679100
vn 0.280700 0.670800 0.686400
vn 0.280200 -0.687700 0.669700
vn 0.393300 0.649100 0.651100
vn 0.035700 0.705300 -0.708000
vn -0.084900 -0.720500 -0.688200
vn 0.112500 0.706000 -0.699100
vn 0.423800 -0.675900 0.603000
vn -0.071300 -0.699000 -0.711500
vn 0.532700 0.611500 0.585000
vn 0.907200 -0.082500 -0.412600
vn 0.045400 0.681100 -0.730700
vn 0.084300 0.996300 -0.013800
usemtl Material
s 1
f 1/1/1 2/2/2 3/3/3
f 4/4/4 5/5/5 6/6/6
f 7/7/7 8/8/8 3/9/3
f 3/10/3 9/11/9 10/12/10
f 5/13/5 4/14/4 10/12/10
f 6/15/6 5/16/5 13/17/11
f 14/18/12 15/19/13 8/8/8
f 3/10/3 8/20/8 16/21/14
f 9/22/9 17/23/15 18/24/16
f 5/13/5 11/25/17 19/26/18
f 11/27/17 10/28/10 18/24/16
f 13/17/11 21/29/19 22/30/20
f 24/31/21 15/32/13 14/33/12
f 15/34/13 25/35/22 16/21/14
f 9/36/9 16/37/14 26/38/23
f 95/39/2 27/40/24 28/41/25
f 21/42/19 13/43/11 19/26/18
f 11/44/17 20/45/26 30/46/27
f 94/47/1 28/41/25 31/48/28
f 22/49/20 21/50/19 24/31/21
f 15/34/13 24/51/21 32/52/29
f 25/53/22 33/54/30 26/38/23
f 44/55/31 45/56/32 31/57/28
f 28/58/25 27/59/24 40/60/33
f 21/42/19 29/61/34 32/52/29
f 29/62/34 19/63/18 30/46/27
f 28/58/25 41/64/35 49/65/36
f 25/66/22 32/67/29 50/68/37
f 44/55/31 43/69/38 63/70/39
f 39/71/40 55/72/41 40/60/33
f 41/64/35 55/72/41 57/73/42
f 29/74/34 42/75/43 50/68/37
f 43/76/38 31/77/28 49/65/36
f 97/78/12 99/79/44 64/80/45
f 39/71/40 51/81/46 56/82/47
f 64/83/45 57/73/42 56/82/47
f 64/83/45 63/84/39 58/85/48
f 43/76/38 59/86/49 58/85/48
f 99/79/44 98/87/20 63/88/39
f 34/89/50 54/90/51 60/91/52
f 34/89/50 48/92/53 47/93/54
f 54/94/51 53/95/55 61/96/56
f 36/97/57 35/98/58 47/99/54
f 52/100/59 62/101/60 61/96/56
f 36/97/57 46/102/61 45/103/32
f 52/104/59 38/105/62 44/106/31
f 37/107/63 45/108/32 44/106/31
f 65/109/64 66/110/65 67/111/66
f 66/112/65 65/113/64 70/114/67
f 69/115/68 71/116/69 67/117/66
f 73/118/70 68/119/71 67/120/66
f 70/121/67 73/122/70 71/123/69
f 65/113/64 72/124/72 74/125/73
f 75/126/74 72/127/72 65/109/64
f 76/128/75 75/129/74 68/119/71
f 70/121/67 74/130/73 76/131/75
f 72/124/72 77/132/76 78/133/77
f 77/134/76 72/127/72 75/126/74
f 79/135/78 75/129/74 76/128/75
f 74/130/73 78/136/77 80/137/79
f 78/133/77 77/132/76 81/138/80
f 79/139/78 84/140/81 81/141/80
f 84/142/81 79/135/78 80/143/79
f 80/137/79 78/136/77 82/144/82
f 81/138/80 85/145/83 86/146/84
f 87/147/85 88/148/86 84/142/81
f 83/149/87 82/144/82 86/150/84
f 84/140/81 88/151/86 85/152/83
f 86/146/84 85/145/83 89/153/88
f 92/154/89 88/148/86 87/147/85
f 87/155/85 86/150/84 90/156/90
f 88/151/86 92/157/89 89/158/88
f 90/159/90 89/153/88 93/160/91
f 92/154/89 91/161/92 93/162/91
f 91/163/92 90/156/90 93/164/91
f 89/158/88 92/157/89 93/165/91
f 18/24/16 94/47/1 96/166/6
f 18/24/16 17/23/15 95/39/2
f 42/75/43 98/87/20 99/79/44
f 33/167/30 50/68/37 99/79/44
f 98/168/20 61/169/56 62/170/60
f 45/56/32 46/171/61 96/172/6
f 47/173/54 20/45/26 96/172/6
f 60/174/52 61/169/56 98/168/20
f 48/175/53 60/174/52 42/176/43
f 20/45/26 47/173/54 48/175/53
f 38/177/62 39/178/40 27/179/24
f 51/180/46 39/178/40 38/177/62
f 52/181/59 53/182/55 97/183/12
f 95/184/2 36/185/57 37/186/63
f 95/184/2 17/187/15 35/188/58
f 97/183/12 53/182/55 54/189/51
f 33/54/30 54/189/51 34/190/50
f 17/187/15 26/38/23 34/190/50
f 4/4/4 1/1/1 3/3/3
f 1/1/1 4/4/4 6/6/6
f 2/191/2 7/7/7 3/9/3
f 4/14/4 3/10/3 10/12/10
f 11/25/17 5/13/5 10/12/10
f 12/192/93 6/15/6 13/17/11
f 7/7/7 14/18/12 8/8/8
f 9/11/9 3/10/3 16/21/14
f 10/28/10 9/22/9 18/24/16
f 13/43/11 5/13/5 19/26/18
f 20/193/26 11/27/17 18/24/16
f 12/192/93 13/17/11 22/30/20
f 23/194/44 24/31/21 14/33/12
f 8/20/8 15/34/13 16/21/14
f 17/187/15 9/36/9 26/38/23
f 94/47/1 95/39/2 28/41/25
f 29/61/34 21/42/19 19/26/18
f 19/63/18 11/44/17 30/46/27
f 96/166/6 94/47/1 31/48/28
f 23/194/44 22/49/20 24/31/21
f 25/35/22 15/34/13 32/52/29
f 16/37/14 25/53/22 26/38/23
f 43/69/38 44/55/31 31/57/28
f 41/64/35 28/58/25 40/60/33
f 24/51/21 21/42/19 32/52/29
f 42/176/43 29/62/34 30/46/27
f 31/77/28 28/58/25 49/65/36
f 33/167/30 25/66/22 50/68/37
f 62/170/60 44/55/31 63/70/39
f 27/59/24 39/71/40 40/60/33
f 59/86/49 49/65/36 41/64/35
f 57/73/42 58/85/48 59/86/49
f 55/72/41 56/82/47 57/73/42
f 41/64/35 40/60/33 55/72/41
f 57/73/42 59/86/49 41/64/35
f 32/67/29 29/74/34 50/68/37
f 59/86/49 43/76/38 49/65/36
f 51/195/46 97/78/12 64/80/45
f 55/72/41 39/71/40 56/82/47
f 51/81/46 64/83/45 56/82/47
f 57/73/42 64/83/45 58/85/48
f 63/84/39 43/76/38 58/85/48
f 64/80/45 99/79/44 63/88/39
f 48/92/53 34/89/50 60/91/52
f 35/196/58 34/89/50 47/93/54
f 60/197/52 54/94/51 61/96/56
f 46/102/61 36/97/57 47/99/54
f 53/95/55 52/100/59 61/96/56
f 37/198/63 36/97/57 45/103/32
f 62/199/60 52/104/59 44/106/31
f 38/105/62 37/107/63 44/106/31
f 68/200/71 65/109/64 67/111/66
f 69/201/68 66/112/65 70/114/67
f 66/202/65 69/115/68 67/117/66
f 71/203/69 73/118/70 67/120/66
f 69/204/68 70/121/67 71/123/69
f 70/114/67 65/113/64 74/125/73
f 68/200/71 75/126/74 65/109/64
f 73/118/70 76/128/75 68/119/71
f 73/122/70 70/121/67 76/131/75
f 74/125/73 72/124/72 78/133/77
f 79/139/78 77/134/76 75/126/74
f 80/143/79 79/135/78 76/128/75
f 76/131/75 74/130/73 80/137/79
f 82/205/82 78/133/77 81/138/80
f 77/134/76 79/139/78 81/141/80
f 83/206/87 84/142/81 80/143/79
f 83/149/87 80/137/79 82/144/82
f 82/205/82 81/138/80 86/146/84
f 83/206/87 87/147/85 84/142/81
f 87/155/85 83/149/87 86/150/84
f 81/141/80 84/140/81 85/152/83
f 90/159/90 86/146/84 89/153/88
f 91/161/92 92/154/89 87/147/85
f 91/163/92 87/155/85 90/156/90
f 85/152/83 88/151/86 89/158/88
f 20/193/26 18/24/16 96/166/6
f 94/47/1 18/24/16 95/39/2
f 50/68/37 42/75/43 99/79/44
f 97/78/12 33/167/30 99/79/44
f 63/70/39 98/168/20 62/170/60
f 31/57/28 45/56/32 96/172/6
f 46/171/61 47/173/54 96/172/6
f 42/176/43 60/174/52 98/168/20
f 30/46/27 48/175/53 42/176/43
f 30/46/27 20/45/26 48/175/53
f 37/186/63 38/177/62 27/179/24
f 52/181/59 51/180/46 38/177/62
f 51/180/46 52/181/59 97/183/12
f 27/179/24 95/184/2 37/186/63
f 36/185/57 95/184/2 35/188/58
f 33/54/30 97/183/12 54/189/51
f 26/38/23 33/54/30 34/190/50
f 35/188/58 17/187/15 34/190/50
