#name "Intro"
#participants 2

say 0 "Ghost" "..."
say 0 "Ghost" "..."
say 0 "Ghost" "Where am I?"
say 0 "Ghost" "...[wait 0.5]right,[wait 0.2] the lake."
say 0 "Ghost" "That beast, and the cats..."
say 0 "Ghost" "I must've gone here to sleep."
say 0 "Ghost" "I don't think I can get out through here..."
