#name "WinConscious"
#participants 3

say 0 "Gunk" "..."
say 1 "Amos" "Got no more fight left in you?"
say 2 "Gunk" "...[wait 0.3]you bastard."
say 1 "Amos" "Well, [wait 0.3]that's nice."
say 1 "Amos" "You'll get to see the fireworks."
say 2 "Gunk" "...[wait 0.5]what? [wait 0.2]No!"
say 2 "Gunk" "You can't-!"
say 0 "Gunk" "..."
say 1 "Amos" "You're not going anywhere."
say 0 "Amos" "..."
say 0 "Amos" "Sleeping like a lazy cat..."
say 0 "Amos" "Now time to blow everything up. [wait 0.3]Simpler than it could ever be."
