# Blender v2.75 (sub 0) OBJ File: ''
# www.blender.org
mtllib e-b2.mtl
o Mesh_Plane
v 501.956940 0.000044 296.043060
v -501.956787 0.000044 296.042816
v -501.957031 -0.000044 560.956909
v 501.956940 -0.000044 560.956909
vt 0.000000 0.000000
vt 1.000000 0.000000
vt 1.000000 1.000000
vt 0.000000 1.000000
vn -0.000000 1.000000 0.000000
usemtl None
s off
f 1/1/1 2/2/1 3/3/1 4/4/1
