# Blender v2.76 (sub 0) OBJ File: 'StandardArrow.blend'
# www.blender.org
mtllib StandardArrow.mtl
o Cube_Cube.001
v 0.002987 0.260002 0.002987
v 0.002987 -0.293089 0.002987
v 0.002987 0.260002 -0.002987
v 0.002987 -0.293089 -0.002987
v -0.002987 0.260002 0.002987
v -0.002987 -0.293089 0.002987
v -0.002987 0.260002 -0.002987
v -0.002987 -0.293089 -0.002987
v 0.004258 -0.293089 0.000000
v 0.004258 0.260002 0.000000
v -0.004258 -0.293089 0.000000
v -0.004258 0.260002 0.000000
v -0.000000 -0.293089 -0.004301
v 0.000000 0.260002 -0.004301
v -0.000000 -0.293089 0.004301
v 0.000000 0.260002 0.004301
v -0.000000 -0.293089 0.000000
v 0.000000 0.260002 0.000000
v 0.002074 0.296548 0.002083
v 0.020742 0.249562 0.002083
v 0.002074 0.296548 -0.002066
v 0.020742 0.249562 -0.002066
v -0.002074 0.296548 0.002083
v -0.020742 0.249562 0.002083
v -0.002074 0.296548 -0.002066
v -0.020742 0.249562 -0.002066
v 0.000000 0.260290 -0.006746
v 0.000000 0.300411 -0.002066
v 0.000000 0.260290 0.006763
v 0.000000 0.300411 0.002083
v -0.025520 0.249562 0.000009
v 0.000000 0.255361 0.000009
v 0.025520 0.249562 0.000009
v 0.000000 0.303250 0.000009
v 0.004461 0.296548 0.000164
v -0.004461 0.296548 0.000009
v 0.001327 -0.216601 0.001245
v 0.001327 -0.281686 0.001245
v 0.001327 -0.216601 -0.001245
v 0.001327 -0.281686 -0.001245
v -0.001328 -0.216601 0.001245
v -0.001328 -0.281686 0.001245
v -0.001328 -0.216601 -0.001245
v -0.001328 -0.281686 -0.001245
v -0.000000 -0.300593 -0.020742
v -0.000000 -0.237868 -0.020742
v -0.000000 -0.300593 0.020742
v -0.000000 -0.237868 0.020742
v 0.020742 -0.300593 0.000000
v 0.020742 -0.237868 0.000000
v -0.020742 -0.300593 0.000000
v -0.020742 -0.237868 0.000000
v 0.002987 -0.000000 0.002987
v 0.002987 -0.000000 -0.002987
v -0.002987 0.000000 -0.002987
v -0.002987 0.000000 0.002987
v -0.004258 0.000000 0.000000
v 0.004258 -0.000000 0.000000
v 0.000000 0.000000 0.004301
v 0.000000 0.000000 -0.004301
vt 0.167963 0.999802
vt 0.147158 0.999803
vt 0.147146 -0.000012
vt 0.167948 -0.000013
vt 0.126244 0.999803
vt 0.105330 0.999803
vt 0.105320 -0.000012
vt 0.126233 -0.000012
vt 0.084526 0.999803
vt 0.063721 0.999804
vt 0.063716 -0.000012
vt 0.084518 -0.000012
vt 0.042807 0.999804
vt 0.021893 0.999804
vt 0.021890 -0.000012
vt 0.042803 -0.000012
vt 0.360569 0.075501
vt 0.385932 0.064706
vt 0.385679 0.085618
vt 0.371256 0.100611
vt 0.360569 0.025097
vt 0.385932 0.035892
vt 0.370686 0.050208
vt 0.349882 0.050208
vt 0.335205 0.014303
vt 0.335459 0.035215
vt 0.335205 0.086296
vt 0.350451 0.100611
vt 0.001088 0.999804
vt 0.001088 -0.000012
vt 0.335459 0.065384
vt 0.349882 0.050391
vt 0.350451 -0.000013
vt 0.371256 -0.000013
vt 0.385679 0.014980
vt 0.370686 0.050391
vt 0.384364 0.963005
vt 0.350839 0.974030
vt 0.479097 0.698486
vt 0.498058 0.702852
vt 0.722714 0.710658
vt 0.812971 0.623736
vt 0.835650 0.906590
vt 0.833155 0.930507
vt 0.656500 0.982279
vt 0.623624 0.969453
vt 0.523994 0.703558
vt 0.543757 0.699851
vt 0.504948 0.929099
vt 0.511574 0.682971
vt 0.512133 0.661538
vt 0.698829 0.663121
vt 0.599011 0.731207
vt 0.563995 0.735426
vt 0.837275 0.598172
vt 0.812478 0.918218
vt 0.503522 0.982279
vt 0.796452 0.931449
vt 0.842813 0.949683
vt 0.855109 0.901546
vt 0.885921 0.519934
vt 0.804046 0.467114
vt 0.804046 0.273608
vt 0.885921 0.333446
vt 0.804046 0.366064
vt 0.721820 0.289804
vt 0.721820 0.027282
vt 0.804046 0.113064
vt 0.804046 0.027282
vt 0.885921 0.080102
vt 0.885921 0.273608
vt 0.804046 0.213770
vt 0.557370 0.366064
vt 0.475145 0.289804
vt 0.475145 0.027282
vt 0.557370 0.113064
vt 0.407387 0.125753
vt 0.407387 0.285162
vt 0.391133 0.284402
vt 0.453071 0.236832
vt 0.437848 0.126712
vt 0.453071 0.125753
vt 0.391133 0.125753
vt 0.391133 0.285162
vt 0.374879 0.284402
vt 0.468295 0.236832
vt 0.453071 0.126712
vt 0.468295 0.125753
vt 0.557370 0.103543
vt 0.639595 0.027282
vt 0.639595 0.280283
vt 0.639595 0.366064
vt 0.639595 0.113064
vt 0.422617 0.250643
vt 0.407387 0.126606
vt 0.422617 0.125753
vt 0.437848 0.250643
vt 0.422617 0.126606
vt 0.437848 0.125753
vt 0.350469 0.125753
vt 0.358606 0.294897
vt 0.342332 0.294897
vt 0.366742 0.125753
vt 0.374879 0.294897
vt 0.967796 0.467114
vt 0.967796 0.273608
vt 0.967796 0.220788
vt 0.885921 0.087120
vt 0.967796 0.027282
vt 0.314217 0.999803
vt 0.293303 0.999803
vt 0.293298 -0.000012
vt 0.314211 -0.000012
vt 0.230779 0.999803
vt 0.209865 0.999803
vt 0.209868 -0.000012
vt 0.230781 -0.000012
vt 0.188951 0.999803
vt 0.168147 0.999803
vt 0.168153 -0.000013
vt 0.188955 -0.000012
vt 0.272389 0.999803
vt 0.251584 0.999803
vt 0.251583 -0.000012
vt 0.272385 -0.000012
vt 0.335022 0.999802
vt 0.335013 -0.000013
vn 0.920100 -0.000000 -0.391600
vn -0.402700 0.000000 -0.915300
vn -0.920100 0.000000 0.391600
vn 0.402700 -0.000000 0.915300
vn 0.000000 1.000000 0.000000
vn -0.000000 -1.000000 0.000000
vn -0.920100 0.000000 -0.391600
vn 0.920100 -0.000000 0.391600
vn -0.402700 0.000000 0.915300
vn 0.402700 -0.000000 -0.915300
vn 0.477000 0.200200 0.855800
vn -0.265800 0.108400 -0.957900
vn -0.490200 0.207200 0.846600
vn 0.265800 0.108400 0.957900
vn -0.648300 0.401000 0.647300
vn -0.284600 -0.894300 -0.345300
vn 0.284600 -0.894300 -0.345300
vn 0.632400 0.400900 0.662900
vn -0.265800 0.108400 0.957900
vn 0.265800 0.108400 -0.957900
vn -0.284600 -0.894300 0.345300
vn 0.284600 -0.894300 0.345300
vn 0.503000 0.214000 -0.837400
vn 0.663100 0.400900 -0.632100
vn -0.648300 0.401000 -0.647300
vn -0.490200 0.207200 -0.846600
vn 0.064000 -0.000000 -0.998000
vn -0.997700 0.000000 -0.067900
vn -0.064000 0.000000 0.998000
vn 0.997700 -0.000000 0.067900
vn 0.000000 -0.717900 0.696100
vn 0.697700 -0.716400 0.000000
vn 0.000000 -0.717900 -0.696100
vn -0.697700 -0.716400 0.000000
vn -0.997700 0.000000 0.067900
vn 0.997700 -0.000000 -0.067900
vn 0.738500 0.674200 0.000000
vn -0.738500 0.674200 0.000000
vn 0.000000 0.675800 -0.737100
vn 0.000000 0.675800 0.737100
vn -0.064000 0.000000 -0.998000
vn 0.064000 -0.000000 0.998000
usemtl Material
s off
f 58/1/1 54/2/1 3/3/1 10/4/1
f 60/5/2 55/6/2 7/7/2 14/8/2
f 57/9/3 56/10/3 5/11/3 12/12/3
f 59/13/4 53/14/4 1/15/4 16/16/4
f 18/17/5 14/18/5 7/19/5 12/20/5
f 17/21/6 13/22/6 4/23/6 9/24/6
f 15/25/6 17/21/6 9/24/6 2/26/6
f 16/27/5 18/17/5 12/20/5 5/28/5
f 55/6/7 57/9/7 12/12/7 7/7/7
f 53/14/8 58/29/8 10/30/8 1/15/8
f 1/31/5 10/32/5 18/17/5 16/27/5
f 6/33/6 11/34/6 17/21/6 15/25/6
f 11/34/6 8/35/6 13/22/6 17/21/6
f 10/32/5 3/36/5 14/18/5 18/17/5
f 56/10/9 59/13/9 16/16/9 5/11/9
f 54/2/10 60/5/10 14/8/10 3/3/10
f 20/37/11 33/38/11 35/39/11 19/40/11
f 27/41/12 26/42/12 25/43/12 28/44/12
f 31/45/13 24/46/13 23/47/13 36/48/13
f 29/49/14 20/37/14 19/40/14 30/50/14
f 30/50/15 34/51/15 36/48/15 23/47/15
f 32/52/16 27/41/16 22/53/16 33/54/16
f 31/55/17 26/42/17 27/41/17 32/52/17
f 19/40/18 35/39/18 34/51/18 30/50/18
f 24/46/19 29/49/19 30/50/19 23/47/19
f 22/53/20 27/41/20 28/44/20 21/56/20
f 29/49/21 32/57/21 33/38/21 20/37/21
f 24/46/22 31/45/22 32/57/22 29/49/22
f 33/54/23 22/53/23 21/56/23 35/58/23
f 35/58/24 21/56/24 28/44/24 34/59/24
f 34/59/25 28/44/25 25/43/25 36/60/25
f 26/42/26 31/55/26 36/60/26 25/43/26
f 49/61/27 40/62/27 39/63/27 50/64/27
f 45/65/28 44/66/28 43/67/28 46/68/28
f 51/69/29 42/70/29 41/71/29 52/72/29
f 47/73/30 38/74/30 37/75/30 48/76/30
f 45/77/31 40/78/31 44/79/31
f 51/80/32 44/81/32 42/82/32
f 47/83/33 42/84/33 38/85/33
f 49/86/34 38/87/34 40/88/34
f 42/89/35 47/90/35 48/91/35 41/73/35
f 40/66/36 45/92/36 46/93/36 39/67/36
f 50/94/37 39/95/37 37/96/37
f 52/97/38 41/98/38 43/99/38
f 46/100/39 43/101/39 39/102/39
f 48/103/40 37/104/40 41/101/40
f 44/105/41 51/61/41 52/64/41 43/106/41
f 38/107/42 49/71/42 50/108/42 37/109/42
f 4/110/10 13/111/10 60/112/10 54/113/10
f 6/114/9 15/115/9 59/116/9 56/117/9
f 2/118/8 9/119/8 58/120/8 53/121/8
f 8/122/7 11/123/7 57/124/7 55/125/7
f 15/115/4 2/118/4 53/121/4 59/116/4
f 11/123/3 6/114/3 56/117/3 57/124/3
f 13/111/2 8/122/2 55/125/2 60/112/2
f 9/126/1 4/110/1 54/113/1 58/127/1
