# Blender v2.78 (sub 0) OBJ File: ''
# www.blender.org
o Object01
v 0.000020 0.677554 -0.029542
v -0.004788 0.407579 -0.039511
v -0.023158 0.410587 -0.039563
v -0.019824 0.677554 -0.029542
v -0.023186 0.415174 0.011454
v -0.004791 0.412153 0.011403
v 0.000020 0.665324 0.021008
v -0.019824 0.665324 0.021008
v -0.017985 0.686316 -0.017368
v 0.018555 0.671988 -0.014722
v 0.018555 0.670891 0.006188
v 0.012354 0.408100 -0.002423
v 0.012344 0.406007 -0.025742
v 0.006362 -0.109244 0.006440
v -0.004232 -0.103290 0.016577
v -0.004232 -0.115003 -0.001438
v -0.026166 -0.090960 0.006440
v -0.031706 0.158033 -0.004747
v -0.031706 0.158033 -0.023432
v -0.026166 -0.090960 -0.010751
v -0.015573 -0.096914 -0.020888
v -0.016231 0.158643 -0.034448
v -0.038359 0.670891 0.006188
v -0.040387 0.416754 -0.002355
v 0.015811 0.159907 -0.004747
v 0.000336 0.159297 0.006269
v -0.004232 -0.103290 -0.020888
v -0.004232 -0.103290 -0.020888
v 0.000336 0.159297 -0.034448
v -0.016231 0.158643 0.006269
v -0.015573 -0.096914 0.016577
v 0.006362 -0.109244 -0.010751
v 0.015811 0.159907 -0.023432
v -0.040364 0.414644 -0.025809
v -0.038359 0.671988 -0.014722
v -0.015573 -0.108628 -0.001088
vt 0.2775 0.0918
vt 0.2802 0.3493
vt 0.2652 0.3469
vt 0.2600 0.0917
vt 0.1524 0.3461
vt 0.1368 0.3504
vt 0.1353 0.1077
vt 0.1504 0.1060
vt 0.2352 0.0780
vt 0.2479 0.0454
vt 0.2665 0.0755
vt 0.0580 0.1087
vt 0.1014 0.1058
vt 0.1048 0.3573
vt 0.0562 0.3638
vt 0.1900 0.8736
vt 0.1803 0.8457
vt 0.2082 0.8755
vt 0.2104 0.8292
vt 0.1944 0.5907
vt 0.2336 0.5878
vt 0.2460 0.8258
vt 0.3130 0.0946
vt 0.3122 0.3510
vt 0.2702 0.8299
vt 0.2599 0.5856
vt 0.1835 0.1001
vt 0.1847 0.3433
vt 0.1577 0.8500
vt 0.1254 0.5939
vt 0.1524 0.5929
vt 0.2700 0.8366
vt 0.2701 0.8367
vt 0.2671 0.5851
vt 0.1673 0.5924
vt 0.1888 0.8371
vt 0.1218 0.8513
vt 0.0860 0.5964
vt 0.2334 0.3441
vt 0.2928 0.8445
vt 0.2937 0.5866
vt 0.2261 0.0988
vt 0.2124 0.8417
vt 0.2139 0.8662
vt 0.2416 0.8626
vt 0.2537 0.8819
vt 0.2483 0.8894
vt 0.2257 0.8853
vt 0.2484 0.8878
vt 0.1836 0.0970
vt 0.1521 0.0829
vt 0.1512 0.0675
vt 0.1812 0.0501
vt 0.2247 0.0445
vn 0.0020 0.1792 -0.9838
vn 0.0217 0.0240 -0.9995
vn 0.0268 0.0564 -0.9981
vn 0.0000 0.1794 -0.9838
vn -0.0122 -0.1448 0.9894
vn -0.0105 -0.1349 0.9908
vn -0.0008 -0.1824 0.9832
vn -0.0019 -0.1824 0.9832
vn -0.1695 0.9851 -0.0284
vn 0.4415 0.8969 -0.0233
vn 0.0021 0.1793 -0.9838
vn 0.9998 -0.0192 -0.0002
vn 1.0000 -0.0047 0.0000
vn 1.0000 -0.0031 -0.0000
vn 0.0728 -0.9885 0.1323
vn -0.0787 -0.9969 0.0025
vn -0.9998 -0.0182 -0.0000
vn -0.9997 -0.0227 0.0000
vn -0.9997 -0.0230 0.0000
vn -0.9998 -0.0181 0.0000
vn 0.4416 0.8969 -0.0233
vn 1.0000 -0.0030 -0.0000
vn 0.0021 0.1792 -0.9838
vn -0.9844 -0.0588 -0.1655
vn -0.9713 -0.0612 -0.2297
vn -0.9786 -0.0271 0.2041
vn -0.9786 -0.0269 0.2039
vn -0.0000 -0.1825 0.9832
vn 0.9731 0.0185 0.2296
vn 0.0729 -0.9885 0.1322
vn 0.0627 0.1693 0.9836
vn -0.9844 -0.0588 -0.1656
vn 0.0001 -0.0021 0.9679
vn 0.0083 -0.1703 -0.9854
vn -0.0007 0.0487 0.9988
vn 0.1316 0.1909 0.9728
vn 0.9996 -0.0286 0.0000
vn 1.0000 -0.0078 -0.0000
vn -0.9999 -0.0113 -0.0000
vn 0.0126 -0.2425 -0.9701
vn 0.1316 0.1909 0.9727
vn -0.0007 0.0488 0.9988
vn -1.0000 0.0064 0.0000
vn -1.0000 0.0065 0.0000
vn -0.7210 -0.6929 0.0074
vn -0.9844 -0.0589 -0.1655
vn -0.4373 -0.7780 0.3984
vn -0.0089 -0.4853 0.8743
vn -1.0000 0.0065 0.0001
vn -0.0008 -0.1823 0.9832
s 1
f 1/1/1 2/2/2 3/3/3
f 3/3/3 4/4/4 1/1/1
f 5/5/5 6/6/6 7/7/7
f 7/7/7 8/8/8 5/5/5
f 9/9/9 10/10/10 1/11/11
f 10/12/10 11/13/12 12/14/13
f 12/14/13 13/15/14 10/12/10
f 14/16/15 15/17/15 16/18/16
f 17/19/17 18/20/18 19/21/19
f 19/21/19 20/22/20 17/19/17
f 10/23/21 13/24/22 2/2/2
f 2/2/2 1/1/23 10/23/21
f 21/25/24 20/22/17 19/21/19
f 19/21/19 22/26/25 21/25/24
f 23/27/26 24/28/27 5/5/5
f 5/5/5 8/8/28 23/27/26
f 14/29/15 25/30/29 26/31/29
f 26/31/29 15/17/30 14/29/15
f 27/32/31 21/25/32 22/26/25
f 28/33/33 27/32/31 22/26/25
f 29/34/34 28/33/33 22/26/25
f 30/35/35 31/36/36 15/17/30
f 15/17/30 26/31/29 30/35/35
f 14/29/15 32/37/37 33/38/38
f 33/38/38 25/30/29 14/29/15
f 18/20/18 24/28/27 34/39/39
f 34/39/39 19/21/19 18/20/18
f 32/40/37 28/33/40 29/34/34
f 29/34/34 33/41/38 32/40/37
f 19/21/19 34/39/39 3/3/3
f 3/3/3 22/26/25 19/21/19
f 18/20/18 17/19/17 31/36/41
f 31/36/41 30/35/42 18/20/18
f 12/14/13 6/6/6 26/31/29
f 26/31/29 25/30/29 12/14/13
f 2/2/2 29/34/34 22/26/25
f 22/26/25 3/3/3 2/2/2
f 30/35/35 26/31/29 6/6/6
f 6/6/6 5/5/5 30/35/35
f 25/30/29 33/38/38 13/15/14
f 13/15/14 12/14/13 25/30/29
f 13/24/22 33/41/38 29/34/34
f 29/34/34 2/2/2 13/24/22
f 18/20/18 30/35/42 5/5/5
f 5/5/5 24/28/27 18/20/18
f 24/28/27 23/27/26 35/42/43
f 35/42/43 34/39/39 24/28/27
f 34/39/39 35/42/44 4/4/4
f 4/4/4 3/3/3 34/39/39
f 11/13/12 7/7/7 6/6/6
f 6/6/6 12/14/13 11/13/12
f 31/36/41 17/43/17 36/44/45
f 15/17/15 31/36/41 36/44/45
f 36/44/45 16/18/16 15/17/15
f 20/45/20 21/46/46 36/44/45
f 36/44/45 17/43/17 20/45/20
f 21/46/46 27/47/47 16/18/16
f 16/18/16 36/44/45 21/46/46
f 16/18/16 32/48/37 14/16/15
f 16/18/16 27/47/47 28/49/48
f 28/49/48 32/48/37 16/18/16
f 35/42/49 23/50/26 9/9/9
f 8/51/28 7/52/50 9/9/9
f 9/9/9 11/53/12 10/54/10
f 9/9/9 23/50/26 8/51/28
f 9/9/9 7/52/50 11/53/12
f 1/11/11 4/4/4 9/9/9
f 9/9/9 4/4/4 35/42/49
