# Blender v2.75 (sub 0) OBJ File: 'untitled.blend'
# www.blender.org
mtllib Compass_COL.mtl
o Cylinder.001
v -0.799604 1.717478 -5.053633
v 1.462521 -0.084885 -4.895584
v 1.632963 1.717478 -4.843883
v 3.601670 -0.084883 -3.718517
v 3.781708 1.717478 -3.538474
v 5.067150 -0.084884 -1.133588
v 5.116824 1.717478 -0.883865
v 4.703521 -0.084884 2.298872
v 4.566100 1.717478 2.555969
v 2.545968 -0.084885 4.425745
v 2.388860 1.717478 4.509715
v 0.201028 -0.084884 5.106045
v -0.053585 1.717478 5.106046
v -3.319884 1.717478 3.894818
v -3.094536 -0.084885 4.079761
v -4.759619 -0.084885 1.548711
v -4.811328 1.717478 1.378260
v -4.970943 1.717478 -0.596890
v -4.917653 -0.084885 -1.372338
v -4.362549 1.717478 -2.482766
v -3.216463 -0.084885 -3.879275
v -3.078772 1.717478 -3.992276
v -1.049325 -0.084885 -5.003962
vn 0.085900 0.020500 -0.996100
vn 0.518900 0.033500 -0.854200
vn 0.892700 0.037600 -0.449000
vn 0.986100 0.052700 0.157900
vn 0.667700 0.023500 0.744100
vn 0.237100 0.033500 0.970900
vn -0.347200 0.052700 0.936300
vn -0.860000 0.023500 0.509700
vn -0.994700 -0.064000 0.080400
vn -0.946600 0.103400 -0.305400
vn -0.761600 0.017600 -0.647800
vn -0.421900 0.033500 -0.906000
vn -0.000000 1.000000 -0.000000
vn 0.000000 -1.000000 0.000000
vn 0.043100 -0.033500 -0.998500
vn 0.482000 -0.020500 -0.875900
vn 0.869300 -0.037600 -0.492800
vn 0.993600 -0.042000 0.105300
vn 0.701200 -0.048000 0.711300
vn 0.278600 -0.020500 0.960200
vn -0.297100 -0.042000 0.953900
vn -0.834500 -0.048000 0.549000
vn -0.998300 -0.023500 0.054000
vn -0.824100 -0.090700 -0.559200
vn -0.460500 -0.020500 -0.887400
usemtl None
s off
f 1//1 3//1 2//1
f 3//2 5//2 4//2
f 5//3 7//3 6//3
f 7//4 9//4 8//4
f 9//5 11//5 10//5
f 11//6 13//6 12//6
f 13//7 14//7 15//7
f 14//8 17//8 16//8
f 17//9 18//9 19//9
f 18//10 20//10 19//10
f 20//11 22//11 21//11
f 22//12 1//12 23//12
f 3//13 18//13 14//13
f 19//14 6//14 12//14
f 23//15 1//15 2//15
f 2//16 3//16 4//16
f 4//17 5//17 6//17
f 6//18 7//18 8//18
f 8//19 9//19 10//19
f 10//20 11//20 12//20
f 12//21 13//21 15//21
f 15//22 14//22 16//22
f 16//23 17//23 19//23
f 19//24 20//24 21//24
f 21//25 22//25 23//25
f 14//13 18//13 17//13
f 22//13 20//13 18//13
f 9//13 5//13 3//13
f 9//13 7//13 5//13
f 18//13 1//13 22//13
f 13//13 11//13 9//13
f 3//13 14//13 13//13
f 3//13 1//13 18//13
f 13//13 9//13 3//13
f 19//14 15//14 16//14
f 8//14 10//14 12//14
f 23//14 2//14 4//14
f 19//14 21//14 23//14
f 12//14 15//14 19//14
f 6//14 8//14 12//14
f 23//14 4//14 6//14
f 6//14 19//14 23//14
