# Blender v2.75 (sub 0) OBJ File: 'untitled.blend'
# www.blender.org
mtllib Compass.mtl
o Cylinder
v -0.000000 -0.033893 4.900933
v 0.000001 1.692227 4.900932
v -0.956125 -0.033893 4.806763
v -0.956123 1.692227 4.806762
v -1.875507 -0.033893 4.527872
v -1.875505 1.692227 4.527871
v -2.722813 -0.033893 4.074977
v -2.722812 1.692227 4.074976
v -3.465484 -0.033893 3.465482
v -3.465482 1.692227 3.465482
v -4.074978 -0.033893 2.722812
v -4.074977 1.692227 2.722811
v -4.527873 -0.033893 1.875505
v -4.527872 1.692227 1.875505
v -4.806764 -0.033893 0.956124
v -4.806763 1.692227 0.956123
v -4.900934 -0.033893 -0.000000
v -4.900933 1.692227 -0.000001
v -4.806765 -0.033894 -0.956125
v -4.806764 1.692227 -0.956126
v -4.527873 -0.033894 -1.875506
v -4.527872 1.692227 -1.875507
v -4.074978 -0.033894 -2.722814
v -4.074977 1.692227 -2.722815
v -3.465484 -0.033894 -3.465485
v -3.465483 1.692227 -3.465486
v -2.722813 -0.033894 -4.074979
v -2.722812 1.692226 -4.074980
v -1.875507 -0.033894 -4.527874
v -1.875505 1.692226 -4.527875
v -0.956125 -0.033894 -4.806765
v -0.956123 1.692226 -4.806767
v 0.000001 -0.033894 -4.900936
v 0.000002 1.692226 -4.900937
v 0.956126 -0.033894 -4.806765
v 0.956127 1.692226 -4.806766
v 1.875508 -0.033894 -4.527873
v 1.875509 1.692226 -4.527874
v 2.722815 -0.033894 -4.074977
v 2.722816 1.692226 -4.074978
v 3.465486 -0.033894 -3.465483
v 3.465487 1.692226 -3.465484
v 4.074980 -0.033894 -2.722812
v 4.074981 1.692226 -2.722813
v 4.527874 -0.033894 -1.875504
v 4.527875 1.692226 -1.875505
v 4.806765 -0.033894 -0.956122
v 4.806766 1.692226 -0.956123
v 4.900934 -0.033894 0.000003
v 4.900935 1.692226 0.000002
v 4.806763 -0.033894 0.956128
v 4.806764 1.692227 0.956127
v 4.527871 -0.033894 1.875510
v 4.527872 1.692227 1.875509
v 4.074975 -0.033893 2.722816
v 4.074975 1.692227 2.722816
v 3.465479 -0.033894 3.465486
v 3.465481 1.692227 3.465486
v 2.722808 -0.033894 4.074981
v 2.722809 1.692227 4.074980
v 1.875500 -0.033893 4.527874
v 1.875501 1.692227 4.527873
v 0.956117 -0.033893 4.806765
v 0.956119 1.692227 4.806764
v 0.000001 1.692227 4.267290
v -0.832506 1.692227 4.185294
v -1.633021 1.692227 3.942461
v -2.370779 1.692227 3.548121
v -3.017430 1.692227 3.017429
v -3.548123 1.692227 2.370778
v -3.942462 1.692227 1.633020
v -4.185296 1.692227 0.832506
v -4.267291 1.692227 -0.000001
v -4.185296 1.692227 -0.832508
v -3.942463 1.692227 -1.633023
v -3.548123 1.692227 -2.370782
v -3.017430 1.692226 -3.017432
v -2.370779 1.692226 -3.548125
v -1.633021 1.692226 -3.942465
v -0.832506 1.692226 -4.185299
v 0.000002 1.692226 -4.267293
v 0.832510 1.692226 -4.185298
v 1.633024 1.692226 -3.942464
v 2.370782 1.692226 -3.548124
v 3.017433 1.692226 -3.017431
v 3.548126 1.692226 -2.370780
v 3.942465 1.692226 -1.633021
v 4.185298 1.692226 -0.832506
v 4.267292 1.692226 0.000002
v 4.185297 1.692226 0.832509
v 3.942462 1.692227 1.633024
v 3.548121 1.692227 2.370782
v 3.017428 1.692227 3.017432
v 2.370776 1.692227 3.548125
v 1.633017 1.692227 3.942463
v 0.832502 1.692227 4.185296
v 0.000001 0.791247 4.267290
v -0.832506 0.791247 4.185295
v -1.633021 0.791247 3.942461
v -2.370779 0.791247 3.548121
v -3.017430 0.791247 3.017429
v -3.548123 0.791247 2.370779
v -3.942462 0.791247 1.633020
v -4.185296 0.791247 0.832506
v -4.267291 0.791247 -0.000001
v -4.185296 0.791247 -0.832508
v -3.942463 0.791247 -1.633023
v -3.548123 0.791247 -2.370781
v -3.017430 0.791247 -3.017432
v -2.370780 0.791246 -3.548125
v -1.633020 0.791246 -3.942465
v -0.832506 0.791246 -4.185298
v 0.000002 0.791246 -4.267293
v 0.832509 0.791246 -4.185298
v 1.633024 0.791246 -3.942464
v 2.370782 0.791246 -3.548124
v 3.017433 0.791246 -3.017430
v 3.548126 0.791246 -2.370780
v 3.942465 0.791246 -1.633021
v 4.185298 0.791246 -0.832506
v 4.267292 0.791246 0.000002
v 4.185297 0.791246 0.832509
v 3.942462 0.791247 1.633024
v 3.548121 0.791247 2.370782
v 3.017428 0.791247 3.017432
v 2.370776 0.791247 3.548125
v 1.633017 0.791247 3.942464
v 0.832502 0.791247 4.185296
v 0.073724 0.791247 0.502620
v -0.026387 0.791247 0.492759
v -0.122651 0.791247 0.463558
v -0.211368 0.791247 0.416138
v -0.289129 0.791247 0.352321
v -0.352946 0.791247 0.274559
v -0.400367 0.791247 0.185842
v -0.429568 0.791247 0.089578
v -0.439428 0.791247 -0.010533
v -0.429568 0.791247 -0.110644
v -0.400367 0.791247 -0.206907
v -0.352946 0.791247 -0.295625
v -0.289129 0.791247 -0.373386
v -0.211368 0.791247 -0.437203
v -0.122651 0.791247 -0.484624
v -0.026387 0.791247 -0.513825
v 0.073724 0.791247 -0.523685
v 0.173835 0.791247 -0.513825
v 0.270099 0.791247 -0.484623
v 0.358816 0.791247 -0.437203
v 0.436578 0.791247 -0.373386
v 0.500395 0.791247 -0.295624
v 0.547815 0.791247 -0.206907
v 0.577016 0.791247 -0.110643
v 0.586876 0.791247 -0.010532
v 0.577016 0.791247 0.089579
v 0.547815 0.791247 0.185843
v 0.500394 0.791247 0.274560
v 0.436577 0.791247 0.352321
v 0.358816 0.791247 0.416138
v 0.270098 0.791247 0.463558
v 0.173835 0.791247 0.492760
v 0.073724 1.442546 0.502620
v -0.026387 1.442546 0.492759
v -0.122651 1.442546 0.463558
v -0.211368 1.442546 0.416138
v -0.289129 1.442546 0.352321
v -0.352946 1.442546 0.274559
v -0.400366 1.442546 0.185842
v -0.429568 1.442546 0.089578
v -0.439428 1.442546 -0.010533
v -0.429568 1.442546 -0.110644
v -0.400367 1.442546 -0.206907
v -0.352946 1.442546 -0.295625
v -0.289129 1.442546 -0.373386
v -0.211368 1.442546 -0.437203
v -0.122651 1.442546 -0.484624
v -0.026387 1.442546 -0.513825
v 0.073724 1.442546 -0.523685
v 0.173835 1.442546 -0.513825
v 0.270099 1.442546 -0.484623
v 0.358816 1.442546 -0.437203
v 0.436578 1.442546 -0.373386
v 0.500395 1.442546 -0.295624
v 0.547815 1.442546 -0.206907
v 0.577016 1.442546 -0.110643
v 0.586876 1.442546 -0.010532
v 0.577016 1.442546 0.089579
v 0.547815 1.442546 0.185843
v 0.500394 1.442546 0.274560
v 0.436577 1.442546 0.352321
v 0.358816 1.442546 0.416138
v 0.270098 1.442546 0.463558
v 0.173835 1.442546 0.492760
v 0.073724 1.601332 0.245524
v 0.023770 1.601332 0.240603
v -0.024264 1.601332 0.226032
v -0.068533 1.601332 0.202370
v -0.107335 1.601332 0.170526
v -0.139179 1.601332 0.131725
v -0.162841 1.601332 0.087456
v -0.177412 1.601332 0.039421
v -0.182332 1.601332 -0.010533
v -0.177412 1.601332 -0.060487
v -0.162841 1.601332 -0.108521
v -0.139179 1.601332 -0.152790
v -0.107335 1.601332 -0.191592
v -0.068533 1.601332 -0.223435
v -0.024264 1.601332 -0.247098
v 0.023770 1.601332 -0.261669
v 0.073724 1.601332 -0.266589
v 0.123678 1.601332 -0.261669
v 0.171713 1.601332 -0.247097
v 0.215981 1.601332 -0.223435
v 0.254783 1.601332 -0.191591
v 0.286627 1.601332 -0.152789
v 0.310289 1.601332 -0.108521
v 0.324860 1.601332 -0.060486
v 0.329780 1.601332 -0.010532
v 0.324860 1.601332 0.039422
v 0.310289 1.601332 0.087456
v 0.286627 1.601332 0.131725
v 0.254783 1.601332 0.170527
v 0.215981 1.601332 0.202370
v 0.171712 1.601332 0.226033
v 0.123678 1.601332 0.240604
vt 0.040023 0.857937
vt 0.000304 0.825340
vt 0.024266 0.801377
vt 0.441219 0.607643
vt 0.472528 0.620611
vt 0.459541 0.663424
vt 0.721907 0.589363
vt 0.755145 0.595975
vt 0.750759 0.640499
vt 0.716264 0.640499
vt 0.682376 0.640499
vt 0.677990 0.595975
vt 0.285949 0.882158
vt 0.236779 0.897074
vt 0.230168 0.863836
vt 0.465441 0.853569
vt 0.493618 0.834741
vt 0.522001 0.869325
vt 0.672090 0.786120
vt 0.639493 0.825839
vt 0.615531 0.801876
vt 0.085338 0.882158
vt 0.058850 0.829759
vt 0.426304 0.656813
vt 0.455156 0.707948
vt 0.716871 0.640499
vt 0.755145 0.685023
vt 0.696312 0.540193
vt 0.711228 0.589363
vt 0.331265 0.857936
vt 0.272981 0.850849
vt 0.793641 0.455158
vt 0.817604 0.479121
vt 0.789222 0.513705
vt 0.696312 0.740804
vt 0.643913 0.767292
vt 0.134508 0.897074
vt 0.098307 0.850849
vt 0.421268 0.707948
vt 0.459541 0.752472
vt 0.721907 0.691634
vt 0.768132 0.727836
vt 0.465441 0.562327
vt 0.498038 0.522608
vt 0.522001 0.546570
vt 0.672090 0.494878
vt 0.665003 0.553162
vt 0.370984 0.825340
vt 0.312437 0.829759
vt 0.761045 0.494878
vt 0.768132 0.553162
vt 0.711228 0.691634
vt 0.665003 0.727836
vt 0.185644 0.902110
vt 0.141120 0.863837
vt 0.441220 0.808253
vt 0.426304 0.759083
vt 0.736823 0.740804
vt 0.789222 0.767292
vt 0.639493 0.455158
vt 0.643913 0.513705
vt 0.493618 0.581154
vt 0.736823 0.540193
vt 0.677990 0.685023
vt 0.185644 0.868222
vt 0.472528 0.795285
vt 0.761045 0.786120
vt 0.817604 0.801876
vt 0.548458 0.119844
vt 0.573314 0.082645
vt 0.731208 0.212953
vt 0.894515 0.403845
vt 0.857315 0.428701
vt 0.765360 0.254567
vt 0.531337 0.161178
vt 0.728219 0.217427
vt 0.769833 0.251578
vt 0.773637 0.247774
vt 0.522608 0.205058
vt 0.726160 0.222398
vt 0.926150 0.372209
vt 0.776626 0.243301
vt 0.522608 0.249797
vt 0.725111 0.227674
vt 0.951005 0.335010
vt 0.778685 0.238330
vt 0.531336 0.293677
vt 0.725111 0.233054
vt 0.968126 0.293676
vt 0.779735 0.233054
vt 0.548457 0.335011
vt 0.726160 0.238331
vt 0.894514 0.051010
vt 0.769833 0.209149
vt 0.765360 0.206160
vt 0.976854 0.249796
vt 0.779735 0.227674
vt 0.573312 0.372211
vt 0.728219 0.243301
vt 0.857315 0.026154
vt 0.760389 0.204101
vt 0.976854 0.205057
vt 0.778685 0.222397
vt 0.604948 0.403847
vt 0.731208 0.247774
vt 0.815981 0.009032
vt 0.755113 0.203052
vt 0.968125 0.161178
vt 0.776626 0.217427
vt 0.642148 0.428703
vt 0.735012 0.251578
vt 0.772102 0.000304
vt 0.749733 0.203052
vt 0.951005 0.119844
vt 0.773637 0.212953
vt 0.683482 0.445824
vt 0.739486 0.254567
vt 0.727362 0.000304
vt 0.744456 0.204101
vt 0.926149 0.082645
vt 0.727363 0.454551
vt 0.744456 0.256626
vt 0.683483 0.009032
vt 0.739486 0.206160
vt 0.772102 0.454551
vt 0.749733 0.257676
vt 0.642149 0.026153
vt 0.735013 0.209149
vt 0.815982 0.445822
vt 0.755113 0.257676
vt 0.604949 0.051009
vt 0.760390 0.256626
vt 0.498038 0.893288
vt 0.347021 0.801377
vt 0.615531 0.479121
vt 0.793642 0.825839
vt 0.000304 0.800770
vt 0.000304 0.708454
vt 0.051686 0.708454
vt 0.051686 0.800770
vt 0.103069 0.708454
vt 0.103069 0.800770
vt 0.154452 0.708454
vt 0.154452 0.800770
vt 0.205834 0.708454
vt 0.205834 0.800770
vt 0.257217 0.708454
vt 0.257217 0.800770
vt 0.308600 0.708454
vt 0.359982 0.708454
vt 0.359982 0.800770
vt 0.411365 0.708454
vt 0.411365 0.800770
vt 0.411365 0.614924
vt 0.359982 0.614924
vt 0.359982 0.522608
vt 0.308600 0.614924
vt 0.308600 0.522608
vt 0.257217 0.614924
vt 0.257217 0.522608
vt 0.205834 0.614924
vt 0.205834 0.522608
vt 0.154452 0.614924
vt 0.154452 0.522608
vt 0.103069 0.614924
vt 0.103069 0.522608
vt 0.051686 0.614924
vt 0.051686 0.522608
vt 0.000304 0.614924
vt 0.000304 0.522608
vt 0.411365 0.707847
vt 0.359982 0.707847
vt 0.359982 0.615531
vt 0.308600 0.707847
vt 0.308600 0.615531
vt 0.257217 0.707847
vt 0.257217 0.615531
vt 0.205834 0.707847
vt 0.205834 0.615531
vt 0.154452 0.707847
vt 0.154452 0.615531
vt 0.103069 0.707847
vt 0.103069 0.615531
vt 0.051686 0.707847
vt 0.051686 0.615531
vt 0.000304 0.707847
vt 0.614924 0.866220
vt 0.522608 0.866220
vt 0.522608 0.814837
vt 0.614924 0.814837
vt 0.522608 0.763454
vt 0.614924 0.763454
vt 0.522608 0.712072
vt 0.614924 0.712071
vt 0.522608 0.660689
vt 0.614924 0.660689
vt 0.522608 0.609306
vt 0.614924 0.609306
vt 0.522608 0.557923
vt 0.614924 0.506541
vt 0.522608 0.506541
vt 0.522608 0.455158
vt 0.614924 0.557923
vt 0.094871 0.058538
vt 0.286844 0.000304
vt 0.427433 0.463766
vt 0.626655 0.950903
vt 0.581916 0.950903
vt 0.581916 0.902717
vt 0.224001 0.951510
vt 0.224001 0.999696
vt 0.179261 0.999696
vt 0.671394 0.950903
vt 0.626655 0.902717
vt 0.179261 0.951510
vt 0.134522 0.999696
vt 0.716134 0.950903
vt 0.671394 0.902717
vt 0.134522 0.951510
vt 0.089782 0.999696
vt 0.716134 0.951510
vt 0.716134 0.999696
vt 0.671395 0.999696
vt 0.089782 0.951510
vt 0.045043 0.999696
vt 0.626655 0.951510
vt 0.671395 0.951510
vt 0.045043 0.951511
vt 0.000304 0.999696
vt 0.626655 0.999696
vt 0.581916 0.999696
vt 0.000304 0.950903
vt 0.000304 0.902717
vt 0.045043 0.902717
vt 0.581916 0.951510
vt 0.537176 0.999696
vt 0.045043 0.950903
vt 0.089782 0.902717
vt 0.492437 0.951510
vt 0.537176 0.951510
vt 0.089782 0.950903
vt 0.134522 0.902717
vt 0.447698 0.951510
vt 0.492437 0.999696
vt 0.358219 0.950903
vt 0.358219 0.902717
vt 0.402958 0.902717
vt 0.179261 0.950903
vt 0.134522 0.950903
vt 0.402958 0.951510
vt 0.447698 0.999696
vt 0.402958 0.950903
vt 0.447697 0.902717
vt 0.179261 0.902717
vt 0.224001 0.902717
vt 0.402958 0.999696
vt 0.358219 0.999696
vt 0.492437 0.950903
vt 0.447697 0.950903
vt 0.224001 0.950903
vt 0.268740 0.902717
vt 0.358219 0.951510
vt 0.313479 0.999696
vt 0.492437 0.902717
vt 0.537176 0.902717
vt 0.268740 0.950903
vt 0.313480 0.902717
vt 0.268740 0.951510
vt 0.313479 0.951510
vt 0.537176 0.950903
vt 0.313480 0.950903
vt 0.268740 0.999696
vt 0.818211 0.600419
vt 0.853044 0.600419
vt 0.853044 0.605799
vt 0.838852 0.684958
vt 0.833564 0.682772
vt 0.841095 0.668599
vt 0.818211 0.503579
vt 0.853044 0.503579
vt 0.853044 0.508959
vt 0.818211 0.605799
vt 0.853044 0.611179
vt 0.818211 0.508959
vt 0.853044 0.514339
vt 0.818211 0.611179
vt 0.853044 0.616559
vt 0.818211 0.541239
vt 0.853044 0.541239
vt 0.853044 0.546619
vt 0.818211 0.514339
vt 0.853044 0.519719
vt 0.818211 0.616559
vt 0.853044 0.621939
vt 0.818211 0.546619
vt 0.853044 0.551999
vt 0.818211 0.519719
vt 0.853044 0.525099
vt 0.818211 0.621939
vt 0.853044 0.627319
vt 0.818211 0.551999
vt 0.853044 0.557379
vt 0.818211 0.530479
vt 0.818211 0.525099
vt 0.818211 0.455158
vt 0.853044 0.455158
vt 0.853044 0.460538
vt 0.818211 0.557379
vt 0.853044 0.562759
vt 0.818211 0.535859
vt 0.853044 0.530479
vt 0.818211 0.460538
vt 0.853044 0.465918
vt 0.818211 0.562759
vt 0.853044 0.568139
vt 0.853044 0.535859
vt 0.818211 0.465918
vt 0.853044 0.471298
vt 0.818211 0.568139
vt 0.853044 0.573519
vt 0.818211 0.471298
vt 0.853044 0.476678
vt 0.818211 0.573519
vt 0.853044 0.578899
vt 0.818211 0.476678
vt 0.853044 0.482059
vt 0.818211 0.584279
vt 0.818211 0.578899
vt 0.818211 0.482059
vt 0.853044 0.487439
vt 0.818211 0.589659
vt 0.853044 0.584279
vt 0.818211 0.487439
vt 0.853044 0.492819
vt 0.853044 0.589659
vt 0.853044 0.595039
vt 0.818211 0.492819
vt 0.853044 0.498199
vt 0.818211 0.595039
vt 0.818211 0.498199
vt 0.846049 0.643937
vt 0.860402 0.655724
vt 0.848601 0.670070
vt 0.844473 0.627926
vt 0.843518 0.644427
vt 0.865869 0.634438
vt 0.869913 0.638500
vt 0.857500 0.648670
vt 0.843483 0.669580
vt 0.846018 0.670079
vt 0.838839 0.629048
vt 0.841130 0.645405
vt 0.855679 0.646848
vt 0.853540 0.645415
vt 0.850188 0.686055
vt 0.844468 0.686055
vt 0.833545 0.631245
vt 0.838979 0.646833
vt 0.861098 0.631258
vt 0.851158 0.644429
vt 0.851133 0.669578
vt 0.824732 0.638455
vt 0.828793 0.634422
vt 0.850214 0.627944
vt 0.855817 0.629076
vt 0.855796 0.684923
vt 0.853520 0.668597
vt 0.837150 0.648655
vt 0.835706 0.650795
vt 0.865802 0.679579
vt 0.861058 0.682732
vt 0.819331 0.648508
vt 0.821545 0.643217
vt 0.869856 0.675550
vt 0.855668 0.667167
vt 0.834710 0.653176
vt 0.834198 0.655704
vt 0.857491 0.665347
vt 0.858924 0.663206
vt 0.818211 0.654143
vt 0.834192 0.658286
vt 0.875235 0.665539
vt 0.873030 0.670802
vt 0.819325 0.665497
vt 0.818217 0.659872
vt 0.876375 0.659930
vt 0.859910 0.660825
vt 0.834694 0.660819
vt 0.835682 0.663203
vt 0.876396 0.654191
vt 0.860409 0.658298
vt 0.824718 0.675567
vt 0.821531 0.670793
vt 0.859908 0.653195
vt 0.837118 0.665345
vt 0.838945 0.667169
vt 0.873100 0.643265
vt 0.875278 0.648567
vt 0.828794 0.679612
vt 0.848627 0.643930
vt 0.858927 0.650813
vt 0.308600 0.800770
vt 0.411365 0.522608
vt 0.411365 0.615531
vt 0.000304 0.615531
vt 0.614924 0.455158
vt 0.029991 0.137594
vt 0.058538 0.094870
vt 0.000304 0.235460
vt 0.010328 0.185065
vt 0.010328 0.337239
vt 0.000304 0.286843
vt 0.029991 0.384710
vt 0.137594 0.492313
vt 0.094871 0.463766
vt 0.058538 0.427433
vt 0.235461 0.522001
vt 0.185065 0.511976
vt 0.337239 0.511976
vt 0.286843 0.522001
vt 0.384710 0.492313
vt 0.522001 0.286844
vt 0.463767 0.427433
vt 0.511976 0.337239
vt 0.492313 0.384710
vt 0.511977 0.185066
vt 0.522001 0.235461
vt 0.463766 0.094871
vt 0.492313 0.137594
vt 0.427433 0.058538
vt 0.337239 0.010328
vt 0.384710 0.029991
vt 0.185066 0.010328
vt 0.235461 0.000304
vt 0.137594 0.029991
vt 0.716134 0.902717
vt 0.000304 0.951511
vt 0.818211 0.627319
vn -0.000000 1.000000 0.000000
vn 0.000000 -0.685700 0.727900
vn 0.000000 0.685700 0.727900
vn -0.142000 0.685700 0.713900
vn -0.142000 -0.685700 0.713900
vn -0.278500 0.685700 0.672500
vn -0.278500 -0.685700 0.672500
vn -0.404400 0.685700 0.605200
vn -0.404400 -0.685700 0.605200
vn -0.514700 0.685700 0.514700
vn -0.514700 -0.685700 0.514700
vn -0.605200 0.685700 0.404400
vn -0.605200 -0.685700 0.404400
vn -0.672500 0.685700 0.278500
vn -0.713900 0.685700 0.142000
vn -0.713900 -0.685700 0.142000
vn -0.727900 0.685700 0.000000
vn -0.727900 -0.685700 0.000000
vn -0.713900 0.685700 -0.142000
vn -0.713900 -0.685700 -0.142000
vn -0.672500 0.685700 -0.278500
vn -0.672500 -0.685700 -0.278500
vn -0.605200 0.685700 -0.404400
vn -0.605200 -0.685700 -0.404400
vn -0.514700 0.685700 -0.514700
vn -0.514700 -0.685700 -0.514700
vn -0.404400 0.685700 -0.605200
vn -0.404400 -0.685700 -0.605200
vn -0.278500 0.685700 -0.672500
vn -0.278500 -0.685700 -0.672500
vn -0.142000 0.685700 -0.713900
vn -0.142000 -0.685700 -0.713900
vn 0.000000 0.685700 -0.727900
vn 0.000000 -0.685700 -0.727900
vn 0.142000 0.685700 -0.713900
vn 0.142000 -0.685700 -0.713900
vn 0.278500 0.685700 -0.672500
vn 0.278500 -0.685700 -0.672500
vn 0.404400 0.685700 -0.605200
vn 0.404400 -0.685700 -0.605200
vn 0.514700 0.685700 -0.514700
vn 0.514700 -0.685700 -0.514700
vn 0.605200 0.685700 -0.404400
vn 0.605200 -0.685700 -0.404400
vn 0.672500 0.685700 -0.278500
vn 0.672500 -0.685700 -0.278500
vn 0.713900 0.685700 -0.142000
vn 0.713900 -0.685700 -0.142000
vn 0.727900 0.685700 0.000000
vn 0.727900 -0.685700 0.000000
vn 0.713900 0.685700 0.142000
vn 0.713900 -0.685700 0.142000
vn 0.672500 0.685700 0.278500
vn 0.672500 -0.685700 0.278500
vn 0.605200 0.685700 0.404400
vn 0.605200 -0.685700 0.404400
vn 0.514700 0.685700 0.514700
vn 0.514700 -0.685700 0.514700
vn 0.404400 0.685700 0.605200
vn 0.404400 -0.685700 0.605200
vn 0.278500 0.685700 0.672500
vn 0.142000 -0.685700 0.713900
vn 0.142000 0.685700 0.713900
vn 0.278500 -0.685700 0.672500
vn 0.631600 0.729800 -0.261600
vn 0.568400 0.729800 -0.379800
vn -0.379800 0.729800 0.568400
vn 0.670500 0.729800 -0.133300
vn -0.483400 0.729800 0.483400
vn 0.683600 0.729800 0.000000
vn -0.568400 0.729800 0.379800
vn -0.631600 0.729800 0.261600
vn 0.631600 0.729800 0.261600
vn 0.670500 0.729800 0.133300
vn -0.670500 0.729800 0.133300
vn -0.683600 0.729800 0.000000
vn 0.568400 0.729800 0.379800
vn -0.670500 0.729800 -0.133400
vn 0.379800 0.729800 0.568400
vn 0.483400 0.729800 0.483400
vn -0.631600 0.729800 -0.261600
vn 0.261600 0.729800 0.631600
vn 0.000000 0.729800 -0.683600
vn -0.483400 0.729800 -0.483400
vn -0.568400 0.729800 -0.379800
vn 0.133300 0.729800 0.670500
vn 0.133300 0.729800 -0.670500
vn 0.379800 0.729800 -0.568400
vn 0.261600 0.729800 -0.631600
vn -0.379800 0.729800 -0.568400
vn 0.000000 0.729800 0.683600
vn -0.261600 0.729800 -0.631600
vn -0.261600 0.729800 0.631600
vn -0.133300 0.729800 0.670500
vn 0.483400 0.729800 -0.483400
vn -0.133300 0.729800 -0.670500
vn -0.731800 0.474600 -0.489000
vn -0.622400 0.474600 -0.622400
vn -0.171700 0.474600 -0.863300
vn -0.336800 0.474600 -0.813200
vn -0.110500 0.957400 -0.266800
vn 0.670500 0.729800 0.133400
vn 0.863300 0.474600 0.171700
vn 0.813200 0.474600 0.336800
vn -0.489000 0.474600 -0.731800
vn 0.731800 0.474600 0.489000
vn 0.000000 0.474600 0.880200
vn -0.171700 0.474600 0.863300
vn 0.622400 0.474600 0.622400
vn -0.133400 0.729800 0.670500
vn -0.336800 0.474600 0.813200
vn 0.489000 0.474600 0.731800
vn 0.000000 0.474600 -0.880200
vn -0.489000 0.474600 0.731800
vn 0.171700 0.474600 -0.863300
vn -0.622400 0.474600 0.622400
vn 0.336800 0.474600 0.813200
vn 0.133400 0.729800 -0.670500
vn 0.336800 0.474600 -0.813200
vn -0.731800 0.474600 0.489000
vn 0.171700 0.474600 0.863300
vn 0.489000 0.474600 -0.731800
vn -0.813200 0.474600 0.336800
vn 0.622400 0.474600 -0.622400
vn -0.863300 0.474600 0.171700
vn 0.731800 0.474600 -0.489000
vn -0.670500 0.729800 0.133400
vn 0.813200 0.474600 -0.336800
vn -0.670500 0.729800 -0.133300
vn -0.880200 0.474600 0.000000
vn 0.863300 0.474600 -0.171700
vn -0.863300 0.474600 -0.171700
vn -0.813200 0.474600 -0.336800
vn 0.880200 0.474600 0.000000
vn -0.056300 0.957400 0.283200
vn 0.283200 0.957400 0.056300
vn 0.056300 0.957400 -0.283200
vn -0.110500 0.957400 0.266800
vn 0.204200 0.957400 0.204200
vn -0.056300 0.957400 -0.283200
vn 0.000000 0.957400 -0.288700
vn -0.160400 0.957400 0.240100
vn 0.160400 0.957400 0.240100
vn 0.110500 0.957400 0.266800
vn -0.204200 0.957400 0.204200
vn 0.056300 0.957400 0.283200
vn 0.110500 0.957400 -0.266800
vn 0.160400 0.957400 -0.240100
vn -0.240100 0.957400 0.160400
vn -0.266800 0.957400 0.110500
vn 0.204200 0.957400 -0.204200
vn -0.283200 0.957400 0.056300
vn -0.288800 0.957400 0.000000
vn 0.240100 0.957400 -0.160400
vn 0.266800 0.957400 -0.110500
vn -0.283200 0.957400 -0.056300
vn 0.283200 0.957400 -0.056300
vn -0.266800 0.957400 -0.110500
vn -0.240100 0.957400 -0.160400
vn 0.288800 0.957400 0.000000
vn 0.266800 0.957400 0.110500
vn -0.204200 0.957400 -0.204200
vn -0.160400 0.957400 -0.240100
vn 0.000000 0.957400 0.288800
vn 0.240100 0.957400 0.160400
vn -0.672500 -0.685700 0.278500
usemtl Material
s off
f 52/1/1 50/2/1 89/3/1
f 6/4/1 67/5/1 68/6/1
f 24/7/1 76/8/1 77/9/1
f 42/10/1 85/11/1 86/12/1
f 62/13/1 60/14/1 94/15/1
f 16/16/1 72/17/1 73/18/1
f 36/19/1 34/20/1 81/21/1
f 54/22/1 52/1/1 90/23/1
f 8/24/1 68/6/1 69/25/1
f 26/26/1 77/9/1 78/27/1
f 46/28/1 44/29/1 86/12/1
f 64/30/1 62/13/1 95/31/1
f 18/32/1 73/33/1 74/34/1
f 38/35/1 36/19/1 82/36/1
f 56/37/1 54/22/1 91/38/1
f 10/39/1 69/25/1 70/40/1
f 28/41/1 78/27/1 79/42/1
f 4/43/1 2/44/1 65/45/1
f 48/46/1 46/28/1 87/47/1
f 2/48/1 64/30/1 96/49/1
f 20/50/1 74/34/1 75/51/1
f 40/52/1 38/35/1 83/53/1
f 58/54/1 56/37/1 92/55/1
f 14/56/1 12/57/1 70/40/1
f 30/58/1 79/42/1 80/59/1
f 50/60/1 48/46/1 88/61/1
f 4/43/1 66/62/1 67/5/1
f 22/63/1 75/51/1 76/8/1
f 42/10/1 40/52/1 84/64/1
f 58/54/1 93/65/1 94/15/1
f 14/56/1 71/66/1 72/17/1
f 32/67/1 80/59/1 81/68/1
f 106/69/1 105/70/1 137/71/1
f 120/72/1 119/73/1 151/74/1
f 107/75/1 106/69/1 138/76/1
f 120/72/1 152/77/1 153/78/1
f 108/79/1 107/75/1 139/80/1
f 121/81/1 153/78/1 154/82/1
f 109/83/1 108/79/1 140/84/1
f 122/85/1 154/82/1 155/86/1
f 110/87/1 109/83/1 141/88/1
f 123/89/1 155/86/1 156/90/1
f 111/91/1 110/87/1 142/92/1
f 97/93/1 129/94/1 130/95/1
f 124/96/1 156/90/1 157/97/1
f 112/98/1 111/91/1 143/99/1
f 98/100/1 130/95/1 131/101/1
f 125/102/1 157/97/1 158/103/1
f 113/104/1 112/98/1 144/105/1
f 99/106/1 131/101/1 132/107/1
f 126/108/1 158/103/1 159/109/1
f 114/110/1 113/104/1 145/111/1
f 100/112/1 132/107/1 133/113/1
f 127/114/1 159/109/1 160/115/1
f 115/116/1 114/110/1 146/117/1
f 101/118/1 133/113/1 134/119/1
f 128/120/1 160/115/1 129/94/1
f 116/121/1 115/116/1 147/122/1
f 102/123/1 134/119/1 135/124/1
f 117/125/1 116/121/1 148/126/1
f 103/127/1 135/124/1 136/128/1
f 118/129/1 117/125/1 149/130/1
f 105/70/1 104/131/1 136/128/1
f 119/73/1 118/129/1 150/132/1
f 90/23/1 52/1/1 89/3/1
f 8/24/1 6/4/1 68/6/1
f 26/26/1 24/7/1 77/9/1
f 44/29/1 42/10/1 86/12/1
f 95/31/1 62/13/1 94/15/1
f 18/133/1 16/16/1 73/18/1
f 82/36/1 36/19/1 81/21/1
f 91/38/1 54/22/1 90/23/1
f 10/39/1 8/24/1 69/25/1
f 28/41/1 26/26/1 78/27/1
f 87/47/1 46/28/1 86/12/1
f 96/49/1 64/30/1 95/31/1
f 20/50/1 18/32/1 74/34/1
f 83/53/1 38/35/1 82/36/1
f 92/55/1 56/37/1 91/38/1
f 12/57/1 10/39/1 70/40/1
f 30/58/1 28/41/1 79/42/1
f 66/62/1 4/43/1 65/45/1
f 88/61/1 48/46/1 87/47/1
f 65/134/1 2/48/1 96/49/1
f 22/63/1 20/50/1 75/51/1
f 84/64/1 40/52/1 83/53/1
f 93/65/1 58/54/1 92/55/1
f 71/66/1 14/56/1 70/40/1
f 32/67/1 30/58/1 80/59/1
f 89/135/1 50/60/1 88/61/1
f 6/4/1 4/43/1 67/5/1
f 24/7/1 22/63/1 76/8/1
f 85/11/1 42/10/1 84/64/1
f 60/14/1 58/54/1 94/15/1
f 16/16/1 14/56/1 72/17/1
f 34/136/1 32/67/1 81/68/1
f 138/76/1 106/69/1 137/71/1
f 152/77/1 120/72/1 151/74/1
f 139/80/1 107/75/1 138/76/1
f 121/81/1 120/72/1 153/78/1
f 140/84/1 108/79/1 139/80/1
f 122/85/1 121/81/1 154/82/1
f 141/88/1 109/83/1 140/84/1
f 123/89/1 122/85/1 155/86/1
f 142/92/1 110/87/1 141/88/1
f 124/96/1 123/89/1 156/90/1
f 143/99/1 111/91/1 142/92/1
f 98/100/1 97/93/1 130/95/1
f 125/102/1 124/96/1 157/97/1
f 144/105/1 112/98/1 143/99/1
f 99/106/1 98/100/1 131/101/1
f 126/108/1 125/102/1 158/103/1
f 145/111/1 113/104/1 144/105/1
f 100/112/1 99/106/1 132/107/1
f 127/114/1 126/108/1 159/109/1
f 146/117/1 114/110/1 145/111/1
f 101/118/1 100/112/1 133/113/1
f 128/120/1 127/114/1 160/115/1
f 147/122/1 115/116/1 146/117/1
f 102/123/1 101/118/1 134/119/1
f 97/93/1 128/120/1 129/94/1
f 148/126/1 116/121/1 147/122/1
f 103/127/1 102/123/1 135/124/1
f 149/130/1 117/125/1 148/126/1
f 104/131/1 103/127/1 136/128/1
f 150/132/1 118/129/1 149/130/1
f 137/71/1 105/70/1 136/128/1
f 151/74/1 119/73/1 150/132/1
s 1
f 1/137/2 2/138/3 4/139/4
f 3/140/5 4/139/4 6/141/6
f 5/142/7 6/141/6 8/143/8
f 7/144/9 8/143/8 10/145/10
f 9/146/11 10/145/10 12/147/12
f 11/148/13 12/147/12 14/149/14
f 14/149/14 16/150/15 15/151/16
f 16/150/15 18/152/17 17/153/18
f 18/154/17 20/155/19 19/156/20
f 20/155/19 22/157/21 21/158/22
f 22/157/21 24/159/23 23/160/24
f 24/159/23 26/161/25 25/162/26
f 26/161/25 28/163/27 27/164/28
f 28/163/27 30/165/29 29/166/30
f 30/165/29 32/167/31 31/168/32
f 32/167/31 34/169/33 33/170/34
f 34/171/33 36/172/35 35/173/36
f 36/172/35 38/174/37 37/175/38
f 38/174/37 40/176/39 39/177/40
f 40/176/39 42/178/41 41/179/42
f 42/178/41 44/180/43 43/181/44
f 44/180/43 46/182/45 45/183/46
f 45/183/46 46/182/45 48/184/47
f 47/185/48 48/184/47 50/186/49
f 49/187/50 50/188/49 52/189/51
f 51/190/52 52/189/51 54/191/53
f 53/192/54 54/191/53 56/193/55
f 55/194/56 56/193/55 58/195/57
f 57/196/58 58/195/57 60/197/59
f 59/198/60 60/197/59 62/199/61
f 63/200/62 64/201/63 2/202/3
f 61/203/64 62/199/61 64/201/63
f 1/204/2 9/205/11 33/206/34
f 71/207/65 70/208/66 102/209/43
f 84/210/67 116/211/8 117/212/10
f 72/213/68 71/207/65 103/214/45
f 85/215/69 117/212/10 118/216/12
f 73/217/70 72/213/68 104/218/47
f 86/219/71 118/216/12 119/220/14
f 73/221/70 105/222/49 106/223/51
f 87/224/72 119/220/14 120/225/15
f 75/226/73 74/227/74 106/223/51
f 88/228/75 120/225/15 121/229/17
f 75/226/73 107/230/53 108/231/55
f 89/232/76 121/233/17 122/234/19
f 76/235/77 108/231/55 109/236/57
f 90/237/78 122/234/19 123/238/21
f 78/239/79 77/240/80 109/236/57
f 91/241/81 123/238/21 124/242/23
f 79/243/82 78/239/79 110/244/59
f 65/245/83 97/246/33 98/247/35
f 93/248/84 92/249/85 124/242/23
f 80/250/86 79/243/82 111/251/61
f 66/252/87 98/247/35 99/253/37
f 93/248/84 125/254/25 126/255/27
f 80/250/86 112/256/63 113/257/3
f 68/258/88 67/259/89 99/253/37
f 94/260/90 126/255/27 127/261/29
f 81/262/91 113/257/3 114/263/4
f 68/258/88 100/264/39 101/265/41
f 95/266/92 127/261/29 128/267/31
f 83/268/93 82/269/94 114/263/4
f 69/270/95 101/265/41 102/209/43
f 96/271/96 128/267/31 97/246/33
f 84/210/67 83/268/93 115/272/6
f 140/273/85 172/274/97 173/275/98
f 176/276/99 175/277/100 207/278/101
f 154/279/102 186/280/103 187/281/104
f 141/282/84 173/275/98 174/283/105
f 155/284/73 187/281/104 188/285/106
f 142/286/90 174/283/105 175/287/100
f 129/288/91 161/289/107 162/290/108
f 156/291/77 188/285/106 189/292/109
f 143/293/92 175/287/100 176/294/99
f 130/295/110 162/290/108 163/296/111
f 157/297/80 189/292/109 190/298/112
f 144/299/96 176/294/99 177/300/113
f 131/301/93 163/296/111 164/302/114
f 159/303/82 158/304/79 190/298/112
f 145/305/83 177/306/113 178/307/115
f 132/308/67 164/302/114 165/309/116
f 160/310/86 159/303/82 191/311/117
f 146/312/118 178/307/115 179/313/119
f 133/314/69 165/309/116 166/315/120
f 160/310/86 192/316/121 161/289/107
f 147/317/89 179/313/119 180/318/122
f 134/319/71 166/315/120 167/320/123
f 148/321/88 180/318/122 181/322/124
f 135/323/72 167/320/123 168/324/125
f 149/325/95 181/322/124 182/326/126
f 137/327/76 136/328/127 168/324/125
f 150/329/66 182/326/126 183/330/128
f 138/331/129 137/327/76 169/332/130
f 151/333/65 183/330/128 184/334/131
f 138/331/129 170/335/132 171/336/133
f 152/337/68 184/334/131 185/338/134
f 139/339/81 171/336/133 172/274/97
f 153/340/70 185/338/134 186/280/103
f 194/341/135 218/342/136 210/343/137
f 162/344/108 194/341/135 195/345/138
f 190/346/112 189/347/109 221/348/139
f 176/276/99 208/349/140 209/350/141
f 163/351/111 195/345/138 196/352/142
f 190/346/112 222/353/143 223/354/144
f 178/355/115 177/356/113 209/350/141
f 164/357/114 196/352/142 197/358/145
f 191/359/117 223/354/144 224/360/146
f 178/355/115 210/343/137 211/361/147
f 166/362/120 165/363/116 197/358/145
f 161/364/107 192/365/121 224/360/146
f 179/366/119 211/361/147 212/367/148
f 166/362/120 198/368/149 199/369/150
f 181/370/124 180/371/122 212/367/148
f 168/372/125 167/373/123 199/369/150
f 182/374/126 181/370/124 213/375/151
f 168/372/125 200/376/152 201/377/153
f 182/374/126 214/378/154 215/379/155
f 169/380/130 201/377/153 202/381/156
f 184/382/131 183/383/128 215/379/155
f 171/384/133 170/385/132 202/381/156
f 185/386/134 184/382/131 216/387/157
f 171/384/133 203/388/158 204/389/159
f 186/390/103 185/386/134 217/391/160
f 173/392/98 172/393/97 204/389/159
f 186/390/103 218/342/136 219/394/161
f 173/392/98 205/395/162 206/396/163
f 188/397/106 187/398/104 219/394/161
f 174/399/105 206/396/163 207/278/101
f 162/344/108 161/364/107 193/400/164
f 188/397/106 220/401/165 221/348/139
f 3/140/5 1/137/2 4/139/4
f 5/142/7 3/140/5 6/141/6
f 7/144/9 5/142/7 8/143/8
f 9/146/11 7/144/9 10/145/10
f 11/148/13 9/146/11 12/147/12
f 13/402/166 11/148/13 14/149/14
f 13/402/166 14/149/14 15/151/16
f 15/151/16 16/150/15 17/153/18
f 17/403/18 18/154/17 19/156/20
f 19/156/20 20/155/19 21/158/22
f 21/158/22 22/157/21 23/160/24
f 23/160/24 24/159/23 25/162/26
f 25/162/26 26/161/25 27/164/28
f 27/164/28 28/163/27 29/166/30
f 29/166/30 30/165/29 31/168/32
f 31/168/32 32/167/31 33/170/34
f 33/404/34 34/171/33 35/173/36
f 35/173/36 36/172/35 37/175/38
f 37/175/38 38/174/37 39/177/40
f 39/177/40 40/176/39 41/179/42
f 41/179/42 42/178/41 43/181/44
f 43/181/44 44/180/43 45/183/46
f 47/185/48 45/183/46 48/184/47
f 49/405/50 47/185/48 50/186/49
f 51/190/52 49/187/50 52/189/51
f 53/192/54 51/190/52 54/191/53
f 55/194/56 53/192/54 56/193/55
f 57/196/58 55/194/56 58/195/57
f 59/198/60 57/196/58 60/197/59
f 61/203/64 59/198/60 62/199/61
f 1/406/2 63/200/62 2/202/3
f 63/200/62 61/203/64 64/201/63
f 61/407/64 63/408/62 1/204/2
f 57/409/58 59/410/60 61/407/64
f 53/411/54 55/412/56 57/409/58
f 57/409/58 51/413/52 53/411/54
f 45/414/46 47/415/48 49/416/50
f 41/417/42 43/418/44 45/414/46
f 37/419/38 39/420/40 41/417/42
f 1/204/2 35/421/36 37/419/38
f 25/422/26 31/423/32 33/206/34
f 25/422/26 27/424/28 29/425/30
f 21/426/22 23/427/24 25/422/26
f 17/428/18 19/429/20 21/426/22
f 9/205/11 15/430/16 17/428/18
f 9/205/11 11/431/13 13/432/166
f 5/433/7 7/434/9 9/205/11
f 9/205/11 3/435/5 5/433/7
f 57/409/58 61/407/64 1/204/2
f 49/416/50 51/413/52 57/409/58
f 41/417/42 45/414/46 49/416/50
f 49/416/50 37/419/38 41/417/42
f 25/422/26 29/425/30 31/423/32
f 17/428/18 21/426/22 25/422/26
f 9/205/11 13/432/166 15/430/16
f 1/204/2 3/435/5 9/205/11
f 49/416/50 57/409/58 1/204/2
f 1/204/2 37/419/38 49/416/50
f 17/428/18 25/422/26 33/206/34
f 33/206/34 9/205/11 17/428/18
f 33/206/34 35/421/36 1/204/2
f 103/214/45 71/207/65 102/209/43
f 85/215/69 84/210/67 117/212/10
f 104/218/47 72/213/68 103/214/45
f 86/219/71 85/215/69 118/216/12
f 105/436/49 73/217/70 104/218/47
f 87/224/72 86/219/71 119/220/14
f 74/227/74 73/221/70 106/223/51
f 88/228/75 87/224/72 120/225/15
f 107/230/53 75/226/73 106/223/51
f 89/437/76 88/228/75 121/229/17
f 76/235/77 75/226/73 108/231/55
f 90/237/78 89/232/76 122/234/19
f 77/240/80 76/235/77 109/236/57
f 91/241/81 90/237/78 123/238/21
f 110/244/59 78/239/79 109/236/57
f 92/249/85 91/241/81 124/242/23
f 111/251/61 79/243/82 110/244/59
f 66/252/87 65/245/83 98/247/35
f 125/254/25 93/248/84 124/242/23
f 112/256/63 80/250/86 111/251/61
f 67/259/89 66/252/87 99/253/37
f 94/260/90 93/248/84 126/255/27
f 81/262/91 80/250/86 113/257/3
f 100/264/39 68/258/88 99/253/37
f 95/266/92 94/260/90 127/261/29
f 82/269/94 81/262/91 114/263/4
f 69/270/95 68/258/88 101/265/41
f 96/271/96 95/266/92 128/267/31
f 115/272/6 83/268/93 114/263/4
f 70/208/66 69/270/95 102/209/43
f 65/245/83 96/271/96 97/246/33
f 116/211/8 84/210/67 115/272/6
f 141/282/84 140/273/85 173/275/98
f 208/349/140 176/276/99 207/278/101
f 155/284/73 154/279/102 187/281/104
f 142/286/90 141/282/84 174/283/105
f 156/291/77 155/284/73 188/285/106
f 143/293/92 142/286/90 175/287/100
f 130/295/110 129/288/91 162/290/108
f 157/297/80 156/291/77 189/292/109
f 144/299/96 143/293/92 176/294/99
f 131/301/93 130/295/110 163/296/111
f 158/304/79 157/297/80 190/298/112
f 145/438/83 144/299/96 177/300/113
f 132/308/67 131/301/93 164/302/114
f 191/311/117 159/303/82 190/298/112
f 146/312/118 145/305/83 178/307/115
f 133/314/69 132/308/67 165/309/116
f 192/316/121 160/310/86 191/311/117
f 147/317/89 146/312/118 179/313/119
f 134/319/71 133/314/69 166/315/120
f 129/288/91 160/310/86 161/289/107
f 148/321/88 147/317/89 180/318/122
f 135/323/72 134/319/71 167/320/123
f 149/325/95 148/321/88 181/322/124
f 136/328/127 135/323/72 168/324/125
f 150/329/66 149/325/95 182/326/126
f 169/332/130 137/327/76 168/324/125
f 151/333/65 150/329/66 183/330/128
f 170/335/132 138/331/129 169/332/130
f 152/337/68 151/333/65 184/334/131
f 139/339/81 138/331/129 171/336/133
f 153/340/70 152/337/68 185/338/134
f 140/273/85 139/339/81 172/274/97
f 154/279/102 153/340/70 186/280/103
f 198/368/149 195/345/138 194/341/135
f 198/368/149 197/358/145 196/352/142
f 200/376/152 199/369/150 198/368/149
f 202/381/156 201/377/153 200/376/152
f 204/389/159 203/388/158 202/381/156
f 202/381/156 205/395/162 204/389/159
f 208/349/140 207/278/101 206/396/163
f 210/343/137 209/350/141 208/349/140
f 214/378/154 211/361/147 210/343/137
f 214/378/154 213/375/151 212/367/148
f 216/387/157 215/379/155 214/378/154
f 218/342/136 217/391/160 216/387/157
f 220/401/165 219/394/161 218/342/136
f 222/353/143 221/348/139 220/401/165
f 194/341/135 223/354/144 222/353/143
f 194/341/135 193/400/164 224/360/146
f 198/368/149 196/352/142 195/345/138
f 202/381/156 200/376/152 198/368/149
f 206/396/163 205/395/162 202/381/156
f 202/381/156 208/349/140 206/396/163
f 214/378/154 212/367/148 211/361/147
f 218/342/136 216/387/157 214/378/154
f 222/353/143 220/401/165 218/342/136
f 194/341/135 224/360/146 223/354/144
f 210/343/137 198/368/149 194/341/135
f 210/343/137 208/349/140 202/381/156
f 218/342/136 214/378/154 210/343/137
f 194/341/135 222/353/143 218/342/136
f 210/343/137 202/381/156 198/368/149
f 163/351/111 162/344/108 195/345/138
f 222/353/143 190/346/112 221/348/139
f 177/356/113 176/276/99 209/350/141
f 164/357/114 163/351/111 196/352/142
f 191/359/117 190/346/112 223/354/144
f 210/343/137 178/355/115 209/350/141
f 165/363/116 164/357/114 197/358/145
f 192/365/121 191/359/117 224/360/146
f 179/366/119 178/355/115 211/361/147
f 198/368/149 166/362/120 197/358/145
f 193/400/164 161/364/107 224/360/146
f 180/371/122 179/366/119 212/367/148
f 167/373/123 166/362/120 199/369/150
f 213/375/151 181/370/124 212/367/148
f 200/376/152 168/372/125 199/369/150
f 214/378/154 182/374/126 213/375/151
f 169/380/130 168/372/125 201/377/153
f 183/383/128 182/374/126 215/379/155
f 170/385/132 169/380/130 202/381/156
f 216/387/157 184/382/131 215/379/155
f 203/388/158 171/384/133 202/381/156
f 217/391/160 185/386/134 216/387/157
f 172/393/97 171/384/133 204/389/159
f 218/342/136 186/390/103 217/391/160
f 205/395/162 173/392/98 204/389/159
f 187/398/104 186/390/103 219/394/161
f 174/399/105 173/392/98 206/396/163
f 220/401/165 188/397/106 219/394/161
f 175/277/100 174/399/105 207/278/101
f 194/341/135 162/344/108 193/400/164
f 189/347/109 188/397/106 221/348/139
