# Blender v2.75 (sub 0) OBJ File: 'untitled.blend'
# www.blender.org
mtllib ribs_13.mtl
o fuscc.000_fuscc.003
v 3.905443 18.045017 -7.594836
v 5.272296 18.159649 -8.389152
v 10.887769 16.930363 -6.798995
v 12.028268 16.207857 -5.711902
v 10.966638 16.922161 -6.877006
v 12.756827 15.181895 -4.143394
v 13.161614 14.082308 -2.290429
v 12.920907 15.189334 -4.221953
v 13.097718 12.854166 0.141369
v 12.587407 11.865587 2.276765
v 9.633115 7.994622 6.518207
v 9.692529 7.720155 6.271157
v 12.096551 15.454837 -6.387437
v 11.891892 15.104648 -6.319297
v 7.260183 17.229053 -8.785975
v 7.402805 17.641422 -8.689559
v 8.880761 16.734478 -8.421386
v 4.047779 17.815563 -7.452929
v 5.223278 17.845890 -8.411086
v 6.170419 17.936871 -8.561957
v 6.172851 17.513630 -8.637679
v 11.698487 15.379878 -5.797614
v 10.454324 16.181919 -6.926167
v 11.810353 15.317317 -6.130589
v 6.207374 17.592785 -8.421720
v 7.250956 17.479870 -8.391440
v 11.642030 10.106248 3.866158
v 11.802724 9.633416 3.798233
v 10.218099 9.047097 5.621562
v 8.517364 7.500619 6.662879
v 8.452895 7.759828 6.620632
v 9.142402 9.329957 6.423698
v 9.295562 8.811254 6.171809
v 8.347371 8.032769 7.439933
v 8.427337 7.833832 7.391105
v 8.519891 7.435769 7.182488
v 10.151341 9.851808 6.018196
v 9.234193 9.250611 6.698500
v 10.292485 9.395951 6.127725
v 9.380868 8.865708 6.795106
v 8.227780 8.345002 7.423912
v 9.544232 8.346528 6.708751
v 9.164718 9.369248 6.519828
v 10.151628 9.853333 5.885110
v 12.091210 9.353990 3.936157
v 13.024285 12.864084 0.058351
v 12.445596 11.296053 1.925741
v 12.934926 11.083384 2.085148
v 12.960961 10.490770 1.822696
v 13.004258 11.837740 -0.421180
v 13.347390 11.556025 -0.454511
v 12.564328 10.740824 1.705013
v 12.876370 13.400049 -2.576567
v 12.989667 14.075251 -2.304686
v 13.421109 13.918467 -2.351917
v 13.355878 12.602777 0.081359
v 13.520005 13.302011 -2.639355
v 13.271668 14.058275 -2.295865
v 13.054803 15.046855 -4.320849
v 12.480691 14.817019 -4.259766
v 11.813596 15.762874 -5.681456
v 10.581639 16.552517 -6.778872
v 9.073165 17.035839 -8.329547
v 9.095052 17.608807 -8.124793
v 10.737279 16.891834 -6.709731
v 11.915448 16.169138 -5.677402
v 8.889821 17.690060 -7.636798
v 8.752969 17.180702 -7.714522
v 7.559637 18.128559 -8.509315
v 6.770829 18.067905 -8.559549
v 6.423572 18.053219 -7.996810
v 5.539659 18.230412 -7.875169
v 6.335119 17.876408 -8.106101
v 6.507257 18.597195 -8.297837
v 7.386592 17.846844 -8.031714
v 7.511858 18.173954 -8.003676
v 10.738233 15.889140 -7.406486
v 10.638097 16.060230 -7.189144
v 13.535169 12.001390 -0.193276
v 8.552077 7.249421 6.835351
v 3.933958 17.898151 -7.517589
v 10.563329 8.528680 5.869232
v 10.622361 8.240670 5.700050
v 3.944424 18.785641 -7.191146
v 5.430368 18.748066 -8.049548
v 3.904346 18.703053 -7.276118
v 9.190991 9.384126 6.655632
v 7.587484 18.315479 -8.212913
v 7.604078 18.329212 -8.311046
v 9.056380 17.771122 -7.939685
v 9.015515 17.774174 -7.840407
v 12.118581 16.196604 -5.766929
v 11.624578 10.844964 4.206596
v 13.505033 11.616869 -0.381126
v 13.279202 12.915773 -2.793135
v 13.400987 12.892694 -2.806367
v 12.675622 14.149447 -4.875244
v 6.260589 17.722103 -8.231509
v 5.384782 17.785618 -8.086408
v 6.282238 17.800114 -8.161033
v 12.532285 14.258548 -4.726852
v 12.344029 14.400455 -4.533161
v 8.812669 16.868946 -8.115781
v 10.187295 9.515351 5.748210
v 11.579087 10.403604 3.938065
v 9.531739 8.139962 6.048713
v 9.601262 7.964677 6.075225
v 8.384326 8.135575 6.622491
v 8.269456 8.530587 6.713615
v 8.546212 7.315225 7.088743
v 8.089641 8.916635 7.221876
v 8.151439 8.730287 7.317482
v 5.530694 18.473217 -7.898105
v 6.500104 18.380711 -7.955897
v 11.817124 10.420388 4.250847
v 10.451558 8.924073 5.985151
v 10.365060 8.468026 5.586849
v 4.098896 18.671772 -7.035316
v 4.146675 18.520901 -7.019771
v 4.109410 17.834827 -7.347501
v 5.323366 17.847797 -8.216203
v 4.018072 18.793842 -7.103026
v 11.981061 10.029191 4.298244
v 12.769177 11.499949 2.198492
v 12.908414 12.326593 -0.210227
v 12.907842 14.418574 -4.679025
v 12.228826 15.961238 -5.943407
v 11.002687 16.161320 -7.395947
v 11.074117 16.780636 -7.105220
v 5.347732 18.506596 -8.314384
v 4.177621 18.310329 -7.039321
v 4.165557 18.047497 -7.123769
v 5.476287 18.004391 -7.950461
v 3.875950 18.268940 -7.545722
v 3.825954 18.510410 -7.422984
v 8.085588 8.832139 6.891761
v 8.072856 8.914727 7.080732
v 4.151300 17.843029 -7.193864
v 3.875545 18.594715 -7.329524
v 8.019259 8.018464 7.056318
v 3.832248 18.241474 -7.150615
vt 0.097787 0.080742
vt 0.091704 0.111467
vt 0.095782 0.080371
vt 0.097310 0.146541
vt 0.110938 0.182988
vt 0.093939 0.146957
vt 0.708387 0.681046
vt 0.715392 0.681863
vt 0.711392 0.712737
vt 0.327702 0.882125
vt 0.328851 0.860750
vt 0.335390 0.879951
vt 0.259766 0.239996
vt 0.272461 0.267796
vt 0.254846 0.244477
vt 0.408165 0.744956
vt 0.417504 0.745377
vt 0.410247 0.788953
vt 0.474565 0.910877
vt 0.476052 0.933760
vt 0.471261 0.933760
vt 0.167881 0.377990
vt 0.167094 0.374330
vt 0.167881 0.366475
vt 0.076196 0.745391
vt 0.074020 0.769054
vt 0.068005 0.747275
vt 0.066964 0.770251
vt 0.067306 0.796594
vt 0.056713 0.770730
vt 0.762521 0.386108
vt 0.760750 0.386995
vt 0.754080 0.365260
vt 0.295334 0.000187
vt 0.270655 0.032042
vt 0.265392 0.026653
vt 0.751338 0.275839
vt 0.761302 0.232203
vt 0.763452 0.276418
vt 0.249201 0.118212
vt 0.241823 0.115422
vt 0.258532 0.074640
vt 0.406364 0.336612
vt 0.408762 0.388164
vt 0.394802 0.337733
vt 0.413645 0.294358
vt 0.410216 0.336159
vt 0.409576 0.294137
vt 0.806515 0.149225
vt 0.798735 0.148957
vt 0.808136 0.116182
vt 0.717043 0.714941
vt 0.727205 0.712907
vt 0.101094 0.080740
vt 0.093874 0.111006
vt 0.008512 0.879231
vt 0.018083 0.896813
vt 0.014064 0.897433
vt 0.724505 0.682642
vt 0.720818 0.668586
vt 0.018791 0.913320
vt 0.730352 0.661590
vt 0.717385 0.658274
vt 0.963262 0.295976
vt 0.963973 0.324077
vt 0.957470 0.296411
vt 0.004314 0.846059
vt 0.013184 0.807088
vt 0.017856 0.809635
vt 0.815249 0.081545
vt 0.815249 0.118961
vt 0.408662 0.434523
vt 0.396680 0.389385
vt 0.740049 0.614729
vt 0.732505 0.641501
vt 0.737750 0.614331
vt 0.268878 0.076722
vt 0.278985 0.035821
vt 0.138189 0.222017
vt 0.168543 0.255239
vt 0.137877 0.224060
vt 0.076384 0.768447
vt 0.133625 0.020917
vt 0.132367 0.019532
vt 0.149359 0.007746
vt 0.114025 0.041832
vt 0.115652 0.042930
vt 0.089753 0.111573
vt 0.109188 0.184097
vt 0.768114 0.761993
vt 0.764105 0.807646
vt 0.761833 0.807488
vt 0.844950 0.848026
vt 0.841804 0.847685
vt 0.844950 0.802202
vt 0.768114 0.848414
vt 0.332691 0.898021
vt 0.326792 0.898508
vt 0.246539 0.210727
vt 0.251998 0.209354
vt 0.009771 0.847721
vt 0.000187 0.878008
vt 0.012176 0.897969
vt 0.401443 0.787140
vt 0.402370 0.744377
vt 0.417837 0.833125
vt 0.420004 0.809386
vt 0.423283 0.809841
vt 0.046303 0.796365
vt 0.049323 0.770374
vt 0.048933 0.796643
vt 0.996929 0.716794
vt 0.993193 0.694801
vt 0.996929 0.693271
vt 0.077078 0.793132
vt 0.058352 0.747052
vt 0.395641 0.809869
vt 0.406577 0.809140
vt 0.077616 0.742391
vt 0.077451 0.720600
vt 0.083059 0.722956
vt 0.084212 0.741783
vt 0.881694 0.948758
vt 0.879012 0.947819
vt 0.881194 0.917388
vt 0.581242 0.590486
vt 0.581242 0.622393
vt 0.579207 0.621980
vt 0.410989 0.831460
vt 0.061375 0.702608
vt 0.068850 0.702011
vt 0.089183 0.784279
vt 0.749324 0.320190
vt 0.758139 0.320112
vt 0.394802 0.786426
vt 0.806794 0.849838
vt 0.814459 0.849766
vt 0.819266 0.896319
vt 0.258372 0.119767
vt 0.812831 0.044186
vt 0.800512 0.000187
vt 0.811903 0.000425
vt 0.796566 0.432171
vt 0.788682 0.386547
vt 0.796566 0.385775
vt 0.980318 0.880816
vt 0.971925 0.879733
vt 0.980318 0.832725
vt 0.251311 0.167732
vt 0.859085 0.810469
vt 0.845343 0.810171
vt 0.845694 0.769304
vt 0.807102 0.082208
vt 0.797540 0.083326
vt 0.799189 0.042707
vt 0.417391 0.259069
vt 0.423079 0.259691
vt 0.800457 0.115266
vt 0.430970 0.232203
vt 0.435784 0.234535
vt 0.813306 0.150029
vt 0.261519 0.272087
vt 0.249586 0.245268
vt 0.266685 0.270470
vt 0.961332 0.878144
vt 0.949946 0.874040
vt 0.961332 0.836002
vt 0.119773 0.045093
vt 0.018405 0.878639
vt 0.137094 0.023879
vt 0.729832 0.682645
vt 0.336813 0.860664
vt 0.876722 0.916967
vt 0.875450 0.901120
vt 0.881694 0.900875
vt 0.320239 0.899211
vt 0.875182 0.946729
vt 0.870278 0.945665
vt 0.872383 0.916894
vt 0.330190 0.928819
vt 0.326032 0.931593
vt 0.725667 0.640958
vt 0.873830 0.884690
vt 0.323274 0.873249
vt 0.731627 0.711566
vt 0.955685 0.324077
vt 0.349930 0.482382
vt 0.343873 0.482242
vt 0.349930 0.441356
vt 0.740049 0.750333
vt 0.735525 0.752814
vt 0.736319 0.784191
vt 0.734131 0.784619
vt 0.739559 0.753187
vt 0.849133 0.881372
vt 0.847637 0.848045
vt 0.860055 0.850551
vt 0.861838 0.880194
vt 0.242360 0.211776
vt 0.739559 0.819888
vt 0.857568 0.766696
vt 0.866078 0.766164
vt 0.239072 0.165782
vt 0.113507 0.181071
vt 0.771861 0.233494
vt 0.416845 0.432418
vt 0.428472 0.475262
vt 0.421926 0.479730
vt 0.284104 0.037669
vt 0.050402 0.747225
vt 0.771861 0.406168
vt 0.768784 0.408377
vt 0.061311 0.797076
vt 0.014666 0.913163
vt 0.073924 0.794231
vt 0.866451 0.944878
vt 0.871961 0.901253
vt 0.421180 0.790629
vt 0.893197 0.909106
vt 0.893464 0.925585
vt 0.890769 0.925761
vt 0.005848 0.898338
vt 0.010176 0.897962
vt 0.009748 0.913615
vt 0.018791 0.850192
vt 0.334155 0.927142
vt 0.614224 0.725734
vt 0.614224 0.769407
vt 0.611081 0.768597
vt 0.752562 0.367197
vt 0.758783 0.388607
vt 0.815206 0.221368
vt 0.813143 0.188367
vt 0.815206 0.188066
vt 0.403136 0.831118
vt 0.396100 0.833227
vt 0.465216 0.995639
vt 0.462865 0.973115
vt 0.465216 0.972040
vt 0.718429 0.987776
vt 0.716408 0.986186
vt 0.718429 0.973365
vt 0.408945 0.841489
vt 0.027079 0.970562
vt 0.024686 0.977767
vt 0.019164 0.964517
vt 0.028483 0.960975
vt 0.028483 0.964707
vt 0.238511 0.866786
vt 0.232553 0.860835
vt 0.238511 0.853657
vt 0.821214 0.978833
vt 0.822229 0.974050
vt 0.830225 0.987002
vt 0.022585 0.981257
vt 0.020189 0.981223
vt 0.654143 0.998314
vt 0.650683 0.997255
vt 0.654143 0.984381
vt 0.825709 0.969647
vt 0.820311 0.984389
vt 0.820622 0.986694
vt 0.814063 0.992371
vt 0.947804 0.986978
vt 0.949884 0.987464
vt 0.949884 0.997313
vt 0.945892 0.988714
vt 0.875826 0.756918
vt 0.878813 0.756168
vt 0.878813 0.765221
vt 0.039334 0.806329
vt 0.036655 0.803757
vt 0.039334 0.797141
vt 0.871832 0.764502
vt 0.873504 0.760058
vt 0.033353 0.800396
vt 0.031758 0.797419
vt 0.428404 0.992052
vt 0.430684 0.990761
vt 0.430684 0.999176
vt 0.818800 0.982890
vt 0.815890 0.983399
vt 0.820158 0.988963
vt 0.319490 0.934555
vt 0.319490 0.963026
vt 0.316987 0.934880
vt 0.820622 0.991441
vt 0.089183 0.701645
vt 0.423283 0.744286
vt 0.808159 0.896333
vt 0.963045 0.171617
vt 0.970130 0.209849
vt 0.958855 0.209849
vt 0.880177 0.883535
vt 0.252383 0.069670
vt 0.810733 0.467053
vt 0.813650 0.441482
vt 0.813650 0.468148
vt 0.889237 0.908301
vt 0.900742 0.891182
vt 0.806496 0.943831
vt 0.992246 0.389095
vt 0.997165 0.372539
vt 0.997165 0.392717
vt 0.153179 0.013701
vt 0.168543 0.000187
vt 0.077078 0.701645
vt 0.984458 0.664293
vt 0.990596 0.664560
vt 0.987655 0.690920
vt 0.897790 0.952707
vt 0.886707 0.926205
vt 0.895550 0.953086
vt 0.995872 0.914233
vt 0.995872 0.940705
vt 0.992116 0.937893
vt 0.043194 0.769490
vt 0.424232 0.430212
vt 0.415256 0.386695
vt 0.588787 0.875483
vt 0.581641 0.877407
vt 0.596047 0.842330
vt 0.866078 0.812591
vt 0.590457 0.907962
vt 0.583760 0.907593
vt 0.596047 0.948999
vt 0.983079 0.943092
vt 0.986336 0.980426
vt 0.979860 0.980426
vt 0.819266 0.945378
vt 0.047558 0.702884
vt 0.868107 0.916758
vt 0.044376 0.747043
vt 0.435784 0.470523
vt 0.336813 0.926970
vt 0.900742 0.952999
vt 0.990596 0.691338
vt 0.830225 0.970695
vt 0.577768 0.999583
vt 0.575221 0.998844
vt 0.577768 0.989697
vt 0.001901 0.898715
vt 0.995125 0.099369
vt 0.995125 0.123756
vt 0.989989 0.121235
vt 0.893631 0.954600
vt 0.978329 0.164772
vt 0.978329 0.209849
vt 0.970503 0.205745
vt 0.295334 0.292896
vt 0.800725 0.183794
vt 0.810256 0.186204
vn 0.212900 0.906200 0.365300
vn 0.138800 0.873200 0.467200
vn 0.469400 0.882800 -0.017100
vn -0.302100 0.768700 0.563700
vn 0.076400 0.876500 0.475200
vn 0.532300 0.795800 0.288600
vn -0.217600 -0.723200 -0.655400
vn 0.132600 0.237300 -0.962300
vn -0.042900 -0.733400 -0.678500
vn -0.090000 0.258200 -0.961900
vn -0.264200 -0.738900 -0.619900
vn -0.857400 -0.415800 0.303100
vn -0.661800 -0.593100 0.458400
vn -0.724800 -0.681200 0.102700
vn -0.822900 -0.117800 -0.555800
vn -0.623800 -0.499600 -0.601100
vn -0.631000 -0.000100 -0.775800
vn 0.387000 -0.916800 -0.098200
vn -0.502800 -0.424800 -0.752800
vn -0.571200 -0.221800 -0.790300
vn -0.095800 -0.189900 0.977100
vn 0.624700 -0.122500 0.771200
vn -0.061100 -0.537200 0.841300
vn 0.088100 0.824200 0.559500
vn 0.348800 0.370900 0.860700
vn 0.591500 0.185500 0.784700
vn 0.465000 0.184700 0.865800
vn -0.287900 0.075300 0.954700
vn 0.583400 -0.098400 0.806200
vn -0.575300 0.589500 -0.567000
vn -0.472000 0.873300 -0.120200
vn -0.688000 0.633700 -0.353500
vn 0.531300 -0.841900 -0.094000
vn -0.097200 0.879400 0.466100
vn -0.742800 0.625400 0.239000
vn -0.963900 0.116100 -0.239500
vn -0.836300 -0.444900 -0.320500
vn -0.030000 -0.875800 -0.481700
vn -0.738800 -0.496800 -0.455400
vn 0.903700 0.408100 0.129700
vn 0.862400 0.397300 0.313600
vn 0.990200 0.002300 -0.139500
vn 0.499400 0.775700 0.385800
vn 0.936400 0.328800 -0.122800
vn -0.564100 -0.016800 0.825500
vn -0.753600 0.119400 0.646400
vn 0.408700 0.160600 -0.898400
vn 0.463200 0.514400 -0.721700
vn -0.240800 0.568400 0.786700
vn -0.407900 0.564300 0.717800
vn -0.257300 -0.740800 0.620600
vn 0.017500 -0.346300 0.938000
vn 0.026500 -0.554200 0.831900
vn 0.229700 0.475000 -0.849500
vn -0.025000 0.348800 -0.936800
vn 0.324200 -0.140700 0.935500
vn 0.138100 0.942100 -0.305500
vn -0.199600 -0.340300 0.918900
vn -0.464200 -0.424600 0.777400
vn 0.028800 0.462900 0.886000
vn -0.147900 -0.850200 -0.505300
vn -0.575900 -0.796200 0.185700
vn 0.929100 0.075900 0.362100
vn 0.990500 0.030500 0.134100
vn -0.648700 0.757700 0.071200
vn 0.074800 0.997200 0.003400
vn -0.793100 0.530100 -0.300000
vn 0.253600 0.859300 0.444300
vn -0.038000 0.828500 0.558700
vn 0.218600 0.899400 0.378600
vn 0.315900 0.889500 -0.330100
vn 0.439800 0.864300 -0.244100
vn 0.269400 0.920400 0.283400
vn 0.626600 0.777700 0.050200
vn 0.848800 -0.501000 -0.169000
vn -0.504500 -0.778500 -0.373400
vn 0.539800 -0.701100 -0.465900
vn 0.092300 -0.811400 -0.577200
vn -0.401300 -0.569100 -0.717700
vn -0.338700 0.185600 -0.922400
vn -0.707300 -0.683400 -0.180700
vn -0.918900 -0.381800 0.099500
vn -0.449300 -0.801900 0.393800
vn 0.025400 -0.629300 0.776700
vn -0.695700 0.173700 -0.697100
vn -0.875200 0.138600 -0.463400
vn -0.423600 -0.148700 -0.893600
vn -0.260200 -0.495800 -0.828500
vn -0.093600 -0.824500 0.558100
vn 0.625800 -0.340300 0.701800
vn -0.563100 0.586200 0.582500
vn -0.336800 0.250900 0.907600
vn 0.679900 -0.001600 0.733300
vn -0.505200 0.115400 -0.855200
vn 0.547000 -0.835900 -0.045400
vn -0.414600 -0.373000 -0.830000
vn 0.033100 0.342500 0.938900
vn 0.127100 0.052100 0.990500
vn 0.318600 0.326300 0.889900
vn -0.237800 0.755900 0.610000
vn -0.605700 -0.051600 -0.794000
vn 0.808700 0.124400 0.574900
vn 0.697300 0.366600 0.616000
vn -0.163300 0.930200 0.328800
vn -0.996200 0.042300 -0.076500
vn -0.652900 0.624100 0.429300
vn -0.967100 -0.253800 -0.015600
vn 0.892600 -0.149800 -0.425200
vn -0.866300 0.237400 0.439400
vn 0.860700 0.364900 -0.355100
vn 0.649200 0.559000 -0.515800
vn -0.174100 -0.876800 -0.448300
vn 0.556000 -0.042700 -0.830100
vn -0.106500 0.523300 0.845400
vn 0.139700 0.411500 0.900600
vn -0.243500 0.517700 -0.820200
vn 0.158200 -0.172800 0.972200
vn 0.135800 -0.322400 0.936800
vn 0.289400 -0.482900 0.826500
vn -0.818900 0.081500 -0.568100
vn -0.839000 0.412100 -0.355300
vn 0.745300 -0.115500 -0.656700
vn 0.846500 0.269700 0.459100
vn 0.716900 -0.136800 0.683600
vn -0.793100 0.342700 -0.503600
vn -0.815100 0.575500 -0.066000
vn -0.119600 -0.758200 0.641000
vn -0.104700 -0.891500 0.440800
vn -0.024300 -0.969100 0.245400
vn -0.202400 -0.976100 -0.079800
vn -0.010300 -0.749700 0.661700
vn -0.781000 -0.208900 -0.588600
vn 0.592500 -0.781800 -0.194300
vn -0.835300 0.490900 -0.247700
vn -0.616700 0.055900 -0.785200
vn -0.961600 -0.274300 0.000300
vn -0.261000 -0.942500 -0.208800
vn -0.802900 -0.203300 0.560400
vn -0.374700 -0.924700 0.067400
vn -0.328600 -0.915500 0.232100
vn -0.660000 -0.751300 0.000800
usemtl None
s 1
f 3/1/1 4/2/2 5/3/3
f 6/4/4 7/5/5 8/6/6
f 15/7/7 16/8/8 17/9/9
f 20/10/10 16/11/8 21/12/11
f 22/13/12 23/14/13 24/15/14
f 27/16/15 28/17/16 29/18/17
f 12/19/18 30/20/19 31/21/20
f 34/22/21 35/23/22 36/24/23
f 37/25/24 38/26/25 39/27/26
f 40/28/27 41/29/28 42/30/29
f 32/31/30 43/32/31 44/33/32
f 29/34/17 28/35/16 45/36/33
f 10/37/34 46/38/35 47/39/36
f 50/40/37 51/41/38 52/42/39
f 55/43/40 56/44/41 57/45/42
f 8/46/6 58/47/43 59/48/44
f 62/49/45 23/50/13 61/51/46
f 63/52/47 16/8/8 64/53/48
f 65/54/49 66/55/50 3/1/1
f 26/56/51 71/57/52 73/58/53
f 69/59/54 16/8/8 70/60/55
f 71/57/52 72/61/56 73/58/53
f 74/62/57 70/60/55 20/63/10
f 75/64/58 68/65/59 76/66/60
f 17/67/9 77/68/61 78/69/62
f 6/70/4 66/71/50 61/51/46
f 56/44/41 48/72/63 79/73/64
f 84/74/65 85/75/66 86/76/67
f 47/77/36 28/35/16 27/78/15
f 47/77/36 52/42/39 28/35/16
f 46/79/35 10/80/34 9/81/68
f 38/26/25 37/25/24 87/82/69
f 88/83/70 89/84/71 74/85/57
f 90/86/72 91/87/73 3/1/1
f 6/4/4 92/88/74 4/2/2
f 9/81/68 58/89/43 7/5/5
f 94/90/75 95/91/76 96/92/77
f 94/93/75 51/94/38 95/95/76
f 97/96/78 96/92/77 95/91/76
f 20/10/10 19/97/79 2/98/80
f 101/99/81 102/100/82 22/13/12
f 103/101/83 26/56/51 15/102/7
f 26/56/51 73/58/53 100/103/84
f 104/104/85 105/105/86 27/16/15
f 31/106/20 106/107/87 107/108/88
f 110/109/89 11/110/90 36/111/23
f 11/110/90 42/30/29 36/111/23
f 38/112/25 111/113/91 112/114/92
f 38/26/25 87/82/69 111/115/91
f 116/116/93 39/27/26 40/28/27
f 32/117/30 104/104/85 33/118/94
f 83/119/95 12/120/18 107/121/88
f 107/121/88 117/122/96 83/119/95
f 118/123/97 119/124/98 113/125/99
f 85/126/66 84/127/65 122/128/100
f 106/107/87 31/106/20 108/129/101
f 123/130/102 39/27/26 116/116/93
f 123/130/102 115/131/103 39/27/26
f 45/132/33 83/119/95 117/122/96
f 93/133/104 105/134/86 44/33/32
f 105/105/86 104/104/85 44/135/32
f 93/133/104 10/37/34 105/134/86
f 94/136/75 79/137/64 48/138/63
f 47/77/36 125/139/105 50/40/37
f 54/140/106 125/141/105 46/142/35
f 96/143/77 79/144/64 94/145/75
f 96/146/77 57/147/42 79/148/64
f 53/149/107 50/40/37 125/139/105
f 126/150/108 59/151/44 55/152/40
f 60/153/109 102/154/82 53/155/107
f 127/156/110 92/157/74 8/46/6
f 22/158/12 102/154/82 60/153/109
f 92/157/74 127/156/110 129/159/111
f 129/159/111 5/160/3 92/157/74
f 66/71/50 65/161/49 62/49/45
f 77/162/61 14/163/112 24/15/14
f 78/164/62 77/162/61 24/15/14
f 129/165/111 128/166/113 63/167/47
f 65/54/49 91/87/73 67/168/114
f 26/56/51 75/169/58 71/57/52
f 67/168/114 91/87/73 88/83/70
f 88/83/70 76/170/60 67/168/114
f 16/8/8 69/59/54 64/53/48
f 89/171/71 69/59/54 74/62/57
f 21/12/11 16/11/8 15/172/7
f 113/125/99 72/173/56 71/174/52
f 71/174/52 114/175/115 113/125/99
f 2/98/80 130/176/116 20/10/10
f 113/125/99 119/124/98 131/177/117
f 72/173/56 113/125/99 131/177/117
f 72/173/56 131/177/117 132/178/118
f 132/178/118 133/179/119 72/173/56
f 134/180/120 135/181/121 130/176/116
f 2/98/80 134/180/120 130/176/116
f 130/182/116 85/75/66 74/62/57
f 114/175/115 71/174/52 75/183/58
f 20/10/10 70/184/55 16/11/8
f 16/8/8 63/52/47 17/9/9
f 69/59/54 89/171/71 90/185/72
f 90/185/72 64/53/48 69/59/54
f 76/66/60 68/65/59 67/186/114
f 62/187/45 65/188/49 67/189/114
f 5/190/3 64/53/48 90/185/72
f 5/190/3 129/191/111 64/53/48
f 23/50/13 22/158/12 61/51/46
f 66/192/50 4/193/2 3/194/1
f 129/195/111 127/196/110 13/197/122
f 13/197/122 128/198/113 129/195/111
f 24/15/14 97/199/78 101/99/81
f 24/15/14 14/163/112 97/199/78
f 126/150/108 13/197/122 127/196/110
f 127/196/110 59/151/44 126/150/108
f 4/193/2 66/192/50 6/200/4
f 126/150/108 57/201/42 96/202/77
f 58/47/43 55/43/40 59/48/44
f 95/203/76 51/41/38 50/40/37
f 53/149/107 95/203/76 50/40/37
f 7/5/5 46/79/35 9/81/68
f 7/5/5 54/204/106 46/79/35
f 125/205/105 47/39/36 46/38/35
f 56/44/41 124/206/123 48/72/63
f 115/207/103 123/208/102 48/72/63
f 48/72/63 124/206/123 115/207/103
f 105/209/86 47/77/36 27/78/15
f 123/130/102 116/116/93 82/210/124
f 136/211/125 43/32/31 32/31/30
f 136/211/125 137/212/126 43/32/31
f 42/30/29 41/29/28 34/213/21
f 95/203/76 101/99/81 97/199/78
f 100/103/84 73/58/53 133/214/119
f 40/28/27 38/26/25 112/215/92
f 133/179/119 132/178/118 138/216/127
f 40/28/27 39/27/26 38/26/25
f 73/217/53 72/173/56 133/179/119
f 82/210/124 42/30/29 11/110/90
f 82/210/124 116/116/93 42/30/29
f 33/118/94 104/104/85 29/18/17
f 117/218/96 107/108/88 106/107/87
f 25/219/128 99/220/129 121/221/130
f 25/222/128 98/223/131 99/224/129
f 75/169/58 26/56/51 68/225/59
f 24/15/14 23/14/13 78/164/62
f 134/180/120 2/98/80 1/226/132
f 95/203/76 102/100/82 101/99/81
f 95/203/76 53/149/107 102/100/82
f 49/227/133 51/228/38 94/229/75
f 37/230/24 44/33/32 43/32/31
f 43/32/31 87/231/69 37/230/24
f 87/231/69 43/32/31 137/212/126
f 7/5/5 58/89/43 8/6/6
f 4/2/2 92/88/74 5/3/3
f 91/87/73 90/86/72 89/84/71
f 91/87/73 89/84/71 88/83/70
f 130/232/116 139/233/134 86/234/67
f 86/76/67 85/75/66 130/182/116
f 40/28/27 112/215/92 41/29/28
f 32/117/30 109/235/135 136/236/125
f 87/237/69 137/238/126 111/239/91
f 110/240/89 36/241/23 140/242/136
f 109/235/135 108/129/101 140/243/136
f 41/244/28 112/245/92 140/246/136
f 136/236/125 109/235/135 140/243/136
f 35/247/22 34/248/21 140/246/136
f 36/249/23 35/250/22 140/251/136
f 34/248/21 41/244/28 140/246/136
f 108/129/101 31/106/20 140/243/136
f 31/252/20 30/253/19 140/254/136
f 111/255/91 137/256/126 140/246/136
f 112/245/92 111/255/91 140/246/136
f 137/257/126 136/258/125 140/259/136
f 30/253/19 80/260/137 140/254/136
f 84/261/65 86/262/67 141/263/138
f 18/264/139 120/265/140 141/266/138
f 81/267/141 18/264/139 141/266/138
f 1/268/132 81/269/141 141/270/138
f 138/271/127 132/272/118 141/273/138
f 135/274/121 134/275/120 141/270/138
f 131/276/117 119/277/98 141/273/138
f 119/278/98 118/279/97 141/280/138
f 122/281/100 84/261/65 141/263/138
f 132/272/118 131/276/117 141/273/138
f 118/282/97 122/281/100 141/263/138
f 134/275/120 1/268/132 141/270/138
f 86/262/67 139/283/134 141/263/138
f 139/284/134 130/285/116 135/286/121
f 139/283/134 135/287/121 141/263/138
f 90/86/72 3/1/1 5/3/3
f 92/88/74 6/4/4 8/6/6
f 19/97/79 20/10/10 21/12/11
f 101/99/81 22/13/12 24/15/14
f 104/104/85 27/16/15 29/18/17
f 107/121/88 12/120/18 31/288/20
f 42/30/29 34/213/21 36/111/23
f 115/131/103 37/25/24 39/27/26
f 116/116/93 40/28/27 42/30/29
f 104/104/85 32/117/30 44/135/32
f 117/218/96 29/18/17 45/289/33
f 105/134/86 10/37/34 47/39/36
f 94/136/75 48/138/63 49/290/133
f 47/77/36 50/40/37 52/42/39
f 60/153/109 53/155/107 54/140/106
f 126/150/108 55/152/40 57/201/42
f 127/156/110 8/46/6 59/48/44
f 22/158/12 60/153/109 61/51/46
f 66/71/50 62/49/45 61/51/46
f 129/291/111 63/292/47 64/293/48
f 91/87/73 65/54/49 3/1/1
f 26/56/51 100/103/84 98/223/131
f 74/62/57 69/59/54 70/60/55
f 130/182/116 74/62/57 20/63/10
f 114/175/115 75/183/58 76/294/60
f 57/45/42 56/44/41 79/73/64
f 51/41/38 49/295/133 52/42/39
f 1/296/132 2/297/80 81/298/141
f 25/219/128 21/299/11 26/300/51
f 48/138/63 45/301/33 49/290/133
f 44/33/32 37/230/24 93/133/104
f 98/223/131 100/103/84 99/224/129
f 113/302/99 114/303/115 85/304/66
f 114/305/115 74/85/57 85/306/66
f 115/131/103 93/307/104 37/25/24
f 113/308/99 85/309/66 118/310/97
f 120/311/140 19/312/79 121/221/130
f 120/311/140 18/313/139 19/312/79
f 21/299/11 121/221/130 19/312/79
f 21/299/11 25/219/128 121/221/130
f 12/314/18 110/315/89 80/316/137
f 12/317/18 11/110/90 110/109/89
f 10/318/34 56/44/41 9/319/68
f 10/318/34 124/206/123 56/44/41
f 9/319/68 56/44/41 55/43/40
f 55/43/40 58/47/43 9/319/68
f 14/320/112 13/321/122 97/322/78
f 13/197/122 126/150/108 97/323/78
f 13/321/122 77/324/61 128/325/113
f 15/102/7 17/67/9 103/101/83
f 76/170/60 88/83/70 74/85/57
f 74/85/57 114/305/115 76/170/60
f 78/69/62 103/101/83 17/67/9
f 63/326/47 128/325/113 77/324/61
f 77/327/61 17/328/9 63/329/47
f 96/202/77 97/323/78 126/150/108
f 48/138/63 123/330/102 45/301/33
f 45/331/33 123/130/102 82/210/124
f 121/221/130 99/220/129 120/311/140
f 133/214/119 99/224/129 100/103/84
f 138/216/127 99/332/129 133/179/119
f 83/333/95 82/210/124 11/110/90
f 93/334/104 115/207/103 124/206/123
f 124/206/123 10/318/34 93/334/104
f 2/98/80 19/97/79 81/335/141
f 99/220/129 138/336/127 120/311/140
f 122/337/100 118/310/97 85/309/66
f 80/260/137 110/338/89 140/254/136
f 120/339/140 138/340/127 141/341/138
f 83/333/95 11/110/90 12/317/18
f 77/324/61 13/321/122 14/320/112
f 26/56/51 98/223/131 25/222/128
f 21/342/11 15/102/7 26/56/51
f 12/343/18 80/344/137 30/345/19
f 19/312/79 18/313/139 81/346/141
f 45/331/33 82/210/124 83/333/95
f 52/42/39 45/36/33 28/35/16
f 45/347/33 52/348/39 49/349/133
f 54/140/106 53/155/107 125/141/105
f 108/129/101 109/235/135 33/118/94
f 33/118/94 106/107/87 108/129/101
f 33/118/94 117/218/96 106/107/87
f 109/235/135 32/117/30 33/118/94
f 117/218/96 33/118/94 29/18/17
f 78/69/62 68/225/59 103/101/83
f 78/164/62 23/14/13 68/350/59
f 23/50/13 62/49/45 68/351/59
f 62/49/45 67/352/114 68/351/59
f 103/101/83 68/225/59 26/56/51
f 60/153/109 6/70/4 61/51/46
f 60/153/109 54/140/106 6/70/4
f 54/204/106 7/5/5 6/4/4
