# Blender v2.75 (sub 0) OBJ File: 'ribs.blend'
# www.blender.org
mtllib ribs_19.mtl
o fuscc.011_fuscc.069
v 6.302051 5.741766 -9.501675
v 5.359900 6.367765 -9.426735
v 6.318894 6.068396 -9.670250
v 7.712098 4.950338 -9.225262
v 12.781781 0.472804 0.762622
v 12.739139 1.099040 -1.039563
v 12.870170 0.488540 0.763343
v 12.814294 -0.041051 2.375671
v 12.698649 1.438163 -1.893837
v 12.457873 1.834148 -3.003723
v 12.785129 1.452552 -1.908753
v 12.828992 1.109508 -1.048504
v 12.079662 2.235775 -4.201264
v 11.636862 2.617062 -5.111203
v 12.125175 2.255936 -4.234986
v 12.519782 1.850342 -3.026272
v 11.346489 2.853585 -5.654877
v 10.912269 3.144197 -6.258072
v 11.407077 2.889180 -5.701149
v 11.707658 2.645797 -5.162205
v 12.883748 0.048480 2.614105
v 7.877748 6.476664 -8.827106
v 6.454053 6.783861 -9.545368
v 6.573411 6.990437 -9.332436
v 6.546807 6.931213 -9.211624
v 11.491623 4.234664 -4.632362
v 11.642570 3.921796 -5.128510
v 11.029121 4.594052 -5.368942
v 10.920458 4.493316 -5.277012
v 12.675391 2.004218 -0.160538
v 12.939380 1.759624 -0.488350
v 12.666814 2.446975 -1.038422
v 12.554320 2.421550 -1.003624
v 12.617745 2.199958 -2.769955
v 12.292075 2.697724 -3.954178
v 12.373834 3.190984 -3.523510
v 12.325587 2.886092 -2.045132
v 12.089025 3.423283 -3.052616
v 12.248855 2.574020 -2.240467
v 12.442517 2.125160 -1.168000
v 12.516639 0.409293 2.994876
v 12.789100 1.218909 1.579738
v 12.990829 0.919532 1.319511
v 12.895198 0.650237 0.908576
v 6.398494 6.605881 -9.657166
v 7.908591 6.026461 -9.219475
v 6.342202 6.380878 -9.708931
v 5.351552 6.696302 -9.484745
v 5.389514 6.432028 -9.012398
v 6.326079 5.935312 -9.231358
v 6.351979 6.063223 -9.155102
v 6.429807 6.421116 -9.112591
v 7.813991 5.546535 -9.327972
v 8.827802 5.033052 -8.747715
v 8.934216 5.588541 -8.595734
v 10.087132 4.271368 -7.445705
v 8.553370 4.256376 -8.581673
v 7.847604 6.426342 -8.717785
v 8.856034 5.985075 -8.101665
v 8.770576 5.522802 -7.984379
v 8.831925 5.950193 -8.002998
v 7.811097 6.070133 -8.682201
v 7.737630 5.504865 -8.728912
v 10.192403 4.830087 -7.225437
v 11.172125 3.705796 -6.115227
v 9.870206 3.721595 -7.413948
v 11.200802 4.277116 -5.868145
v 11.580944 3.369601 -5.440949
v 11.309868 3.147714 -5.325833
v 10.890644 3.444276 -5.972306
v 11.999846 3.583642 -4.410370
v 11.927682 3.060807 -4.801522
v 11.533583 2.992595 -4.448857
v 11.975844 2.677228 -3.613881
v 11.584068 3.359755 -4.080715
v 11.262732 3.707705 -4.713929
v 11.813599 3.895356 -3.935074
v 12.895314 1.730300 -1.674240
v 12.666654 2.676709 -2.409241
v 12.024289 3.045827 -3.291882
v 12.492080 1.641670 -1.619183
v 12.573234 1.332008 -0.811955
v 12.879359 1.351577 -0.829186
v 12.546428 1.991923 -0.170727
v 12.491902 1.818557 -0.423146
v 12.594899 1.034289 1.390422
v 12.635283 0.684962 0.879043
v 12.519952 0.102065 2.597679
v 12.953675 0.309615 2.904762
v 12.889289 0.612380 3.287383
v 12.679734 0.573271 3.221305
v 12.663341 1.213000 1.578884
v 12.739537 0.620173 3.288100
v 12.691493 -0.062753 2.355163
v 12.253810 2.163009 -2.595104
v 11.610309 2.854770 -4.743569
v 8.646010 4.738805 -8.256145
v 9.884057 4.001134 -7.012444
v 8.686353 4.952562 -8.107403
v 4.040322 7.120666 -8.485123
v 4.301364 7.907461 -8.244766
v 4.010854 7.290466 -8.611652
v 12.441039 2.938712 -2.070835
v 12.162974 3.476746 -3.079086
v 5.572619 7.263437 -9.036194
v 4.249711 7.918108 -8.364044
v 9.857587 3.842431 -7.138519
v 12.363940 2.012409 -2.784142
v 12.053428 2.468632 -3.908886
v 11.183231 3.253110 -5.041253
v 9.876523 4.134925 -6.820496
v 10.744926 3.551950 -5.705155
v 5.366435 6.342337 -9.241657
v 5.361388 6.323013 -9.331470
v 6.285827 5.736420 -9.428596
v 6.311212 5.883026 -9.386692
v 4.075133 7.042516 -8.349918
v 4.165397 7.747135 -8.519226
v 4.181592 6.981103 -8.158455
v 5.371615 6.364086 -9.151360
v 4.148929 6.970788 -8.206623
v 5.468539 7.099569 -9.344444
v 5.409539 6.887732 -9.416080
v 7.587131 4.836824 -9.133461
v 7.669236 5.041761 -8.979416
v 7.690394 5.292232 -8.854874
v 8.592675 4.518156 -8.361954
v 9.847802 3.700599 -7.343990
v 10.976971 3.178668 -6.313740
v 7.577609 4.845767 -9.035767
v 10.085614 5.177831 -6.622356
v 10.036572 5.120643 -6.539978
v 11.413145 4.177651 -4.564411
v 11.723983 3.836470 -3.872803
v 5.558459 7.313116 -9.210812
v 5.485059 6.744467 -8.975533
v 4.074714 7.542306 -8.626480
v 4.304366 7.441812 -8.129261
v 8.539300 4.245693 -8.518318
v 9.937591 4.665244 -6.648727
v 10.849095 4.007134 -5.490845
v 12.883037 2.154407 -1.370178
v 12.634028 0.108607 2.979631
v 4.011144 7.541447 -8.186305
vt 0.802642 0.091506
vt 0.796208 0.161556
vt 0.769435 0.097114
vt 0.790572 0.400777
vt 0.798264 0.523855
vt 0.781043 0.401164
vt 0.925822 0.058979
vt 0.923123 0.136547
vt 0.916146 0.058992
vt 0.932830 0.221280
vt 0.957612 0.289595
vt 0.927092 0.223096
vt 0.625141 0.037099
vt 0.583694 0.082758
vt 0.616576 0.035616
vt 0.395720 0.002997
vt 0.427465 0.012420
vt 0.424739 0.018774
vt 0.881112 0.363230
vt 0.897420 0.312707
vt 0.915900 0.314520
vt 0.802642 0.200054
vt 0.824569 0.147325
vt 0.837587 0.149370
vt 0.307875 0.658905
vt 0.260349 0.651637
vt 0.310979 0.578068
vt 0.200567 0.335743
vt 0.206323 0.407123
vt 0.158983 0.339837
vt 0.358195 0.899121
vt 0.323433 0.900952
vt 0.279054 0.884328
vt 0.372015 0.000000
vt 0.365412 0.088328
vt 0.345449 0.001029
vt 0.115121 0.964558
vt 0.131930 0.963249
vt 0.171159 0.967863
vt 0.309464 0.091510
vt 0.301836 0.167696
vt 0.248433 0.107488
vt 0.424705 0.095189
vt 0.367411 0.165181
vt 0.299251 0.293451
vt 0.219794 0.185096
vt 0.952414 0.454791
vt 0.965697 0.457184
vt 0.978180 0.537836
vt 0.157067 0.812929
vt 0.200378 0.822896
vt 0.170246 0.892704
vt 0.836808 0.521885
vt 0.822504 0.487667
vt 0.836808 0.450221
vt 0.381989 0.408628
vt 0.427465 0.418970
vt 0.381544 0.468569
vt 0.020547 0.545219
vt 0.024641 0.502800
vt 0.065225 0.537726
vt 0.379986 0.524087
vt 0.310553 0.515447
vt 0.092214 0.483084
vt 0.103335 0.419293
vt 0.147070 0.472717
vt 0.780021 0.485611
vt 0.770380 0.483650
vt 0.780021 0.446315
vt 0.378930 0.589678
vt 0.303449 0.733089
vt 0.263815 0.724687
vt 0.156193 0.411312
vt 0.164741 0.268915
vt 0.095311 0.277141
vt 0.861178 0.473014
vt 0.852497 0.470922
vt 0.861178 0.450221
vt 0.198190 0.212774
vt 0.203686 0.264811
vt 0.168338 0.222552
vt 0.114424 0.124218
vt 0.132909 0.027896
vt 0.173068 0.109253
vt 0.256687 0.880389
vt 0.101812 0.226583
vt 0.069431 0.226444
vt 0.100887 0.346605
vt 0.065461 0.491615
vt 0.063412 0.810169
vt 0.059001 0.689442
vt 0.092450 0.807022
vt 0.199651 0.827895
vt 0.205261 0.902477
vt 0.764713 0.171016
vt 0.967321 0.244962
vt 0.972513 0.175562
vt 0.982294 0.176267
vt 0.061113 0.590960
vt 0.036759 0.692439
vt 0.078058 0.348495
vt 0.069374 0.425983
vt 0.923421 0.409015
vt 0.935158 0.363230
vt 0.952414 0.402183
vt 0.087669 0.530479
vt 0.081367 0.683646
vt 0.918491 0.462225
vt 0.948111 0.456971
vt 0.952414 0.555604
vt 0.516687 0.531254
vt 0.508899 0.533550
vt 0.464840 0.473523
vt 0.852497 0.505375
vt 0.836808 0.502395
vt 0.852497 0.450221
vt 0.679714 0.348579
vt 0.694705 0.446315
vt 0.667283 0.342486
vt 0.667283 0.580674
vt 0.664716 0.583577
vt 0.524452 0.528983
vt 0.713043 0.110208
vt 0.719681 0.180823
vt 0.693152 0.115457
vt 0.743205 0.175591
vt 0.427465 0.373799
vt 0.445802 0.376201
vt 0.456876 0.474654
vt 0.102491 0.971374
vt 0.050359 0.885453
vt 0.081812 0.885074
vt 0.035506 0.811435
vt 0.109763 0.882802
vt 0.785104 0.291625
vt 0.798264 0.292277
vt 0.933412 0.000000
vt 0.943313 0.000475
vt 0.915900 0.137389
vt 0.657894 0.000000
vt 0.667283 0.002057
vt 0.498776 0.536998
vt 0.523435 0.181351
vt 0.574042 0.081273
vt 0.515039 0.182350
vt 0.455386 0.374313
vt 0.978180 0.363230
vt 0.879944 0.205142
vt 0.865608 0.070864
vt 0.891283 0.208044
vt 0.875134 0.075041
vt 0.957612 0.056199
vt 0.982294 0.000000
vt 0.969713 0.059048
vt 0.962193 0.110328
vt 0.975218 0.112618
vt 0.833947 0.210550
vt 0.848323 0.209527
vt 0.865608 0.449139
vt 0.848908 0.450221
vt 0.841270 0.333877
vt 0.855343 0.333234
vt 0.885140 0.471820
vt 0.918491 0.531600
vt 0.865608 0.474614
vt 0.905124 0.535989
vt 0.370892 0.666385
vt 0.050832 0.351706
vt 0.064206 0.278771
vt 0.957612 0.050522
vt 0.940950 0.129165
vt 0.292428 0.782634
vt 0.347920 0.791225
vt 0.781043 0.291625
vt 0.763467 0.346129
vt 0.714435 0.348547
vt 0.732648 0.297188
vt 0.759372 0.282927
vt 0.734867 0.287104
vt 0.781043 0.444643
vt 0.743929 0.445933
vt 0.653223 0.592837
vt 0.737766 0.104870
vt 0.736027 0.011180
vt 0.026822 0.886152
vt 0.000000 0.813866
vt 0.367452 0.294116
vt 0.196342 0.690031
vt 0.143911 0.686862
vt 0.012764 0.699257
vt 0.313531 0.409663
vt 0.200200 0.582688
vt 0.140101 0.583027
vt 0.017658 0.596646
vt 0.312007 0.464822
vt 0.149862 0.523447
vt 0.206208 0.523307
vt 0.427025 0.479591
vt 0.423734 0.532890
vt 0.251284 0.569453
vt 0.418303 0.596760
vt 0.357507 0.736973
vt 0.032507 0.433581
vt 0.258547 0.776192
vt 0.393621 0.738256
vt 0.200672 0.102325
vt 0.274228 0.981070
vt 0.313013 0.991179
vt 0.106840 0.030072
vt 0.089065 0.119746
vt 0.211298 0.004033
vt 0.219794 0.000000
vt 0.182418 0.016290
vt 0.255049 0.969302
vt 0.355805 1.000000
vt 0.403818 0.668409
vt 0.206678 0.470204
vt 0.082779 0.585253
vt 0.248821 0.457903
vt 0.247046 0.406121
vt 0.421320 0.311001
vt 0.237682 0.300826
vt 0.423374 0.176608
vt 0.085366 0.970485
vt 0.219794 0.982138
vt 0.534993 0.525584
vt 0.476405 0.469800
vt 0.694487 0.185908
vt 0.667283 0.120589
vt 0.714194 0.291625
vt 0.802642 0.551763
vt 0.822504 0.450221
vt 0.822504 0.554720
vt 0.249563 0.500452
vt 0.865608 0.000000
vt 0.851184 0.074744
vt 0.837784 0.072480
vt 0.871977 0.384551
vt 0.461109 0.296776
vt 0.468167 0.295682
vt 0.640242 0.599830
vt 0.787397 0.278636
vt 0.463745 0.473758
vt 1.000000 0.385840
vt 1.000000 0.503203
vt 0.978180 0.397806
vt 0.152387 0.005472
vt 0.758881 0.446315
vt 0.770380 0.448731
vt 0.729371 0.480955
vt 0.987100 0.363230
vt 0.756273 0.519436
vt 0.742191 0.519242
vt 0.770380 0.488768
vt 0.768672 0.463489
vt 0.885738 0.385426
vt 0.918491 0.379211
vt 0.897949 0.363230
vt 0.729371 0.447643
vt 0.729371 0.476877
vt 0.705054 0.482604
vt 0.694025 0.503359
vt 0.678223 0.490408
vt 0.703945 0.448771
vt 0.723185 0.446315
vt 0.687568 0.451708
vt 0.667283 0.476050
vt 0.670366 0.460524
vt 0.799842 0.000000
vt 0.417344 0.422064
vt 0.678785 0.292423
vt 0.246498 0.501135
vt 0.255462 0.773727
vt 0.915900 0.000000
vt 0.802642 0.274623
vt 0.411756 0.596753
vn -0.379700 -0.690000 -0.616200
vn -0.539800 -0.472500 -0.696600
vn -0.106300 -0.267300 -0.957700
vn -0.401600 -0.864900 -0.300900
vn -0.285600 -0.954400 -0.086800
vn 0.717600 -0.654300 -0.238600
vn -0.383400 -0.877700 -0.287500
vn -0.456200 -0.868300 -0.194800
vn 0.663100 -0.654700 -0.362700
vn -0.477100 -0.871500 -0.113800
vn -0.237100 -0.971300 0.017200
vn 0.623500 -0.609500 -0.489700
vn -0.454900 -0.881300 -0.127400
vn -0.447700 -0.892800 -0.048200
vn 0.589600 -0.531400 -0.608100
vn 0.279200 0.570400 -0.772500
vn 0.847300 0.499300 -0.181100
vn 0.459200 0.663200 0.591000
vn 0.853300 0.430700 -0.293900
vn 0.374300 0.841600 0.389200
vn -0.472800 0.460700 0.751200
vn 0.963300 0.255700 0.080800
vn 0.462200 0.769400 0.440900
vn -0.504000 0.682500 0.529200
vn 0.968300 -0.005300 -0.249800
vn 0.678300 -0.618500 -0.396600
vn 0.940900 0.002000 -0.338500
vn -0.730900 0.540900 0.416100
vn -0.641000 0.463100 0.612000
vn -0.980700 -0.037500 0.191700
vn 0.522400 0.815800 0.248100
vn 0.869100 0.401000 -0.289600
vn 0.983200 0.093600 -0.156900
vn 0.139500 0.336700 -0.931200
vn 0.496400 0.349300 -0.794700
vn 0.022300 0.049100 -0.998500
vn -0.423700 -0.640800 0.640100
vn -0.806600 -0.024000 0.590600
vn -0.095600 0.022000 0.995100
vn 0.355700 -0.047200 -0.933400
vn 0.576800 -0.120100 -0.808000
vn 0.145000 -0.422900 -0.894500
vn 0.431900 0.891700 -0.135700
vn 0.696900 0.356200 -0.622500
vn 0.931100 -0.244800 -0.270500
vn 0.085700 -0.768800 -0.633700
vn -0.113000 0.609500 0.784700
vn 0.409400 0.912300 -0.004400
vn -0.666200 0.035200 0.744900
vn -0.282100 0.699600 0.656500
vn -0.414200 0.072500 0.907300
vn 0.361600 -0.687900 -0.629300
vn 0.807100 0.345200 -0.478900
vn 0.824000 0.441500 -0.355100
vn -0.761200 -0.630400 0.152300
vn 0.895600 0.379400 -0.232400
vn 0.904500 0.002900 -0.426400
vn -0.842200 -0.471000 0.262500
vn -0.913700 -0.341300 0.220300
vn -0.905700 -0.097800 0.412400
vn 0.685100 -0.687900 -0.239400
vn 0.923500 0.352800 -0.150700
vn 0.988300 -0.060900 -0.139900
vn -0.942100 -0.103700 0.318900
vn -0.989000 0.025300 0.145200
vn -0.918600 -0.393500 -0.036400
vn 0.591300 -0.796300 0.127600
vn 0.978800 -0.195200 -0.062300
vn -0.693900 0.639900 0.330100
vn -0.998600 0.015500 0.049500
vn -0.946900 -0.302500 -0.109000
vn -0.886200 -0.460900 0.047100
vn -0.994500 0.096700 0.038800
vn -0.942400 -0.327700 -0.066000
vn -0.937500 -0.344000 0.051600
vn -0.804800 -0.567600 0.173300
vn -0.691100 -0.248600 0.678700
vn -0.760700 -0.440900 0.476300
vn -0.706000 -0.195900 0.680600
vn -0.379900 0.092600 -0.920400
vn 0.931400 0.358300 -0.064600
vn 0.311400 0.834300 0.454800
vn -0.718000 -0.652900 0.241200
vn -0.744000 -0.444300 0.499000
vn -0.855700 -0.517200 -0.016500
vn -0.878800 -0.445200 0.171600
vn -0.833800 -0.489500 0.255100
vn -0.788500 -0.367200 0.493400
vn -0.796800 -0.512200 0.320400
vn -0.381600 -0.892800 0.239300
vn -0.553200 -0.826200 -0.106200
vn -0.528200 -0.723400 0.444600
vn -0.342800 -0.582900 0.736700
vn 0.038000 -0.631400 0.774500
vn -0.184000 -0.502800 0.844600
vn -0.291800 -0.897900 0.329500
vn -0.661500 -0.678200 0.319900
vn -0.168200 0.468700 -0.867200
vn -0.220800 0.378300 -0.899000
vn -0.333900 -0.816000 -0.471900
vn -0.493300 -0.213600 0.843200
vn -0.517000 -0.346500 0.782700
vn -0.676000 -0.231100 0.699700
vn -0.506700 -0.189000 0.841100
vn 0.539700 -0.841400 -0.026200
vn -0.326500 -0.939500 -0.102900
vn -0.487800 -0.870800 0.060700
vn 0.497600 -0.530000 -0.686600
vn -0.603100 -0.579900 0.547700
vn 0.373700 0.913200 0.162500
vn -0.529900 0.518200 0.671300
vn 0.376500 0.909700 0.175100
vn -0.576700 0.558700 0.596000
vn 0.374000 0.887500 0.269000
vn -0.639600 0.534100 0.552800
vn 0.395700 0.845500 0.358500
vn -0.351600 0.354900 0.866200
vn 0.555100 0.240400 0.796300
vn -0.615100 0.731800 0.293300
vn 0.497700 0.568500 0.655100
vn 0.166200 0.886600 -0.431700
vn 0.340100 -0.068800 0.937900
vn -0.707900 0.386500 -0.591100
vn -0.581500 0.636300 -0.506900
vn 0.080700 0.784100 0.615400
vn 0.258500 0.069700 0.963500
vn -0.837900 -0.544200 0.041800
vn -0.577200 -0.774000 0.260200
vn -0.786300 -0.047300 0.616000
vn 0.813600 0.056800 -0.578700
vn -0.846500 -0.094500 0.523900
vn 0.877700 0.057700 -0.475700
vn -0.879000 -0.045400 0.474600
vn 0.957800 0.286600 0.019000
vn 0.715000 -0.675200 0.181400
vn 0.887600 -0.343300 0.307100
vn -0.807600 0.156000 0.568600
vn -0.927000 0.035400 0.373400
vn 0.351300 0.875800 0.331100
vn -0.329300 0.932000 -0.151500
vn -0.872300 -0.116400 -0.474900
vn -0.867700 -0.450300 -0.210400
vn -0.257200 -0.759100 0.598000
vn -0.780400 0.235300 0.579300
usemtl None
s 1
f 1/1/1 2/2/2 3/3/3
f 5/4/4 6/5/5 7/6/6
f 9/7/7 10/8/8 11/9/9
f 13/10/10 14/11/11 15/12/12
f 17/13/13 18/14/14 19/15/15
f 23/16/16 24/17/17 25/18/18
f 27/19/19 28/20/20 29/21/21
f 31/22/22 32/23/23 33/24/24
f 34/25/25 16/26/26 35/27/27
f 37/28/28 38/29/29 39/30/30
f 42/31/31 43/32/32 44/33/33
f 45/34/34 46/35/35 47/36/36
f 50/37/37 51/38/38 52/39/39
f 53/40/40 54/41/41 4/42/42
f 22/43/43 55/44/44 46/35/35
f 54/41/41 56/45/45 57/46/46
f 22/47/43 58/48/47 59/49/48
f 60/50/49 61/51/50 62/52/51
f 54/41/41 53/40/40 55/44/44
f 66/53/52 56/54/45 64/55/53
f 67/56/54 28/57/20 27/58/19
f 17/59/13 14/60/11 69/61/55
f 71/62/56 72/63/57 27/58/19
f 73/64/58 74/65/59 75/66/60
f 14/67/11 20/68/61 72/69/57
f 36/70/62 35/27/27 71/62/56
f 78/71/63 11/72/9 34/25/25
f 38/29/29 75/66/60 80/73/64
f 40/74/65 39/30/30 81/75/66
f 6/76/5 12/77/67 83/78/68
f 84/79/69 33/80/24 85/81/70
f 87/82/71 88/83/72 86/84/73
f 7/85/6 44/33/33 43/32/32
f 82/86/74 81/75/66 6/87/5
f 95/88/75 81/75/66 39/30/30
f 96/89/76 69/61/55 14/60/11
f 97/90/77 98/91/78 99/92/79
f 59/93/48 58/94/47 62/52/51
f 48/95/80 3/3/3 2/2/2
f 79/96/81 104/97/82 38/98/29
f 70/99/83 98/91/78 107/100/84
f 108/101/85 95/88/75 74/65/59
f 74/65/59 109/102/86 108/101/85
f 69/103/55 96/104/76 110/105/87
f 96/89/76 73/64/58 110/106/87
f 98/91/78 70/99/83 111/107/88
f 70/108/83 112/109/89 111/110/88
f 113/111/90 114/112/91 115/113/92
f 115/114/92 116/115/93 113/116/90
f 49/117/94 119/118/95 120/119/96
f 119/120/95 121/121/97 120/122/96
f 45/123/34 122/124/98 23/125/16
f 45/123/34 123/126/99 122/124/98
f 4/127/42 124/128/100 1/129/1
f 50/37/37 116/130/93 125/131/101
f 125/131/101 126/132/102 50/37/37
f 97/90/77 127/133/103 107/100/84
f 107/100/84 98/91/78 97/90/77
f 50/37/37 126/132/102 63/134/104
f 50/37/37 63/134/104 51/38/38
f 8/135/105 94/136/106 5/4/4
f 12/137/67 6/138/5 9/7/7
f 16/139/26 10/8/8 13/10/10
f 20/140/61 14/141/11 17/13/13
f 2/142/2 1/129/1 114/112/91
f 1/129/1 115/113/92 114/112/91
f 128/143/107 129/144/108 18/14/14
f 128/143/107 66/145/52 129/144/108
f 115/113/92 124/128/100 130/146/109
f 115/113/92 1/129/1 124/128/100
f 22/47/43 25/147/18 58/48/47
f 131/148/110 59/149/48 132/150/111
f 59/149/48 61/151/50 132/150/111
f 26/152/112 29/153/21 133/154/113
f 104/97/82 77/155/114 38/98/29
f 77/155/114 134/156/115 38/98/29
f 30/157/116 33/24/24 84/158/69
f 93/159/117 90/160/118 42/161/31
f 42/161/31 92/162/119 93/159/117
f 105/163/120 25/164/18 135/165/121
f 25/164/18 24/166/17 135/165/121
f 79/167/81 34/25/25 36/70/62
f 10/168/8 9/169/7 108/101/85
f 9/7/7 81/170/66 108/171/85
f 37/28/28 40/74/65 33/80/24
f 44/33/33 83/172/68 31/173/22
f 25/174/18 105/175/120 136/176/122
f 136/176/122 52/177/39 25/174/18
f 122/124/98 123/126/99 137/178/123
f 137/178/123 118/179/124 122/124/98
f 105/175/120 101/180/125 136/176/122
f 101/180/125 138/181/126 136/176/122
f 113/111/90 120/122/96 121/121/97
f 121/121/97 117/182/127 113/111/90
f 123/126/99 45/123/34 48/95/80
f 49/117/94 52/177/39 136/176/122
f 47/183/36 53/184/40 3/3/3
f 51/38/38 63/134/104 62/52/51
f 51/38/38 62/52/51 52/39/39
f 63/134/104 99/92/79 60/50/49
f 130/185/109 139/186/128 125/131/101
f 139/186/128 127/133/103 125/131/101
f 64/187/53 56/45/45 54/41/41
f 132/188/111 61/51/50 60/50/49
f 140/189/129 132/188/111 60/50/49
f 127/133/103 128/190/107 107/100/84
f 127/133/103 139/186/128 128/190/107
f 64/187/53 67/56/54 65/191/130
f 140/189/129 29/192/21 132/188/111
f 140/189/129 141/193/131 29/192/21
f 107/100/84 128/190/107 18/194/14
f 18/194/14 70/99/83 107/100/84
f 67/56/54 68/195/132 65/191/130
f 76/196/133 133/197/113 29/192/21
f 29/192/21 141/193/131 76/196/133
f 18/194/14 17/59/13 70/99/83
f 26/198/112 77/199/114 71/62/56
f 76/196/133 110/106/87 73/64/58
f 72/63/57 35/27/27 15/200/12
f 77/199/114 104/201/82 36/70/62
f 75/66/60 74/65/59 80/73/64
f 79/167/81 142/202/134 78/71/63
f 109/102/86 10/168/8 108/101/85
f 109/102/86 13/203/10 10/168/8
f 12/204/67 11/72/9 78/71/63
f 78/71/63 83/172/68 12/204/67
f 32/205/23 31/173/22 142/202/134
f 82/86/74 85/81/70 40/74/65
f 44/33/33 7/85/6 83/172/68
f 84/79/69 86/84/73 92/206/119
f 85/81/70 82/86/74 87/82/71
f 21/207/135 43/32/32 89/208/136
f 94/209/106 87/82/71 5/210/4
f 91/211/137 93/212/117 92/206/119
f 92/206/119 86/84/73 41/213/138
f 8/214/105 7/85/6 21/207/135
f 89/208/136 43/32/32 90/215/118
f 43/32/32 42/31/31 90/215/118
f 5/210/4 87/82/71 82/86/74
f 30/157/116 42/161/31 31/22/22
f 81/170/66 9/7/7 6/138/5
f 40/74/65 85/81/70 33/80/24
f 142/202/134 31/173/22 83/172/68
f 142/202/134 83/172/68 78/71/63
f 11/72/9 16/26/26 34/25/25
f 74/65/59 95/88/75 80/73/64
f 142/202/134 79/167/81 103/216/139
f 103/216/139 32/205/23 142/202/134
f 96/89/76 13/203/10 109/102/86
f 75/66/60 38/29/29 134/217/115
f 71/62/56 35/27/27 72/63/57
f 75/66/60 134/217/115 133/197/113
f 76/196/133 75/66/60 133/197/113
f 27/58/19 72/63/57 68/195/132
f 112/218/89 110/106/87 141/193/131
f 110/106/87 76/196/133 141/193/131
f 65/191/130 68/195/132 19/219/15
f 65/191/130 19/219/15 129/220/108
f 141/193/131 140/189/129 111/107/88
f 111/107/88 112/218/89 141/193/131
f 67/56/54 64/187/53 131/221/110
f 131/221/110 28/57/20 67/56/54
f 65/191/130 129/220/108 66/222/52
f 140/189/129 60/50/49 99/92/79
f 99/92/79 111/107/88 140/189/129
f 59/223/48 131/221/110 64/187/53
f 64/187/53 55/44/44 59/223/48
f 56/45/45 66/222/52 57/46/46
f 126/132/102 97/90/77 63/134/104
f 46/35/35 55/44/44 53/40/40
f 125/131/101 116/130/93 115/224/92
f 125/131/101 115/224/92 130/185/109
f 58/94/47 25/225/18 52/39/39
f 52/39/39 62/52/51 58/94/47
f 23/16/16 46/35/35 45/34/34
f 49/226/94 120/122/96 50/227/37
f 135/228/121 24/229/17 23/125/16
f 23/125/16 122/124/98 135/228/121
f 48/95/80 47/183/36 3/3/3
f 136/176/122 138/181/126 119/118/95
f 119/118/95 49/117/94 136/176/122
f 106/230/140 135/228/121 118/179/124
f 135/228/121 122/124/98 118/179/124
f 102/231/141 48/232/80 100/233/142
f 68/195/132 72/63/57 20/234/61
f 20/234/61 19/219/15 68/195/132
f 38/235/29 37/236/28 103/237/139
f 16/26/26 15/200/12 35/27/27
f 30/157/116 84/158/69 92/162/119
f 42/161/31 30/157/116 92/162/119
f 37/236/28 33/24/24 103/237/139
f 33/24/24 32/23/23 103/237/139
f 77/155/114 26/152/112 133/154/113
f 77/155/114 133/154/113 134/156/115
f 28/20/20 131/148/110 132/150/111
f 28/20/20 132/150/111 29/21/21
f 105/163/120 135/165/121 106/238/140
f 57/239/46 139/240/128 130/146/109
f 130/146/109 124/128/100 57/239/46
f 100/241/142 2/142/2 114/112/91
f 100/241/142 114/112/91 117/182/127
f 4/127/42 57/239/46 124/128/100
f 18/14/14 129/144/108 19/15/15
f 10/8/8 16/139/26 11/9/9
f 66/145/52 139/240/128 57/239/46
f 66/145/52 128/143/107 139/240/128
f 98/91/78 111/107/88 99/92/79
f 97/90/77 126/132/102 125/131/101
f 97/90/77 125/131/101 127/133/103
f 46/35/35 53/40/40 47/36/36
f 137/178/123 48/95/80 102/242/141
f 137/178/123 123/126/99 48/95/80
f 113/111/90 116/243/93 50/227/37
f 113/111/90 50/227/37 120/122/96
f 113/111/90 117/182/127 114/112/91
f 69/103/55 110/105/87 112/109/89
f 70/108/83 69/103/55 112/109/89
f 96/89/76 74/65/59 73/64/58
f 96/89/76 109/102/86 74/65/59
f 108/101/85 81/75/66 95/88/75
f 79/167/81 36/70/62 104/201/82
f 88/244/72 87/245/71 94/246/106
f 86/84/73 88/83/72 41/213/138
f 92/206/119 41/213/138 91/211/137
f 41/213/138 88/83/72 143/247/143
f 94/248/106 8/249/105 143/250/143
f 88/244/72 94/246/106 143/251/143
f 90/252/118 93/253/117 143/250/143
f 89/254/136 90/252/118 143/250/143
f 91/211/137 41/213/138 143/247/143
f 21/255/135 89/254/136 143/250/143
f 93/212/117 91/211/137 143/247/143
f 8/249/105 21/255/135 143/250/143
f 105/163/120 106/238/140 101/256/125
f 138/257/126 101/256/125 144/258/144
f 119/259/95 138/260/126 144/261/144
f 101/256/125 106/238/140 144/258/144
f 106/262/140 118/263/124 144/261/144
f 117/264/127 121/265/97 144/261/144
f 100/266/142 117/264/127 144/261/144
f 137/267/123 102/268/141 144/261/144
f 118/263/124 137/267/123 144/261/144
f 102/268/141 100/266/142 144/261/144
f 121/265/97 119/259/95 144/261/144
f 4/269/42 1/1/1 3/3/3
f 8/135/105 5/4/4 7/6/6
f 12/137/67 9/7/7 11/9/9
f 16/139/26 13/10/10 15/12/12
f 20/140/61 17/13/13 19/15/15
f 22/43/43 23/16/16 25/18/18
f 26/198/112 27/58/19 29/270/21
f 30/157/116 31/22/22 33/24/24
f 36/70/62 34/25/25 35/27/27
f 40/74/65 37/28/28 39/30/30
f 31/173/22 42/31/31 44/33/33
f 48/95/80 45/123/34 47/183/36
f 49/117/94 50/271/37 52/177/39
f 3/3/3 53/184/40 4/269/42
f 23/16/16 22/43/43 46/35/35
f 4/42/42 54/41/41 57/46/46
f 55/44/44 22/43/43 59/223/48
f 63/134/104 60/50/49 62/52/51
f 64/187/53 54/41/41 55/44/44
f 65/191/130 66/222/52 64/187/53
f 68/195/132 67/56/54 27/58/19
f 70/99/83 17/59/13 69/61/55
f 26/198/112 71/62/56 27/58/19
f 76/196/133 73/64/58 75/66/60
f 15/200/12 14/272/11 72/63/57
f 77/199/114 36/70/62 71/62/56
f 79/167/81 78/71/63 34/25/25
f 39/30/30 38/29/29 80/73/64
f 82/86/74 40/74/65 81/75/66
f 7/85/6 6/273/5 83/172/68
f 86/84/73 84/79/69 85/81/70
f 85/81/70 87/82/71 86/84/73
f 21/207/135 7/85/6 43/32/32
f 5/210/4 82/86/74 6/87/5
f 80/73/64 95/88/75 39/30/30
f 13/203/10 96/89/76 14/60/11
f 63/134/104 97/90/77 99/92/79
f 61/151/50 59/149/48 62/274/51
f 100/275/142 48/95/80 2/2/2
f 103/216/139 79/167/81 38/276/29
