# Blender v2.75 (sub 0) OBJ File: 'untitled.blend'
# www.blender.org
mtllib ribs_4.mtl
o fuscc.000_fuscc.001
v -0.836858 14.648599 6.896626
v -0.792727 14.927453 6.712234
v -0.783261 14.956826 6.883084
v -1.211640 14.567536 7.173240
v -0.952860 14.676255 7.056462
v -1.324102 14.270753 6.915699
v -1.324960 14.142961 6.718909
v -1.155206 14.294595 6.761156
v -1.024481 15.293664 6.623733
v -0.807485 15.226335 6.831537
v -0.774142 15.132684 6.743275
v -0.834140 15.132493 6.982838
v -0.885495 14.468736 6.815850
v -0.847086 14.633340 6.736218
v -0.926396 14.480561 7.009398
v -1.127812 15.340775 6.994378
v -1.126429 15.101975 7.150161
v -0.904366 14.973802 7.054603
v -1.265427 14.356965 7.092272
v -0.972077 14.406365 6.914698
v -1.156804 15.404672 6.767975
v -3.940531 13.441247 6.579625
v -5.094143 14.085549 6.266152
v -3.812548 14.058274 6.483017
v -5.227705 13.449830 6.374203
v -5.373761 12.971086 6.666885
v -4.941365 14.654511 6.300675
v -4.060408 14.384812 6.868827
v -5.680931 12.971084 6.723972
v -5.432650 13.180894 6.804931
v -11.087272 16.497583 0.349032
v -11.234138 16.357203 0.328313
v -11.307666 17.333956 -1.259244
v -10.640666 19.056292 -4.198945
v -10.499808 19.145937 -4.048193
v -5.904528 21.342442 -7.178175
v -5.962988 21.499035 -6.924975
v -2.646777 22.433826 -6.386363
v -2.676078 22.585842 -6.246030
v -2.484676 22.425243 -6.367003
v -3.441712 22.204372 -6.222331
v -3.372380 21.924946 -6.358659
v -0.820312 22.281237 -4.445040
v -2.798316 22.698376 -6.206834
v -2.545163 22.699711 -6.112158
v -4.963538 21.826145 -6.745493
v -5.045983 21.861813 -6.600749
v -10.683772 19.878740 -3.664196
v -9.858367 20.150919 -5.425656
v -9.844253 20.592661 -5.175459
v -8.374259 20.983288 -6.452405
v -10.379264 19.490976 -3.715194
v -9.486243 20.261927 -4.905546
v -10.443160 19.784899 -3.630936
v -10.804603 18.951960 -4.371393
v -4.839703 22.075817 -7.064402
v -4.821726 21.683285 -7.073653
v -10.750625 15.507097 1.875841
v -9.785792 14.543122 3.693830
v -11.592910 17.680140 -1.238335
v -11.520335 17.295237 -1.375139
v -11.441466 17.233248 -1.368249
v -5.348917 14.722413 6.119763
v -5.519625 14.220017 6.057393
v -6.018588 14.904374 5.883585
v -10.493514 16.241999 2.357685
v -10.215137 16.641779 2.379452
v -6.088587 22.338268 -6.726467
v -4.127261 13.891381 7.065808
v -1.406094 21.832438 -5.109274
v -2.551028 21.838161 -6.391108
v -2.048322 22.464533 -5.691802
v -2.620336 22.657177 -5.870926
v -2.725383 22.467394 -5.725443
v -3.438326 22.410366 -6.144011
v -2.727076 22.274561 -5.811846
v -2.011129 22.451944 -5.266106
v -2.260682 22.433825 -5.452311
v -2.004453 22.305651 -5.314099
v -1.568076 22.474833 -4.854548
v -1.783988 22.456331 -5.062878
v -1.547619 22.309084 -4.885280
v -1.744959 22.144480 -5.175483
v -1.987097 22.153635 -5.377304
v -1.725504 22.007723 -5.259978
v -1.376435 22.630663 -4.682362
v -3.081080 22.483608 -6.517589
v -3.051993 22.300884 -6.633055
v -3.296944 22.546169 -6.584632
v -3.251692 22.178242 -6.787169
v -2.244469 22.253201 -6.136000
v -2.325102 21.893475 -6.145847
v -2.074620 22.307369 -5.868780
v -1.959106 22.248240 -5.721771
v -2.201506 22.669954 -5.410635
v -1.828453 22.407885 -5.472266
v -0.850042 22.162027 -4.736959
v -0.966093 21.852274 -4.778039
v -0.999042 22.120447 -4.841482
v -1.152512 22.084780 -4.932844
v -1.391169 22.063990 -5.122005
v -1.639005 22.060938 -5.339348
v -1.895258 22.095842 -5.549228
v -1.975223 22.050447 -5.455410
v -1.695606 22.634096 -5.048429
v -1.930734 22.656984 -5.258190
v -1.649519 22.600145 -5.159103
v -1.490232 22.625704 -4.976642
v -1.673075 21.870203 -5.380929
v -1.240632 22.468538 -4.412376
v -0.821170 21.851130 -4.657781
v -1.020047 21.794863 -4.627669
v -0.807628 21.804972 -4.202092
v -0.843200 22.014399 -4.081857
v -0.935742 22.237749 -4.039084
v -1.175591 22.486658 -4.845201
v -1.150414 22.656603 -4.644286
v -1.067111 22.525187 -4.745543
v -1.015755 22.427340 -4.042518
v -0.795778 21.747751 -4.377067
v -0.797554 22.171755 -4.217493
v -0.970026 22.571344 -4.340708
v -1.086184 22.670717 -4.196584
v -0.852045 22.236223 -4.581892
v -0.825366 22.070284 -4.507505
v -0.899407 22.388811 -4.203283
v -0.798174 22.032518 -4.371511
v -5.522009 14.384431 6.494462
v -5.392310 14.772386 6.200205
v -5.717322 14.481706 6.399141
v -5.721518 13.156861 6.746231
v -5.709406 13.871163 6.661259
v -5.946967 13.172311 6.632935
v -5.753609 13.535089 6.239496
v -6.415793 13.726205 5.974137
v -6.559988 14.170617 6.281983
v -6.747624 13.541764 6.328951
v -5.951258 13.934487 6.571518
v -5.896898 13.001868 6.465776
v -5.860472 12.994002 6.658604
v -7.641170 14.033860 5.358254
v -6.158444 14.476365 5.820214
v -6.293675 14.686173 6.146323
v -7.438704 15.114373 5.560433
v -8.119342 14.742440 5.341136
v -7.927844 13.874597 5.701958
v -7.911250 13.497514 5.545556
v -7.389781 14.880723 5.273568
v -9.730002 14.964265 3.964483
v -10.692641 15.815897 2.249181
v -9.239909 15.873689 3.877985
v -8.463141 14.874429 5.085789
v -10.429999 15.827150 1.844632
v -10.306975 16.643114 1.374184
v -10.032126 16.707010 2.233969
v -10.625693 17.033739 0.503337
v -10.845134 17.333574 0.896441
v -11.187121 18.245668 -0.786794
v -11.046550 19.117899 -2.272833
v -11.399314 18.040628 -1.018656
v -11.282298 18.164034 -2.934612
v -11.352870 18.522615 -2.828992
v -11.098716 18.273134 -2.764786
v -10.724875 18.670816 -2.302683
v -10.794398 18.978853 -2.193320
v -10.811278 19.730730 -3.897155
v -10.876128 19.278879 -4.184210
v -5.125901 22.587940 -6.737482
v -4.276225 22.738239 -6.497943
v -4.945275 22.372219 -6.956064
v -3.948065 21.995899 -6.893217
v -3.987261 22.207424 -6.882441
v -5.899378 21.775028 -7.087386
v -2.631804 21.812412 -6.159532
v -2.872082 21.904156 -6.243789
v -4.305741 22.382710 -6.393873
v -4.311701 22.527287 -6.391155
v -5.164191 22.356007 -6.575357
v -1.418444 22.447748 -5.056703
v -1.586863 22.424669 -5.224883
v -1.588985 22.231073 -5.300438
v -2.210757 22.081347 -5.646264
v -0.940796 22.552843 -4.626238
v -0.988600 22.676630 -4.506695
v -1.372906 22.328920 -4.651725
v -1.305696 22.121782 -4.697930
v -1.196548 22.309275 -4.432976
v -1.767346 22.311754 -5.115926
v -1.502201 22.119493 -4.938519
v -2.249691 22.301645 -5.500233
v -2.705857 22.788019 -5.698525
v -2.384755 22.395679 -6.234896
v -4.905507 21.812794 -6.869948
v -11.241385 18.928881 -2.567995
v -8.444545 14.405412 4.688441
v -8.681247 13.812799 4.964100
v -1.371666 22.230692 -5.121004
v -1.534888 22.630091 -4.870760
v -9.706828 20.744104 -4.912961
v -0.832423 22.328348 -4.326951
v -9.493873 14.968080 3.543698
v -10.609958 15.691729 1.877557
v -10.901019 16.588564 0.335108
v -11.128375 17.385836 -1.177252
v -4.038283 21.939632 -6.709826
v -3.220603 21.928570 -6.506836
v -4.086014 21.920559 -6.615984
v -3.982016 21.919224 -6.809437
v -8.236167 20.603916 -6.250441
v -8.213756 20.401737 -6.458580
v -2.799627 22.251102 -6.591951
v -2.681157 21.962521 -6.056344
v -2.730271 22.121975 -5.929434
v -0.850162 22.381182 -4.430401
v -1.934191 21.951075 -5.579578
v -2.864548 22.555706 -6.355822
v -9.003493 16.026659 3.726327
v -2.952048 22.003910 -6.562554
v -3.228613 21.952984 -6.616270
v -5.991694 21.541950 -6.744921
v -6.010148 21.631023 -6.579602
v -4.159781 21.928570 -6.484783
v -9.740207 19.706316 -5.554140
v -8.249804 20.458958 -6.537068
v -8.283851 21.572468 -5.950248
v -8.387992 21.315166 -6.240690
v -9.497401 20.558710 -4.801857
v -8.126685 20.941706 -5.797160
v -8.143279 21.306391 -5.753171
v -9.644172 19.851465 -5.336702
v -9.565589 19.952936 -5.180275
v -8.188483 20.639774 -6.087172
v -3.207966 21.991512 -6.713926
v -2.738711 22.151920 -6.606304
v -3.228518 22.056553 -6.788265
v -5.645415 12.958116 6.549202
v -8.821342 13.910264 4.908024
v -7.243487 15.299767 5.341088
v -8.024261 15.606088 4.712187
v -4.177853 13.017816 6.992279
v -4.148051 13.293618 7.093369
v -5.439946 13.780564 6.776082
v -3.430268 22.761700 -6.145608
v -1.199314 21.819658 -4.861748
v -2.494093 21.990559 -6.478369
v -2.526757 21.786854 -6.173909
v -2.168843 21.991701 -5.823695
v -4.080912 22.533962 -6.766951
v -3.315016 22.623035 -6.506860
v -1.396414 22.475595 -4.625237
v -1.476118 21.973581 -5.002772
v -2.861067 22.422382 -6.428968
v -2.057740 22.595758 -5.549228
v -2.247855 22.617884 -5.740654
v -2.181503 22.509165 -5.810892
v -2.327105 22.354671 -6.131660
v -2.134129 22.182247 -5.987274
v -2.221200 22.142384 -6.142246
v -2.362439 21.909878 -6.284535
v -2.194306 21.977207 -5.969464
v -2.091500 22.088978 -5.892384
v -2.023193 22.098703 -5.746591
v -2.203747 22.050640 -6.063568
v -2.586791 22.049686 -6.487786
v -1.871511 22.590799 -5.358898
v -1.009985 22.282190 -4.860842
v -0.886163 22.299738 -4.757511
v -1.138207 22.248812 -4.942739
v -1.827094 22.244997 -5.516278
v -1.253840 22.651834 -4.480969
v -1.136014 22.096224 -4.505741
v -1.073238 21.873827 -4.547298
v -1.251217 21.939440 -4.786956
v -1.291415 22.639055 -4.768049
v -1.070448 22.718973 -4.310023
v -0.851592 22.287912 -4.206788
v -0.933310 22.578020 -4.462158
v -0.912878 22.493715 -4.514849
v -5.207678 14.422196 6.253945
v -5.311438 14.151544 6.162058
v -5.507418 13.494843 6.319510
v -6.765076 13.211793 6.154191
v -8.137462 15.233392 4.668318
v -8.266112 15.373773 4.997956
v -8.736083 14.257592 5.016743
v -9.121749 15.715569 3.581750
v -11.297748 16.723032 0.633632
v -11.075065 17.077990 0.766575
v -10.926196 18.141527 -0.751722
v -10.840842 17.859240 -0.921167
v -5.976674 22.067425 -7.010233
v -6.035611 21.763393 -6.524098
v -6.080863 22.079250 -6.574714
v -5.138203 22.005436 -6.564080
v -2.913329 21.922657 -6.434429
v -2.746865 21.868870 -6.397045
v -4.269310 22.085735 -6.411397
v -3.353640 22.642681 -6.314170
v -4.151341 22.581264 -6.664049
v -2.738353 22.011730 -6.555879
v -0.801250 22.224016 -4.341447
v -2.230259 22.164888 -5.564415
v -4.156395 12.951631 6.787239
v -4.230258 12.952584 6.924902
v -5.246874 14.242524 6.578051
v -1.722166 14.529962 6.606423
v -1.175257 14.146012 6.620872
v -0.922390 15.030831 6.506240
v -2.206966 13.635987 7.228314
v -2.048489 13.986749 7.308184
v -2.714964 14.821023 7.001053
v -2.691123 14.344377 7.212053
v -1.172563 15.546578 6.572663
v -1.298234 15.677995 6.725870
v -2.741882 13.753671 7.236945
v -2.612111 14.996881 6.726061
v -2.009865 15.164918 6.796395
v -2.519986 14.898843 6.608140
v -2.626320 13.556451 6.657826
v -2.845141 13.200540 6.826436
v -2.529522 13.776940 6.625687
v -2.412459 14.374131 6.565606
v -1.834699 13.949746 6.659066
v -1.954409 13.676614 6.698166
v -1.471182 13.852853 6.696068
v -1.608225 13.982743 6.962572
v -1.901003 15.050096 6.660926
v -2.051684 15.035981 7.066332
v -2.340242 13.467187 7.058178
v -2.947184 13.228768 7.031714
v -2.230689 13.386125 6.822049
v -2.857920 13.427323 7.147491
v -1.983282 14.570016 7.283484
v -1.048752 14.429635 6.593787
v -1.279017 15.596169 6.990516
v -1.419684 14.185876 7.143437
v -3.835675 14.655465 6.583010
v -3.776118 14.586038 6.498467
v -3.988930 13.331002 6.595742
vt 0.193791 0.941453
vt 0.191665 0.936025
vt 0.194872 0.936039
vt 0.193018 0.952046
vt 0.188888 0.953419
vt 0.190131 0.949575
vt 0.109454 0.989985
vt 0.104523 0.989348
vt 0.105121 0.986942
vt 0.529163 0.225457
vt 0.525994 0.226431
vt 0.525112 0.222868
vt 0.499262 0.921663
vt 0.495935 0.923444
vt 0.496619 0.919576
vt 0.509995 0.915389
vt 0.507653 0.919218
vt 0.503940 0.914123
vt 0.502917 0.917387
vt 0.797131 0.996466
vt 0.793775 0.995734
vt 0.797131 0.990046
vt 0.196525 0.950721
vt 0.193188 0.946605
vt 0.195178 0.945320
vt 0.191580 0.944481
vt 0.193128 0.932713
vt 0.500293 0.915035
vt 0.190837 0.941258
vt 0.792943 0.991534
vt 0.501199 0.926989
vt 0.498277 0.929777
vt 0.574848 0.996295
vt 0.570592 0.990867
vt 0.574848 0.989697
vt 0.529164 0.231739
vt 0.529164 0.223095
vt 0.034922 0.218772
vt 0.033346 0.193952
vt 0.045273 0.215070
vt 0.086291 0.586157
vt 0.084220 0.581212
vt 0.089017 0.581210
vt 0.656379 0.187837
vt 0.653621 0.190182
vt 0.646011 0.159732
vt 0.651713 0.905779
vt 0.655566 0.906375
vt 0.650957 0.908728
vt 0.658200 0.904658
vt 0.657969 0.909680
vt 0.614640 0.720438
vt 0.619561 0.702084
vt 0.622086 0.703857
vt 0.832790 0.774642
vt 0.841430 0.776049
vt 0.833224 0.811617
vt 0.957996 0.614331
vt 0.954449 0.642695
vt 0.952199 0.614669
vt 0.168250 0.366102
vt 0.167094 0.358849
vt 0.168250 0.357440
vt 0.040184 0.183968
vt 0.032049 0.184880
vt 0.037082 0.170648
vt 0.311303 0.902130
vt 0.309769 0.917453
vt 0.307634 0.902966
vt 0.749137 0.912457
vt 0.750302 0.907154
vt 0.751948 0.912206
vt 0.747029 0.923160
vt 0.748212 0.917845
vt 0.750134 0.923371
vt 0.307426 0.881623
vt 0.306665 0.887232
vt 0.304462 0.882029
vt 0.653179 0.897440
vt 0.649202 0.896940
vt 0.654398 0.893349
vt 0.745762 0.907690
vt 0.751040 0.898227
vt 0.519574 0.907375
vt 0.525428 0.908740
vt 0.520527 0.910404
vt 0.744777 0.918417
vt 0.745229 0.912768
vt 0.994986 0.909364
vt 0.994454 0.905891
vt 0.997631 0.907923
vt 0.756613 0.942780
vt 0.752491 0.943685
vt 0.748393 0.942782
vt 0.301543 0.941262
vt 0.297551 0.938397
vt 0.301012 0.938511
vt 0.261690 0.373974
vt 0.270985 0.373839
vt 0.263301 0.378106
vt 0.239072 0.374415
vt 0.251279 0.375665
vt 0.239413 0.379068
vt 0.019029 0.188200
vt 0.016340 0.174692
vt 0.256000 0.393289
vt 0.244792 0.395487
vt 0.252114 0.380546
vt 0.705473 0.433658
vt 0.702618 0.431743
vt 0.705473 0.429354
vt 0.011641 0.149078
vt 0.030285 0.171429
vt 0.273905 0.414205
vt 0.267172 0.426991
vt 0.250904 0.420384
vt 0.026323 0.145507
vt 0.293608 0.456568
vt 0.276365 0.463528
vt 0.270149 0.434694
vt 0.771606 0.676189
vt 0.783461 0.664843
vt 0.790449 0.679777
vt 0.347524 0.645967
vt 0.338180 0.642348
vt 0.349358 0.628151
vt 0.509564 0.506608
vt 0.500042 0.534988
vt 0.502738 0.505517
vt 0.486487 0.563661
vt 0.477099 0.596522
vt 0.477249 0.562453
vt 0.662956 0.860380
vt 0.663245 0.877008
vt 0.656520 0.861857
vt 0.646825 0.879109
vt 0.650677 0.862550
vt 0.650026 0.878845
vt 0.651998 0.843296
vt 0.759373 0.744383
vt 0.757467 0.745637
vt 0.750512 0.730617
vt 0.515537 0.922468
vt 0.519235 0.923461
vt 0.516237 0.928693
vt 0.300582 0.935357
vt 0.748917 0.928670
vt 0.752760 0.929222
vt 0.748464 0.933870
vt 0.750991 0.917609
vt 0.753702 0.923548
vt 0.309605 0.886929
vt 0.308843 0.892490
vt 0.653809 0.191582
vt 0.659080 0.190555
vt 0.654587 0.210430
vt 0.492658 0.535023
vt 0.012746 0.128862
vt 0.000264 0.132147
vt 0.008707 0.192029
vt 0.518947 0.918535
vt 0.522057 0.918526
vt 0.017162 0.099731
vt 0.026754 0.064245
vt 0.030751 0.065616
vt 0.046696 0.040724
vt 0.043364 0.038760
vt 0.065776 0.019179
vt 0.621788 0.684926
vt 0.626995 0.670098
vt 0.623456 0.685983
vt 0.620047 0.683714
vt 0.617359 0.700794
vt 0.659080 0.210229
vt 0.657514 0.226799
vt 0.349839 0.941023
vt 0.349839 0.987672
vt 0.345340 0.987100
vt 0.300188 0.918332
vt 0.300303 0.904240
vt 0.304208 0.904016
vt 0.626393 0.664989
vt 0.624937 0.670048
vt 0.617912 0.721272
vt 0.620904 0.721874
vt 0.629482 0.673176
vt 0.625759 0.687579
vt 0.823903 0.774126
vt 0.823154 0.810217
vt 0.485379 0.597595
vt 0.496446 0.632185
vt 0.489011 0.632435
vt 0.491515 0.597049
vt 0.494509 0.503012
vt 0.483944 0.533441
vt 0.473328 0.617044
vt 0.475582 0.650737
vt 0.473929 0.650170
vt 0.948809 0.643721
vt 0.953790 0.675370
vt 0.947190 0.677236
vt 0.635073 0.066151
vt 0.639815 0.034747
vt 0.638719 0.066578
vt 0.623626 0.764120
vt 0.626723 0.763508
vt 0.641490 0.790885
vt 0.340283 0.707624
vt 0.346009 0.706585
vt 0.349358 0.736965
vt 0.961674 0.998997
vt 0.961538 0.994060
vt 0.964818 0.997116
vt 0.964818 0.993553
vt 0.082897 0.558211
vt 0.087809 0.556894
vt 0.244483 0.344736
vt 0.254359 0.345352
vt 0.249899 0.370117
vt 0.769000 0.758198
vt 0.311303 0.934182
vt 0.306009 0.918273
vt 0.311300 0.892207
vt 0.746179 0.928419
vt 0.756522 0.923234
vt 0.754196 0.917394
vt 0.652207 0.901738
vt 0.150000 0.980810
vt 0.149087 0.975867
vt 0.150997 0.968720
vt 0.160889 0.971836
vt 0.160351 0.978965
vt 0.158635 0.980548
vt 0.302000 0.965405
vt 0.302565 0.962471
vt 0.305926 0.971139
vt 0.521181 0.939560
vt 0.522145 0.942819
vt 0.518685 0.937252
vt 0.520082 0.943075
vt 0.999284 0.228372
vt 0.998559 0.232235
vt 0.996812 0.234251
vt 0.995493 0.613758
vt 0.992069 0.612299
vt 0.995493 0.607754
vt 0.299159 0.956263
vt 0.303045 0.957358
vt 0.299350 0.960827
vt 0.524994 0.939584
vt 0.523748 0.941276
vt 0.522784 0.937518
vt 0.517545 0.911019
vt 0.517049 0.908217
vt 0.518310 0.913498
vt 0.521355 0.913270
vt 0.522466 0.924344
vt 0.519323 0.929184
vt 0.744165 0.922777
vt 0.302006 0.947110
vt 0.302494 0.951328
vt 0.299009 0.950983
vt 0.752495 0.933960
vt 0.756613 0.934587
vt 0.756276 0.928909
vt 0.305817 0.939668
vt 0.305926 0.942563
vt 0.823062 0.742602
vt 0.829952 0.742415
vt 0.018691 0.998035
vt 0.015192 0.996367
vt 0.018691 0.987332
vt 0.089376 0.586635
vt 0.086733 0.589710
vt 0.032630 0.189360
vt 0.020576 0.192833
vt 0.266489 0.390028
vt 0.424068 0.961617
vt 0.420519 0.978727
vt 0.417338 0.962231
vt 0.791858 0.742111
vt 0.792570 0.760522
vt 0.784418 0.760968
vt 0.784754 0.742902
vt 0.279683 0.432376
vt 0.091537 0.617786
vt 0.100038 0.598116
vt 0.098487 0.618242
vt 0.769492 0.745928
vt 0.099113 0.647855
vt 0.769415 0.715692
vt 0.783811 0.714649
vt 0.790446 0.715822
vt 0.007232 0.099883
vt 0.022770 0.063579
vt 0.784206 0.646357
vt 0.774616 0.644315
vt 0.099486 0.723467
vt 0.097759 0.687769
vt 0.106501 0.687825
vt 0.107292 0.722394
vt 0.642718 0.160389
vt 0.339135 0.676561
vt 0.345139 0.676731
vt 0.466801 0.616247
vt 0.469005 0.587438
vt 0.475582 0.586603
vt 0.652932 0.127533
vt 0.659229 0.155130
vt 0.648538 0.158829
vt 0.492120 0.563359
vt 0.839974 0.812111
vt 0.834791 0.859967
vt 0.828984 0.859558
vt 0.956646 0.719031
vt 0.953980 0.719098
vt 0.657272 0.842903
vt 0.664848 0.843122
vt 0.957997 0.735748
vt 0.954849 0.735000
vt 0.976037 0.891017
vt 0.977926 0.890957
vt 0.976408 0.904481
vt 0.656297 0.878456
vt 0.625881 0.660903
vt 0.623141 0.669482
vt 0.387773 0.985789
vt 0.391368 0.989124
vt 0.392790 0.994234
vt 0.628881 0.664519
vt 0.629893 0.661510
vt 0.632502 0.664092
vt 0.978400 0.905242
vt 0.977652 0.921677
vt 0.298464 0.908930
vt 0.991198 0.161736
vt 0.993879 0.163413
vt 0.993552 0.179726
vt 0.990203 0.177912
vt 0.755416 0.727735
vt 0.763374 0.742214
vt 0.764477 0.761620
vt 0.658514 0.877925
vt 0.659162 0.894161
vt 0.299296 0.965384
vt 0.743444 0.927269
vt 0.745020 0.941382
vt 0.745538 0.933288
vt 0.297764 0.941777
vt 0.305656 0.936735
vt 0.305869 0.947886
vt 0.742359 0.931550
vt 0.310570 0.881419
vt 0.526816 0.943543
vt 0.745036 0.897894
vt 0.747691 0.883878
vt 0.754169 0.884858
vt 0.306099 0.892749
vt 0.993879 0.194440
vt 0.303920 0.893085
vt 0.393694 0.987687
vt 0.394188 0.993551
vt 0.656443 0.893634
vt 0.128174 0.993552
vt 0.121665 0.993552
vt 0.126557 0.978180
vt 0.561551 0.996401
vt 0.556075 0.995665
vt 0.561551 0.979314
vt 0.948464 0.720924
vt 0.650407 0.036518
vt 0.656077 0.000187
vt 0.659229 0.001657
vt 0.642553 0.036178
vt 0.509564 0.671168
vt 0.841431 0.857935
vt 0.646553 0.066497
vt 0.647410 0.097540
vt 0.638186 0.097543
vt 0.109938 0.758403
vt 0.101561 0.760401
vt 0.778976 0.614331
vt 0.789610 0.617615
vt 0.791075 0.648330
vt 0.117304 0.930264
vt 0.120941 0.929854
vt 0.120941 0.963272
vt 0.040043 0.037503
vt 0.110475 0.619714
vt 0.000187 0.150727
vt 0.111408 0.611913
vt 0.784305 0.782800
vt 0.792570 0.782176
vt 0.010239 0.196796
vt 0.876712 0.606532
vt 0.874674 0.604534
vt 0.876712 0.604141
vt 0.511515 0.904261
vt 0.515112 0.902724
vt 0.513143 0.904810
vt 0.871657 0.607819
vt 0.868279 0.607874
vt 0.868458 0.605566
vt 0.514842 0.918211
vt 0.304289 0.887690
vt 0.435377 0.835874
vt 0.435377 0.841215
vt 0.433741 0.837650
vt 0.999284 0.235190
vt 0.997832 0.237362
vt 0.654884 0.902348
vt 0.646811 0.892289
vt 0.504760 0.231379
vt 0.500910 0.231379
vt 0.502337 0.226217
vt 0.390419 0.985265
vt 0.394188 0.984412
vt 0.581154 0.993459
vt 0.578464 0.992343
vt 0.581154 0.970642
vt 0.081465 0.559606
vt 0.961839 0.988544
vt 0.294966 0.313483
vt 0.293981 0.310523
vt 0.294966 0.293269
vt 0.979742 0.890692
vt 0.466813 0.649717
vt 0.121212 0.678693
vt 0.116226 0.644690
vt 0.118073 0.644929
vt 0.296788 0.904281
vt 0.634480 0.097588
vt 0.063731 0.016259
vt 0.089380 0.000187
vt 0.275409 0.321919
vt 0.264237 0.345941
vt 0.266038 0.319664
vt 0.238577 0.435346
vt 0.237340 0.433846
vt 0.238577 0.431315
vt 0.256177 0.319605
vt 0.262040 0.307219
vt 0.745759 0.438929
vt 0.746242 0.450205
vt 0.742607 0.439833
vt 0.050107 0.238169
vt 0.041760 0.239017
vt 0.054341 0.237630
vt 0.064046 0.234206
vt 0.063927 0.246941
vt 0.142261 0.985725
vt 0.142826 0.994157
vt 0.137353 0.994157
vt 0.280414 0.931625
vt 0.282828 0.946992
vt 0.276965 0.933133
vt 0.739923 0.820261
vt 0.739922 0.831354
vt 0.734467 0.820668
vt 0.073958 0.254975
vt 0.058690 0.247606
vt 0.278882 0.948719
vt 0.268330 0.947853
vt 0.985074 0.538660
vt 0.985309 0.527269
vt 0.989458 0.540629
vt 0.989144 0.529119
vt 0.089376 0.531313
vt 0.084276 0.534069
vt 0.085099 0.522131
vt 0.280914 0.310075
vt 0.271837 0.307010
vt 0.989458 0.504584
vt 0.080580 0.536487
vt 0.739923 0.853890
vt 0.734131 0.832842
vt 0.742556 0.416553
vt 0.744775 0.416019
vt 0.024535 0.221024
vt 0.032805 0.219042
vt 0.266953 0.931135
vt 0.269462 0.920336
vt 0.278936 0.923469
vt 0.188427 0.974194
vt 0.192907 0.959410
vt 0.193189 0.974724
vt 0.073302 0.243642
vt 0.050920 0.246727
vt 0.274555 0.898433
vt 0.282828 0.903822
vt 0.196863 0.971375
vt 0.992246 0.394555
vt 0.996843 0.393090
vt 0.996843 0.409077
vt 0.081430 0.525672
vt 0.066290 0.253441
vt 0.109917 0.994050
vt 0.196863 0.955037
vt 0.022602 0.197808
vt 0.012505 0.201687
vt 0.240092 0.368993
vt 0.271962 0.343908
vt 0.270017 0.365109
vt 0.647658 0.901536
vt 0.344074 0.738283
vt 0.305429 0.875919
vt 0.522163 0.930169
vt 0.298263 0.946779
vt 0.997221 0.913414
vt 0.450220 0.227513
vt 0.450220 0.231610
vt 0.447033 0.229124
vt 0.425035 0.979078
vt 0.092675 0.597177
vt 0.769373 0.765583
vt 0.115853 0.754821
vt 0.640239 0.128427
vt 0.973220 0.904555
vt 0.297352 0.934555
vt 0.506147 0.956878
vt 0.498868 0.951437
vt 0.502658 0.945588
vt 0.985665 0.504248
vt 0.187167 0.966609
vt 0.742578 0.451296
vt 0.992270 0.411954
vt 0.417791 0.937383
vt 0.004375 0.174924
vt 0.425035 0.937553
vt 0.879073 0.603805
vt 0.876042 0.600711
vt 0.872346 0.601647
vt 0.611936 0.629552
vt 0.614263 0.631927
vt 0.612146 0.637335
vt 0.880545 0.600431
vt 0.187588 0.945890
vt 0.471077 0.981921
vt 0.466812 0.985600
vt 0.465950 0.982538
vt 0.471077 0.993084
vt 0.466578 0.991062
vt 0.109917 0.984491
vt 0.465827 0.994876
vt 0.259785 0.368427
vt 0.635844 0.128764
vt 0.515529 0.934357
vt 0.519563 0.933731
vt 0.645821 0.902350
vt 0.525480 0.950595
vt 0.526696 0.946143
vt 0.641490 0.651735
vt 0.634462 0.657838
vt 0.635284 0.654107
vt 0.526355 0.918174
vt 0.526079 0.925095
vt 0.300917 0.882133
vt 0.455715 0.991664
vt 0.457552 0.997604
vt 0.455320 0.997604
vt 0.520986 0.903342
vt 0.526816 0.900567
vt 0.525252 0.905445
vt 0.876093 0.608614
vt 0.273374 0.386900
vt 0.089927 0.648845
vt 0.954354 0.161964
vt 0.958482 0.191655
vt 0.949430 0.163619
vt 0.634533 0.659805
vt 0.301312 0.887977
vt 0.487529 0.226217
vt 0.490635 0.226366
vt 0.486825 0.231135
vt 0.996141 0.219413
vt 0.992624 0.218750
vt 0.996439 0.215580
vt 0.747876 0.611105
vt 0.750530 0.608369
vt 0.750530 0.613834
vt 0.156694 0.982989
vt 0.153797 0.977421
vt 0.877976 0.608383
vt 0.878675 0.606277
vt 0.300501 0.893733
vt 0.522398 0.934546
vt 0.524908 0.930842
vt 0.475665 0.879568
vt 0.471261 0.878866
vt 0.476589 0.843932
vt 0.979301 0.881467
vt 0.167094 0.283488
vt 0.168537 0.255612
vt 0.168537 0.286112
vt 0.596938 0.217778
vt 0.596938 0.231076
vt 0.595195 0.218417
vt 0.994144 0.227335
vt 0.993679 0.222848
vt 0.996119 0.228042
vt 0.393035 0.977078
vt 0.393901 0.980797
vt 0.390473 0.980480
vt 0.524533 0.937021
vt 0.518215 0.943909
vt 0.996222 0.117585
vt 0.996552 0.112051
vt 0.998800 0.112114
vt 0.997384 0.102215
vt 0.995498 0.102817
vt 0.301894 0.875620
vt 0.995933 0.222802
vt 0.870448 0.611296
vt 0.872355 0.610084
vt 0.874040 0.610591
vt 0.878835 0.610480
vt 0.873250 0.612826
vt 0.518000 0.904995
vt 0.516980 0.902554
vt 0.279567 0.412210
vt 0.966963 0.137643
vt 0.968850 0.171244
vt 0.958855 0.138821
vt 0.089753 0.691136
vt 0.476589 0.910504
vt 0.949343 0.133062
vt 0.954345 0.132359
vt 0.630012 0.065491
vt 0.630203 0.097680
vt 0.741281 0.715830
vt 0.740422 0.672215
vt 0.746276 0.713299
vt 0.747111 0.671682
vt 0.821214 0.856991
vt 0.827938 0.877275
vt 0.663150 0.894042
vt 0.664848 0.909523
vt 0.660608 0.909755
vt 0.753929 0.748344
vt 0.152188 0.952986
vt 0.148926 0.951645
vt 0.153424 0.937518
vt 0.146447 0.967257
vt 0.663910 0.919928
vt 0.153424 0.979830
vt 0.303287 0.870292
vt 0.306078 0.870529
vt 0.306788 0.865802
vt 0.304511 0.865545
vt 0.308126 0.858810
vt 0.305355 0.859926
vt 0.741037 0.937573
vt 0.491377 0.231135
vt 0.992860 0.214362
vt 0.296759 0.956064
vt 0.998800 0.099369
vt 0.160889 0.991397
vt 0.389858 0.982313
vt 0.299333 0.972903
vt 0.147727 0.962417
vt 0.746157 0.733650
vt 0.984394 0.997840
vt 0.979860 0.994590
vt 0.984394 0.980799
vt 0.971725 0.920820
vt 0.749666 0.640024
vt 0.765377 0.614331
vt 0.769000 0.617267
vt 0.755012 0.641484
vt 0.960394 0.099369
vt 0.286864 0.429985
vt 0.517909 0.900639
vt 0.521510 0.900855
vt 0.880545 0.612811
vt 0.878145 0.613859
vt 0.496623 0.227529
vt 0.500537 0.226217
vt 0.500537 0.231326
vt 0.295707 0.961626
vt 0.295707 0.902605
vt 0.630362 0.657893
vt 0.632635 0.654553
vt 0.158206 0.990885
vt 0.994447 0.231732
vt 0.996439 0.232384
vt 0.994260 0.237594
vt 0.121212 0.597177
vt 0.953871 0.192312
vt 0.634673 0.033806
vt 0.079323 0.254423
vt 0.089380 0.250892
vt 0.497820 0.934146
vt 0.284919 0.293269
vt 0.293608 0.297551
vt 0.509995 0.937464
vt 0.187343 0.959294
vt 0.939791 0.989883
vt 0.935963 0.987642
vt 0.941412 0.985671
vt 0.238681 0.685867
vt 0.238681 0.695660
vt 0.237107 0.690657
vt 0.944962 0.977289
vt 0.941858 0.981379
vt 0.936447 0.982552
vt 0.986128 0.832725
vt 0.986128 0.873267
vt 0.980691 0.872785
vt 0.979742 0.942718
vt 0.968850 0.101909
vt 0.740422 0.935819
vt 0.997631 0.901639
vt 0.547319 0.650825
vt 0.547319 0.655537
vt 0.544135 0.654237
vt 0.526216 0.912237
vt 0.518725 0.898548
vt 0.944962 0.987883
vt 0.614263 0.624094
vt 0.042380 0.192028
vt 0.595882 0.209646
vt 0.036722 0.189502
vt 0.052634 0.211577
vt 0.746242 0.394779
vt 0.113432 0.720505
vt 0.958481 0.099369
vt 0.114527 0.688186
vt 0.971285 0.492419
vt 0.977787 0.526080
vt 0.969220 0.526637
vt 0.115853 0.651907
vt 0.893958 0.954973
vt 0.893958 0.983915
vt 0.886707 0.981964
vt 0.976925 0.491849
vt 0.977787 0.465776
vn 0.938000 -0.208300 0.277200
vn 0.934800 -0.129500 -0.330600
vn 0.957600 -0.074900 0.278200
vn 0.588300 -0.760800 0.273900
vn 0.634300 -0.497600 0.591700
vn 0.562900 -0.825100 0.048900
vn 0.743700 0.621200 -0.246900
vn 0.775000 0.626400 0.083700
vn 0.919600 0.287500 -0.267800
vn 0.731200 0.313400 0.606000
vn 0.609500 -0.086300 0.788000
vn 0.718700 -0.467600 0.514600
vn 0.642300 0.604900 0.470700
vn 0.245800 0.246400 0.937500
vn 0.608500 -0.017900 0.793300
vn 0.584500 -0.627200 0.514800
vn 0.583900 -0.783100 0.214000
vn 0.826100 -0.562000 -0.041200
vn 0.891800 -0.267900 -0.364600
vn 0.322900 -0.151100 0.934300
vn 0.744300 0.653500 0.137900
vn 0.139800 -0.211500 -0.967300
vn 0.167300 -0.317900 -0.933200
vn 0.114500 -0.082300 -0.990000
vn -0.154200 -0.736300 0.658900
vn -0.119400 -0.985700 -0.119200
vn -0.344500 -0.382900 0.857100
vn 0.516100 -0.707500 -0.482800
vn -0.359500 -0.855300 -0.373100
vn 0.598200 -0.694300 -0.400100
vn 0.115100 0.691700 -0.713000
vn 0.220800 0.632700 -0.742200
vn 0.592500 0.358800 -0.721200
vn 0.105100 0.942300 -0.317800
vn 0.302300 0.904900 -0.299800
vn 0.347300 -0.834400 0.427800
vn 0.168000 -0.953600 0.249700
vn 0.082000 -0.680500 0.728100
vn -0.729000 0.197600 -0.655400
vn -0.737900 0.570200 -0.361100
vn -0.496100 0.246100 -0.832600
vn 0.932600 -0.200200 0.300200
vn 0.747200 -0.386000 0.541100
vn 0.610800 0.498800 0.615000
vn -0.995800 0.069100 0.060000
vn -0.791800 -0.576100 0.202700
vn -0.121900 -0.946300 -0.299500
vn 0.417100 0.483000 -0.769900
vn 0.342400 -0.172700 -0.923600
vn 0.363400 0.872700 -0.326000
vn -0.502500 -0.189000 0.843700
vn -0.381400 -0.166200 0.909300
vn -0.454000 -0.446800 0.770900
vn -0.601300 -0.068000 0.796100
vn -0.546300 -0.174900 0.819100
vn -0.584600 -0.323600 0.744000
vn -0.748300 0.023700 0.662900
vn -0.683900 -0.029800 0.729000
vn -0.716500 -0.290700 0.634200
vn -0.633400 -0.401100 0.661800
vn -0.569700 -0.457300 0.682900
vn -0.589900 -0.576600 0.565300
vn 0.404600 0.523200 -0.750000
vn 0.331200 0.531500 -0.779600
vn 0.249100 0.605800 -0.755600
vn -0.260100 0.819800 0.510200
vn 0.875600 0.051800 -0.480300
vn 0.436700 -0.589300 -0.679700
vn 0.543300 -0.126500 -0.829900
vn -0.296900 0.885200 0.358100
vn -0.196400 0.921200 0.335800
vn 0.771300 -0.474800 -0.423800
vn -0.215800 -0.976100 0.025700
vn 0.309800 -0.655000 0.689200
vn 0.245700 -0.374500 0.894100
vn 0.005000 -0.065600 0.997800
vn 0.473100 0.543500 -0.693400
vn 0.163300 0.924500 -0.344400
vn 0.448000 0.594700 -0.667600
vn -0.106400 0.482400 0.869400
vn 0.135900 0.947600 0.289200
vn -0.181900 0.546500 0.817400
vn -0.327200 -0.035200 0.944300
vn -0.281800 0.254900 0.925000
vn -0.524600 -0.232300 0.819000
vn 0.243500 -0.378000 -0.893200
vn 0.279500 -0.384400 -0.879900
vn -0.348800 0.284100 0.893100
vn -0.454900 -0.103600 0.884500
vn -0.299100 0.239800 0.923600
vn -0.212100 -0.892300 -0.398400
vn -0.553300 -0.667700 0.498000
vn 0.404700 -0.368500 -0.836900
vn 0.346000 -0.127400 -0.929600
vn -0.264300 0.579000 0.771300
vn -0.491000 0.263500 0.830300
vn -0.549400 -0.047300 0.834200
vn 0.486400 -0.132600 -0.863600
vn -0.438200 0.633300 0.637900
vn -0.782200 0.097000 0.615400
vn -0.569200 0.271000 0.776300
vn 0.661900 -0.518900 -0.541000
vn 0.928600 0.005600 -0.371000
vn 0.718800 0.694100 -0.040300
vn 0.980000 0.055300 -0.191000
vn 0.000300 0.888000 0.459800
vn -0.373400 0.793300 0.480900
vn -0.346500 0.837500 0.422500
vn -0.865500 0.427300 0.261400
vn -0.854200 0.494100 -0.161800
vn -0.903700 0.191300 -0.383000
vn -0.219200 0.975500 -0.016900
vn -0.154000 0.981400 0.114700
vn -0.001700 0.540800 -0.841200
vn 0.227200 -0.359200 -0.905200
vn 0.083900 0.209600 -0.974200
vn 0.166800 0.249000 -0.954000
vn -0.157200 0.211600 -0.964600
vn -0.200300 -0.075300 0.976800
vn -0.296200 0.234500 0.925900
vn -0.170400 0.326600 0.929700
vn 0.622800 0.381400 -0.683100
vn 0.662000 0.113100 -0.740900
vn 0.681200 0.381000 -0.625100
vn 0.752000 0.515800 -0.410400
vn -0.759400 -0.298500 0.578100
vn -0.726600 -0.401100 0.557800
vn -0.782300 -0.340200 0.521800
vn -0.647900 -0.326000 0.688500
vn -0.685300 -0.378500 0.622200
vn -0.528200 -0.372400 0.763100
vn 0.165300 -0.749300 -0.641300
vn 0.158300 -0.910000 0.383100
vn -0.894500 0.443500 0.055400
vn 0.524400 -0.390500 -0.756700
vn -0.195600 -0.955900 -0.218900
vn 0.622500 0.126600 -0.772300
vn 0.637400 -0.072000 -0.767200
vn 0.598900 -0.455800 -0.658500
vn 0.562100 -0.610600 -0.557900
vn 0.624300 -0.624400 -0.469400
vn 0.676500 -0.632000 -0.378000
vn 0.052500 -0.997900 0.037900
vn 0.070000 -0.984500 -0.161100
vn 0.053600 -0.997800 -0.039700
vn 0.162000 -0.967200 -0.195800
vn 0.280700 -0.825600 -0.489500
vn 0.506500 -0.775300 0.377300
vn 0.370000 -0.928500 -0.032600
vn -0.166400 -0.874100 0.456300
vn -0.329300 -0.664500 0.670800
vn -0.380600 -0.595700 0.707300
vn 0.163800 -0.719900 -0.674500
vn 0.195800 -0.936900 -0.289500
vn 0.347100 -0.862600 0.367900
vn 0.315600 -0.617800 0.720200
vn -0.054500 -0.839800 0.540100
vn -0.074400 -0.761600 -0.643700
vn -0.228900 -0.410000 -0.882900
vn -0.304800 0.936200 0.174700
vn -0.547300 0.579900 -0.603500
vn -0.301200 0.889100 0.344800
vn -0.978100 0.098400 -0.183200
vn -0.335400 -0.784200 -0.522000
vn 0.524600 0.291800 0.799800
vn 0.548900 -0.387800 0.740400
vn 0.312200 0.323500 0.893200
vn 0.645700 -0.742300 0.179000
vn 0.693400 -0.663500 0.281100
vn 0.507000 -0.806300 0.304800
vn 0.706900 0.554400 0.439300
vn 0.976000 -0.214500 0.037800
vn 0.128200 -0.867500 -0.480600
vn 0.031900 -0.656300 0.753800
vn -0.125100 -0.155600 0.979900
vn -0.200400 0.215500 0.955700
vn -0.277400 0.324300 0.904400
vn -0.332300 -0.417400 0.845800
vn -0.802800 0.043100 0.594700
vn -0.635900 -0.529300 0.561700
vn 0.289300 0.599500 -0.746300
vn 0.452700 0.790600 -0.412300
vn 0.389200 0.897800 -0.206100
vn 0.171400 0.974300 -0.146300
vn 0.661500 0.578500 -0.477300
vn 0.760900 0.266200 -0.591700
vn 0.823200 0.143000 -0.549400
vn 0.672400 0.519700 -0.527000
vn 0.874100 -0.036600 -0.484300
vn 0.771300 0.011900 -0.636400
vn 0.781600 0.294100 -0.550200
vn 0.676200 0.355900 -0.645100
vn 0.647200 -0.744400 -0.164100
vn 0.722600 -0.660200 -0.205100
vn 0.276500 -0.954800 0.109000
vn 0.491200 0.709000 -0.505900
vn 0.843900 -0.312600 -0.436000
vn 0.839000 -0.377600 -0.391800
vn 0.545900 0.213500 -0.810200
vn 0.810100 0.280700 -0.514700
vn 0.553700 0.141000 -0.820700
vn 0.597500 -0.183200 -0.780600
vn 0.665500 -0.010500 -0.746300
vn 0.748600 0.013000 -0.662900
vn -0.459900 0.802700 0.379800
vn 0.588900 0.444700 -0.674900
vn 0.449500 0.758100 -0.472500
vn -0.757500 -0.365200 0.541100
vn -0.707300 -0.545600 0.449500
vn -0.700200 -0.517500 0.491900
vn -0.352200 -0.709900 -0.609900
vn 0.375200 -0.188500 -0.907600
vn 0.210300 -0.371400 -0.904400
vn -0.156000 0.596800 0.787100
vn -0.272400 -0.960900 -0.049800
vn 0.528500 0.818500 -0.225200
vn 0.444900 0.863500 -0.237600
vn 0.625100 -0.170100 -0.761800
vn -0.381800 0.607500 0.696500
vn -0.740100 -0.495800 0.454400
vn -0.661000 0.067500 0.747300
vn 0.750500 -0.156600 -0.642000
vn 0.570000 0.818000 -0.077600
vn -0.459600 -0.867100 -0.192100
vn -0.379800 -0.871000 -0.311500
vn -0.958200 0.060700 0.279500
vn -0.901300 0.017400 0.432800
vn -0.753600 0.353700 0.554100
vn -0.801700 0.407800 0.437000
vn 0.705700 0.630100 0.323800
vn 0.991900 -0.095400 -0.083700
vn -0.388700 0.857300 0.337400
vn -0.227600 0.432100 -0.872600
vn 0.222300 -0.074700 0.972100
vn -0.304000 0.951700 0.043400
vn -0.042000 -0.104000 0.993700
vn 0.232800 0.279100 -0.931600
vn 0.267500 -0.351300 -0.897300
vn 0.098200 0.706500 -0.700900
vn 0.491700 -0.061100 -0.868600
vn 0.275800 -0.821200 -0.499600
vn -0.040100 -0.934200 -0.354500
vn -0.140400 -0.887700 -0.438500
vn -0.220500 -0.951100 0.216500
vn -0.118500 -0.267100 0.956400
vn -0.170500 0.908500 0.381500
vn 0.071500 0.849500 -0.522800
vn 0.066400 0.951800 -0.299300
vn -0.525500 0.781000 0.337500
vn -0.085400 0.244400 0.965900
vn -0.833800 -0.026500 0.551500
vn 0.208400 0.917100 -0.339700
vn -0.615800 0.705800 0.350200
vn -0.172300 0.882000 0.438700
vn -0.499900 -0.547600 0.671000
vn -0.407900 -0.765400 0.497700
vn 0.100000 0.896700 -0.431200
vn 0.070900 0.351600 0.933500
vn 0.759100 -0.651000 0.005200
vn -0.269800 -0.962200 -0.038100
vn 0.908100 0.395400 0.137700
vn 0.811700 0.462500 0.356800
vn 0.857300 0.358500 0.369400
vn 0.888200 0.450500 0.090100
vn 0.924300 0.376300 -0.063400
vn 0.940700 0.299300 -0.159700
vn 0.826200 0.488500 0.280500
vn 0.054800 0.954000 0.294800
vn -0.137400 0.736500 0.662300
vn -0.531800 -0.650300 0.542500
vn 0.721300 -0.510300 -0.468400
vn 0.783700 -0.357400 -0.508000
vn 0.372600 0.532600 -0.760000
vn 0.320700 -0.495200 -0.807400
vn 0.164100 -0.909000 -0.383100
vn 0.121700 -0.895400 0.428300
vn -0.323600 -0.873300 0.364300
vn 0.620100 -0.777000 -0.108100
vn 0.727800 -0.648900 -0.221900
vn -0.272600 0.652100 0.707400
vn -0.236100 0.580800 0.779100
vn -0.168600 0.223100 0.960100
vn -0.075100 -0.098900 0.992300
vn 0.118800 -0.150100 0.981500
vn -0.255200 0.953300 -0.161300
vn -0.421100 0.878800 -0.224400
vn -0.030000 0.433500 -0.900600
vn 0.104700 -0.341400 -0.934100
vn 0.225200 -0.896400 -0.381800
vn 0.082500 -0.152100 -0.984900
vn 0.068300 -0.011400 -0.997600
vn 0.027000 -0.124800 -0.991800
vn 0.421300 -0.605100 -0.675600
vn 0.565100 -0.799800 -0.202600
vn 0.593700 -0.722900 0.353400
vn 0.085800 0.975800 -0.201200
vn -0.181100 0.330200 -0.926400
vn -0.284300 0.636400 0.717000
vn 0.817100 -0.506600 -0.275100
vn 0.423500 0.656100 -0.624700
vn 0.447300 0.087900 -0.890100
vn 0.389500 -0.786400 0.479500
vn 0.162700 -0.802400 0.574200
vn 0.441700 -0.866900 -0.230900
vn 0.021300 -0.398100 0.917100
vn 0.311600 -0.578200 0.754000
vn -0.050500 0.204100 0.977700
vn -0.143900 0.989400 -0.021600
vn 0.052900 0.407900 -0.911500
vn 0.138600 -0.352100 -0.925600
vn -0.023200 -0.018800 -0.999600
vn 0.224900 0.789200 0.571500
vn 0.606000 -0.564200 0.560800
vn -0.121300 -0.324500 -0.938100
vn 0.165800 0.880600 -0.443900
vn 0.254300 0.474500 -0.842700
vn 0.736200 -0.121400 -0.665800
vn 0.311400 0.874600 -0.371700
vn -0.077000 -0.964700 -0.251700
vn 0.523400 0.837300 -0.158000
vn 0.954100 0.152000 0.258000
vn 0.450400 -0.449600 -0.771300
vn -0.208000 0.454500 0.866100
vn 0.829300 0.049800 -0.556600
vn 0.420100 -0.088100 -0.903200
vn 0.098500 -0.988500 0.114300
vn 0.119500 -0.941300 -0.315600
vn 0.176300 -0.909300 -0.376900
vn 0.989100 0.057500 -0.135800
vn 0.540800 -0.836100 0.092300
vn 0.201300 -0.937600 -0.283500
vn 0.998600 0.004300 -0.053100
vn 0.961700 0.206900 -0.179900
vn 0.985400 0.170100 -0.000600
vn -0.392300 0.733900 0.554500
vn 0.169900 -0.804300 -0.569400
vn 0.223900 0.242400 -0.944000
vn 0.970100 0.186400 -0.155500
vn -0.817400 0.409400 0.405200
vn 0.799100 0.227900 -0.556300
vn 0.144400 0.201000 -0.968900
usemtl None
s 1
f 1/1/1 2/2/2 3/3/3
f 6/4/4 7/5/5 8/6/6
f 9/7/7 10/8/8 11/9/9
f 10/10/8 12/11/10 3/12/3
f 5/13/11 15/14/12 1/15/1
f 16/16/13 17/17/14 12/18/10
f 17/17/14 18/19/15 12/18/10
f 19/20/16 6/21/4 20/22/17
f 19/23/16 20/24/17 15/25/12
f 20/24/17 13/26/18 1/1/1
f 11/27/9 3/3/3 2/2/2
f 3/28/3 12/18/10 18/19/15
f 15/25/12 20/24/17 1/1/1
f 18/19/15 5/13/11 1/15/1
f 1/1/1 14/29/19 2/2/2
f 8/6/6 13/26/18 20/24/17
f 20/22/17 6/21/4 8/30/6
f 5/13/11 18/19/15 17/17/14
f 15/14/12 4/31/20 19/32/16
f 15/14/12 5/13/11 4/31/20
f 14/29/19 1/1/1 13/26/18
f 10/33/8 21/34/21 16/35/13
f 16/36/13 12/11/10 10/10/8
f 10/10/8 3/12/3 11/37/9
f 22/38/22 23/39/23 24/40/24
f 29/41/25 26/42/26 30/43/27
f 31/44/28 32/45/29 33/46/30
f 38/47/31 39/48/32 40/49/33
f 44/50/34 45/51/35 39/48/32
f 37/52/36 46/53/37 47/54/38
f 49/55/39 50/56/40 51/57/41
f 52/58/42 53/59/43 54/60/44
f 60/61/45 61/62/46 62/63/47
f 63/64/48 64/65/49 65/66/50
f 74/67/51 75/68/52 76/69/53
f 77/70/54 78/71/55 79/72/56
f 80/73/57 81/74/58 82/75/59
f 83/76/60 84/77/61 85/78/62
f 87/79/63 88/80/64 89/81/65
f 95/82/66 74/83/51 78/71/55
f 97/84/67 98/85/68 99/86/69
f 105/87/70 106/88/71 81/74/58
f 98/89/68 111/90/72 112/91/73
f 113/92/74 114/93/75 115/94/76
f 116/95/77 117/96/78 118/97/79
f 128/98/80 129/99/81 130/100/82
f 131/101/83 132/102/84 133/103/85
f 134/104/86 135/105/87 64/65/49
f 136/106/88 137/107/89 138/108/90
f 139/109/91 140/110/92 133/111/85
f 135/105/87 141/112/93 142/113/94
f 144/114/95 145/115/96 146/116/97
f 148/117/98 142/113/94 141/112/93
f 151/118/99 149/119/100 152/120/101
f 153/121/102 154/122/103 155/123/104
f 156/124/105 157/125/106 154/126/103
f 158/127/107 159/128/108 160/129/109
f 166/130/110 49/131/39 167/132/111
f 168/133/112 169/134/113 170/135/114
f 171/136/115 56/137/116 172/138/117
f 56/137/116 173/139/118 170/135/114
f 176/140/119 177/141/120 178/142/121
f 180/143/122 181/144/123 96/145/124
f 118/97/79 117/96/78 183/146/125
f 185/147/126 186/148/127 187/149/128
f 82/75/59 188/150/129 189/151/130
f 79/152/56 190/153/131 84/77/61
f 37/154/36 36/155/132 193/156/133
f 194/157/134 160/129/109 159/128/108
f 195/158/135 141/112/93 196/159/136
f 139/160/91 135/105/87 134/104/86
f 197/161/137 101/162/138 181/144/123
f 201/163/139 202/164/140 153/165/102
f 203/166/141 31/167/28 204/168/142
f 205/169/143 206/170/144 207/171/145
f 208/172/146 205/169/143 193/173/133
f 193/156/133 57/174/147 208/175/146
f 37/176/36 209/177/148 210/178/149
f 42/179/150 212/180/151 213/181/152
f 218/182/153 206/170/144 219/183/154
f 220/184/155 47/54/38 221/185/156
f 207/171/145 206/170/144 42/186/150
f 207/171/145 42/186/150 222/187/157
f 223/188/158 49/55/39 224/189/159
f 50/190/40 225/191/160 226/192/161
f 50/190/40 199/193/162 225/191/160
f 194/157/134 60/194/45 160/129/109
f 194/157/134 162/195/163 60/194/45
f 161/196/164 62/197/47 61/198/46
f 227/199/165 228/200/166 229/201/167
f 227/199/165 53/59/43 228/200/166
f 230/202/168 209/203/148 231/204/169
f 209/205/148 232/206/170 231/207/169
f 165/208/171 164/209/172 52/210/42
f 139/211/91 236/212/173 140/213/92
f 236/212/173 29/214/25 140/213/92
f 240/215/174 241/216/175 30/43/27
f 241/217/175 69/218/176 242/219/177
f 242/219/177 132/102/84 131/101/83
f 176/140/119 75/220/52 177/141/120
f 176/221/119 41/222/178 75/68/52
f 190/153/131 78/223/55 74/67/51
f 188/150/129 81/74/58 77/70/54
f 185/147/126 250/224/179 80/73/57
f 251/225/180 189/151/130 83/226/60
f 39/48/32 38/47/31 252/227/181
f 253/228/182 254/229/183 73/230/184
f 255/231/185 256/232/186 192/233/187
f 255/234/185 72/235/188 256/236/186
f 257/237/189 258/238/190 93/239/191
f 258/238/190 91/240/192 93/239/191
f 92/241/193 260/242/194 247/243/195
f 77/244/54 106/245/71 95/246/66
f 265/247/196 96/248/124 253/249/182
f 260/250/194 263/251/197 261/252/198
f 266/253/199 267/254/200 97/84/67
f 197/161/137 268/255/201 100/256/202
f 102/257/203 269/258/204 181/144/123
f 198/259/205 105/87/70 80/73/57
f 179/260/206 180/261/122 107/262/207
f 115/94/76 187/149/128 271/263/208
f 272/264/209 271/263/208 186/148/127
f 186/148/127 273/265/210 272/264/209
f 266/266/199 268/267/201 116/95/77
f 55/268/211 49/55/39 223/188/158
f 55/268/211 167/269/111 49/55/39
f 280/270/212 64/271/49 63/272/48
f 132/102/84 128/98/80 138/108/90
f 29/41/25 131/273/83 140/274/92
f 280/275/212 281/276/213 134/104/86
f 65/66/50 64/65/49 142/113/94
f 136/106/88 130/100/82 143/277/214
f 282/278/215 133/279/85 137/280/89
f 146/116/97 137/107/89 136/106/88
f 239/281/216 238/282/217 148/283/98
f 148/283/98 283/284/218 239/281/216
f 145/115/96 144/114/95 284/285/219
f 152/120/101 145/115/96 284/285/219
f 237/286/220 146/287/97 285/288/221
f 283/284/218 148/283/98 195/289/135
f 237/286/220 285/288/221 149/290/100
f 283/284/218 195/289/135 201/291/139
f 286/292/222 283/284/218 201/291/139
f 155/123/104 217/293/223 286/292/222
f 202/164/140 59/294/224 58/295/225
f 202/164/140 201/163/139 59/294/224
f 156/296/105 153/121/102 203/297/141
f 287/298/226 150/299/227 66/300/228
f 287/298/226 66/300/228 288/301/229
f 32/45/29 62/302/47 33/46/30
f 289/303/230 156/124/105 290/304/231
f 162/305/163 167/306/111 55/307/211
f 164/308/172 290/309/231 204/310/142
f 162/195/163 194/157/134 166/130/110
f 199/193/162 50/190/40 166/130/110
f 48/311/232 199/193/162 166/130/110
f 53/59/43 227/199/165 54/60/44
f 51/57/41 226/312/161 291/313/233
f 291/313/233 173/314/118 51/57/41
f 37/52/36 232/206/170 209/205/148
f 37/52/36 220/184/155 232/206/170
f 228/200/166 221/315/156 292/316/234
f 291/317/233 68/318/235 168/133/112
f 292/316/234 221/315/156 47/319/38
f 47/319/38 294/320/236 292/316/234
f 90/321/237 235/322/238 171/323/115
f 56/137/116 248/324/239 172/138/117
f 234/325/240 219/183/154 233/326/241
f 234/327/240 218/328/153 219/329/154
f 295/330/242 296/331/243 175/332/244
f 208/333/146 57/334/147 171/323/115
f 42/179/150 175/335/244 212/180/151
f 294/336/236 47/337/38 222/338/157
f 222/338/157 297/339/245 294/336/236
f 41/222/178 213/181/152 76/69/53
f 294/340/236 297/341/245 176/140/119
f 177/141/120 75/220/52 243/342/246
f 299/343/247 170/135/114 169/134/113
f 298/344/248 248/324/239 299/343/247
f 254/345/183 253/249/182 72/235/188
f 254/345/183 72/235/188 255/234/185
f 265/247/196 107/262/207 180/261/122
f 106/88/71 77/70/54 81/74/58
f 80/73/57 250/224/179 86/346/249
f 86/346/249 198/259/205 80/73/57
f 187/149/128 115/94/76 119/347/250
f 119/347/250 110/348/251 187/149/128
f 274/349/252 116/95/77 179/260/206
f 267/350/200 266/266/199 118/97/79
f 179/260/206 116/95/77 268/267/201
f 268/267/201 197/351/137 179/260/206
f 185/147/126 110/348/251 250/224/179
f 250/224/179 110/348/251 86/346/249
f 110/348/251 270/352/253 86/346/249
f 185/147/126 82/75/59 186/148/127
f 188/353/129 79/152/56 83/76/60
f 269/258/204 96/145/124 181/144/123
f 92/354/193 263/251/197 260/250/194
f 248/324/239 170/135/114 299/343/247
f 74/83/51 191/355/254 243/356/246
f 243/356/246 75/357/52 74/83/51
f 76/69/53 213/181/152 302/358/255
f 76/69/53 302/358/255 190/153/131
f 297/339/245 222/338/157 42/359/150
f 213/181/152 212/180/151 182/360/256
f 213/181/152 182/360/256 302/358/255
f 208/172/146 233/326/241 219/183/154
f 295/361/242 206/362/144 218/328/153
f 248/324/239 249/363/257 89/81/65
f 294/364/236 178/365/121 293/366/258
f 293/367/258 292/368/234 294/369/236
f 173/139/118 291/317/233 170/135/114
f 293/370/258 229/201/167 292/316/234
f 229/201/167 228/200/166 292/316/234
f 228/371/166 220/372/155 221/373/156
f 228/371/166 232/374/170 220/372/155
f 226/192/161 225/191/160 68/375/235
f 68/376/235 291/313/233 226/312/161
f 53/377/43 52/378/42 35/379/259
f 53/377/43 35/379/259 231/204/169
f 50/190/40 49/131/39 166/130/110
f 194/157/134 48/311/232 166/130/110
f 164/209/172 165/208/171 289/303/230
f 289/303/230 290/304/231 164/209/172
f 160/380/109 60/381/45 287/298/226
f 287/298/226 288/301/229 160/380/109
f 203/297/141 204/382/142 290/383/231
f 290/383/231 156/296/105 203/297/141
f 157/384/106 155/123/104 154/122/103
f 202/385/140 58/386/225 32/387/29
f 32/388/29 31/167/28 202/164/140
f 66/300/228 150/299/227 149/290/100
f 286/292/222 201/291/139 153/121/102
f 149/290/100 285/288/221 152/389/101
f 201/163/139 195/158/135 59/294/224
f 283/284/218 286/292/222 217/293/223
f 217/293/223 239/281/216 283/284/218
f 141/112/93 147/390/260 196/159/136
f 285/288/221 146/287/97 145/391/96
f 285/288/221 145/391/96 152/389/101
f 136/106/88 143/277/214 144/114/95
f 142/392/94 148/283/98 238/282/217
f 238/282/217 65/393/50 142/392/94
f 137/107/89 133/103/85 138/108/90
f 281/276/213 236/394/173 139/160/91
f 132/102/84 138/108/90 133/103/85
f 200/395/261 126/396/262 276/397/263
f 277/398/264 214/399/265 278/400/266
f 122/401/267 275/402/268 123/403/269
f 116/95/77 274/349/252 117/96/78
f 272/264/209 113/92/74 271/263/208
f 187/149/128 186/148/127 271/263/208
f 179/404/206 197/161/137 180/143/122
f 188/150/129 83/226/60 189/151/130
f 99/86/69 100/256/202 268/255/201
f 268/255/201 266/253/199 99/86/69
f 101/162/138 102/257/203 181/144/123
f 302/358/255 104/405/270 84/77/61
f 302/358/255 182/360/256 104/405/270
f 190/153/131 302/358/255 84/77/61
f 259/406/271 263/407/197 92/408/193
f 257/237/189 263/251/197 258/238/190
f 260/242/194 261/409/198 247/243/195
f 261/409/198 262/410/272 247/243/195
f 216/411/273 252/227/181 87/79/63
f 87/79/63 252/227/181 88/80/64
f 39/48/32 45/51/35 40/49/33
f 88/80/64 90/412/237 89/81/65
f 172/138/117 248/324/239 89/81/65
f 89/81/65 90/412/237 172/138/117
f 273/413/210 186/414/127 189/415/130
f 251/225/180 273/265/210 189/151/130
f 104/405/270 85/78/62 84/77/61
f 81/74/58 188/150/129 82/75/59
f 190/153/131 79/152/56 78/223/55
f 41/222/178 76/69/53 75/68/52
f 295/361/242 300/416/274 296/417/243
f 295/361/242 218/328/153 300/416/274
f 300/416/274 218/328/153 234/327/240
f 303/418/275 304/419/276 26/420/26
f 304/421/276 240/215/174 26/42/26
f 26/422/26 29/214/25 236/212/173
f 30/43/27 26/42/26 240/215/174
f 237/423/220 196/424/136 147/425/260
f 46/53/37 205/169/143 207/171/145
f 46/53/37 193/173/133 205/169/143
f 233/426/241 208/333/146 171/323/115
f 171/323/115 235/322/238 233/426/241
f 164/308/172 35/379/259 52/378/42
f 53/377/43 231/204/169 232/374/170
f 53/377/43 232/374/170 228/371/166
f 60/427/45 162/305/163 161/196/164
f 161/196/164 61/198/46 60/427/45
f 50/56/40 226/312/161 51/57/41
f 223/428/158 224/429/159 210/430/149
f 46/53/37 207/171/145 47/54/38
f 207/171/145 222/187/157 47/54/38
f 175/332/244 42/186/150 206/170/144
f 295/330/242 175/332/244 206/170/144
f 208/172/146 206/170/144 205/169/143
f 208/172/146 219/183/154 206/170/144
f 252/227/181 216/411/273 39/48/32
f 212/180/151 175/335/244 174/431/277
f 36/155/132 57/174/147 193/156/133
f 35/379/259 230/202/168 231/204/169
f 35/379/259 34/432/278 230/202/168
f 204/168/142 33/433/30 163/434/279
f 153/165/102 202/164/140 31/167/28
f 153/165/102 31/167/28 203/166/141
f 311/435/280 28/436/281 312/437/282
f 240/438/174 304/439/276 303/440/275
f 315/441/283 310/442/284 312/437/282
f 316/443/285 317/444/286 318/445/287
f 319/446/288 22/38/22 24/40/24
f 22/38/22 319/446/288 320/447/289
f 321/448/290 322/449/291 323/450/292
f 324/451/293 325/452/294 326/453/295
f 317/454/286 314/455/296 327/456/297
f 317/457/286 316/458/285 328/459/298
f 323/450/292 307/460/299 324/461/293
f 327/456/297 313/462/300 308/463/301
f 329/464/302 330/465/303 331/466/304
f 330/465/303 320/467/289 331/466/304
f 315/468/283 332/469/305 309/470/306
f 328/471/298 311/435/280 333/472/307
f 303/473/275 320/467/289 330/465/303
f 330/474/303 332/469/305 240/215/174
f 69/218/176 241/217/175 315/441/283
f 316/458/285 337/475/308 311/476/280
f 338/477/309 337/478/308 316/443/285
f 321/448/290 24/40/24 322/449/291
f 320/447/289 303/479/275 339/480/310
f 321/448/290 324/461/293 319/446/288
f 327/456/297 306/481/311 322/482/291
f 318/483/287 327/456/297 322/482/291
f 331/484/304 326/485/295 329/486/302
f 322/449/291 306/487/311 323/450/292
f 319/446/288 324/461/293 331/488/304
f 319/446/288 331/488/304 320/447/289
f 322/482/291 24/489/24 338/490/309
f 322/482/291 338/490/309 318/483/287
f 329/486/302 326/485/295 309/491/306
f 335/492/312 314/493/296 317/494/286
f 28/436/281 69/218/176 312/437/282
f 332/469/305 315/468/283 241/216/175
f 241/216/175 240/215/174 332/469/305
f 316/458/285 311/476/280 328/459/298
f 310/442/284 333/472/307 312/437/282
f 309/470/306 330/474/303 329/495/302
f 309/470/306 332/469/305 330/474/303
f 314/455/296 313/462/300 327/456/297
f 324/461/293 307/460/299 325/496/294
f 21/497/21 10/8/8 9/7/7
f 6/4/4 19/23/16 336/498/313
f 281/276/213 23/39/23 25/499/314
f 25/499/314 339/480/310 303/479/275
f 22/38/22 339/480/310 25/499/314
f 281/276/213 280/275/212 23/39/23
f 26/500/26 236/394/173 281/276/213
f 281/276/213 25/499/314 26/500/26
f 30/43/27 131/273/83 29/41/25
f 25/499/314 303/479/275 26/500/26
f 242/219/177 30/501/27 241/217/175
f 337/502/308 27/503/315 28/436/281
f 131/101/83 30/501/27 242/219/177
f 18/19/15 1/15/1 3/28/3
f 204/168/142 31/167/28 33/433/30
f 211/504/316 38/47/31 40/49/33
f 213/181/152 41/222/178 42/179/150
f 220/184/155 37/52/36 47/54/38
f 224/189/159 49/55/39 51/57/41
f 165/208/171 52/210/42 54/505/44
f 190/153/131 74/67/51 76/69/53
f 188/150/129 77/70/54 79/72/56
f 185/147/126 80/73/57 82/75/59
f 251/506/180 83/76/60 85/78/62
f 77/70/54 95/82/66 78/71/55
f 253/249/182 96/248/124 72/235/188
f 266/253/199 97/84/67 99/86/69
f 197/161/137 100/256/202 101/162/138
f 269/258/204 102/257/203 103/507/317
f 80/73/57 105/87/70 81/74/58
f 179/260/206 107/262/207 108/508/318
f 244/509/319 98/89/68 112/91/73
f 271/263/208 113/92/74 115/94/76
f 266/266/199 116/95/77 118/97/79
f 138/108/90 128/98/80 130/100/82
f 140/510/92 131/511/83 133/512/85
f 280/275/212 134/104/86 64/65/49
f 130/100/82 136/106/88 138/108/90
f 282/278/215 139/513/91 133/279/85
f 64/65/49 135/105/87 142/113/94
f 136/106/88 144/114/95 146/116/97
f 237/286/220 147/514/260 146/287/97
f 195/289/135 148/283/98 141/515/93
f 284/285/219 151/118/99 152/120/101
f 286/292/222 153/121/102 155/123/104
f 153/121/102 156/296/105 154/122/103
f 288/301/229 158/516/107 160/380/109
f 204/310/142 163/517/279 164/308/172
f 162/195/163 166/130/110 167/132/111
f 291/317/233 168/133/112 170/135/114
f 90/321/237 171/323/115 172/518/117
f 248/324/239 56/137/116 170/135/114
f 294/340/236 176/140/119 178/142/121
f 265/247/196 180/261/122 96/248/124
f 267/350/200 118/97/79 183/146/125
f 183/146/125 117/96/78 184/519/320
f 110/348/251 185/147/126 187/149/128
f 186/148/127 82/75/59 189/151/130
f 83/76/60 79/152/56 84/77/61
f 74/83/51 95/82/66 191/355/254
f 46/53/37 37/52/36 193/173/133
f 48/311/232 194/157/134 159/128/108
f 59/294/224 195/158/135 196/159/136
f 281/276/213 139/160/91 134/104/86
f 180/143/122 197/161/137 181/144/123
f 323/450/292 306/487/311 307/460/299
f 327/456/297 308/463/301 306/481/311
f 315/520/283 309/521/306 310/522/284
f 333/472/307 311/435/280 312/437/282
f 330/465/303 240/523/174 303/473/275
f 69/218/176 315/441/283 312/437/282
f 338/477/309 316/443/285 318/445/287
f 321/448/290 319/446/288 24/40/24
f 339/480/310 22/38/22 320/447/289
f 324/461/293 321/448/290 323/450/292
f 331/484/304 324/524/293 326/485/295
f 318/445/287 317/444/286 327/525/297
f 335/492/312 317/494/286 328/526/298
f 23/39/23 22/38/22 25/499/314
f 311/435/280 337/502/308 28/436/281
f 146/527/97 282/278/215 137/280/89
f 141/112/93 135/105/87 282/528/215
f 141/112/93 282/528/215 147/390/260
f 139/160/91 282/528/215 135/105/87
f 146/527/97 147/529/260 282/278/215
f 121/530/321 276/397/263 115/531/76
f 126/396/262 119/532/250 115/531/76
f 276/397/263 126/396/262 115/531/76
f 7/533/5 307/534/299 334/535/322
f 115/531/76 114/536/75 121/530/321
f 8/6/6 334/537/322 13/26/18
f 334/538/322 14/539/19 13/540/18
f 14/539/19 334/538/322 308/541/301
f 308/541/301 2/542/2 14/539/19
f 9/7/7 11/9/9 308/543/301
f 11/544/9 2/542/2 308/541/301
f 334/537/322 8/6/6 7/5/5
f 27/503/315 305/545/323 28/436/281
f 161/546/164 34/432/278 35/379/259
f 28/436/281 305/545/323 69/218/176
f 93/239/191 72/547/188 94/548/324
f 234/549/240 90/412/237 88/80/64
f 245/550/325 91/240/192 259/551/271
f 247/552/195 246/553/326 92/554/193
f 261/252/198 93/239/191 94/548/324
f 96/145/124 94/548/324 72/547/188
f 100/256/202 70/555/327 101/162/138
f 102/257/203 109/556/328 103/507/317
f 85/78/62 104/405/270 109/557/328
f 110/558/251 123/559/269 275/560/268
f 125/561/329 120/562/330 111/563/72
f 214/564/265 122/401/267 126/396/262
f 143/277/214 130/100/82 65/565/50
f 149/290/100 150/299/227 59/566/224
f 165/567/171 54/568/44 159/569/108
f 296/331/243 174/570/277 175/332/244
f 104/405/270 182/360/256 215/571/331
f 100/572/202 99/573/69 244/574/319
f 117/575/78 270/576/253 184/577/320
f 121/578/321 114/579/75 127/580/332
f 192/233/187 40/581/33 45/582/35
f 249/363/257 44/50/34 216/411/273
f 43/583/333 200/395/261 301/584/334
f 247/585/195 212/180/151 174/431/277
f 247/585/195 182/360/256 212/180/151
f 262/586/272 103/507/317 215/587/331
f 155/588/104 67/589/335 217/590/223
f 233/426/241 235/322/238 234/591/240
f 237/592/220 59/593/224 196/594/136
f 63/595/48 65/596/50 129/597/81
f 132/102/84 242/219/177 305/545/323
f 198/598/205 86/599/249 108/600/318
f 252/227/181 211/504/316 88/80/64
f 259/601/271 71/602/336 245/603/325
f 258/238/190 263/251/197 259/551/271
f 261/252/198 263/251/197 257/237/189
f 246/553/326 174/570/277 296/331/243
f 262/586/272 215/587/331 247/604/195
f 256/605/186 72/547/188 93/239/191
f 93/606/191 91/607/192 256/608/186
f 91/607/192 264/609/337 256/608/186
f 91/607/192 245/610/325 264/609/337
f 251/506/180 85/78/62 70/611/327
f 102/257/203 101/162/138 70/555/327
f 86/599/249 270/576/253 117/575/78
f 117/575/78 274/612/252 86/599/249
f 184/613/320 275/402/268 122/401/267
f 122/401/267 277/614/264 184/613/320
f 278/615/266 124/616/338 183/617/125
f 97/84/67 124/618/338 125/561/329
f 214/564/265 126/396/262 200/395/261
f 124/618/338 278/400/266 214/399/265
f 43/619/333 124/618/338 214/399/265
f 144/114/95 143/277/214 238/620/217
f 32/621/29 58/622/225 287/623/226
f 58/624/225 150/299/227 287/298/226
f 67/589/335 155/588/104 157/625/106
f 165/567/171 158/626/107 289/627/230
f 223/628/158 34/432/278 55/629/211
f 223/628/158 230/202/168 34/432/278
f 68/630/235 225/631/160 293/632/258
f 225/631/160 229/633/167 293/632/258
f 36/634/132 173/314/118 56/635/116
f 243/636/246 191/637/254 73/638/184
f 73/638/184 298/344/248 243/636/246
f 177/141/120 243/342/246 169/639/113
f 234/591/240 235/322/238 90/321/237
f 298/640/248 249/641/257 248/642/239
f 254/229/183 45/643/35 73/230/184
f 95/644/66 73/638/184 191/637/254
f 95/645/66 253/228/182 73/230/184
f 86/599/249 274/612/252 108/600/318
f 215/587/331 103/507/317 109/556/328
f 251/506/180 70/611/327 244/646/319
f 244/646/319 273/647/210 251/506/180
f 272/648/209 244/646/319 112/649/73
f 272/648/209 273/647/210 244/646/319
f 113/650/74 272/648/209 112/649/73
f 112/649/73 120/651/330 113/650/74
f 276/397/263 121/530/321 301/584/334
f 277/614/264 122/401/267 214/564/265
f 43/619/333 125/561/329 124/618/338
f 110/348/251 119/347/250 123/652/269
f 99/573/69 98/653/68 244/574/319
f 270/576/253 275/654/268 184/577/320
f 107/262/207 265/247/196 106/655/71
f 300/656/274 256/608/186 264/609/337
f 300/657/274 192/233/187 256/232/186
f 300/416/274 264/658/337 296/417/243
f 255/234/185 45/659/35 254/345/183
f 298/640/248 73/230/184 44/660/34
f 44/660/34 249/641/257 298/640/248
f 249/363/257 216/411/273 89/81/65
f 168/661/112 177/141/120 169/639/113
f 168/661/112 178/142/121 177/141/120
f 299/343/247 169/134/113 243/636/246
f 243/636/246 298/344/248 299/343/247
f 176/221/119 42/179/150 41/222/178
f 176/662/119 297/663/245 42/664/150
f 171/323/115 57/334/147 56/665/116
f 178/142/121 168/661/112 68/630/235
f 68/630/235 293/632/258 178/142/121
f 36/634/132 224/189/159 51/57/41
f 51/57/41 173/314/118 36/634/132
f 199/666/162 48/667/232 54/668/44
f 227/669/165 199/666/162 54/668/44
f 161/546/164 33/46/30 62/302/47
f 161/546/164 163/517/279 33/46/30
f 32/621/29 287/623/226 60/670/45
f 150/299/227 58/624/225 59/566/224
f 238/620/217 239/671/216 284/285/219
f 144/114/95 238/620/217 284/285/219
f 130/100/82 129/99/81 65/565/50
f 276/397/263 301/584/334 200/395/261
f 301/672/334 127/673/332 43/619/333
f 124/616/338 97/674/67 267/675/200
f 183/617/125 184/613/320 277/614/264
f 277/614/264 278/615/266 183/617/125
f 114/676/75 113/677/74 127/678/332
f 125/561/329 127/673/332 120/562/330
f 106/655/71 253/249/182 95/679/66
f 106/655/71 265/247/196 253/249/182
f 247/585/195 174/431/277 246/680/326
f 245/603/325 296/417/243 264/658/337
f 245/603/325 71/602/336 296/417/243
f 261/252/198 257/237/189 93/239/191
f 246/553/326 71/681/336 259/682/271
f 259/682/271 92/554/193 246/553/326
f 258/238/190 259/551/271 91/240/192
f 300/657/274 234/683/240 40/581/33
f 40/581/33 192/233/187 300/657/274
f 105/684/70 198/598/205 107/685/207
f 107/685/207 106/686/71 105/684/70
f 210/430/149 224/429/159 36/687/132
f 159/569/108 54/568/44 48/688/232
f 229/633/167 225/631/160 199/666/162
f 199/666/162 227/669/165 229/633/167
f 269/258/204 94/548/324 96/145/124
f 94/548/324 269/258/204 103/507/317
f 103/507/317 262/586/272 94/548/324
f 43/583/333 214/564/265 200/395/261
f 182/360/256 247/585/195 215/571/331
f 211/504/316 252/227/181 38/47/31
f 234/549/240 211/504/316 40/49/33
f 223/628/158 210/689/149 209/203/148
f 209/203/148 230/202/168 223/628/158
f 128/98/80 132/102/84 305/545/323
f 306/487/311 334/690/322 307/460/299
f 308/691/301 334/690/322 306/487/311
f 309/521/306 336/692/313 310/522/284
f 328/471/298 333/472/307 17/693/14
f 17/693/14 335/694/312 328/471/298
f 336/692/313 4/31/20 310/522/284
f 326/485/295 336/498/313 309/491/306
f 4/31/20 17/17/14 333/695/307
f 310/522/284 4/31/20 333/695/307
f 7/5/5 326/485/295 325/696/294
f 313/697/300 314/698/296 21/699/21
f 308/700/301 313/701/300 9/702/7
f 17/703/14 16/704/13 335/705/312
f 21/699/21 314/698/296 335/705/312
f 335/705/312 16/704/13 21/699/21
f 4/31/20 336/692/313 19/32/16
f 305/545/323 242/219/177 69/218/176
f 17/17/14 4/31/20 5/13/11
f 163/517/279 161/546/164 35/379/259
f 210/706/149 36/707/132 37/708/36
f 216/411/273 44/50/34 39/48/32
f 161/546/164 55/629/211 34/432/278
f 36/709/132 56/665/116 57/334/147
f 32/621/29 60/670/45 62/710/47
f 246/553/326 296/331/243 71/681/336
f 44/660/34 73/230/184 45/643/35
f 216/411/273 87/79/63 89/81/65
f 211/504/316 234/549/240 88/80/64
f 262/586/272 261/252/198 94/548/324
f 70/611/327 85/78/62 109/557/328
f 70/555/327 109/556/328 102/257/203
f 270/352/253 110/348/251 275/711/268
f 120/712/330 112/91/73 111/90/72
f 127/713/332 113/714/74 120/715/330
f 183/617/125 124/616/338 267/675/200
f 97/84/67 125/561/329 111/563/72
f 125/561/329 43/619/333 127/673/332
f 238/620/217 143/277/214 65/565/50
f 237/286/220 149/290/100 59/566/224
f 55/307/211 161/196/164 162/305/163
f 158/626/107 165/567/171 159/569/108
f 274/349/252 179/260/206 108/508/318
f 109/557/328 104/405/270 215/571/331
f 70/555/327 100/256/202 244/716/319
f 97/84/67 111/563/72 98/85/68
f 301/672/334 121/717/321 127/673/332
f 255/231/185 192/233/187 45/582/35
f 107/685/207 198/598/205 108/600/318
f 313/697/300 21/699/21 9/718/7
f 126/396/262 122/401/267 119/532/250
f 7/5/5 6/4/4 326/485/295
f 336/498/313 326/485/295 6/4/4
f 325/719/294 307/534/299 7/533/5
f 119/532/250 122/401/267 123/403/269
f 63/64/48 27/720/315 280/275/212
f 280/275/212 27/720/315 23/39/23
f 128/98/80 27/503/315 129/99/81
f 63/595/48 129/597/81 27/721/315
f 27/503/315 128/98/80 305/545/323
f 23/39/339 279/722/340 27/720/341
f 24/40/24 27/720/315 338/723/309
f 337/478/308 338/477/309 27/724/315
f 24/40/24 23/39/23 27/720/315
f 288/301/229 157/725/106 158/516/107
f 157/725/106 288/301/229 66/300/228
f 289/627/230 158/626/107 157/726/106
f 157/725/106 66/300/228 67/727/335
f 289/303/230 157/125/106 156/124/105
f 164/308/172 163/517/279 35/379/259
f 151/728/99 67/729/335 66/730/228
f 66/300/228 149/290/100 151/731/99
f 151/732/99 284/733/219 239/734/216
f 217/735/223 151/728/99 239/736/216
f 217/735/223 67/729/335 151/728/99
