# Blender v2.75 (sub 0) OBJ File: 'untitled.blend'
# www.blender.org
mtllib ribs_3.mtl
o fuscc.000_fuscc.012
v -0.908991 17.112129 6.710565
v -0.921699 17.014473 6.569325
v -0.924870 17.428368 6.752955
v -0.740072 17.496841 6.632792
v -0.603589 17.520874 6.453501
v -0.742277 17.965096 6.489550
v -0.735876 18.210953 6.362855
v -0.907418 18.107956 6.532656
v -0.818833 17.074936 6.385934
v -0.632843 17.911690 6.356799
v -0.870046 18.340462 6.128728
v -0.680515 18.192070 6.190859
v -0.652203 17.940872 6.203973
v -0.637552 17.225044 6.435906
v -0.615510 17.462700 6.294238
v -0.680563 17.206352 6.525170
v -0.975105 18.381660 6.341683
v -1.008698 18.444603 6.212937
v -4.589411 18.418093 5.828988
v -5.160519 16.928070 6.006753
v -4.907366 16.826218 5.865132
v -5.107543 16.558426 6.067169
v -4.768750 18.391771 5.671536
v -4.555079 18.482943 5.657517
v -4.586550 18.299074 5.594003
v -6.957910 24.010630 -4.952085
v -6.822392 23.686380 -5.050241
v -2.186009 24.124498 -4.904973
v -7.050320 23.341341 -5.793893
v -6.979176 23.958368 -5.127990
v -7.988021 18.743868 3.167760
v -7.901904 19.006510 3.144943
v -7.794616 19.219370 3.153550
v -2.605387 23.844881 -5.394804
v -2.915141 23.995371 -5.587112
v -2.714106 24.021120 -5.663621
v -2.587005 23.982782 -5.701744
v -2.655741 24.058886 -5.782520
v -2.820107 24.114962 -5.781805
v -2.738520 24.247904 -5.754482
v -3.777930 24.416513 -5.003678
v -4.511973 24.168749 -5.314433
v -3.688570 24.204416 -5.108010
v -2.272078 24.311228 -4.375278
v -2.018353 24.325914 -4.190456
v -2.264925 24.560709 -4.264676
v -2.002427 24.512072 -4.109895
v -2.581045 24.305696 -4.542815
v -2.985665 24.094744 -4.873716
v -2.546355 24.052210 -4.621613
v -3.475043 24.582453 -4.842746
v -3.101155 24.714060 -4.776918
v -2.829405 24.576731 -5.003392
v -2.418515 24.571772 -4.473006
v -2.375385 24.516268 -4.544770
v -3.697249 24.600382 -5.179536
v -3.615805 24.600000 -5.286824
v -4.384610 24.487467 -5.630481
v -3.166958 24.637194 -5.259358
v -3.201529 24.522562 -5.371439
v -3.279587 24.678202 -5.222094
v -3.295990 24.461336 -5.444753
v -2.328726 24.139566 -5.070126
v -2.396437 24.290438 -4.991948
v -3.041884 24.059649 -5.723440
v -2.913519 24.264307 -5.691707
v -2.736374 24.371881 -5.648601
v -2.851435 24.370546 -5.578315
v -1.840064 24.323053 -4.447162
v -1.616427 24.459429 -4.130828
v -1.606652 24.322100 -4.271709
v -1.957842 23.954554 -4.489409
v -1.853821 24.108095 -4.548513
v -1.383826 24.322672 -4.099977
v -1.385137 24.226160 -4.170215
v -1.401779 24.118967 -4.216825
v -2.268669 24.119921 -4.447376
v -2.400872 24.077959 -4.526722
v -2.235409 23.858042 -4.633367
v -1.495644 24.389811 -3.851044
v -1.322147 24.436541 -3.689372
v -1.522943 24.027605 -4.041993
v -1.867983 24.454279 -4.269778
v -2.609822 24.534769 -4.479181
v -2.111765 24.435396 -4.454505
v -2.064392 24.316759 -4.639947
v -2.340099 24.475069 -4.629862
v -1.006576 24.503489 -3.569877
v -0.944087 23.956461 -3.284824
v -0.961014 24.268694 -3.287875
v -1.054951 24.402590 -3.365385
v -9.189841 19.681520 1.381766
v -8.777949 19.430513 2.057802
v -9.234855 19.444246 1.317894
v -6.446311 18.535776 4.322373
v -5.403134 18.271036 5.031383
v -6.492850 18.334360 4.352414
v -7.303283 18.808146 3.684675
v -6.395003 18.773432 4.299104
v -7.619426 17.818422 3.833067
v -8.223006 18.015070 3.276693
v -7.551047 18.050928 3.795754
v -9.205482 17.993517 2.134024
v -8.256003 17.721148 3.330480
v -6.953236 16.938753 4.611670
v -7.694098 17.164774 3.934561
v -6.871411 17.280169 4.551398
v -5.922457 16.849680 5.472981
v -5.941483 16.960497 5.484998
v -8.243701 17.402811 3.414046
v -7.779929 17.358942 3.981482
v -7.836864 17.569704 4.002988
v -9.655902 18.357821 1.412999
v -9.279582 18.022890 2.200543
v -9.271285 18.334551 2.240312
v -7.511184 19.016047 3.866875
v -7.428214 19.093103 3.851950
v -8.000896 19.275255 3.244936
v -6.879137 18.455286 4.646527
v -7.023141 17.995996 4.728639
v -5.858943 18.173571 5.370271
v -7.858893 17.812891 4.034602
v -7.852313 18.268938 4.041469
v -8.413074 18.044062 3.438603
v -7.046696 17.645426 4.724538
v -7.027910 17.285891 4.693353
v -7.696578 17.507143 3.886973
v -8.419654 18.580027 3.416883
v -6.370112 18.946238 4.281604
v -5.346152 18.713160 5.052793
v -2.360102 24.123163 -5.379879
v -2.178713 23.804255 -4.979383
v -2.234313 23.700876 -4.956924
v -2.279278 23.784609 -5.227386
v -3.227803 23.999186 -5.725610
v -1.096746 24.445124 -3.446781
v -1.028415 23.956461 -3.564393
v -1.269600 23.987360 -3.902018
v -1.220271 24.173517 -3.651297
v -1.112219 24.173899 -3.536784
v -1.212212 24.314470 -3.598511
v -1.015898 24.129648 -3.377926
v -0.995060 23.999567 -3.378904
v -0.827655 24.027605 -3.378570
v -0.794133 23.887987 -3.662169
v -0.934812 23.818750 -3.455508
v -0.964805 23.931093 -3.475034
v -0.894949 23.828096 -3.739846
v -1.119658 24.041338 -3.569710
v -1.203009 24.057360 -3.724015
v -1.167723 24.082155 -4.075849
v -1.147243 24.192972 -4.030334
v -0.874886 24.329348 -3.614842
v -0.851974 24.218531 -3.542315
v -0.784454 23.965425 -3.770339
v -0.917193 24.390764 -3.518402
v -0.939795 24.390955 -3.404247
v -1.007744 23.852892 -3.774607
v -1.052400 23.918505 -3.706968
v -0.935313 24.421091 -3.730070
v -0.897881 24.241037 -3.817427
v -0.872048 24.108667 -3.852331
v -0.994298 24.156923 -3.923189
v -1.295110 24.083109 -3.810751
v -4.829403 24.492998 -5.286490
v -5.488488 24.337168 -5.275809
v -4.807612 24.357576 -5.302870
v -3.071496 24.614878 -4.677569
v -10.410926 21.120234 -1.116789
v -10.072562 21.154375 -1.096475
v -9.145686 19.783564 1.430046
v -9.739825 20.503397 0.209558
v -10.150287 21.928759 -2.645314
v -9.844348 21.919222 -2.554095
v -7.727096 19.332666 3.168356
v -2.568480 24.538012 -4.802811
v -2.684661 24.501390 -5.113565
v -2.905318 24.613733 -5.240380
v -2.896925 24.681635 -5.096209
v -2.767464 24.602861 -5.180084
v -3.360459 24.262209 -5.656754
v -3.492018 24.343462 -5.600035
v -8.613536 22.352381 -4.857599
v -2.456948 23.731012 -4.956710
v -2.806851 23.912592 -5.132496
v -2.587601 24.377985 -5.367529
v -2.641722 24.406214 -5.266964
v -2.413055 24.224634 -5.171048
v -9.710261 18.657465 1.527225
v -9.600112 19.423075 1.619208
v -10.311934 21.644182 -2.864826
v -10.651156 20.748491 -1.291073
v -9.819934 20.296259 0.106442
v -9.839484 20.161982 0.040304
v -10.086390 20.937128 -1.248372
v -7.389781 18.574686 3.700148
v -8.170363 18.248529 3.249704
v -10.046622 19.558878 -0.007594
v -10.311458 20.420809 -1.492036
v -10.404441 20.924730 -3.208935
v -10.393378 21.302767 -3.001654
v -5.384156 23.588917 -6.187093
v -6.920145 22.962734 -6.055605
v -8.359763 22.900171 -4.300463
v -9.804389 21.738214 -2.589786
v -8.410880 22.489138 -4.616343
v -5.567070 24.216242 -5.701458
v -4.727408 24.448175 -5.698287
v -5.421874 23.911449 -5.997502
v -4.577872 24.075291 -5.989682
v -4.560801 24.541254 -5.226433
v -3.804871 24.528666 -4.998362
v -4.513451 24.648256 -5.284750
v -3.636309 24.083681 -5.168783
v -3.469512 23.758669 -5.443346
v -3.309771 24.097986 -5.017960
v -3.038355 24.297113 -4.792726
v -3.067395 24.489183 -4.699075
v -3.376862 24.266787 -4.933846
v -3.761431 24.649973 -5.110156
v -3.131052 24.193163 -5.637586
v -2.991244 24.369020 -5.526959
v -2.455708 24.423189 -4.929626
v -2.237078 23.948069 -5.173218
v -1.316258 24.195070 -3.743636
v -1.311394 24.324389 -3.696620
v -2.486416 24.230165 -5.597102
v -2.722069 24.408503 -5.476129
v -4.798457 24.579782 -5.479395
v -4.455325 24.640627 -5.373919
v -5.571028 24.361391 -5.470931
v -5.572983 24.434252 -5.355560
v -10.031745 21.195192 -2.894342
v -8.684585 19.580050 2.102315
v -8.592174 19.728823 2.147066
v -5.949303 17.710276 5.485761
v -1.011940 24.301310 -3.865206
v -3.033062 24.667139 -4.897725
v -4.531094 24.403353 -5.249512
v -1.102396 24.514170 -3.663432
v -2.120015 23.865290 -4.730331
v -2.036091 23.974009 -4.708206
v -0.820812 24.089975 -3.596031
v -0.814399 24.078722 -3.738725
v -1.038810 24.259157 -3.377997
v -0.881991 24.176378 -3.371393
v -1.742836 24.448938 -3.978383
v -1.514002 24.248476 -3.916513
v -1.773378 24.068804 -4.165422
v -1.970908 24.090166 -4.688704
v -5.466410 24.196787 -5.324232
v -2.242610 24.295778 -4.825270
v -10.185096 21.048899 -3.041804
v -10.518310 20.263453 -1.563323
v -9.551284 18.585939 1.350700
v -10.341689 19.205637 0.053632
v -10.185096 19.363375 0.015604
v -7.200334 19.024630 3.673398
v -2.509209 23.848124 -5.460250
v -2.376601 24.197359 -5.311453
v -2.496144 24.328585 -5.489194
v -3.450629 24.469347 -4.846274
v -2.436539 24.562235 -4.363763
v -2.427980 24.321146 -4.447662
v -1.760527 24.285860 -4.051578
v -2.649971 24.682398 -4.567039
v -2.185198 24.519129 -4.343521
v -3.419062 24.669809 -4.992949
v -3.119608 24.401255 -5.502593
v -2.820846 24.547167 -5.345594
v -3.061148 24.577303 -5.310499
v -3.091475 24.494143 -5.399739
v -2.986571 24.668474 -5.154883
v -2.919814 24.564714 -5.328643
v -2.749297 24.441309 -5.378806
v -2.472254 24.033136 -5.709421
v -1.633975 24.113817 -4.368674
v -1.728102 23.943300 -4.330146
v -1.480076 23.931856 -4.181706
v -2.016255 23.978968 -4.397738
v -2.030179 24.107332 -4.292571
v -2.328679 23.772783 -4.790461
v -0.892970 23.812838 -3.563916
v -0.909802 23.855753 -3.333461
v -0.977990 24.108477 -3.282273
v -8.848330 19.147272 1.995456
v -5.372807 18.480463 5.027425
v -9.497687 18.788118 1.318943
v -9.385917 18.977709 1.301825
v -9.097430 18.418093 2.095806
v -9.013602 18.641253 2.052676
v -6.762787 17.592974 4.475486
v -6.668135 17.818995 4.436242
v -9.108970 18.209429 2.091538
v -5.846497 16.730661 5.379092
v -5.758759 17.044992 5.307233
v -7.007977 17.099352 4.660165
v -8.323810 17.609377 3.411996
v -8.358905 17.818422 3.427969
v -9.767768 18.391581 1.478636
v -8.821723 19.638796 2.259862
v -9.346244 19.941492 1.566994
v -9.005877 19.413157 2.336561
v -8.258292 18.908663 3.351891
v -7.705924 18.694658 3.961741
v -5.713316 18.457003 5.259168
v -6.722638 18.741770 4.537713
v -7.033441 17.485399 4.726636
v -5.964562 17.181368 5.506026
v -5.969378 17.454691 5.501592
v -7.141588 19.142122 3.674590
v -6.594893 18.881197 4.461801
v -5.565259 18.633432 5.169856
v -4.835125 17.176218 5.761468
v -5.638930 17.353601 5.215585
v -4.657885 17.916651 5.580270
v -3.271052 23.904009 -5.684268
v -3.342196 23.851366 -5.602586
v -4.543444 23.794720 -5.913651
v -4.449317 23.755428 -6.045448
v -4.166075 23.813412 -5.933487
v -4.229638 23.783846 -5.798828
v -3.245636 24.150629 -5.671346
v -2.123686 23.924227 -4.979765
v -2.393147 23.941011 -5.471122
v -1.200291 24.449511 -3.572332
v -1.162669 23.948259 -3.817093
v -1.097151 24.303598 -3.495466
v -0.820741 24.072618 -3.471243
v -0.819549 23.948259 -3.443110
v -0.799617 23.977251 -3.564679
v -0.893256 23.912592 -3.862846
v -0.993582 24.052973 -3.961408
v -0.812158 23.868914 -3.524291
v -1.221081 23.920603 -4.001152
v -1.109072 23.898859 -3.896868
v -0.841436 24.192019 -3.707850
v -1.233431 24.521799 -3.780066
v -1.427504 24.489374 -3.893721
v -1.032731 24.440928 -3.782784
v -10.837695 20.140047 -1.603019
v -10.434005 19.237108 0.123250
v -8.800075 22.162027 -5.101931
v -3.140208 23.920412 -5.286014
v -3.058955 23.921556 -5.408442
v -9.064147 19.973345 1.520311
v -8.413264 23.109789 -4.153811
v -8.500621 23.180742 -4.162132
v -3.359791 24.678202 -5.091536
v -1.159235 24.325342 -3.962981
v -5.387064 23.640034 -5.993783
v -6.839272 23.168154 -5.717027
v -2.367445 23.704882 -5.187356
v -3.498932 18.244141 6.005274
v -5.594155 17.549486 5.153930
v -10.381553 19.499559 0.208532
v -10.796973 20.464106 -1.441181
v -9.239337 18.568583 2.281343
v -9.161517 19.052668 2.351820
v -10.234210 20.070429 0.330364
v -9.969756 20.514269 0.410044
v -8.624885 23.120852 -4.296505
v -8.852813 22.901888 -4.572761
v -8.885524 22.707338 -4.733598
v -6.800124 23.231478 -5.508339
v -5.369803 23.641939 -5.799877
v -5.460068 23.971529 -5.343329
v -4.603716 23.755236 -5.713379
v -4.790064 24.120684 -5.366408
v -4.828497 24.618883 -5.364549
v -4.246661 24.137280 -5.893909
v -4.296395 23.772020 -5.631363
v -3.548237 24.546595 -5.377972
v -2.610919 24.585505 -4.695379
v -1.376554 24.463625 -3.995382
v -1.179692 24.452372 -3.881967
v -3.567120 18.199699 6.215131
v -4.778000 18.257683 5.933702
v -5.155512 16.691368 6.211125
v -5.108878 16.983574 6.228196
v -3.900334 16.607445 6.570851
v -5.432936 18.069429 5.050122
v -3.465077 17.883842 5.940615
v -1.838633 16.851967 6.770074
v -1.136586 16.968506 6.830251
v -1.757571 17.082756 6.837356
v -2.425453 17.281311 6.793534
v -3.763386 17.321365 6.570612
v -2.452132 17.089813 6.839358
v -2.386877 18.252533 6.255328
v -2.380749 18.152969 6.399190
v -1.703879 18.335121 6.132782
v -1.038500 18.596428 6.023776
v -1.648280 18.224686 6.098734
v -1.514551 17.855042 6.094253
v -1.512548 17.633789 6.131494
v -2.206418 17.692917 6.122767
v -2.226779 17.463654 6.167542
v -2.251526 17.050713 6.254899
v -1.659771 16.852348 6.343781
v -1.757332 16.722839 6.441294
v -1.095268 18.575829 6.332290
v -2.386567 17.671555 6.662023
v -3.693244 17.701881 6.462275
v -3.484103 17.671936 5.959689
v -2.369782 16.707008 6.375253
v -3.588530 16.991966 6.111610
v -3.886315 16.460770 6.455552
v -3.788039 16.477364 6.330335
v -2.467295 16.558426 6.475198
v -2.577588 16.538017 6.627976
v -1.872036 16.699570 6.612908
v -2.565381 16.682785 6.774317
v -2.301237 18.108528 6.121385
v -2.222630 17.872398 6.109225
v -2.492043 16.922539 6.837547
v -1.755139 18.359726 6.230294
v -2.341434 18.221634 6.160295
v -1.703497 17.394226 6.793581
v -1.723572 17.208641 6.844413
v -1.734587 18.259781 6.380498
v -1.544091 17.981308 6.088578
v -1.531312 17.189568 6.223142
v -1.176783 18.670815 6.151235
v -3.852364 16.850250 6.618917
v -2.361652 17.919891 6.553543
v -3.617331 17.978638 6.351220
v -1.680514 18.015259 6.547915
v -1.677725 17.788284 6.653201
v -0.974699 17.369812 6.883895
v -3.488394 18.108528 5.958402
v -3.543993 17.333763 6.031214
v -0.687441 17.307823 6.132066
v -0.782916 18.099373 6.017863
v -5.074402 17.297905 6.206118
v -3.689190 16.663330 6.223523
v -0.983569 16.882675 6.328951
v -1.267740 16.767281 6.596458
v -3.808447 17.079132 6.614387
v -4.916569 17.972725 6.055772
v -5.027052 17.531746 6.160104
vt 0.294792 0.407952
vt 0.293981 0.403998
vt 0.294792 0.400029
vt 0.502284 0.987004
vt 0.503976 0.991294
vt 0.499489 0.989938
vt 0.124930 0.609016
vt 0.126074 0.613748
vt 0.122833 0.614419
vt 0.413651 0.974436
vt 0.413606 0.969755
vt 0.416730 0.970261
vt 0.988345 0.356884
vt 0.988490 0.365977
vt 0.985985 0.364981
vt 0.985509 0.357487
vt 0.122620 0.621477
vt 0.414838 0.975876
vt 0.413341 0.981105
vt 0.411132 0.977712
vt 0.988105 0.370677
vt 0.987511 0.321257
vt 0.990883 0.317560
vt 0.990883 0.323913
vt 0.191809 0.677813
vt 0.196540 0.676580
vt 0.200635 0.676326
vt 0.294697 0.866907
vt 0.291421 0.873470
vt 0.289641 0.870135
vt 0.899645 0.524490
vt 0.896075 0.539446
vt 0.895048 0.523726
vt 0.898123 0.494101
vt 0.899205 0.488433
vt 0.902873 0.493132
vt 0.902679 0.487539
vt 0.897620 0.500609
vt 0.892820 0.509964
vt 0.892971 0.500636
vt 0.988223 0.598223
vt 0.990562 0.597373
vt 0.991696 0.612664
vt 0.791146 0.223967
vt 0.788312 0.222817
vt 0.792525 0.222107
vt 0.015195 0.948994
vt 0.011847 0.948907
vt 0.014814 0.945400
vt 0.767462 0.991842
vt 0.767462 0.996083
vt 0.764132 0.993395
vt 0.400885 0.986388
vt 0.399156 0.983121
vt 0.401940 0.984534
vt 0.010208 0.935326
vt 0.006911 0.928622
vt 0.010271 0.930104
vt 0.168535 0.370437
vt 0.168255 0.368450
vt 0.168535 0.366475
vt 0.894580 0.494604
vt 0.893715 0.497455
vt 0.888627 0.495387
vt 0.006608 0.939421
vt 0.010497 0.940563
vt 0.006079 0.944409
vt 0.194742 0.634162
vt 0.195331 0.649644
vt 0.190088 0.634293
vt 0.040013 0.441968
vt 0.034606 0.464759
vt 0.036415 0.441868
vt 0.051419 0.945374
vt 0.050657 0.964422
vt 0.047105 0.946310
vt 0.180375 0.697004
vt 0.178949 0.681958
vt 0.184444 0.695584
vt 0.171244 0.720281
vt 0.169257 0.701997
vt 0.177134 0.717946
vt 0.436512 0.538482
vt 0.440767 0.525570
vt 0.444346 0.527244
vt 0.436157 0.587476
vt 0.436375 0.570146
vt 0.442041 0.571644
vt 0.123417 0.393240
vt 0.125293 0.392243
vt 0.128959 0.406804
vt 0.112925 0.375002
vt 0.104170 0.375065
vt 0.109838 0.351688
vt 0.448670 0.528670
vt 0.456634 0.531664
vt 0.447172 0.544136
vt 0.452738 0.509871
vt 0.108131 0.394866
vt 0.174991 0.699094
vt 0.173998 0.684332
vt 0.456304 0.548224
vt 0.043994 0.947113
vt 0.043194 0.924615
vt 0.027500 0.985761
vt 0.025528 0.984724
vt 0.029203 0.981630
vt 0.733979 0.967443
vt 0.733252 0.970232
vt 0.731200 0.967663
vt 0.736334 0.967048
vt 0.735797 0.970282
vt 0.522365 0.228491
vt 0.520109 0.229499
vt 0.520799 0.226538
vt 0.638046 0.958748
vt 0.637541 0.947336
vt 0.640597 0.958396
vt 0.991705 0.582739
vt 0.994912 0.577461
vt 0.994912 0.583372
vt 0.790223 0.228782
vt 0.792898 0.229605
vt 0.790377 0.231552
vt 0.781755 0.218609
vt 0.783982 0.216499
vt 0.786876 0.220767
vt 0.791669 0.608369
vt 0.793860 0.608948
vt 0.791737 0.612908
vt 0.884256 0.501479
vt 0.886519 0.508684
vt 0.609196 0.992492
vt 0.607019 0.992232
vt 0.608752 0.987311
vt 0.740837 0.478489
vt 0.721137 0.504799
vt 0.733155 0.474092
vt 0.196535 0.605380
vt 0.193750 0.605054
vt 0.199393 0.578486
vt 0.046209 0.408283
vt 0.041660 0.422025
vt 0.036937 0.406871
vt 0.182295 0.606286
vt 0.188309 0.576052
vt 0.294828 0.367411
vt 0.293981 0.359986
vt 0.294828 0.353508
vt 0.938336 0.644412
vt 0.945998 0.614615
vt 0.946817 0.643145
vt 0.499349 0.707803
vt 0.498292 0.754277
vt 0.489797 0.707950
vt 0.787627 0.178522
vt 0.788150 0.193723
vt 0.779359 0.179758
vt 0.788425 0.200234
vt 0.778995 0.195056
vt 0.279481 0.966563
vt 0.281785 0.981111
vt 0.277204 0.967432
vt 0.892410 0.523276
vt 0.883954 0.522365
vt 0.892771 0.516573
vt 0.896848 0.510254
vt 0.900760 0.510050
vt 0.896422 0.517104
vt 0.782573 0.228177
vt 0.780315 0.222840
vt 0.783630 0.225889
vt 0.008972 0.948877
vt 0.005219 0.949288
vt 0.734191 0.965006
vt 0.731653 0.965161
vt 0.729624 0.964640
vt 0.746519 0.997908
vt 0.747486 0.990891
vt 0.749064 0.997908
vt 0.531567 0.968888
vt 0.529737 0.962994
vt 0.531567 0.962339
vt 0.238684 0.739869
vt 0.237107 0.738194
vt 0.238684 0.735923
vt 0.486306 0.757311
vt 0.484061 0.707662
vt 0.031932 0.421136
vt 0.198476 0.650207
vt 0.201606 0.650770
vt 0.200982 0.606346
vt 0.458919 0.512018
vt 0.462258 0.488986
vt 0.011097 0.917189
vt 0.012310 0.915168
vt 0.013741 0.917915
vt 0.900229 0.539249
vt 0.023695 0.991170
vt 0.025905 0.990239
vt 0.027682 0.992073
vt 0.901455 0.477023
vt 0.902032 0.482160
vt 0.898799 0.477840
vt 0.605742 0.986444
vt 0.608521 0.984586
vt 0.634219 0.927869
vt 0.631520 0.927038
vt 0.634219 0.900256
vt 0.481834 0.757991
vt 0.492069 0.786274
vt 0.488137 0.788536
vt 0.792291 0.945553
vt 0.784716 0.918199
vt 0.788546 0.916577
vt 0.174292 0.637378
vt 0.170335 0.638824
vt 0.175585 0.606802
vt 0.196932 0.634642
vt 0.266244 0.969244
vt 0.262142 0.969382
vt 0.266564 0.954733
vt 0.803582 0.620352
vt 0.808203 0.619094
vt 0.809362 0.620930
vt 0.900625 0.517715
vt 0.901725 0.500591
vt 0.902592 0.496786
vt 0.898185 0.497298
vt 0.898978 0.483026
vt 0.793900 0.200153
vt 0.795056 0.213916
vt 0.793320 0.214752
vt 0.789361 0.225639
vt 0.787224 0.224673
vt 0.788514 0.228109
vt 0.785668 0.230951
vt 0.784780 0.223683
vt 0.891949 0.489934
vt 0.895011 0.489414
vt 0.886101 0.498106
vt 0.189805 0.649861
vt 0.045814 0.422815
vt 0.051403 0.923532
vt 0.047564 0.924234
vt 0.177817 0.636101
vt 0.181372 0.635645
vt 0.176850 0.653753
vt 0.180767 0.652442
vt 0.183048 0.680547
vt 0.022549 0.439809
vt 0.027679 0.420773
vt 0.026856 0.440648
vt 0.173130 0.654903
vt 0.169300 0.656045
vt 0.005530 0.463023
vt 0.010298 0.438977
vt 0.011458 0.463324
vt 0.443030 0.506673
vt 0.449292 0.483736
vt 0.446390 0.507665
vt 0.439797 0.540687
vt 0.443390 0.542226
vt 0.436741 0.587791
vt 0.441839 0.588386
vt 0.136699 0.428866
vt 0.143232 0.443676
vt 0.131347 0.430563
vt 0.120683 0.408976
vt 0.116363 0.394614
vt 0.116095 0.351105
vt 0.119286 0.374232
vt 0.450025 0.508610
vt 0.453163 0.485172
vt 0.457854 0.487173
vt 0.016501 0.439153
vt 0.022021 0.420562
vt 0.113975 0.409964
vt 0.028856 0.978757
vt 0.031022 0.960975
vt 0.031022 0.979152
vt 0.013892 0.481597
vt 0.017648 0.464114
vt 0.027818 0.481725
vt 0.805502 0.626539
vt 0.805013 0.634533
vt 0.803509 0.633139
vt 0.798473 0.656747
vt 0.796098 0.654920
vt 0.798336 0.649694
vt 0.800820 0.650973
vt 0.777151 0.224047
vt 0.776893 0.220674
vt 0.779685 0.220611
vt 0.521088 0.231288
vt 0.517409 0.231292
vt 0.896599 0.473381
vt 0.896767 0.471202
vt 0.899038 0.473251
vt 0.727951 0.970478
vt 0.728627 0.967542
vt 0.730706 0.970397
vt 0.008729 0.914398
vt 0.008233 0.916341
vt 0.523049 0.225517
vt 0.524412 0.227169
vt 0.118284 0.760796
vt 0.121018 0.744625
vt 0.120111 0.760568
vt 0.940759 0.253294
vt 0.938741 0.253704
vt 0.942774 0.217120
vt 0.290961 0.879705
vt 0.292981 0.880221
vt 0.294697 0.897382
vt 0.814087 0.624832
vt 0.811007 0.630948
vt 0.808777 0.629355
vt 0.902810 0.509928
vt 0.902589 0.539557
vt 0.902482 0.544649
vt 0.008024 0.953794
vt 0.011232 0.954666
vt 0.011076 0.957183
vt 0.787750 0.229818
vt 0.013154 0.921138
vt 0.010266 0.925079
vt 0.010614 0.920292
vt 0.796518 0.672470
vt 0.813454 0.616666
vt 0.817681 0.618473
vt 0.836153 0.979248
vt 0.832929 0.978505
vt 0.834448 0.957741
vt 0.792291 0.914465
vt 0.444887 0.654888
vt 0.440962 0.619651
vt 0.446201 0.619733
vt 0.451609 0.654386
vt 0.446452 0.572367
vt 0.456037 0.591315
vt 0.455532 0.573963
vt 0.727259 0.471323
vt 0.715249 0.501978
vt 0.466267 0.650594
vt 0.457335 0.620532
vt 0.466428 0.619979
vt 0.200741 0.224267
vt 0.196619 0.228547
vt 0.177497 0.203728
vt 0.204100 0.579531
vt 0.201007 0.635536
vt 0.201861 0.690725
vt 0.202902 0.676438
vt 0.204100 0.690526
vt 0.502942 0.782691
vt 0.728315 0.554611
vt 0.725016 0.554201
vt 0.728142 0.506950
vt 0.717442 0.552666
vt 0.712959 0.552145
vt 0.944560 0.685090
vt 0.932997 0.685337
vt 0.800986 0.699857
vt 0.804868 0.699241
vt 0.800142 0.672270
vt 0.640304 0.947213
vt 0.645095 0.957734
vt 0.644372 0.946091
vt 0.279706 0.961363
vt 0.276943 0.961353
vt 0.779962 0.201488
vt 0.803905 0.652327
vt 0.802188 0.658010
vt 0.900269 0.544432
vt 0.896106 0.544648
vt 0.789668 0.216522
vt 0.807947 0.637034
vt 0.986827 0.592403
vt 0.988916 0.591915
vt 0.295167 0.438353
vt 0.293981 0.437089
vt 0.295167 0.434197
vt 0.003122 0.948955
vt 0.004357 0.944158
vt 0.817836 0.614331
vt 0.812723 0.614973
vt 0.461421 0.960041
vt 0.458925 0.955767
vt 0.461080 0.956683
vt 0.007380 0.923589
vt 0.007933 0.919498
vt 0.005560 0.923526
vt 0.005516 0.919309
vt 0.207064 0.901757
vt 0.207186 0.905981
vt 0.205170 0.906016
vt 0.005453 0.916262
vt 0.833053 0.467932
vt 0.830569 0.464554
vt 0.833053 0.462312
vt 0.755161 0.412093
vt 0.752346 0.412093
vt 0.752853 0.408750
vt 0.465454 0.938822
vt 0.463022 0.942823
vt 0.461616 0.941883
vt 0.792283 0.227713
vt 0.994386 0.877971
vt 0.994920 0.880888
vt 0.992909 0.880693
vt 0.886475 0.515514
vt 0.885900 0.538002
vt 0.886178 0.543904
vt 0.792867 0.193460
vt 0.282392 0.949092
vt 0.897350 0.556188
vt 0.887164 0.557843
vt 0.772502 0.179544
vt 0.792458 0.179526
vt 0.794910 0.193451
vt 0.891200 0.580867
vt 0.939372 0.614331
vt 0.734252 0.588533
vt 0.731036 0.589769
vt 0.714738 0.590236
vt 0.820841 0.730053
vt 0.946817 0.734315
vt 0.503666 0.708181
vt 0.507742 0.782516
vt 0.124567 0.431670
vt 0.462177 0.549947
vt 0.462233 0.575233
vt 0.465598 0.593304
vt 0.457943 0.652804
vt 0.708387 0.500329
vt 0.721422 0.469398
vt 0.004703 0.955015
vt 0.318618 0.933501
vt 0.311677 0.899980
vt 0.313578 0.900019
vt 0.641632 0.920576
vt 0.634890 0.919639
vt 0.640582 0.884897
vt 0.901428 0.524880
vt 0.902389 0.518073
vt 0.883418 0.130191
vt 0.881475 0.124709
vt 0.883418 0.123853
vt 0.658878 0.997047
vt 0.657078 0.994499
vt 0.658878 0.991088
vt 0.942774 0.284677
vt 0.940582 0.284947
vt 0.121018 0.790576
vt 0.997898 0.824274
vt 0.995944 0.824757
vt 0.994894 0.819648
vt 0.793860 0.613479
vt 0.764447 0.997608
vt 0.791734 0.215726
vt 0.122909 0.373143
vt 0.451723 0.463949
vt 0.457051 0.465288
vt 0.990401 0.943705
vt 0.995095 0.943092
vt 0.995095 0.967499
vt 0.031196 0.464901
vt 0.021450 0.464043
vt 0.266564 0.988211
vt 0.193566 0.692275
vt 0.197827 0.691341
vt 0.029411 0.987303
vt 0.820841 0.616175
vt 0.006397 0.933878
vt 0.997898 0.830254
vt 0.397860 0.986118
vt 0.002526 0.944087
vt 0.003748 0.939429
vt 0.795287 0.199516
vt 0.990214 0.060422
vt 0.993793 0.059415
vt 0.993793 0.092469
vt 0.659069 0.990715
vt 0.654536 0.990697
vt 0.659069 0.961452
vt 0.011273 0.945040
vt 0.967688 0.778835
vt 0.968250 0.766164
vt 0.971552 0.777327
vt 0.108176 0.280396
vt 0.101464 0.304689
vt 0.104661 0.279779
vt 0.237130 0.002891
vt 0.218278 0.014139
vt 0.235801 0.000187
vt 0.952643 0.453602
vt 0.953714 0.466285
vt 0.950302 0.454082
vt 0.038033 0.540267
vt 0.034310 0.541121
vt 0.031767 0.528586
vt 0.027737 0.529103
vt 0.020476 0.530280
vt 0.019618 0.541798
vt 0.016225 0.540918
vt 0.115529 0.282177
vt 0.108698 0.305744
vt 0.026480 0.505149
vt 0.013488 0.529761
vt 0.014124 0.505995
vt 0.913245 0.594534
vt 0.911555 0.591703
vt 0.913245 0.589464
vt 0.009781 0.528949
vt 0.963449 0.792350
vt 0.963752 0.780084
vt 0.967204 0.791527
vt 0.951378 0.443241
vt 0.946806 0.443112
vt 0.979839 0.666108
vt 0.979694 0.678672
vt 0.976974 0.667540
vt 0.727572 0.976400
vt 0.727572 0.987739
vt 0.725869 0.976910
vt 0.984085 0.664293
vt 0.983764 0.676810
vt 0.114823 0.268642
vt 0.111406 0.267902
vt 0.100998 0.998542
vt 0.103991 0.987208
vt 0.103991 0.999546
vt 0.953714 0.442968
vt 0.943155 0.453912
vt 0.945492 0.454280
vt 0.026562 0.542515
vt 0.411775 0.990158
vt 0.414817 0.988280
vt 0.414817 0.999813
vt 0.997303 0.693875
vt 0.999161 0.693271
vt 0.999161 0.704852
vt 0.971167 0.790191
vt 0.971051 0.815498
vt 0.967159 0.816296
vt 0.120402 0.283477
vt 0.114378 0.306313
vt 0.126544 0.272383
vt 0.140901 0.266180
vt 0.131280 0.275408
vt 0.122216 0.270720
vt 0.835671 0.936039
vt 0.837799 0.935412
vt 0.836909 0.957676
vt 0.029996 0.504784
vt 0.034556 0.527716
vt 0.020332 0.505409
vt 0.033519 0.556712
vt 0.943753 0.467208
vt 0.344016 0.826921
vt 0.349637 0.804347
vt 0.346866 0.828996
vt 0.462485 0.467465
vt 0.003185 0.505010
vt 0.007199 0.481830
vt 0.007535 0.505704
vt 0.023661 0.553646
vt 0.349637 0.856775
vt 0.344612 0.851421
vt 0.344321 0.840128
vt 0.347524 0.842288
vt 0.962966 0.769506
vt 0.984085 0.688149
vt 0.977295 0.692243
vt 0.133861 0.277180
vt 0.143232 0.269174
vt 0.125096 0.285776
vt 0.119213 0.307268
vt 0.097052 0.304197
vt 0.093159 0.304008
vt 0.101803 0.279808
vt 0.725913 0.988340
vt 0.977534 0.679767
vt 0.840254 0.957213
vt 0.114095 0.329887
vt 0.107777 0.330269
vt 0.095046 0.329249
vt 0.089753 0.328444
vt 0.096890 0.349825
vt 0.099361 0.329685
vt 0.101124 0.350599
vt 0.047095 0.907348
vt 0.043450 0.906874
vt 0.971552 0.840161
vt 0.055041 0.922627
vt 0.055041 0.944449
vt 0.447368 0.482968
vt 0.000187 0.480042
vt 0.803352 0.970318
vt 0.806012 0.946568
vt 0.806012 0.971656
vt 0.120535 0.349911
vt 0.416541 0.980909
vt 0.495935 0.977820
vt 0.503976 0.978539
vt 0.804192 0.622735
vt 0.765270 0.990185
vt 0.992734 0.877423
vt 0.990451 0.875454
vt 0.992774 0.874501
vt 0.252330 0.978755
vt 0.249931 0.978634
vt 0.252330 0.961778
vt 0.046580 0.964602
vt 0.899310 0.470964
vt 0.182844 0.200436
vt 0.012258 0.926028
vt 0.496206 0.675376
vt 0.779284 0.151243
vt 0.806297 0.613415
vt 0.804213 0.610206
vt 0.806297 0.608369
vt 0.731533 0.960718
vt 0.463587 0.937184
vt 0.997706 0.085293
vt 0.997706 0.098935
vt 0.994166 0.097159
vt 0.816284 0.733718
vt 0.518692 0.227066
vt 0.362212 0.998526
vt 0.359043 0.992420
vt 0.362212 0.989668
vt 0.005387 0.913988
vt 0.994179 0.828723
vt 0.732621 0.464716
vt 0.735247 0.465822
vt 0.732866 0.466820
vt 0.734395 0.960207
vt 0.127719 0.287259
vt 0.962179 0.815434
vt 0.841366 0.933915
vt 0.221351 0.017000
vt 0.238698 0.003862
vt 0.466428 0.469316
vt 0.046209 0.552182
vt 0.118680 0.255612
vt 0.416730 0.986024
vt 0.409433 0.971092
vt 0.408140 0.981345
vt 0.291010 0.984741
vt 0.295205 0.981155
vt 0.293408 0.986088
vt 0.982743 0.693476
vt 0.443225 0.227513
vt 0.443225 0.231662
vt 0.439291 0.230670
vt 0.992107 0.369661
vt 0.851192 0.991781
vt 0.845343 0.992907
vt 0.845382 0.987262
vt 0.851192 0.987497
vt 0.992107 0.354636
vt 0.127073 0.604498
vt 0.121585 0.608488
vt 0.125447 0.602360
vt 0.122584 0.604380
vt 0.850397 0.983747
vt 0.987106 0.352178
vt 0.410869 0.987907
vt 0.815170 0.231372
vt 0.813143 0.225920
vt 0.815170 0.221741
vt 0.123155 0.598419
vt 0.457949 0.950572
vt 0.461720 0.951172
vt 0.038979 0.993309
vt 0.040768 0.998154
vt 0.038878 0.995727
vt 0.203636 0.917344
vt 0.203623 0.911805
vt 0.207235 0.916355
vt 0.995259 0.156839
vt 0.997972 0.157708
vt 0.995267 0.159943
vt 0.894680 0.484104
vt 0.675751 0.997151
vt 0.673047 0.991987
vt 0.675974 0.993477
vt 0.996676 0.130921
vt 0.995498 0.127418
vt 0.998344 0.128282
vt 0.735480 0.974592
vt 0.738917 0.974857
vt 0.735754 0.976722
vt 0.168916 0.687714
vt 0.440151 0.505762
vt 0.998788 0.784359
vt 0.994962 0.766580
vt 0.998788 0.766164
vt 0.184539 0.090590
vt 0.179876 0.104673
vt 0.178211 0.090226
vt 0.458203 0.940119
vt 0.459880 0.935526
vt 0.349280 0.991668
vt 0.346602 0.994559
vt 0.346914 0.990973
vt 0.456250 0.228417
vt 0.457819 0.231149
vt 0.454384 0.229261
vt 0.733282 0.461860
vt 0.732971 0.457721
vt 0.734554 0.460009
vt 0.237844 0.457692
vt 0.237844 0.462977
vt 0.237340 0.460923
vt 0.347165 0.988754
vt 0.345332 0.991787
vt 0.343814 0.990187
vt 0.349839 0.988045
vt 0.238414 0.423838
vt 0.237340 0.420644
vt 0.238414 0.418711
vt 0.899570 0.584620
vt 0.899221 0.581240
vt 0.901000 0.582785
vt 0.738568 0.462723
vt 0.736543 0.459162
vt 0.519094 0.223428
vt 0.522008 0.222868
vt 0.894299 0.478930
vt 0.894102 0.473594
vt 0.675065 0.984037
vt 0.672764 0.982756
vt 0.675974 0.976023
vt 0.477099 0.758724
vt 0.477657 0.707726
vt 0.990224 0.880888
vt 0.997972 0.153492
vt 0.995766 0.124938
vt 0.998360 0.125284
vt 0.733094 0.468957
vt 0.730892 0.972961
vt 0.449064 0.995425
vt 0.449447 0.992540
vt 0.452008 0.993262
vt 0.891183 0.479170
vt 0.464949 0.951908
vt 0.465343 0.956568
vt 0.394802 0.987750
vt 0.395835 0.984683
vt 0.204040 0.926755
vt 0.205992 0.927415
vt 0.205791 0.932294
vt 0.995712 0.756811
vt 0.998839 0.750678
vt 0.998839 0.757641
vt 0.530277 0.948662
vt 0.203956 0.923092
vt 0.205810 0.922351
vt 0.681381 0.998256
vt 0.678943 0.998256
vt 0.681070 0.991150
vt 0.458372 0.946386
vt 0.461994 0.947167
vt 0.036711 0.992731
vt 0.801872 0.624609
vt 0.465454 0.961783
vt 0.461519 0.965005
vt 0.526017 0.997765
vt 0.526118 0.992964
vt 0.529634 0.993676
vt 0.998770 0.130065
vt 0.733176 0.973793
vt 0.733078 0.975718
vt 0.437424 0.524114
vt 0.185926 0.072154
vt 0.191294 0.073189
vt 0.195889 0.050597
vt 0.200606 0.050741
vt 0.289469 0.876382
vt 0.395087 0.991392
vt 0.399212 0.991303
vt 0.455320 0.945132
vt 0.455725 0.950072
vt 0.943220 0.996275
vt 0.945452 0.995428
vt 0.945452 0.999339
vt 0.344579 0.993791
vt 0.890851 0.484483
vt 0.739441 0.465498
vt 0.737518 0.465407
vt 0.237107 0.746851
vt 0.238559 0.744637
vt 0.238559 0.748642
vt 0.343153 0.626748
vt 0.345241 0.624994
vt 0.345241 0.627585
vt 0.238502 0.457318
vt 0.237340 0.455795
vt 0.238502 0.453879
vt 0.736565 0.467523
vt 0.891824 0.473449
vt 0.735292 0.463330
vt 0.457819 0.227513
vt 0.452008 0.996136
vt 0.451423 0.998203
vt 0.738046 0.468768
vt 0.738886 0.467092
vt 0.998770 0.122250
vt 0.996276 0.121729
vt 0.207235 0.911058
vt 0.898990 0.587151
vt 0.897005 0.588607
vt 0.897373 0.586499
vt 0.168460 0.433853
vt 0.168460 0.437541
vt 0.167094 0.434968
vt 0.114485 0.993576
vt 0.118204 0.992916
vt 0.117323 0.996512
vt 0.612416 0.228726
vt 0.612965 0.231767
vt 0.611019 0.231767
vt 0.893991 0.471174
vt 0.709066 0.433608
vt 0.711722 0.429354
vt 0.711722 0.433658
vt 0.991653 0.591215
vt 0.792943 0.672308
vt 0.485349 0.671541
vt 0.492613 0.673476
vt 0.612155 0.992435
vt 0.611374 0.988075
vt 0.484510 0.791814
vt 0.075452 0.988921
vt 0.069717 0.960788
vt 0.075452 0.958923
vt 0.977552 0.790519
vt 0.974466 0.789854
vt 0.978183 0.766164
vt 0.174666 0.105755
vt 0.175615 0.130234
vt 0.170755 0.130215
vt 0.168916 0.147112
vt 0.175569 0.174292
vt 0.170020 0.173268
vt 0.173958 0.145386
vt 0.278759 0.981746
vt 0.760717 0.613010
vt 0.757829 0.610812
vt 0.760717 0.608369
vt 0.113843 0.990982
vt 0.529634 0.982945
vt 0.529527 0.988496
vt 0.525895 0.988107
vt 0.526192 0.983107
vt 0.040241 0.988549
vt 0.038458 0.983060
vt 0.040768 0.982692
vt 0.037504 0.988486
vt 0.287346 0.872634
vt 0.987402 0.585036
vt 0.991696 0.583750
vt 0.612155 0.982235
vt 0.774796 0.202744
vt 0.773531 0.197104
vt 0.784907 0.884512
vt 0.791212 0.885222
vt 0.118681 0.328051
vt 0.207661 0.033068
vt 0.205463 0.030427
vt 0.794730 0.701209
vt 0.401933 0.991392
vt 0.903931 0.125674
vt 0.901943 0.123806
vt 0.903931 0.121595
vt 0.730718 0.460518
vt 0.894277 0.468522
vt 0.892152 0.470803
vt 0.738917 0.959247
vt 0.997803 0.117958
vt 0.900898 0.586624
vt 0.902185 0.588607
vt 0.897737 0.583311
vt 0.524739 0.231292
vt 0.728288 0.972323
vt 0.451082 0.990404
vt 0.730169 0.975043
vt 0.465420 0.971667
vt 0.465422 0.966805
vt 0.737691 0.976786
vt 0.295321 0.429367
vt 0.293981 0.427791
vt 0.295321 0.425293
vt 0.795675 0.220647
vt 0.998667 0.942579
vt 0.996245 0.942579
vt 0.997546 0.933388
vt 0.000187 0.948210
vt 0.000754 0.957183
vt 0.997135 0.764091
vt 0.295205 0.998159
vt 0.126611 0.597177
vt 0.128613 0.600525
vt 0.128613 0.610641
vt 0.978183 0.831789
vt 0.974742 0.832352
vt 0.975643 0.807948
vt 0.971925 0.808108
vt 0.529528 0.998600
vt 0.454836 0.990404
vt 0.454836 0.998283
vt 0.452381 0.994810
vt 0.305571 0.997362
vt 0.302439 0.997362
vt 0.303444 0.973276
vt 0.349839 0.994722
vt 0.118204 0.988906
vt 0.739441 0.460114
vt 0.347973 0.857148
vt 0.348000 0.859756
vt 0.346063 0.859756
vt 0.997596 0.161210
vt 0.282392 0.987778
vt 0.029411 0.993893
vt 0.944348 0.990256
vt 0.133342 0.259791
vt 0.054219 0.906539
vt 0.994829 0.274620
vt 0.988973 0.272963
vt 0.994829 0.251898
vt 0.841366 0.980412
vt 0.738438 0.612788
vt 0.733649 0.613958
vt 0.740837 0.612205
vt 0.795675 0.155646
vt 0.318618 0.858810
vt 0.989851 0.832725
vt 0.989851 0.876880
vt 0.986501 0.833812
vt 0.991705 0.547016
vt 0.994936 0.546277
vt 0.994936 0.577088
vt 0.238698 0.242122
vt 0.645095 0.885626
vt 0.507742 0.677334
vt 0.902873 0.577972
vn 0.810900 0.062200 0.581900
vn 0.266000 0.789400 0.553300
vn 0.937100 0.055800 0.344500
vn 0.642200 0.263700 0.719800
vn 0.677100 0.581100 0.451500
vn 0.280900 0.427300 0.859400
vn 0.955000 0.171600 0.242000
vn 0.882400 -0.467600 0.052000
vn 0.974800 -0.062500 -0.214000
vn 0.938000 0.057700 -0.341900
vn 0.766000 -0.444200 0.464600
vn 0.627500 -0.720600 0.294900
vn 0.713200 -0.700100 -0.035400
vn 0.857500 0.472300 -0.204100
vn 0.697800 0.628600 0.343400
vn 0.651800 -0.312700 -0.690900
vn 0.640900 -0.269000 -0.719000
vn 0.629300 -0.286200 -0.722600
vn -0.260700 -0.927800 -0.267000
vn 0.060600 -0.875500 -0.479400
vn -0.248800 -0.856000 -0.453100
vn -0.316200 -0.320700 0.892800
vn -0.164600 -0.491800 0.855000
vn -0.260800 -0.517400 0.815000
vn -0.483300 -0.324800 0.813000
vn -0.507900 -0.331000 0.795200
vn -0.253800 0.694600 0.673100
vn -0.253400 0.673500 0.694400
vn -0.459400 -0.323500 0.827300
vn -0.353000 -0.673400 0.649600
vn -0.458800 -0.547000 0.700200
vn 0.004100 0.953200 -0.302200
vn -0.080100 0.951200 -0.297900
vn 0.102800 0.767500 -0.632800
vn 0.096900 0.777300 -0.621600
vn 0.043900 0.720300 -0.692300
vn -0.017000 0.927900 -0.372500
vn 0.780600 0.540500 -0.313800
vn 0.690100 0.555900 -0.463400
vn 0.668900 0.468600 -0.577100
vn -0.184900 -0.246800 -0.951300
vn -0.008100 -0.221100 -0.975200
vn -0.333900 0.587100 -0.737500
vn 0.095200 0.836000 -0.540500
vn -0.219300 0.881400 -0.418400
vn 0.492900 0.568900 -0.658300
vn 0.167000 0.922000 -0.349200
vn 0.524600 0.468500 -0.710800
vn 0.484400 0.474000 -0.735400
vn -0.205000 0.486300 -0.849400
vn 0.523600 0.001800 -0.852000
vn -0.430900 -0.440400 0.787600
vn -0.390600 -0.483700 0.783300
vn -0.050600 -0.844500 0.533100
vn 0.361600 0.829700 -0.425300
vn 0.538200 0.618800 -0.572200
vn 0.445600 0.831600 -0.331600
vn 0.857000 -0.075700 -0.509700
vn 0.779300 -0.171900 -0.602600
vn 0.842900 -0.146500 -0.517800
vn 0.527100 -0.217100 -0.821600
vn 0.539400 -0.126300 -0.832500
vn 0.502600 -0.268800 -0.821700
vn 0.557400 -0.275100 -0.783400
vn 0.555000 -0.178300 -0.812500
vn 0.566800 -0.280400 -0.774700
vn 0.692100 -0.217000 -0.688400
vn 0.547300 -0.295400 -0.783000
vn -0.136800 -0.978000 -0.157300
vn -0.089600 -0.954600 -0.284000
vn 0.524600 -0.310400 -0.792800
vn -0.174700 -0.952200 -0.250500
vn -0.700900 -0.350800 0.621100
vn -0.718500 -0.202600 0.665400
vn 0.118600 -0.891100 -0.438100
vn -0.795300 -0.548100 0.259100
vn -0.844900 -0.035100 0.533700
vn -0.471200 0.559300 0.682000
vn -0.229100 0.813000 0.535300
vn -0.321100 0.769600 0.552000
vn -0.476000 0.411800 0.777100
vn -0.571500 0.165900 0.803700
vn -0.464000 0.406600 0.787000
vn -0.703100 -0.081000 0.706500
vn -0.645900 0.164100 0.745600
vn -0.786600 -0.099300 0.609400
vn -0.621600 -0.007800 0.783300
vn 0.609200 -0.196600 -0.768200
vn 0.705600 -0.187200 -0.683400
vn -0.716700 0.222200 0.661000
vn 0.522900 0.729700 -0.440500
vn 0.440300 0.830200 -0.341800
vn 0.856700 -0.456700 -0.239600
vn 0.432600 -0.900100 0.051100
vn 0.714400 -0.491700 -0.497800
vn -0.730000 -0.293500 0.617300
vn -0.793800 -0.123400 0.595600
vn -0.689300 -0.143600 0.710100
vn -0.692300 -0.555000 0.461200
vn -0.780000 -0.445100 0.439900
vn 0.780500 0.156000 -0.605300
vn 0.572300 0.319800 -0.755100
vn 0.745200 0.367600 -0.556400
vn -0.137100 0.213500 0.967300
vn 0.099500 0.404200 0.909200
vn -0.058700 -0.203700 0.977300
vn 0.472600 0.879500 0.056700
vn 0.413300 0.869600 -0.270200
vn 0.587900 0.784400 -0.197700
vn 0.132600 0.880200 -0.455700
vn 0.352300 0.935700 0.017700
vn 0.617200 0.774400 -0.139300
vn 0.146700 0.503400 -0.851500
vn 0.091200 0.712600 -0.695600
vn 0.058300 0.727200 -0.683900
vn 0.561600 0.248400 -0.789200
vn 0.831100 -0.202900 -0.517800
vn -0.390900 -0.884200 0.255800
vn -0.308500 -0.912400 0.269100
vn 0.482000 0.876000 -0.016700
vn 0.561600 0.805500 -0.188900
vn 0.706000 0.699500 -0.110500
vn -0.592100 0.720200 0.361600
vn -0.882700 0.427600 -0.194800
vn -0.890100 0.397900 0.222200
vn 0.932600 -0.058000 -0.356100
vn 0.920400 -0.131300 -0.368300
vn 0.976100 -0.194000 -0.097800
vn 0.551500 -0.286800 -0.783300
vn 0.659200 -0.291300 -0.693300
vn 0.769700 -0.411000 -0.488500
vn 0.803300 -0.524200 -0.282600
vn -0.455200 -0.641800 -0.617100
vn -0.821800 0.335400 -0.460600
vn -0.443800 0.539300 -0.715700
vn 0.084200 -0.543800 -0.835000
vn 0.069100 -0.610400 -0.789100
vn 0.699700 -0.397100 0.593900
vn 0.926000 -0.199400 0.320600
vn 0.644300 -0.712500 0.277900
vn -0.274400 0.717300 -0.640400
vn -0.069400 0.739000 -0.670100
vn -0.197200 0.549700 -0.811800
vn 0.072100 0.443500 -0.893400
vn -0.259200 0.203000 0.944300
vn -0.352800 0.296800 0.887400
vn -0.171800 0.909500 0.378600
vn -0.245800 -0.616800 0.747800
vn 0.070600 -0.978400 0.194100
vn -0.247200 -0.673900 0.696300
vn -0.373900 -0.448000 0.812100
vn -0.374200 -0.306000 0.875400
vn -0.312500 -0.499100 0.808200
vn -0.086200 0.488800 -0.868100
vn -0.043100 0.768700 -0.638200
vn 0.592500 0.704100 -0.391200
vn -0.670800 -0.335400 0.661400
vn -0.808000 -0.145100 0.571000
vn -0.654600 0.404200 0.638800
vn -0.129200 0.885400 -0.446500
vn 0.024700 0.950300 -0.310300
vn -0.207600 0.888600 -0.409000
vn 0.248300 0.968500 0.016100
vn 0.805200 -0.592600 0.022800
vn 0.559400 -0.821100 0.113700
vn 0.732500 -0.262800 -0.628000
vn 0.660300 0.718700 -0.217900
vn 0.844700 0.532500 -0.053800
vn -0.544600 0.195600 0.815600
vn 0.535400 0.439200 -0.721400
vn -0.227800 -0.235900 0.944700
vn 0.605900 -0.714800 0.349200
vn 0.762300 -0.623900 -0.172200
vn -0.580000 0.135700 0.803300
vn -0.419900 0.550300 0.721700
vn -0.584500 -0.331100 0.740800
vn -0.086200 0.775800 0.625000
vn 0.637100 -0.759400 -0.132200
vn 0.499800 -0.762100 -0.411500
vn 0.718100 -0.383700 -0.580700
vn -0.012400 -0.863400 -0.504400
vn 0.579900 -0.597200 -0.554200
vn 0.831000 -0.107200 -0.545800
vn 0.556600 -0.284100 -0.780600
vn 0.008000 -0.822000 -0.569400
vn 0.106900 -0.848900 -0.517700
vn -0.356000 -0.292800 0.887400
vn -0.482500 0.005300 0.875900
vn -0.350700 0.505400 0.788400
vn -0.450200 -0.312400 0.836500
vn -0.483700 -0.353700 0.800600
vn -0.065500 0.994400 0.082600
vn 0.049200 0.775200 -0.629800
vn 0.001300 0.736700 -0.676200
vn 0.021400 0.800600 -0.598900
vn 0.384700 0.819200 -0.425300
vn 0.045900 0.722800 -0.689500
vn -0.243800 -0.788300 0.564900
vn -0.447500 -0.497700 0.743000
vn -0.150200 -0.842400 0.517400
vn 0.786500 -0.197900 -0.585000
vn 0.569800 -0.039900 -0.820800
vn 0.755500 -0.372700 -0.538800
vn 0.754300 -0.360600 -0.548700
vn 0.784400 -0.207700 -0.584400
vn 0.729300 -0.354500 -0.585200
vn 0.487800 -0.348800 -0.800300
vn 0.486400 -0.319700 -0.813100
vn 0.752400 -0.244600 -0.611600
vn 0.126700 -0.864700 -0.486100
vn -0.026800 -0.946600 -0.321200
vn 0.466200 -0.359900 -0.808200
vn -0.659000 -0.305500 0.687300
vn -0.662500 -0.171000 0.729300
vn -0.654900 -0.181300 0.733700
vn -0.781400 -0.240900 0.575600
vn -0.784300 -0.189300 0.590900
vn -0.769100 -0.594800 0.233800
vn -0.854500 0.073000 0.514200
vn -0.316100 0.770300 0.553800
vn -0.412000 0.728900 0.546700
vn -0.611700 0.468700 0.637300
vn -0.575000 0.484400 0.659300
vn -0.540400 0.428400 0.724100
vn -0.379100 0.574400 0.725400
vn -0.373500 0.586800 0.718500
vn -0.634300 -0.088800 0.768000
vn -0.627700 -0.056800 0.776400
vn -0.588700 0.054000 0.806600
vn 0.579700 0.668900 -0.465400
vn 0.440400 -0.365700 -0.819900
vn 0.464600 -0.378700 -0.800500
vn 0.261000 -0.339700 -0.903600
vn 0.238600 -0.904100 -0.354400
vn 0.279100 -0.752500 -0.596500
vn 0.102800 -0.990700 0.088700
vn 0.297000 -0.695900 -0.653800
vn 0.270300 -0.588000 -0.762400
vn 0.059900 -0.987600 -0.145300
vn 0.147000 -0.063000 -0.987100
vn 0.161700 0.345700 -0.924300
vn 0.484500 -0.104700 -0.868500
vn -0.583400 -0.565000 0.583400
vn -0.519800 0.593900 0.614100
vn -0.604500 0.498800 0.621100
vn -0.816100 -0.121400 0.565000
vn 0.690100 0.628900 -0.358100
vn 0.438700 0.718100 -0.540200
vn 0.941800 0.293100 -0.164800
vn 0.939600 0.230200 -0.253500
vn -0.890000 -0.450100 0.072700
vn -0.673500 -0.647700 -0.356200
vn 0.032400 -0.936500 0.349100
vn 0.119200 -0.986900 -0.109100
vn -0.373300 0.269700 0.887600
vn 0.348400 0.699800 -0.623600
vn 0.498000 0.476500 -0.724600
vn 0.237300 -0.961300 0.140100
vn 0.059400 -0.956500 -0.285600
vn 0.517100 0.275400 -0.810400
vn 0.470700 0.688400 -0.551800
vn 0.190200 0.870600 -0.453700
vn -0.914600 0.097200 0.392500
vn -0.968300 0.220100 0.118500
vn -0.828300 0.032600 0.559300
vn -0.800400 0.235300 0.551300
vn -0.774100 0.195000 0.602300
vn -0.850900 0.270300 0.450400
vn -0.337400 0.791900 0.508900
vn 0.412700 0.647000 0.641200
vn -0.600200 0.775300 0.196400
vn 0.644200 0.699700 0.309000
vn 0.664600 0.737800 -0.118200
vn 0.592200 0.715800 -0.370100
vn -0.146200 0.851500 0.503500
vn -0.551600 0.832700 -0.048600
vn -0.662100 0.661400 -0.352500
vn -0.701500 0.433400 -0.565800
vn -0.204300 -0.623300 -0.754800
vn 0.432000 -0.853700 0.290800
vn 0.442500 -0.797300 0.410500
vn 0.238500 -0.923800 0.299500
vn 0.150900 -0.201600 0.967800
vn 0.001200 -0.501500 0.865200
vn 0.225100 -0.458700 0.859600
vn -0.216600 0.944600 0.246500
vn 0.195900 0.439700 -0.876500
vn -0.076900 -0.923500 0.375800
vn 0.032100 -0.947800 0.317200
vn 0.039900 0.787700 -0.614800
vn -0.183100 0.972300 0.145000
vn -0.118600 0.992700 -0.022000
vn 0.166500 0.955600 -0.243000
vn 0.410000 0.845800 -0.341400
vn 0.412600 0.851800 -0.322800
vn 0.693000 -0.104100 -0.713400
vn 0.788100 0.082400 -0.610000
vn 0.308200 0.821500 -0.479800
vn 0.381200 0.722000 -0.577300
vn -0.197600 0.962400 0.186200
vn -0.044300 0.997500 -0.055200
vn 0.061700 0.997900 0.019500
vn 0.633000 0.739300 -0.229700
vn 0.807000 0.583200 -0.093300
vn 0.907800 0.267900 -0.322800
vn 0.120200 0.887400 -0.445000
vn -0.450000 0.797300 -0.402100
vn 0.546100 0.123100 0.828600
vn 0.423400 -0.388000 0.818700
vn -0.412800 0.424500 0.805800
vn 0.342700 -0.929500 -0.136100
vn 0.127000 -0.979700 -0.155300
vn -0.169100 0.833100 0.526600
vn -0.482600 -0.387800 0.785300
vn -0.461600 0.061600 0.885000
vn -0.147400 -0.475400 0.867400
vn 0.506200 -0.235000 -0.829800
vn 0.481100 -0.340800 -0.807700
vn 0.904600 -0.013000 -0.426000
vn 0.259300 0.903800 -0.340300
vn 0.105400 0.475100 -0.873600
vn 0.376000 0.911200 -0.168500
vn 0.316500 0.903100 -0.290200
vn 0.596700 0.593400 -0.540100
vn 0.081300 -0.529600 0.844300
vn 0.319000 -0.538600 0.779800
vn -0.006400 -0.158100 0.987400
vn -0.095400 0.282300 0.954600
vn -0.189600 0.240300 0.952000
vn -0.085100 0.116800 0.989500
vn -0.068600 0.983700 0.166000
vn -0.058900 0.797600 0.600300
vn -0.089800 0.681700 0.726100
vn -0.278100 0.567800 -0.774800
vn 0.420600 0.689600 -0.589600
vn -0.113800 0.102500 -0.988200
vn -0.039700 -0.114500 -0.992600
vn -0.032600 -0.178700 -0.983400
vn 0.055500 -0.137700 -0.988900
vn 0.061200 -0.204400 -0.977000
vn 0.074500 -0.302400 -0.950300
vn -0.006100 -0.487000 -0.873400
vn 0.123100 -0.875900 -0.466600
vn -0.091300 0.364600 0.926700
vn -0.169100 0.366100 0.915100
vn 0.195800 -0.175000 -0.964900
vn 0.094100 -0.490600 -0.866300
vn 0.170400 -0.317000 -0.933000
vn 0.239500 -0.847300 0.474100
vn 0.151300 -0.940000 -0.305900
vn 0.145200 -0.886300 -0.439800
vn 0.082600 -0.926000 0.368300
vn 0.189200 -0.913200 0.361000
vn 0.002700 -0.498800 0.866700
vn 0.031900 0.193000 -0.980700
vn 0.045600 -0.007400 -0.998900
vn -0.053800 -0.127500 0.990400
vn -0.296900 0.947100 0.121900
vn -0.027100 0.702100 -0.711500
vn -0.076200 0.306300 0.948900
vn -0.048700 0.108800 0.992900
vn -0.178800 0.670400 0.720200
vn -0.063400 -0.028000 -0.997600
vn -0.019600 -0.276800 -0.960700
vn -0.002200 0.997200 -0.074600
vn -0.223800 -0.049200 0.973400
vn -0.088100 0.473000 0.876600
vn -0.156300 0.471100 0.868100
vn -0.071200 0.466200 0.881800
vn 0.358900 0.762300 0.538600
vn -0.053300 0.390500 0.919100
vn 0.231400 0.207900 -0.950400
vn 0.207600 -0.003300 -0.978200
vn 0.179000 -0.243500 -0.953200
vn 0.567300 -0.349100 -0.745900
vn 0.449900 0.102300 -0.887200
vn -0.497700 0.160300 0.852400
vn 0.520900 -0.579200 -0.627000
vn 0.163100 -0.460000 -0.872800
vn 0.416000 -0.796000 -0.439700
vn 0.244600 -0.949600 0.196200
vn 0.489200 0.090900 0.867400
vn -0.219600 0.133400 0.966400
vn -0.271700 0.590900 0.759600
vn -0.355600 0.399600 0.844900
vn -0.464900 0.283300 0.838800
vn -0.628400 -0.467500 0.621800
vn 0.367800 -0.917600 -0.150900
vn -0.222200 0.793500 0.566500
vn 0.682200 -0.427300 0.593300
vn 0.698300 0.476900 -0.533900
vn 0.177800 0.976800 -0.119500
vn 0.330300 0.932500 0.146200
vn 0.975800 0.216100 0.033400
vn 0.753900 0.642700 -0.136100
vn 0.739100 0.644800 0.194700
vn 0.072200 -0.334400 -0.939700
vn -0.425600 -0.608000 0.670300
vn 0.103700 0.957100 0.270700
vn 0.643500 0.623300 0.444300
vn -0.879200 -0.334900 0.338900
vn -0.445200 -0.893700 0.055800
vn -0.206900 -0.293800 0.933200
vn 0.768600 -0.363900 -0.526200
vn 0.659200 -0.221500 -0.718600
vn -0.603300 -0.743600 0.288400
vn -0.746600 -0.664900 0.021800
vn -0.675300 -0.678500 0.289200
vn 0.951200 -0.154400 0.267200
vn 0.032500 -0.719100 0.694200
vn 0.833400 -0.525900 0.170200
vn 0.918100 0.396200 -0.008800
vn 0.853500 0.507900 0.117000
vn 0.334100 0.939300 0.077700
vn -0.844200 -0.528200 0.091400
vn 0.093600 -0.941000 -0.325200
vn 0.866000 -0.493600 -0.080000
vn 0.498100 -0.506200 -0.704000
vn 0.883000 -0.051600 -0.466500
vn 0.839700 0.225900 0.493900
vn -0.459400 -0.652200 0.602900
vn -0.482500 -0.749600 0.453100
vn -0.124900 0.961500 0.244700
vn -0.849100 -0.093600 0.519900
vn 0.868900 0.056300 0.491800
vn -0.293600 -0.039000 0.955100
vn 0.129300 -0.954200 -0.269700
vn 0.891200 0.202400 -0.405900
vn 0.584400 -0.065300 -0.808800
vn -0.435600 0.522500 0.732900
vn -0.896400 -0.146100 0.418500
vn 0.971000 0.194600 0.138800
vn -0.293900 -0.955300 0.032800
vn 0.175100 -0.948600 -0.263700
vn 0.990500 0.053600 0.126400
vn 0.952700 0.272800 0.133900
vn 0.549900 -0.833200 0.057700
vn -0.081900 -0.954200 -0.287700
vn -0.546100 -0.756400 0.360100
vn 0.119700 0.242900 0.962600
vn -0.089700 0.823900 0.559700
usemtl None
s 1
f 3/1/1 4/2/2 5/3/3
f 6/4/4 7/5/5 8/6/6
f 7/7/5 6/8/4 10/9/7
f 14/10/8 15/11/9 5/12/3
f 15/13/9 13/14/10 10/15/7
f 10/15/7 5/16/3 15/13/9
f 10/9/7 6/8/4 5/17/3
f 16/18/11 14/10/8 5/12/3
f 16/18/11 2/19/12 9/20/13
f 9/20/13 14/10/8 16/18/11
f 10/15/7 13/14/10 12/21/14
f 7/22/5 17/23/15 8/24/6
f 31/25/16 32/26/17 33/27/18
f 34/28/19 35/29/20 36/30/21
f 41/31/22 42/32/23 43/33/24
f 44/34/25 45/35/26 46/36/27
f 47/37/28 46/36/27 45/35/26
f 48/38/29 49/39/30 50/40/31
f 56/41/32 57/42/33 58/43/34
f 59/44/35 60/45/36 61/46/37
f 63/47/38 64/48/39 28/49/40
f 39/50/41 65/51/42 66/52/43
f 67/53/44 66/54/43 68/55/45
f 69/56/46 70/57/47 71/58/48
f 74/59/49 75/60/50 76/61/51
f 77/62/52 78/63/53 79/64/54
f 85/65/55 86/66/56 87/67/57
f 92/68/58 93/69/59 94/70/60
f 95/71/61 96/72/62 97/73/63
f 95/74/61 98/75/64 99/76/65
f 100/77/66 101/78/67 102/79/68
f 105/80/69 106/81/70 107/82/71
f 110/83/72 111/84/73 112/85/74
f 113/86/75 114/87/76 115/88/77
f 116/89/78 117/90/79 118/91/80
f 119/92/81 120/93/82 121/94/83
f 122/95/84 123/96/85 124/97/86
f 125/98/87 122/95/84 112/85/74
f 120/93/82 119/92/81 123/99/85
f 127/100/88 104/101/89 100/77/66
f 128/102/90 124/97/86 123/96/85
f 129/103/91 130/104/92 99/76/65
f 132/105/93 133/106/94 134/107/95
f 139/108/96 140/109/97 141/110/98
f 150/111/99 149/112/100 139/108/96
f 162/113/101 163/114/102 161/115/103
f 165/116/104 166/117/105 167/118/106
f 53/119/107 176/120/108 177/121/109
f 178/122/110 179/123/111 180/124/112
f 181/125/113 182/126/114 62/127/115
f 152/128/116 151/129/117 75/130/50
f 184/131/118 50/40/31 185/132/119
f 186/133/120 187/134/121 188/135/122
f 115/88/77 124/97/86 128/102/90
f 169/136/123 191/137/124 192/138/125
f 193/139/126 194/140/127 195/141/128
f 31/142/16 196/143/129 197/144/130
f 198/145/131 199/146/132 194/140/127
f 195/141/128 194/140/127 199/146/132
f 200/147/133 201/148/134 191/149/124
f 29/150/135 202/151/136 203/152/137
f 204/153/138 205/154/139 206/155/140
f 207/156/141 208/157/142 209/158/143
f 208/157/142 58/159/34 210/160/144
f 211/161/145 212/162/146 213/163/147
f 214/164/148 215/165/149 216/166/150
f 217/167/151 218/168/152 219/169/153
f 68/170/45 221/171/154 222/172/155
f 87/67/57 223/173/156 176/174/108
f 225/175/157 226/176/158 81/177/159
f 64/178/39 187/179/121 223/180/156
f 229/181/160 213/182/147 230/183/161
f 231/184/162 232/185/163 166/186/105
f 206/155/140 233/187/164 183/188/165
f 196/143/129 97/73/63 102/189/68
f 32/26/17 234/190/166 235/191/167
f 92/68/58 193/139/126 172/192/168
f 120/193/82 125/98/87 236/194/169
f 237/195/170 161/196/103 163/197/102
f 239/198/171 42/32/23 41/31/22
f 79/199/54 241/200/172 242/201/173
f 80/202/174 247/203/175 248/204/176
f 188/135/122 64/205/39 63/206/38
f 166/207/105 232/208/163 26/209/177
f 253/210/178 233/187/164 199/211/132
f 199/211/132 254/212/179 253/210/178
f 255/213/180 256/214/181 257/215/182
f 255/216/180 113/217/75 256/218/181
f 234/190/166 92/68/58 171/219/183
f 234/190/166 93/69/59 92/68/58
f 258/220/184 98/221/64 33/222/18
f 37/223/185 259/224/186 34/225/19
f 262/226/187 41/31/22 219/169/153
f 218/168/152 217/167/151 48/38/29
f 48/38/29 84/227/188 218/168/152
f 263/228/189 264/229/190 44/34/25
f 247/203/175 47/37/28 265/230/191
f 48/38/29 78/63/53 264/229/190
f 230/231/161 220/232/192 56/233/32
f 271/234/193 272/235/194 60/45/36
f 178/122/110 274/236/195 271/234/193
f 275/237/196 222/172/155 269/238/197
f 77/62/52 280/239/198 281/240/199
f 86/66/56 85/65/55 69/56/46
f 50/40/31 282/241/200 78/63/53
f 50/40/31 184/131/118 282/241/200
f 242/201/173 241/200/172 133/106/94
f 133/106/94 132/105/93 242/201/173
f 194/140/127 193/139/126 92/68/58
f 286/242/201 93/69/59 32/26/17
f 32/26/17 31/25/16 286/242/201
f 196/143/129 98/243/64 95/71/61
f 96/244/62 95/74/61 287/245/202
f 288/246/203 198/145/131 289/247/204
f 290/248/205 291/249/206 197/250/130
f 197/250/130 101/78/67 290/248/205
f 292/251/207 100/252/66 293/253/208
f 113/217/75 255/216/180 294/254/209
f 103/255/210 113/217/75 294/254/209
f 295/256/211 105/257/69 296/258/212
f 297/259/213 109/260/214 126/261/215
f 298/262/216 112/85/74 299/263/217
f 300/264/218 115/88/77 189/265/219
f 301/266/220 302/267/221 303/268/222
f 116/89/78 304/269/223 305/270/224
f 306/271/225 307/272/226 119/92/81
f 122/95/84 299/263/217 112/85/74
f 126/261/215 308/273/227 112/85/74
f 126/261/215 109/260/214 309/274/228
f 309/274/228 308/273/227 126/261/215
f 308/273/227 309/274/228 310/275/229
f 308/273/227 310/275/229 125/98/87
f 122/95/84 125/98/87 120/193/82
f 292/251/207 107/276/71 127/277/88
f 305/270/224 304/269/223 128/278/90
f 311/279/230 129/280/91 258/281/184
f 130/104/92 287/245/202 99/76/65
f 314/282/231 315/283/232 316/284/233
f 35/285/20 318/286/234 317/287/235
f 319/288/236 320/289/237 321/290/238
f 321/290/238 322/291/239 319/288/236
f 65/292/42 135/293/240 221/171/154
f 135/293/240 323/294/241 221/171/154
f 226/176/158 225/175/157 139/108/96
f 333/295/242 152/296/116 163/114/102
f 164/297/243 150/298/99 225/299/157
f 136/300/244 326/301/245 328/302/246
f 326/301/245 141/110/98 328/302/246
f 160/303/247 237/195/170 340/304/248
f 337/305/249 244/306/250 162/113/101
f 114/307/76 113/308/75 103/309/210
f 256/310/181 342/311/251 341/312/252
f 135/313/240 317/314/235 321/315/238
f 34/225/19 185/316/119 344/317/253
f 344/317/253 345/318/254 34/225/19
f 323/294/241 222/172/155 221/171/154
f 323/294/241 181/125/113 222/172/155
f 168/319/255 218/168/152 84/227/188
f 239/198/171 211/320/145 165/321/104
f 168/319/255 262/226/187 218/168/152
f 177/322/109 187/323/121 275/324/196
f 270/325/256 274/236/195 178/122/110
f 152/326/116 74/327/49 350/328/257
f 320/289/237 319/288/236 351/329/258
f 34/225/19 353/330/259 184/331/118
f 25/332/260 24/333/261 354/334/262
f 107/276/71 292/251/207 315/283/232
f 107/276/71 315/283/232 296/258/212
f 255/216/180 198/145/131 288/246/203
f 255/213/180 257/215/182 198/335/131
f 341/336/252 342/337/251 356/338/263
f 356/338/263 357/339/264 341/336/252
f 189/265/219 115/88/77 358/340/265
f 190/341/266 189/265/219 358/340/265
f 128/102/90 359/342/267 358/340/265
f 357/343/264 191/137/124 201/344/134
f 357/343/264 192/138/125 191/137/124
f 169/345/123 360/346/268 361/347/269
f 174/348/270 173/349/271 169/350/123
f 170/351/272 172/192/168 193/139/126
f 171/219/183 235/191/167 234/190/166
f 171/219/183 346/352/273 235/191/167
f 258/353/184 33/27/18 175/354/274
f 311/355/230 258/353/184 175/354/274
f 286/242/201 31/25/16 291/249/206
f 94/70/60 289/247/204 198/145/131
f 233/187/164 205/154/139 195/356/128
f 348/357/275 362/358/276 173/359/271
f 191/137/124 363/360/277 364/361/278
f 343/362/279 364/363/278 29/150/135
f 352/364/280 351/329/258 365/365/281
f 351/329/258 366/366/282 365/365/281
f 251/367/283 369/368/284 167/118/106
f 251/367/283 367/369/285 369/368/284
f 165/370/104 211/161/145 370/371/286
f 58/159/34 371/372/287 210/160/144
f 322/291/239 372/373/288 368/374/289
f 319/288/236 322/291/239 368/374/289
f 167/375/106 369/376/284 42/32/23
f 42/32/23 239/198/171 167/375/106
f 371/372/287 373/377/290 182/126/114
f 371/372/287 58/159/34 373/377/290
f 322/291/239 215/378/149 372/373/288
f 322/291/239 318/286/234 215/378/149
f 214/164/148 43/33/24 42/32/23
f 214/164/148 219/169/153 43/33/24
f 216/166/150 49/39/30 217/167/151
f 57/42/33 56/41/32 268/379/291
f 268/379/291 349/380/292 57/42/33
f 275/381/196 228/382/293 68/383/45
f 176/174/108 223/173/156 177/322/109
f 182/126/114 373/377/290 62/127/115
f 269/238/197 222/172/155 181/125/113
f 374/384/294 55/385/295 87/67/57
f 133/386/94 353/330/259 134/387/95
f 50/40/31 49/39/30 185/132/119
f 79/64/54 78/63/53 282/241/200
f 73/388/296 242/389/173 250/390/297
f 350/328/257 74/327/49 375/391/298
f 375/391/298 376/392/299 350/328/257
f 339/393/300 338/394/301 376/392/299
f 376/395/299 375/396/298 339/397/300
f 338/394/301 240/398/302 340/304/248
f 376/392/299 338/394/301 340/304/248
f 376/392/299 340/304/248 237/195/170
f 350/328/257 376/392/299 237/195/170
f 141/110/98 326/301/245 81/177/159
f 81/177/159 226/176/158 141/110/98
f 375/391/298 71/58/48 70/57/47
f 375/391/298 74/327/49 71/58/48
f 241/399/172 282/400/200 133/401/94
f 241/402/172 79/403/54 282/404/200
f 48/38/29 217/167/151 49/39/30
f 261/405/303 260/406/304 131/407/305
f 59/44/35 273/408/306 271/234/193
f 275/409/196 187/410/121 186/411/120
f 344/412/253 185/132/119 49/39/30
f 344/412/253 49/39/30 216/166/150
f 215/165/149 344/412/253 216/166/150
f 214/164/148 42/32/23 372/413/288
f 372/413/288 215/165/149 214/164/148
f 215/378/149 35/285/20 345/318/254
f 215/378/149 318/286/234 35/285/20
f 368/414/289 372/413/288 42/32/23
f 368/414/289 42/32/23 369/376/284
f 229/415/160 58/159/34 208/157/142
f 166/416/105 165/370/104 370/371/286
f 369/376/284 367/417/285 366/418/282
f 366/418/282 368/414/289 369/376/284
f 202/419/136 209/158/143 210/160/144
f 231/420/162 370/421/286 229/415/160
f 365/422/281 366/418/282 367/417/285
f 29/150/135 209/423/143 202/151/136
f 362/358/276 348/357/275 26/424/177
f 30/425/307 29/426/135 364/361/278
f 364/361/278 363/360/277 30/425/307
f 352/364/280 365/365/281 206/427/140
f 205/154/139 233/187/164 206/155/140
f 364/363/278 343/362/279 200/428/133
f 173/359/271 363/360/277 191/137/124
f 173/359/271 362/358/276 363/360/277
f 205/154/139 204/153/138 347/429/308
f 286/242/201 291/249/206 289/247/204
f 286/242/201 289/247/204 94/70/60
f 235/191/167 175/354/274 33/27/18
f 170/430/272 195/356/128 205/154/139
f 359/431/267 128/278/90 304/269/223
f 359/342/267 304/432/223 303/433/222
f 361/347/269 360/346/268 302/434/221
f 173/359/271 191/137/124 169/136/123
f 357/339/264 356/338/263 360/346/268
f 360/346/268 192/435/125 357/339/264
f 358/340/265 359/342/267 190/341/266
f 110/83/72 298/262/216 114/87/76
f 201/344/134 200/436/133 341/437/252
f 201/344/134 341/437/252 357/343/264
f 294/254/209 290/248/205 101/78/67
f 101/78/67 104/101/89 294/254/209
f 290/248/205 294/254/209 255/216/180
f 255/216/180 288/246/203 290/248/205
f 34/225/19 345/318/254 35/285/20
f 321/290/238 317/287/235 322/291/239
f 317/287/235 318/286/234 322/291/239
f 152/326/116 350/328/257 237/195/170
f 181/125/113 371/372/287 182/126/114
f 178/122/110 273/408/306 179/123/111
f 374/384/294 176/174/108 53/438/107
f 26/439/177 348/440/275 347/441/308
f 27/442/309 26/443/177 347/444/308
f 166/117/105 251/367/283 167/118/106
f 239/198/171 212/445/146 211/320/145
f 51/446/310 212/445/146 41/31/22
f 41/447/22 262/448/187 51/449/310
f 68/450/45 66/451/43 221/452/154
f 256/310/181 113/453/75 300/454/218
f 300/454/218 342/311/251 256/310/181
f 110/455/72 114/307/76 103/309/210
f 160/303/247 340/304/248 240/398/302
f 149/112/100 140/109/97 139/108/96
f 280/456/198 72/457/311 278/458/312
f 333/295/242 163/114/102 162/113/101
f 151/129/117 76/459/51 75/130/50
f 328/302/246 141/110/98 140/109/97
f 65/51/42 221/460/154 66/52/43
f 57/461/33 373/377/290 58/159/34
f 306/271/225 312/462/313 307/272/226
f 117/90/79 116/89/78 307/272/226
f 307/272/226 312/462/313 117/90/79
f 97/73/63 293/253/208 102/189/68
f 104/101/89 101/78/67 100/77/66
f 119/92/81 305/270/224 123/99/85
f 125/98/87 310/275/229 236/194/169
f 379/463/314 380/464/315 309/274/228
f 380/465/315 379/466/314 381/467/316
f 124/97/86 115/88/77 299/263/217
f 116/89/78 305/270/224 119/92/81
f 307/272/226 116/89/78 119/92/81
f 303/268/222 304/269/223 118/91/80
f 118/91/80 301/266/220 303/268/222
f 342/337/251 300/264/218 189/265/219
f 342/337/251 189/265/219 356/338/263
f 114/87/76 298/262/216 299/263/217
f 114/87/76 299/263/217 115/88/77
f 126/261/215 112/85/74 111/84/73
f 382/468/317 355/469/318 293/253/208
f 97/73/63 382/468/317 293/253/208
f 106/81/70 127/100/88 107/82/71
f 103/255/210 294/254/209 104/101/89
f 292/251/207 293/253/208 355/469/318
f 101/78/67 197/250/130 102/79/68
f 291/249/206 290/248/205 288/246/203
f 288/246/203 289/247/204 291/249/206
f 98/221/64 258/220/184 99/470/65
f 196/471/129 31/25/16 98/472/64
f 93/69/59 286/242/201 94/70/60
f 242/201/173 132/105/93 324/473/319
f 264/229/190 78/63/53 77/62/52
f 77/62/52 44/34/25 264/229/190
f 184/331/118 133/386/94 282/474/200
f 184/331/118 353/330/259 133/386/94
f 70/57/47 69/56/46 83/475/320
f 72/457/311 280/456/198 79/476/54
f 67/53/44 40/477/321 66/54/43
f 259/224/186 353/330/259 34/225/19
f 187/323/121 177/322/109 223/173/156
f 178/122/110 271/234/193 273/408/306
f 272/235/194 271/234/193 274/236/195
f 270/325/256 272/235/194 274/236/195
f 271/234/193 60/45/36 59/44/35
f 54/478/322 267/479/323 55/385/295
f 229/415/160 370/421/286 213/480/147
f 247/203/175 265/230/191 248/204/176
f 264/229/190 263/228/189 84/227/188
f 84/227/188 48/38/29 264/229/190
f 218/168/152 262/226/187 219/169/153
f 32/26/17 93/69/59 234/190/166
f 233/187/164 253/210/178 183/188/165
f 198/481/131 257/482/182 254/483/179
f 254/484/179 199/485/132 198/486/131
f 208/157/142 207/156/141 231/420/162
f 229/415/160 208/157/142 231/420/162
f 187/134/121 64/205/39 188/135/122
f 64/48/39 252/487/324 28/49/40
f 345/318/254 344/317/253 215/378/149
f 384/488/325 385/489/326 386/490/327
f 387/491/328 388/492/329 389/493/330
f 390/494/331 377/495/332 391/496/333
f 392/497/334 393/498/335 394/499/336
f 395/500/337 396/501/338 397/502/339
f 398/503/340 397/502/339 396/501/338
f 399/504/341 400/505/342 401/506/343
f 403/507/344 404/508/345 387/491/328
f 397/502/339 398/503/340 405/509/346
f 399/504/341 406/510/347 407/511/348
f 381/512/316 408/513/349 409/514/350
f 407/511/348 406/510/347 410/515/351
f 411/516/352 412/517/353 413/518/354
f 414/519/355 394/499/336 415/520/356
f 416/521/357 386/522/327 389/523/330
f 390/524/331 417/525/358 418/526/359
f 416/521/357 413/527/354 384/528/325
f 419/529/360 387/491/328 420/530/361
f 417/531/358 390/532/331 421/533/362
f 414/519/355 418/534/359 392/497/334
f 395/535/337 415/520/356 422/536/363
f 423/537/364 399/504/341 398/503/340
f 401/506/343 410/515/351 406/510/347
f 424/538/365 393/539/335 392/540/334
f 392/541/334 417/542/358 424/543/365
f 413/518/354 416/544/357 425/545/366
f 425/545/366 381/546/316 413/518/354
f 426/547/367 427/548/368 403/507/344
f 428/549/369 402/550/370 421/551/362
f 419/529/360 429/552/371 403/507/344
f 418/553/359 414/554/355 431/555/372
f 431/555/372 354/334/262 418/553/359
f 397/502/339 383/556/373 415/557/356
f 399/504/341 432/558/374 398/503/340
f 396/501/338 433/559/375 423/537/364
f 395/535/337 422/536/363 434/560/376
f 411/561/352 409/562/350 410/563/351
f 309/274/228 380/464/315 435/564/377
f 409/565/350 21/566/378 436/567/379
f 400/505/342 437/568/380 401/506/343
f 437/569/380 438/570/381 412/571/353
f 412/571/353 401/572/343 437/569/380
f 412/517/353 438/573/381 384/488/325
f 410/515/351 409/565/350 436/567/379
f 398/503/340 432/558/374 405/509/346
f 385/574/326 430/575/382 386/522/327
f 426/547/367 403/507/344 429/552/371
f 429/552/371 428/549/369 426/547/367
f 417/576/358 421/551/362 402/550/370
f 402/550/370 424/577/365 417/576/358
f 427/548/368 426/547/367 391/578/333
f 391/578/333 377/579/332 427/548/368
f 404/508/345 388/492/329 387/491/328
f 439/580/383 425/581/366 416/582/357
f 412/571/353 411/561/352 410/563/351
f 412/571/353 410/563/351 401/572/343
f 399/504/341 423/537/364 400/505/342
f 394/499/336 422/536/363 415/520/356
f 417/525/358 392/583/334 418/526/359
f 426/547/367 428/549/369 421/551/362
f 421/551/362 391/578/333 426/547/367
f 420/584/361 389/523/330 386/522/327
f 412/517/353 384/488/325 413/518/354
f 354/334/262 431/555/372 25/332/260
f 431/555/372 414/554/355 383/585/373
f 378/586/384 440/587/385 404/508/345
f 439/580/383 435/588/377 380/589/315
f 310/590/229 435/588/377 441/591/386
f 440/587/385 378/586/384 121/94/83
f 314/282/231 407/511/348 436/567/379
f 295/256/211 296/258/212 21/566/378
f 436/567/379 21/566/378 314/282/231
f 378/586/384 427/548/368 377/579/332
f 441/591/386 440/587/385 236/592/169
f 427/548/368 378/586/384 404/508/345
f 432/558/374 407/511/348 314/282/231
f 315/283/232 292/251/207 355/469/318
f 404/508/345 440/587/385 441/591/386
f 296/258/212 315/283/232 314/282/231
f 378/586/384 306/271/225 121/94/83
f 388/492/329 435/588/377 439/580/383
f 25/593/260 287/245/202 130/104/92
f 435/564/377 310/275/229 309/274/228
f 385/489/326 384/488/325 438/573/381
f 25/593/260 130/104/92 24/594/261
f 381/546/316 425/545/366 380/595/315
f 382/596/317 97/597/63 96/244/62
f 379/463/314 109/260/214 108/598/387
f 440/587/385 121/94/83 236/592/169
f 309/274/228 109/260/214 379/463/314
f 409/565/350 22/599/388 21/566/378
f 408/600/349 22/601/388 409/602/350
f 439/580/383 380/589/315 425/581/366
f 441/591/386 435/588/377 388/492/329
f 313/603/389 312/462/313 306/271/225
f 16/18/11 1/604/390 2/19/12
f 6/4/4 3/605/1 5/606/3
f 3/605/1 6/4/4 8/6/6
f 98/472/64 31/25/16 33/27/18
f 37/223/185 34/225/19 36/607/21
f 219/169/153 41/31/22 43/33/24
f 263/228/189 44/34/25 46/36/27
f 265/230/191 47/37/28 45/35/26
f 78/63/53 48/38/29 50/40/31
f 230/231/161 56/233/32 58/159/34
f 61/46/37 60/45/36 62/127/115
f 40/608/321 39/50/41 66/52/43
f 228/609/293 67/610/44 68/611/45
f 280/239/198 77/62/52 79/64/54
f 55/385/295 85/65/55 87/67/57
f 194/140/127 92/68/58 94/70/60
f 196/143/129 95/71/61 97/73/63
f 287/245/202 95/74/61 99/76/65
f 293/253/208 100/252/66 102/189/68
f 296/258/212 105/257/69 107/276/71
f 298/262/216 110/83/72 112/85/74
f 300/612/218 113/613/75 115/614/77
f 304/269/223 116/89/78 118/91/80
f 306/271/225 119/92/81 121/94/83
f 299/263/217 122/95/84 124/97/86
f 308/273/227 125/98/87 112/85/74
f 122/95/84 120/193/82 123/96/85
f 292/251/207 127/277/88 100/252/66
f 305/270/224 128/278/90 123/99/85
f 258/615/184 129/103/91 99/76/65
f 226/176/158 139/108/96 141/110/98
f 225/299/157 150/298/99 139/616/96
f 237/195/170 160/303/247 161/196/103
f 337/305/249 162/113/101 161/115/103
f 239/198/171 165/321/104 167/375/106
f 262/226/187 168/319/255 51/446/310
f 174/348/270 169/350/123 170/617/272
f 270/325/256 178/122/110 180/124/112
f 269/238/197 181/125/113 62/127/115
f 74/327/49 152/326/116 75/618/50
f 34/225/19 184/331/118 185/316/119
f 358/340/265 115/88/77 128/102/90
f 360/346/268 169/345/123 192/435/125
f 170/351/272 193/139/126 195/141/128
f 291/249/206 31/25/16 197/250/130
f 94/70/60 198/145/131 194/140/127
f 233/187/164 195/356/128 199/211/132
f 364/361/278 200/436/133 191/137/124
f 343/362/279 29/150/135 203/152/137
f 365/619/281 204/153/138 206/155/140
f 29/620/135 207/156/141 209/158/143
f 209/158/143 208/157/142 210/160/144
f 370/371/286 211/161/145 213/163/147
f 219/169/153 214/164/148 216/166/150
f 216/166/150 217/167/151 219/169/153
f 275/621/196 68/622/45 222/623/155
f 374/384/294 87/67/57 176/174/108
f 80/624/174 225/175/157 81/177/159
f 261/405/303 131/407/305 227/625/391
f 275/409/196 186/411/120 228/609/293
f 58/159/34 229/415/160 230/231/161
f 370/626/286 231/627/162 166/628/105
f 352/364/280 206/427/140 183/629/165
f 197/144/130 196/143/129 102/189/68
f 33/27/18 32/26/17 235/191/167
f 171/219/183 92/68/58 172/192/168
f 121/94/83 120/93/82 236/592/169
f 152/296/116 237/630/170 163/114/102
f 374/631/294 53/632/107 238/633/392
f 212/445/146 239/198/171 41/31/22
f 160/303/247 240/398/302 88/634/393
f 72/457/311 79/476/54 242/635/173
f 337/636/249 243/637/394 244/638/250
f 225/175/157 80/624/174 248/639/176
f 416/521/357 384/528/325 386/522/327
f 420/530/361 387/491/328 389/493/330
f 421/551/362 390/640/331 391/578/333
f 414/519/355 392/497/334 394/499/336
f 415/557/356 395/500/337 397/502/339
f 423/537/364 398/503/340 396/501/338
f 406/510/347 399/504/341 401/506/343
f 419/529/360 403/507/344 387/491/328
f 383/556/373 397/502/339 405/509/346
f 432/558/374 399/504/341 407/511/348
f 411/516/352 381/546/316 409/641/350
f 436/567/379 407/511/348 410/515/351
f 381/546/316 411/516/352 413/518/354
f 383/585/373 414/554/355 415/642/356
f 439/580/383 416/582/357 389/493/330
f 354/643/262 390/494/331 418/644/359
f 296/258/212 314/282/231 21/566/378
f 310/275/229 441/645/386 236/194/169
f 403/507/344 427/548/368 404/508/345
f 316/284/233 315/283/232 355/469/318
f 389/493/330 388/492/329 439/580/383
f 404/508/345 441/591/386 388/492/329
f 378/586/384 313/603/389 306/271/225
f 396/501/338 395/500/337 434/646/376
f 386/522/327 430/575/382 420/584/361
f 423/537/364 433/559/375 437/568/380
f 423/537/364 437/568/380 400/505/342
f 394/499/336 393/498/335 422/536/363
f 419/529/360 420/530/361 430/647/382
f 434/560/376 422/536/363 393/498/335
f 419/529/360 430/647/382 429/552/371
f 433/559/375 396/501/338 434/646/376
f 1/604/390 385/648/326 2/19/12
f 433/649/375 9/20/13 437/650/380
f 430/651/382 1/652/390 3/653/1
f 430/575/382 385/574/326 1/654/390
f 11/655/395 12/656/14 434/657/376
f 12/21/14 13/14/10 434/658/376
f 3/659/1 1/660/390 16/661/11
f 16/661/11 4/662/2 3/659/1
f 433/663/375 434/658/376 13/14/10
f 13/14/10 15/13/9 433/663/375
f 17/664/15 12/665/14 18/666/396
f 17/664/15 7/7/5 12/665/14
f 10/9/7 12/665/14 7/7/5
f 11/667/395 18/666/396 12/665/14
f 5/668/3 4/662/2 16/661/11
f 14/10/8 9/20/13 433/649/375
f 433/663/375 15/13/9 14/669/8
f 437/650/380 9/20/13 2/19/12
f 2/19/12 438/670/381 437/650/380
f 393/671/335 11/672/395 434/673/376
f 385/648/326 438/670/381 2/19/12
f 18/666/396 11/667/395 393/674/335
f 250/390/297 324/675/319 28/676/40
f 37/677/185 39/678/41 38/679/397
f 47/680/28 247/681/175 83/682/320
f 54/478/322 55/385/295 374/384/294
f 179/683/111 53/684/107 180/685/112
f 60/45/36 269/238/197 62/127/115
f 281/240/199 249/686/398 45/35/26
f 263/687/189 266/688/399 84/689/188
f 157/690/400 88/691/393 136/692/244
f 143/693/401 146/694/402 89/695/403
f 110/696/72 103/255/210 104/101/89
f 105/697/69 108/598/387 109/260/214
f 126/698/215 111/699/73 106/700/70
f 311/701/230 175/702/274 117/703/79
f 325/704/404 276/705/405 131/407/305
f 159/706/406 283/707/407 137/708/408
f 330/709/409 284/710/410 334/711/411
f 153/712/412 88/713/393 156/714/413
f 148/715/414 146/716/414 283/717/414
f 149/718/100 147/719/415 143/720/401
f 149/718/100 150/721/99 159/706/406
f 335/722/416 151/723/117 152/724/116
f 145/725/417 332/726/418 155/727/419
f 246/728/420 156/714/413 157/729/400
f 160/730/247 153/731/412 161/115/103
f 164/297/243 82/732/421 138/733/422
f 168/734/255 52/735/423 51/736/310
f 183/188/165 200/737/133 343/738/279
f 131/407/305 276/705/405 227/625/391
f 186/411/120 261/739/303 228/609/293
f 53/684/107 179/683/111 238/740/392
f 240/741/302 326/742/245 88/691/393
f 243/637/394 155/743/419 244/638/250
f 328/302/246 140/109/97 245/744/424
f 144/745/425 246/746/420 285/747/426
f 82/732/421 249/686/398 279/748/427
f 252/749/324 86/750/56 250/390/297
f 40/477/321 38/751/397 39/752/41
f 263/753/189 54/754/322 266/755/399
f 51/756/310 52/757/423 268/758/291
f 230/183/161 213/182/147 220/759/192
f 54/754/322 263/753/189 46/760/27
f 46/760/27 47/680/28 267/761/323
f 52/762/423 238/763/392 268/764/291
f 267/479/323 83/475/320 85/65/55
f 275/237/196 269/238/197 270/325/256
f 324/675/319 224/765/428 63/766/38
f 38/679/397 276/767/405 37/677/185
f 37/223/185 36/607/21 39/768/41
f 69/769/46 277/770/429 73/388/296
f 73/771/296 277/772/429 278/773/312
f 77/62/52 281/240/199 44/34/25
f 91/774/430 157/690/400 136/692/244
f 142/775/431 143/693/401 285/776/426
f 106/81/70 110/696/72 127/100/88
f 106/777/70 105/697/69 297/259/213
f 312/778/313 129/779/91 311/701/230
f 313/780/389 129/779/91 312/778/313
f 313/780/389 130/781/92 129/779/91
f 317/314/235 65/782/42 35/29/20
f 276/783/405 40/477/321 227/784/391
f 276/783/405 38/751/397 40/477/321
f 134/785/95 325/704/404 224/765/428
f 134/785/95 324/675/319 132/786/93
f 339/787/300 80/788/174 81/789/159
f 283/707/407 146/790/402 147/719/415
f 281/240/199 280/239/198 278/791/312
f 278/791/312 249/686/398 281/240/199
f 246/728/420 144/792/425 329/793/432
f 146/794/402 334/795/411 284/796/410
f 158/797/433 332/798/418 148/799/434
f 159/800/406 158/801/433 148/802/434
f 149/112/100 142/775/431 140/109/97
f 331/803/435 243/637/394 329/793/432
f 335/804/416 138/733/422 279/748/427
f 337/636/249 154/805/436 243/637/394
f 284/710/410 330/709/409 144/806/425
f 89/807/403 284/808/410 144/745/425
f 153/712/412 156/714/413 154/805/436
f 334/809/411 329/793/432 330/810/409
f 157/729/400 156/714/413 88/713/393
f 81/811/159 326/742/245 338/812/301
f 326/742/245 240/741/302 338/812/301
f 339/397/300 70/813/47 247/681/175
f 249/686/398 265/230/191 45/35/26
f 334/814/411 146/815/402 283/816/437
f 336/817/438 159/818/406 327/819/439
f 336/820/438 333/821/242 332/822/418
f 90/823/440 157/824/400 91/825/430
f 153/731/412 337/305/249 161/115/103
f 150/298/99 164/297/243 327/826/439
f 84/689/188 266/688/399 168/734/255
f 177/827/109 275/828/196 180/829/112
f 349/380/292 61/830/37 57/42/33
f 202/831/136 320/289/237 351/329/258
f 203/832/137 352/833/280 183/188/165
f 261/834/303 186/133/120 260/835/304
f 200/737/133 253/210/178 341/836/252
f 253/837/178 254/838/179 341/839/252
f 295/840/211 108/841/387 105/842/69
f 118/843/80 235/844/167 301/845/220
f 302/846/221 172/847/168 361/848/269
f 302/846/221 346/849/273 172/847/168
f 183/188/165 253/210/178 200/737/133
f 366/366/282 351/329/258 319/288/236
f 319/288/236 368/374/289 366/366/282
f 212/162/146 220/850/192 213/163/147
f 224/765/428 131/407/305 260/406/304
f 52/735/423 168/734/255 266/688/399
f 73/851/296 72/852/311 242/853/173
f 333/821/242 336/820/438 335/854/416
f 143/720/401 147/719/415 146/790/402
f 329/793/432 144/792/425 330/810/409
f 154/805/436 329/793/432 243/637/394
f 335/855/416 279/856/427 76/857/51
f 335/855/416 76/857/51 151/858/117
f 70/813/47 339/397/300 375/396/298
f 259/859/186 134/860/95 353/861/259
f 259/859/186 325/862/404 134/860/95
f 35/29/20 65/782/42 39/863/41
f 39/863/41 36/30/21 35/29/20
f 238/864/392 179/865/111 349/380/292
f 179/865/111 61/830/37 349/380/292
f 260/835/304 188/135/122 63/206/38
f 63/206/38 224/866/428 260/835/304
f 349/380/292 268/379/291 238/864/392
f 135/293/240 321/867/238 323/294/241
f 210/160/144 320/868/237 202/419/136
f 361/848/269 172/847/168 170/617/272
f 170/617/272 169/350/123 361/848/269
f 346/849/273 302/846/221 301/845/220
f 301/845/220 235/844/167 346/849/273
f 117/703/79 175/702/274 118/843/80
f 257/215/182 256/214/181 341/869/252
f 257/215/182 341/869/252 254/870/179
f 377/579/332 19/871/441 378/586/384
f 24/872/261 19/873/441 377/495/332
f 261/739/303 67/610/44 228/609/293
f 352/364/280 203/874/137 202/831/136
f 202/831/136 351/329/258 352/364/280
f 227/784/391 40/477/321 67/53/44
f 67/53/44 261/875/303 227/784/391
f 269/238/197 60/45/36 272/235/194
f 87/67/57 252/487/324 223/173/156
f 65/782/42 317/314/235 135/313/240
f 332/876/418 158/877/433 336/878/438
f 153/712/412 160/879/247 88/713/393
f 150/298/99 327/826/439 159/880/406
f 335/804/416 336/881/438 327/826/439
f 335/804/416 327/826/439 138/733/422
f 82/882/421 225/175/157 248/639/176
f 82/732/421 164/297/243 225/299/157
f 81/811/159 338/812/301 339/883/300
f 326/742/245 136/692/244 88/691/393
f 329/793/432 154/805/436 246/728/420
f 156/714/413 246/728/420 154/805/436
f 285/747/426 89/807/403 144/745/425
f 334/814/411 331/884/435 329/885/432
f 334/814/411 148/886/434 145/725/417
f 334/814/411 283/816/437 148/886/434
f 145/725/417 148/886/434 332/726/418
f 162/113/101 332/887/418 333/295/242
f 136/300/244 328/302/246 91/888/430
f 149/718/100 137/708/408 147/719/415
f 243/637/394 331/803/435 155/743/419
f 145/725/417 155/727/419 331/884/435
f 246/746/420 90/889/440 285/747/426
f 90/890/440 245/744/424 285/776/426
f 140/109/97 142/775/431 245/744/424
f 283/707/407 147/719/415 137/708/408
f 74/891/49 277/770/429 71/892/48
f 324/675/319 134/785/95 224/765/428
f 320/868/237 210/160/144 371/372/287
f 371/372/287 321/867/238 320/868/237
f 181/125/113 323/294/241 321/867/238
f 371/372/287 181/125/113 321/867/238
f 142/775/431 285/776/426 245/744/424
f 146/694/402 284/893/410 89/695/403
f 332/887/418 162/113/101 244/306/250
f 244/894/250 155/895/419 332/896/418
f 86/66/56 252/487/324 87/67/57
f 279/748/427 249/686/398 278/791/312
f 265/230/191 249/686/398 82/732/421
f 82/732/421 248/204/176 265/230/191
f 279/856/427 278/773/312 277/772/429
f 76/857/51 279/856/427 277/772/429
f 86/750/56 69/769/46 73/388/296
f 86/750/56 73/388/296 250/390/297
f 373/377/290 57/461/33 61/46/37
f 270/325/256 269/238/197 272/235/194
f 61/46/37 179/123/111 273/408/306
f 275/237/196 270/325/256 180/124/112
f 267/479/323 85/65/55 55/385/295
f 220/232/192 268/897/291 56/233/32
f 238/898/392 52/899/423 266/900/399
f 266/901/399 374/384/294 238/902/392
f 46/760/27 267/761/323 54/754/322
f 51/756/310 268/758/291 220/903/192
f 276/767/405 325/862/404 37/677/185
f 325/862/404 259/859/186 37/677/185
f 390/494/331 354/643/262 377/495/332
f 24/872/261 130/781/92 19/873/441
f 19/871/441 313/603/389 378/586/384
f 8/904/6 430/651/382 3/653/1
f 424/905/365 402/906/370 18/666/396
f 402/906/370 17/664/15 18/666/396
f 17/664/15 402/906/370 8/907/6
f 393/674/335 424/905/365 18/666/396
f 408/908/349 381/909/316 22/910/388
f 377/495/332 354/643/262 24/872/261
f 22/910/388 108/841/387 295/840/211
f 379/911/314 108/841/387 22/910/388
f 130/781/92 313/780/389 19/873/441
f 252/749/324 250/390/297 28/676/40
f 267/761/323 47/680/28 83/682/320
f 266/901/399 54/478/322 374/384/294
f 273/408/306 59/44/35 61/46/37
f 324/675/319 63/766/38 28/676/40
f 277/770/429 69/769/46 71/892/48
f 278/773/312 72/912/311 73/771/296
f 277/913/429 74/914/49 76/915/51
f 44/34/25 281/240/199 45/35/26
f 83/682/320 247/681/175 70/813/47
f 85/65/55 83/475/320 69/56/46
f 285/776/426 143/693/401 89/695/403
f 245/744/424 90/890/440 91/888/430
f 127/100/88 110/696/72 104/101/89
f 297/916/213 105/917/69 109/918/214
f 297/259/213 126/261/215 106/777/70
f 106/777/70 111/84/73 110/83/72
f 312/778/313 311/701/230 117/703/79
f 224/765/428 325/704/404 131/407/305
f 159/706/406 148/919/434 283/707/407
f 142/775/431 149/112/100 143/693/401
f 137/708/408 149/718/100 159/706/406
f 333/821/242 335/854/416 152/920/116
f 337/636/249 153/712/412 154/805/436
f 90/921/440 246/728/420 157/729/400
f 336/922/438 158/923/433 159/924/406
f 327/826/439 164/297/243 138/733/422
f 346/352/273 171/219/183 172/192/168
f 235/844/167 118/843/80 175/702/274
f 180/685/112 53/684/107 177/925/109
f 203/832/137 183/188/165 343/738/279
f 260/835/304 186/133/120 188/135/122
f 51/926/310 220/850/192 212/162/146
f 373/377/290 61/46/37 62/127/115
f 252/487/324 64/48/39 223/173/156
f 91/888/430 328/302/246 245/744/424
f 138/733/422 82/732/421 279/748/427
f 324/473/319 250/927/297 242/201/173
f 80/788/174 339/787/300 247/928/175
f 428/549/369 429/552/371 8/929/6
f 331/884/435 334/814/411 145/725/417
f 428/549/369 8/929/6 402/550/370
f 429/552/371 430/647/382 8/929/6
f 316/284/233 355/469/318 382/468/317
f 432/558/374 316/284/233 405/509/346
f 383/556/373 405/509/346 316/284/233
f 432/558/374 314/282/231 316/284/233
f 316/930/233 287/245/202 25/593/260
f 316/931/233 25/932/260 431/933/372
f 316/930/233 96/244/62 287/245/202
f 381/909/316 379/911/314 22/910/388
f 316/934/233 431/555/372 383/585/373
f 295/256/211 21/566/378 22/599/388
f 316/930/233 382/596/317 96/244/62
f 231/935/162 207/936/141 30/425/307
f 363/360/277 362/358/276 30/425/307
f 30/425/307 26/424/177 232/937/163
f 232/937/163 231/935/162 30/425/307
f 362/358/276 26/424/177 30/425/307
f 207/156/141 29/620/135 30/938/307
f 347/441/308 348/440/275 174/939/270
f 205/940/139 347/941/308 174/942/270
f 205/943/139 174/944/270 170/945/272
f 348/946/275 173/349/271 174/348/270
f 190/341/266 360/346/268 356/338/263
f 303/433/222 302/434/221 190/341/266
f 190/341/266 359/342/267 303/433/222
f 360/346/268 190/341/266 302/434/221
f 356/338/263 189/265/219 190/341/266
f 251/367/283 166/117/105 27/442/309
f 347/444/308 204/947/138 27/442/309
f 365/619/281 27/948/309 204/153/138
f 27/442/309 367/369/285 251/367/283
f 365/422/281 367/417/285 27/949/309
f 166/117/105 26/443/177 27/442/309
l 19 23
l 380 20
l 380 22
