# Blender v2.75 (sub 0) OBJ File: 'untitled.blend'
# www.blender.org
mtllib Mug_COL.mtl
o Cylinder.003_Cylinder.004
v -1.520687 -4.252004 -2.329473
v -1.695766 3.906788 -2.621586
v 1.149842 -4.252004 -2.373124
v 1.315279 3.906788 -2.670803
v 2.522909 -4.252004 -0.082204
v 2.863425 3.906788 -0.087770
v 1.225447 -4.252004 2.252367
v 1.400525 3.906788 2.544480
v -1.445082 -4.252004 2.296018
v -1.610520 3.906788 2.593696
v -2.818149 -4.252004 0.005098
v -3.158665 3.906788 0.010664
vn -0.016300 -0.036100 -0.999200
vn 0.857200 -0.036100 -0.513800
vn 0.873500 -0.036100 0.485500
vn 0.016300 -0.036100 0.999200
vn 0.000000 1.000000 0.000000
vn -0.873500 -0.036100 -0.485500
vn -0.857200 -0.036100 0.513800
vn 0.000000 -1.000000 0.000000
usemtl None
s off
f 1//1 2//1 4//1
f 3//2 4//2 6//2
f 5//3 6//3 8//3
f 7//4 8//4 10//4
f 4//5 12//5 8//5
f 12//6 2//6 1//6
f 10//7 12//7 11//7
f 1//8 5//8 7//8
f 3//1 1//1 4//1
f 5//2 3//2 6//2
f 7//3 5//3 8//3
f 9//4 7//4 10//4
f 8//5 6//5 4//5
f 12//5 10//5 8//5
f 4//5 2//5 12//5
f 11//6 12//6 1//6
f 9//7 10//7 11//7
f 9//8 11//8 1//8
f 1//8 7//8 9//8
f 1//8 3//8 5//8
