# Blender v2.75 (sub 0) OBJ File: 'adasdasdsa.blend'
# www.blender.org
mtllib RABBIT_1_COL.mtl
o Mesh_Mesh_Mesh.001_Mesh.005_Mesh_Mesh_Mesh.001_Mesh.006
v 4.016328 1.246862 0.214385
v 3.957326 1.366656 0.187339
v 4.028420 1.330490 -0.025538
v 4.079273 1.279305 0.054503
v 3.994362 1.442148 0.084066
v 4.053954 1.430464 0.090772
v 4.055514 1.585631 0.266606
v 4.080611 1.554576 0.164303
v 4.032027 1.436175 0.138392
v 4.062066 1.305353 0.153351
v 4.034520 1.348475 0.192108
v 3.999302 0.631822 -0.001166
v 4.142374 0.826988 -0.023265
v 4.124485 0.859121 0.057276
v 4.026958 0.744672 -0.160961
v 4.112669 0.716349 -0.120664
v 4.035820 1.163191 0.117368
v 3.996013 1.234093 0.115008
v 4.215805 1.226392 -0.002682
v 4.149149 1.188925 -0.073778
v 4.049095 0.164058 -0.082342
v 3.907183 0.684992 -0.134169
v 4.165407 0.662447 0.070150
v 4.096966 0.754943 0.090259
v 4.053693 0.831602 0.107568
v 3.956082 0.867646 0.112376
v 4.031411 0.666030 0.075406
v 3.983074 0.740479 -0.175182
v 4.039032 0.491315 -0.027126
v 4.164719 0.464093 0.000323
v 4.145103 0.435009 0.102012
v 4.064348 0.457468 0.125512
v 4.042246 1.010186 0.114679
v 4.069704 0.887581 -0.092600
v 4.107005 1.109103 -0.087902
v 3.961692 1.208541 -0.121087
v 4.014791 1.188685 0.247585
v 4.126043 1.106252 0.013037
v 4.008667 1.221766 0.299924
v 4.001899 1.218254 0.336591
v 4.194098 1.180192 0.073859
v 4.127815 1.178212 0.087548
v 4.004288 1.192819 0.355620
v 4.080977 0.353126 -0.062138
v 4.077377 0.313506 0.056344
v 4.013186 0.389898 0.039734
v 4.109163 0.316161 -0.025971
v 4.109227 0.207225 -0.026295
v 4.048564 0.175257 -0.024372
v 4.089792 0.003010 0.169745
v 4.108439 0.056791 0.179301
v 4.024781 0.056334 0.174418
v 4.006919 0.003209 0.149304
v 4.159247 0.025519 0.115762
v 4.088153 0.209438 -0.130809
v 4.218928 1.097857 0.035877
v 4.115056 1.104766 0.088918
v 4.178503 0.935263 0.089592
v 4.155820 1.020925 0.142807
v 4.129829 0.997182 0.103792
v 4.194540 0.972110 0.129535
v 4.099240 0.956919 0.194692
v 4.021063 1.040763 0.274778
v 4.029642 1.061726 0.206848
v 4.016806 1.148798 0.362832
v 4.062526 1.057832 0.248490
v 3.993416 1.139085 0.253327
v 4.101847 0.001341 -0.016301
v 4.077004 0.103764 0.077388
v 4.043168 0.003624 0.000031
v 3.978093 1.251435 0.225362
v 3.938502 1.313533 -0.018598
v 3.908835 1.279098 0.055945
v 3.930923 1.305550 0.168065
v 3.933777 1.586064 0.266198
v 3.905566 1.555457 0.166346
v 3.934634 1.430048 0.089854
v 3.956309 1.434502 0.137036
v 3.949413 0.699373 0.083661
v 3.856107 0.837331 -0.023032
v 3.872828 0.863832 0.061829
v 3.914476 1.204154 0.096086
v 3.774362 1.226519 0.013765
v 3.930233 0.843652 -0.104860
v 3.958314 0.164906 -0.082261
v 3.854539 0.682333 0.101683
v 3.953551 0.450050 0.123758
v 3.962494 0.490262 -0.021327
v 3.834754 0.464659 -0.004002
v 3.846457 0.438839 0.101969
v 3.922002 1.112126 0.119302
v 3.867260 1.111301 0.009186
v 3.895805 1.018464 -0.081350
v 3.983767 1.209202 0.245800
v 3.812958 1.060403 0.012956
v 3.980640 1.234534 0.304422
v 3.981507 1.226055 0.345323
v 3.985008 1.199208 0.362316
v 3.810484 1.179178 -0.043161
v 3.807815 1.169509 0.086354
v 3.992420 1.162742 0.259959
v 3.985603 1.065385 0.266796
v 3.919762 0.312342 0.056876
v 3.977390 0.358855 0.025316
v 3.924453 0.352437 -0.060932
v 3.893829 0.314763 -0.027140
v 3.896824 0.206790 -0.026926
v 3.957603 0.175235 -0.024243
v 3.897187 0.056314 0.178655
v 3.915875 0.002465 0.169174
v 3.980818 0.055803 0.174133
v 3.998841 0.002703 0.149086
v 3.846720 0.024914 0.114884
v 3.918933 0.209447 -0.131306
v 3.873248 1.128903 0.078058
v 3.782178 1.079862 0.076819
v 3.848851 1.020675 0.139296
v 3.872291 0.987099 0.090565
v 3.813149 0.943705 0.116033
v 3.857075 0.914087 0.100285
v 3.949466 1.107222 0.237226
v 3.960785 1.095736 0.204791
v 3.975481 1.158620 0.371400
v 3.942386 1.103317 0.269717
v 3.904660 0.000932 -0.016948
v 3.930012 0.103203 0.077202
v 3.963249 0.003265 -0.000368
vt 0.386806 0.475980
vt 0.333820 0.448411
vt 0.338447 0.328258
vt 0.392939 0.370643
vt 0.782546 0.952848
vt 0.797330 0.967085
vt 0.780800 0.975363
vt 0.370481 0.864753
vt 0.404117 0.856737
vt 0.393241 0.909174
vt 0.403805 0.817433
vt 0.390304 0.806265
vt 0.987166 0.077254
vt 0.976339 0.062493
vt 0.976607 0.025312
vt 0.974724 0.770010
vt 0.964402 0.715150
vt 0.985982 0.720761
vt 0.359775 0.906139
vt 0.778490 0.998707
vt 0.768983 0.986704
vt 0.778490 0.970328
vt 0.959703 0.064973
vt 0.723687 0.435078
vt 0.780122 0.458807
vt 0.749096 0.508957
vt 0.338497 0.953080
vt 0.354041 0.938892
vt 0.353882 0.962710
vt 0.745839 0.413175
vt 0.897857 0.897578
vt 0.848414 0.878067
vt 0.885197 0.868434
vt 0.943999 0.111812
vt 0.933346 0.060292
vt 0.952614 0.015982
vt 0.376258 0.926849
vt 0.956801 0.751694
vt 0.733929 0.730061
vt 0.783136 0.655868
vt 0.773079 0.707991
vt 0.798035 0.742347
vt 0.319324 0.251149
vt 0.281010 0.301590
vt 0.398106 0.192989
vt 0.395962 0.241889
vt 0.369643 0.252612
vt 0.694466 0.566274
vt 0.647554 0.594846
vt 0.648444 0.471524
vt 0.815596 0.729342
vt 0.632824 0.726221
vt 0.638650 0.798742
vt 0.594698 0.730353
vt 0.673921 0.722328
vt 0.714972 0.022945
vt 0.779280 0.018429
vt 0.726521 0.098125
vt 0.246346 0.114368
vt 0.319421 0.145312
vt 0.696392 0.487139
vt 0.658476 0.395676
vt 0.019764 0.764075
vt 0.052425 0.802674
vt 0.039031 0.920573
vt 0.301881 0.499173
vt 0.292971 0.452821
vt 0.695412 0.688661
vt 0.671197 0.708902
vt 0.628686 0.387002
vt 0.681189 0.847547
vt 0.651645 0.863347
vt 0.952419 0.847087
vt 0.964729 0.911703
vt 0.912102 0.905504
vt 0.310227 0.994489
vt 0.292653 0.973250
vt 0.310227 0.962273
vt 0.779280 0.222815
vt 0.754548 0.230990
vt 0.706063 0.155490
vt 0.978317 0.454996
vt 0.954728 0.464195
vt 0.959854 0.381503
vt 0.825611 0.015857
vt 0.845280 0.027788
vt 0.816245 0.093053
vt 0.897429 0.402998
vt 0.851276 0.431079
vt 0.878524 0.385336
vt 0.699780 0.202728
vt 0.821782 0.379525
vt 0.846436 0.977425
vt 0.832068 0.955598
vt 0.863703 0.950791
vt 0.681175 0.882309
vt 0.692524 0.959550
vt 0.667266 0.948441
vt 0.238326 0.438307
vt 0.264283 0.520474
vt 0.813537 0.843134
vt 0.786281 0.771254
vt 0.821023 0.799269
vt 0.810984 0.768429
vt 0.726726 0.963901
vt 0.704873 0.930229
vt 0.733336 0.935453
vt 0.268198 0.430087
vt 0.448577 0.802670
vt 0.425909 0.818306
vt 0.416802 0.765493
vt 0.907446 0.433046
vt 0.941854 0.391634
vt 0.932590 0.437035
vt 0.914429 0.391480
vt 0.850878 0.316241
vt 0.842864 0.361376
vt 0.816588 0.357697
vt 0.902033 0.978400
vt 0.887500 0.971189
vt 0.902835 0.963854
vt 0.900648 0.494694
vt 0.914403 0.494197
vt 0.929729 0.580838
vt 0.434497 0.692933
vt 0.457110 0.708921
vt 0.482715 0.662717
vt 0.463223 0.608540
vt 0.767926 0.967319
vt 0.755289 0.960020
vt 0.760153 0.919198
vt 0.488649 0.614316
vt 0.001662 0.317266
vt 0.019572 0.282273
vt 0.073656 0.334528
vt 0.090930 0.243626
vt 0.768881 0.253467
vt 0.769391 0.274354
vt 0.748872 0.274983
vt 0.134012 0.771555
vt 0.163349 0.776129
vt 0.159897 0.880572
vt 0.092305 0.822442
vt 0.783374 0.279335
vt 0.805197 0.286300
vt 0.764812 0.344216
vt 0.941715 0.374694
vt 0.923825 0.354885
vt 0.941715 0.353690
vt 0.844010 0.555784
vt 0.870252 0.515877
vt 0.878766 0.569888
vt 0.849934 0.752225
vt 0.879377 0.628278
vt 0.901692 0.793512
vt 0.093514 0.862184
vt 0.129272 0.904337
vt 0.866080 0.657079
vt 0.951205 0.562874
vt 0.945109 0.518669
vt 0.967387 0.562170
vt 0.877747 0.121794
vt 0.913931 0.204075
vt 0.879412 0.214260
vt 0.865711 0.204883
vt 0.078730 0.807128
vt 0.666125 0.088794
vt 0.306326 0.000058
vt 0.291659 0.046968
vt 0.269144 0.027150
vt 0.823110 0.302713
vt 0.830137 0.279335
vt 0.221375 0.359206
vt 0.914475 0.179427
vt 0.897725 0.217961
vt 0.769105 0.000058
vt 0.739896 0.250040
vt 0.393113 0.980672
vt 0.375366 0.980704
vt 0.384640 0.938604
vt 0.804981 0.349246
vt 0.730640 0.329734
vt 0.511139 0.658115
vt 0.452526 0.618482
vt 0.746937 0.584826
vt 0.706632 0.506383
vt 0.989779 0.509755
vt 0.976451 0.498186
vt 0.991904 0.470816
vt 0.890977 0.843048
vt 0.868681 0.844369
vt 0.624603 0.703483
vt 0.754950 0.185829
vt 0.842483 0.168210
vt 0.798822 0.174184
vt 0.461751 0.787594
vt 0.506072 0.783914
vt 0.513971 0.820854
vt 0.215823 0.405219
vt 0.816165 0.423091
vt 0.856529 0.110572
vt 0.862121 0.138720
vt 0.998327 0.614011
vt 0.989916 0.606797
vt 0.998327 0.594917
vt 0.841770 0.253701
vt 0.822413 0.266710
vt 0.571657 0.595904
vt 0.565834 0.529778
vt 0.593742 0.572374
vt 0.779462 0.540777
vt 0.792883 0.582383
vt 0.786876 0.369205
vt 0.733798 0.366860
vt 0.722933 0.339054
vt 0.703124 0.368563
vt 0.691571 0.369699
vt 0.676078 0.323626
vt 0.174345 0.820073
vt 0.187191 0.771397
vt 0.202887 0.773171
vt 0.185265 0.686360
vt 0.161456 0.697468
vt 0.169832 0.615635
vt 0.718496 0.328550
vt 0.713387 0.285074
vt 0.110210 0.419393
vt 0.122194 0.315660
vt 0.147618 0.409820
vt 0.355803 0.844955
vt 0.171193 0.469310
vt 0.665981 0.256806
vt 0.333696 0.908272
vt 0.312024 0.829379
vt 0.292923 0.817987
vt 0.321233 0.754427
vt 0.145444 0.639875
vt 0.946430 0.573146
vt 0.972942 0.573978
vt 0.973430 0.612392
vt 0.696698 0.664668
vt 0.717978 0.642537
vt 0.747971 0.633450
vt 0.797110 0.629456
vt 0.640629 0.131266
vt 0.605091 0.187332
vt 0.593786 0.122855
vt 0.177728 0.093497
vt 0.121622 0.073129
vt 0.145393 0.017069
vt 0.436032 0.096693
vt 0.449915 0.007246
vt 0.482934 0.018526
vt 0.623683 0.241542
vt 0.122756 0.160933
vt 0.060372 0.100015
vt 0.335384 0.089806
vt 0.348357 0.176186
vt 0.382280 0.075780
vt 0.470747 0.197065
vt 0.534947 0.077871
vt 0.377337 0.708456
vt 0.387622 0.776422
vt 0.379807 0.797910
vt 0.596520 0.776792
vt 0.592523 0.795169
vt 0.621397 0.026493
vt 0.655481 0.003030
vt 0.256269 0.736770
vt 0.278850 0.605443
vt 0.326279 0.657012
vt 0.302812 0.737433
vt 0.418416 0.222244
vt 0.455181 0.497327
vt 0.495674 0.533746
vt 0.420065 0.534347
vt 0.534561 0.553937
vt 0.919521 0.946631
vt 0.945994 0.922638
vt 0.943057 0.968881
vt 0.138109 0.969784
vt 0.084189 0.980223
vt 0.123997 0.938761
vt 0.369986 0.624241
vt 0.400485 0.630926
vt 0.377322 0.702367
vt 0.648142 0.877136
vt 0.644304 0.916722
vt 0.608626 0.911699
vt 0.632937 0.868053
vt 0.372320 0.549739
vt 0.386715 0.548405
vt 0.489908 0.289448
vt 0.489684 0.348121
vt 0.444735 0.287357
vt 0.404990 0.563565
vt 0.543012 0.350179
vt 0.460431 0.923933
vt 0.446682 0.931606
vt 0.450135 0.888456
vt 0.884786 0.259319
vt 0.904676 0.259141
vt 0.872707 0.336313
vt 0.490339 0.418400
vt 0.490821 0.456363
vt 0.813400 0.876874
vt 0.820165 0.938920
vt 0.801620 0.944331
vt 0.963524 0.167955
vt 0.947271 0.148498
vt 0.964984 0.115769
vt 0.925314 0.245041
vt 0.955308 0.236675
vt 0.954410 0.337458
vt 0.065452 0.689090
vt 0.081237 0.713384
vt 0.036162 0.627311
vt 0.015350 0.619893
vt 0.068551 0.734908
vt 0.917886 0.705834
vt 0.939544 0.743519
vt 0.915826 0.792037
vt 0.565512 0.437574
vt 0.466673 0.395040
vt 0.516584 0.382542
vt 0.973362 0.111717
vt 0.959623 0.077619
vt 0.978395 0.079812
vt 0.974292 0.710706
vt 0.965097 0.668475
vt 0.979389 0.645019
vt 0.926749 0.918055
vt 0.145877 0.731436
vt 0.157575 0.723611
vt 0.161969 0.745889
vt 0.528538 0.986266
vt 0.517401 0.947095
vt 0.534082 0.955006
vt 0.198534 0.273507
vt 0.571228 0.932604
vt 0.569093 0.807247
vt 0.572428 0.875692
vt 0.542775 0.939348
vt 0.517995 0.878646
vt 0.489196 0.841579
vt 0.455729 0.839431
vt 0.160306 0.922551
vt 0.180787 0.938185
vt 0.162449 0.958530
vt 0.202840 0.908165
vt 0.761763 0.790318
vt 0.746106 0.912310
vt 0.702195 0.836832
vt 0.566928 0.643948
vt 0.542133 0.745610
vt 0.520542 0.730112
vt 0.538790 0.645703
vt 0.560837 0.454396
vt 0.608772 0.349458
vt 0.573152 0.346214
vt 0.311206 0.074652
vt 0.272472 0.868852
vt 0.230984 0.914554
vt 0.224835 0.799153
vt 0.274416 0.780290
vt 0.956760 0.257004
vt 0.972902 0.235399
vt 0.975371 0.315908
vt 0.055686 0.034828
vt 0.074858 0.013488
vt 0.708112 0.986368
vt 0.717962 0.979745
vt 0.717962 0.997487
vt 0.181056 0.232885
vt 0.122950 0.594442
vt 0.106130 0.569648
vt 0.131129 0.564926
vt 0.260918 0.632460
vt 0.227251 0.633689
vt 0.287890 0.566851
vt 0.243352 0.553575
vt 0.219150 0.599980
vt 0.223329 0.567058
vt 0.138954 0.742144
vt 0.114840 0.750443
vt 0.049867 0.992102
vt 0.052923 0.967839
vt 0.055126 0.977341
vt 0.199175 0.637074
vt 0.188963 0.629564
vt 0.195777 0.615538
vt 0.008401 0.993948
vt 0.001058 0.970480
vt 0.013319 0.971368
vt 0.811735 0.949868
vt 0.818832 0.986443
vt 0.799682 0.986167
vt 0.413306 0.883904
vt 0.485617 0.890429
vt 0.964255 0.919575
vt 0.184159 0.298281
vt 0.725016 0.255330
vt 0.486198 0.572469
vt 0.222994 0.602980
vt 0.223616 0.663362
vt 0.625706 0.960425
vt 0.335138 0.685415
vt 0.444282 0.455750
vt 0.087333 0.578460
vt 0.094388 0.623644
vt 0.776565 0.888263
vt 0.913544 0.351120
vt 0.581616 0.661449
vt 0.499494 0.262798
vt 0.486518 0.496426
vt 0.517415 0.483325
vt 0.301262 0.579656
vt 0.094378 0.013384
vt 0.556511 0.460418
vt 0.565243 0.490121
vt 0.971755 0.223793
vt 0.972287 0.198902
vt 0.988125 0.209090
vt 0.480722 0.923729
vt 0.226301 0.712314
vt 0.217266 0.700542
vt 0.974156 0.477690
vt 0.329649 0.694718
vt 0.331303 0.743610
vt 0.790880 0.432748
vn -0.133700 0.296100 -0.945700
vn 0.652500 -0.108400 -0.750000
vn 0.384800 0.122600 -0.914800
vn -0.670600 -0.096000 -0.735600
vn 0.928000 -0.197300 0.316000
vn 0.494300 -0.613000 0.616400
vn 0.024100 -0.494200 0.869000
vn -0.477700 0.396600 0.783900
vn 0.539400 0.311200 0.782500
vn 0.406200 0.151900 0.901100
vn -0.358300 -0.498100 0.789600
vn 0.842100 0.413600 -0.346100
vn 0.671600 0.685100 -0.282000
vn 0.047100 0.569300 0.820800
vn -0.011500 0.796400 -0.604600
vn -0.434900 0.169900 0.884300
vn 0.285100 0.687700 -0.667700
vn 0.793600 0.427500 0.433000
vn 0.262700 -0.052900 0.963400
vn -0.446300 -0.217200 0.868100
vn 0.267600 0.033200 0.963000
vn 0.846900 0.104800 0.521300
vn 0.670500 -0.043400 -0.740600
vn 0.960600 0.157200 -0.229200
vn -0.394000 -0.294200 -0.870800
vn 0.009100 -0.093600 -0.995600
vn 0.211100 -0.068000 -0.975100
vn 0.872500 0.095700 0.479200
vn 0.241500 -0.043400 0.969400
vn -0.242100 -0.100200 0.965100
vn -0.197500 -0.966400 -0.164800
vn -0.515000 -0.197100 -0.834200
vn 0.888900 -0.161000 -0.428900
vn -0.338500 -0.115700 0.933800
vn 0.560300 0.067500 -0.825500
vn 0.636800 -0.449900 -0.626200
vn 0.695600 -0.267500 0.666700
vn 0.228600 0.214100 0.949700
vn 0.162400 0.124800 0.978800
vn -0.024400 0.189400 -0.981600
vn 0.078200 -0.590200 0.803500
vn -0.965100 -0.205200 0.162600
vn 0.164700 0.052600 -0.984900
vn -0.848000 -0.175700 -0.499900
vn -0.902100 0.295600 0.314400
vn 0.931000 0.074700 0.357300
vn 0.986100 -0.095000 -0.136000
vn 0.191300 -0.737600 0.647600
vn 0.435700 0.403600 0.804500
vn -0.545900 0.378600 0.747400
vn 0.225200 0.794200 0.564300
vn 0.902500 -0.258600 -0.344400
vn 0.857700 0.486700 -0.165600
vn 0.295700 0.518400 0.802400
vn 0.601000 0.345000 0.721000
vn -0.865700 0.176000 0.468700
vn -0.896900 -0.219400 -0.384000
vn 0.210200 -0.899700 -0.382500
vn -0.221900 -0.857500 0.464100
vn 0.822800 -0.278300 0.495500
vn 0.908600 0.200000 0.366600
vn -0.534300 0.092100 -0.840200
vn 0.075000 0.711900 -0.698300
vn -0.418100 -0.762300 0.494000
vn 0.068100 -0.064500 0.995600
vn -0.947800 0.010700 -0.318700
vn -0.122000 0.372300 0.920100
vn 0.037300 0.991100 -0.127900
vn -0.150500 0.835800 0.528000
vn -0.749400 -0.571600 0.334200
vn -0.609200 -0.676500 -0.413800
vn 0.380000 -0.734600 -0.562100
vn 0.939900 -0.242900 0.239900
vn -0.904300 -0.190200 0.382200
vn -0.693900 0.670900 -0.261700
vn -0.830100 0.417000 -0.370300
vn -0.032500 0.572500 0.819300
vn -0.809100 0.392500 0.437400
vn -0.473900 0.670400 -0.571000
vn 0.147300 -0.089800 0.985000
vn -0.838600 0.056600 0.541800
vn -0.963000 0.132200 -0.234900
vn -0.425000 0.227700 -0.876100
vn -0.618100 0.159000 0.769900
vn 0.527200 -0.154500 -0.835600
vn -0.871200 -0.145200 -0.469000
vn 0.480600 -0.160700 0.862100
vn -0.426200 0.014000 0.904500
vn -0.548000 -0.721000 -0.424000
vn -0.723600 -0.252500 0.642300
vn -0.437700 0.342100 0.831500
vn -0.300800 0.269500 0.914800
vn -0.861500 0.507000 -0.028800
vn 0.729100 0.440200 -0.524000
vn 0.189700 0.362600 0.912400
vn 0.621900 -0.701200 0.348600
vn 0.105400 0.176100 -0.978700
vn -0.114500 -0.613100 0.781600
vn 0.968900 -0.225600 0.101200
vn -0.143900 0.064200 -0.987500
vn 0.861600 -0.153000 -0.484000
vn -0.939400 0.047300 0.339500
vn 0.891700 0.320700 0.319400
vn -0.975700 -0.101300 -0.194100
vn 0.542700 0.378200 0.750000
vn -0.440300 0.404600 0.801500
vn -0.194000 -0.737800 0.646500
vn -0.231500 0.792900 0.563600
vn -0.507700 0.637200 0.579900
vn 0.110200 -0.260800 0.959100
vn 0.928900 -0.067900 -0.364100
vn -0.070400 -0.120500 0.990200
vn -0.911200 -0.055200 0.408300
vn -0.763000 0.592100 -0.259400
vn 0.397500 0.430200 -0.810500
vn 0.174900 -0.969500 -0.171800
vn -0.773200 -0.580600 0.255100
vn 0.116700 0.900800 0.418200
vn 0.005400 0.959300 0.282400
vn 0.748400 -0.571300 0.336900
vn 0.611800 -0.675000 -0.412400
vn -0.376800 -0.733800 -0.565300
vn -0.940900 -0.243200 0.235800
vn -0.703200 0.016400 -0.710800
vn -0.400000 -0.441600 -0.803100
vn -0.967300 -0.081900 0.240200
vn 0.154900 0.985600 0.068300
usemtl (null)_IGF_Turner.001_IGF_Turner_color.tga_NONE.002
s 1
f 36/1/1 35/2/2 34/3/3
f 34/3/3 93/4/4 36/1/1
usemtl (null)_IGF_Turner.001_IGF_Turner_color.tga.004
f 10/5/5 1/6/6 18/7/7
f 2/8/8 11/9/9 9/10/10
f 1/11/6 11/9/9 71/12/11
f 9/13/10 6/14/12 8/15/13
f 7/16/14 5/17/15 9/18/10
f 2/8/8 71/12/11 11/9/9
f 78/19/16 2/8/8 9/10/10
f 6/20/12 3/21/17 5/22/15
f 5/23/15 8/15/13 6/14/12
f 6/24/12 10/25/5 4/26/18
f 1/27/6 10/28/5 11/29/9
f 9/30/10 10/25/5 6/24/12
f 10/31/5 18/32/7 4/33/18
f 9/34/10 8/35/13 7/36/14
f 5/37/15 78/19/16 9/10/10
f 7/16/14 8/38/13 5/17/15
f 25/39/19 27/40/20 24/41/21
f 14/42/22 25/39/19 24/41/21
f 16/43/23 34/3/3 13/44/24
f 22/45/25 28/46/26 15/47/27
f 13/48/24 14/49/22 23/50/28
f 23/51/28 14/42/22 24/41/21
f 25/52/19 33/53/29 26/54/30
f 33/53/29 25/52/19 14/55/22
f 12/56/31 15/57/27 29/58/32
f 30/59/33 29/60/32 15/47/27
f 15/47/27 16/43/23 30/59/33
f 16/43/23 13/44/24 30/59/33
f 13/61/24 23/50/28 30/62/33
f 24/63/21 27/64/20 32/65/34
f 35/2/2 20/66/35 38/67/36
f 14/49/22 13/48/24 35/68/2
f 35/68/2 38/69/36 14/49/22
f 23/50/28 31/70/37 30/62/33
f 14/55/22 42/71/38 33/53/29
f 33/53/29 42/71/38 17/72/39
f 44/73/40 29/74/32 30/75/33
f 45/76/41 32/77/34 46/78/42
f 55/79/43 21/80/44 46/81/42
f 46/82/42 44/83/40 55/84/43
f 49/85/45 48/86/46 45/87/41
f 45/88/41 48/89/46 47/90/47
f 46/81/42 21/80/44 45/91/41
f 47/90/47 48/89/46 55/92/43
f 50/93/48 51/94/49 52/95/50
f 69/96/51 48/97/46 49/98/45
f 56/99/52 20/66/35 19/100/53
f 59/101/54 41/102/55 57/103/56
f 41/102/55 42/104/38 57/103/56
f 38/105/36 57/106/56 42/107/38
f 38/108/36 20/66/35 56/99/52
f 60/109/57 58/110/58 62/111/59
f 62/112/59 61/113/60 59/114/54
f 61/113/60 62/112/59 58/115/58
f 41/116/55 59/117/54 61/118/60
f 66/119/61 64/120/62 37/121/63
f 63/122/64 66/123/61 65/124/65
f 63/125/64 64/126/62 60/109/57
f 60/109/57 62/111/59 63/125/64
f 66/123/61 62/112/59 59/114/54
f 67/127/66 64/126/62 63/125/64
f 67/127/66 63/125/64 43/128/67
f 37/129/63 67/130/66 39/131/68
f 67/127/66 43/128/67 40/132/69
f 19/133/53 20/134/35 3/135/17
f 20/134/35 36/136/1 3/135/17
f 69/137/51 49/138/45 52/139/50
f 53/140/70 52/141/50 49/142/45
f 49/142/45 70/143/71 53/140/70
f 70/144/71 68/145/72 50/146/48
f 52/147/50 51/148/49 69/149/51
f 54/150/73 69/151/51 51/152/49
f 68/153/72 55/154/43 54/155/73
f 68/156/72 70/143/71 21/157/44
f 68/153/72 21/158/44 55/154/43
f 66/159/61 59/160/54 64/161/62
f 66/162/61 39/163/68 43/164/67
f 66/162/61 43/164/67 65/165/65
f 29/58/32 46/81/42 12/56/31
f 32/65/34 27/64/20 12/166/31
f 12/56/31 46/81/42 32/167/34
f 55/168/43 44/169/40 47/170/47
f 15/47/27 34/3/3 16/43/23
f 36/1/1 20/66/35 35/2/2
f 41/116/55 56/171/52 19/172/53
f 56/99/52 58/173/58 38/108/36
f 66/162/61 37/174/63 39/163/68
f 39/163/68 40/175/69 43/164/67
f 12/56/31 22/176/25 15/57/27
f 21/80/44 49/177/45 45/91/41
f 39/178/68 67/179/66 40/180/69
f 68/145/72 54/181/73 50/146/48
f 70/144/71 50/146/48 53/182/70
f 64/126/62 67/127/66 37/183/63
f 43/128/67 63/125/64 65/184/65
f 4/26/18 19/185/53 3/186/17
f 3/187/17 6/188/12 4/189/18
f 4/190/18 18/32/7 17/191/39
f 42/192/38 14/49/22 38/69/36
f 29/58/32 44/193/40 46/81/42
f 45/87/41 31/194/37 32/195/34
f 60/109/57 59/196/54 57/197/56
f 57/197/56 38/198/36 60/109/57
f 58/110/58 60/109/57 38/198/36
f 61/199/60 58/173/58 56/99/52
f 56/171/52 41/116/55 61/118/60
f 55/200/43 48/89/46 54/150/73
f 69/151/51 54/150/73 48/89/46
f 49/142/45 21/157/44 70/143/71
f 44/169/40 30/59/33 47/170/47
f 31/194/37 47/201/47 30/202/33
f 47/203/47 31/204/37 45/205/41
f 23/206/28 24/207/21 31/194/37
f 24/207/21 32/195/34 31/194/37
f 4/208/18 17/209/39 42/210/38
f 4/26/18 42/211/38 41/212/55
f 19/185/53 4/26/18 41/212/55
f 54/181/73 51/213/49 50/146/48
f 52/214/50 53/182/70 50/146/48
f 18/215/7 1/216/6 71/217/11
f 71/217/11 74/218/74 18/215/7
f 76/219/75 77/220/76 78/221/16
f 78/222/16 5/223/15 75/224/77
f 18/225/7 74/218/74 73/226/78
f 5/227/15 72/228/79 77/229/76
f 3/135/17 72/228/79 5/227/15
f 2/8/8 74/230/74 71/12/11
f 5/227/15 77/229/76 76/231/75
f 73/226/78 74/218/74 77/232/76
f 2/8/8 78/19/16 74/230/74
f 77/233/76 74/230/74 78/19/16
f 75/234/77 76/235/75 78/236/16
f 5/223/15 76/237/75 75/224/77
f 79/238/80 27/239/20 25/240/19
f 25/39/19 26/241/30 79/242/80
f 27/40/20 79/243/80 12/244/31
f 81/245/81 79/246/80 26/247/30
f 80/248/82 84/249/83 22/250/25
f 86/251/84 81/252/81 80/253/82
f 79/246/80 81/245/81 86/254/84
f 93/255/4 34/256/3 84/249/83
f 88/257/85 22/45/25 12/258/31
f 22/45/25 88/257/85 89/259/86
f 89/260/86 80/253/82 22/261/25
f 89/260/86 86/251/84 80/253/82
f 87/262/87 79/263/80 86/264/84
f 26/265/30 33/53/29 91/266/88
f 26/247/30 91/267/88 81/245/81
f 81/245/81 91/267/88 92/268/89
f 81/269/81 92/270/89 93/271/4
f 93/271/4 80/272/82 81/269/81
f 89/260/86 90/273/90 86/251/84
f 100/274/91 82/275/92 83/276/93
f 82/275/92 17/209/39 18/277/7
f 101/278/94 98/279/95 102/280/96
f 89/281/86 88/282/85 105/283/97
f 103/284/98 104/285/99 87/286/87
f 114/287/100 105/288/97 104/289/99
f 104/289/99 85/290/101 114/287/100
f 103/284/98 107/291/102 108/292/103
f 106/293/104 107/294/102 103/295/98
f 103/284/98 85/296/101 104/285/99
f 106/293/104 114/297/100 107/294/102
f 111/298/105 109/299/106 110/300/107
f 108/301/103 107/302/102 126/303/108
f 117/304/109 115/305/110 100/274/91
f 115/306/110 117/307/109 118/308/111
f 123/309/112 124/310/113 102/311/96
f 118/312/111 117/313/109 121/314/114
f 121/315/114 122/316/115 118/317/111
f 120/318/116 118/317/111 122/316/115
f 120/318/116 122/316/115 102/319/96
f 102/320/96 124/321/113 120/322/116
f 124/323/113 119/324/117 120/325/116
f 117/304/109 119/324/117 124/323/113
f 96/326/118 124/327/113 101/328/94
f 96/329/118 101/330/94 121/331/114
f 101/278/94 97/332/119 98/279/95
f 123/333/112 98/334/95 124/335/113
f 97/336/119 124/337/113 98/338/95
f 72/228/79 36/136/1 83/339/93
f 36/136/1 72/228/79 3/135/17
f 111/340/105 108/341/103 126/342/108
f 112/343/120 127/344/121 108/341/103
f 108/341/103 111/340/105 112/343/120
f 127/345/121 110/300/107 125/346/122
f 126/347/108 109/348/106 111/349/105
f 109/348/106 126/347/108 113/350/123
f 113/351/123 114/352/100 125/353/122
f 85/354/101 127/355/121 125/356/122
f 114/357/100 85/354/101 125/356/122
f 124/323/113 121/358/114 117/304/109
f 86/254/84 90/359/90 87/360/87
f 12/258/31 104/361/99 88/257/85
f 87/362/87 104/363/99 12/364/31
f 12/364/31 79/365/80 87/362/87
f 106/366/104 105/367/97 114/368/100
f 15/369/27 28/370/26 84/249/83
f 82/371/92 100/372/91 115/373/110
f 93/255/4 99/374/124 36/136/1
f 92/375/89 95/376/125 99/377/124
f 95/378/125 116/379/126 99/380/124
f 83/381/93 99/380/124 116/379/126
f 116/382/126 100/383/91 83/381/93
f 94/384/127 102/319/96 122/316/115
f 94/384/127 101/385/94 102/319/96
f 94/386/127 121/387/114 101/388/94
f 121/389/114 124/390/113 96/391/118
f 94/392/127 122/393/115 121/394/114
f 85/296/101 103/284/98 108/292/103
f 97/395/119 101/396/94 124/397/113
f 125/346/122 110/300/107 113/398/123
f 127/345/121 112/399/120 110/300/107
f 98/279/95 123/400/112 102/280/96
f 72/228/79 83/339/93 73/401/78
f 73/226/78 77/232/76 72/402/79
f 82/275/92 18/277/7 73/403/78
f 115/404/110 92/270/89 91/405/88
f 104/289/99 105/288/97 88/406/85
f 87/262/87 90/407/90 103/284/98
f 117/304/109 116/408/126 119/324/117
f 92/375/89 120/318/116 95/409/125
f 118/317/111 92/375/89 115/410/110
f 92/375/89 118/317/111 120/318/116
f 117/304/109 100/274/91 116/408/126
f 113/351/123 107/411/102 114/352/100
f 107/302/102 113/412/123 126/303/108
f 127/355/121 85/354/101 108/413/103
f 106/293/104 89/260/86 105/414/97
f 89/260/86 106/293/104 90/273/90
f 103/295/98 90/273/90 106/293/104
f 82/275/92 115/415/110 91/416/88
f 17/209/39 82/275/92 91/416/88
f 73/403/78 83/276/93 82/275/92
f 92/270/89 99/417/124 93/271/4
f 83/339/93 36/136/1 99/374/124
f 34/256/3 15/369/27 84/249/83
f 84/249/83 28/418/26 22/250/25
f 91/416/88 33/419/29 17/420/39
f 110/421/107 109/422/106 113/423/123
f 110/300/107 112/399/120 111/424/105
f 95/378/125 120/425/116 119/426/117
f 119/426/117 116/379/126 95/378/125
f 59/160/54 60/427/57 64/161/62
f 62/112/59 66/123/61 63/122/64
f 80/272/82 93/428/4 84/429/83
f 34/3/3 35/2/2 13/44/24
f 11/430/9 10/25/5 9/30/10
