# Blender v2.75 (sub 0) OBJ File: ''
# www.blender.org
mtllib Rug_Carpet.mtl
o Cube_Cube.001
v -0.830669 0.005650 0.765099
v -0.830669 0.016526 0.765099
v 0.845440 0.004708 0.836793
v 0.845440 0.015499 0.836793
v 0.815696 0.004708 -0.821226
v 0.815696 0.015499 -0.826770
v -0.120604 0.015499 -0.833983
v 0.119567 0.015499 -0.819846
v 0.358959 0.015499 -0.814917
v 0.528881 0.015499 -0.821791
v 0.530301 0.004708 -0.821791
v 0.358959 0.004708 -0.814917
v 0.119567 0.004708 -0.819846
v -0.120604 0.004708 -0.833983
v 0.608389 0.003512 0.858409
v 0.365303 0.015499 0.854086
v 0.118796 0.003512 0.844629
v -0.119156 0.015499 0.866606
v -0.358188 0.015499 0.857869
v -0.599922 0.003879 0.848322
v -0.599922 -0.006912 0.848322
v -0.358188 0.004708 0.857869
v -0.119156 0.004708 0.866606
v 0.118796 -0.007278 0.844629
v 0.365303 0.004708 0.854086
v 0.608389 -0.007278 0.858409
v -0.824184 0.021948 0.599112
v -0.815897 0.015499 0.361521
v -0.808782 0.015499 0.121858
v -0.815897 0.015499 -0.117715
v -0.817338 0.002984 -0.353685
v -0.816786 0.015499 -0.598641
v -0.817010 0.004708 -0.597230
v -0.817338 -0.007807 -0.353685
v -0.815897 0.004708 -0.117715
v -0.808782 0.004708 0.121858
v -0.815897 0.004708 0.361521
v -0.824184 0.011132 0.599112
v 0.817382 0.015499 -0.597703
v 0.824889 0.015499 -0.356312
v 0.827291 0.003953 -0.117069
v 0.837874 0.015499 0.119696
v 0.843098 0.022190 0.360890
v 0.846250 0.015499 0.597851
v 0.846250 0.004708 0.597851
v 0.843098 0.011399 0.360890
v 0.837874 0.004708 0.119696
v 0.827291 -0.006837 -0.117069
v 0.824889 0.004708 -0.356312
v 0.817382 0.004708 -0.597703
v 0.598481 0.031822 -0.598481
v 0.598481 0.002984 -0.359089
v 0.598481 0.015499 -0.119696
v 0.598481 0.015499 0.119696
v 0.598481 0.015499 0.359089
v 0.598481 0.015499 0.598481
v 0.359089 0.007029 -0.598481
v 0.359089 0.015499 -0.359089
v 0.359089 0.031822 -0.119696
v 0.359089 0.015499 0.119696
v 0.359089 0.015499 0.359089
v 0.359089 0.015499 0.598481
v 0.119696 0.015499 -0.598481
v 0.119696 0.015499 -0.359089
v 0.119696 0.015499 -0.119696
v 0.119696 0.031822 0.119696
v 0.119696 0.015499 0.359089
v 0.119696 0.015499 0.598481
v -0.119696 0.015499 -0.598481
v -0.119696 0.015499 -0.359089
v -0.119696 0.015499 -0.119696
v -0.119696 0.015499 0.119696
v -0.119696 0.015499 0.359089
v -0.119696 0.002984 0.598481
v -0.359089 0.015499 -0.598481
v -0.359089 0.031822 -0.359089
v -0.359089 0.015499 -0.119696
v -0.359089 0.002984 0.119696
v -0.359089 0.015499 0.359089
v -0.359089 0.015499 0.598481
v -0.598481 0.015499 -0.598481
v -0.598481 0.015499 -0.359089
v -0.598481 0.015499 -0.119696
v -0.598481 0.031822 0.119696
v -0.598481 0.015499 0.359089
v -0.598481 0.032188 0.598481
v -0.598481 0.004708 -0.598481
v -0.598481 0.004708 -0.359089
v -0.598481 0.004708 -0.119696
v -0.598481 0.021031 0.119696
v -0.598481 0.004708 0.359089
v -0.598481 0.021398 0.598481
v -0.359089 0.004708 -0.598481
v -0.359089 0.004708 0.598481
v -0.119696 0.004708 -0.598481
v -0.119696 -0.007807 0.598481
v 0.119696 0.004708 -0.598481
v 0.119696 0.004708 0.598481
v 0.359089 -0.003762 -0.598481
v 0.359089 0.004708 0.598481
v 0.598481 0.021031 -0.598481
v 0.598481 0.004708 0.598481
v -0.822735 0.019511 0.682418
v 0.835681 0.015499 0.719772
v 0.603435 0.015499 0.728445
v 0.362196 0.031822 0.726284
v 0.119246 0.015499 0.721555
v -0.119426 0.015499 0.732544
v -0.358638 0.015499 0.728175
v -0.599202 0.021716 0.723402
v -0.599202 0.010926 0.723402
v -0.358638 0.004708 0.728175
v -0.119426 0.004708 0.732544
v 0.119246 0.004708 0.721555
v 0.362196 0.021031 0.726284
v 0.603435 0.004708 0.728445
v -0.822735 0.030434 0.682418
v 0.835681 0.004708 0.719772
v 0.807029 0.004708 -0.702192
v 0.807029 0.015499 -0.702192
v 0.598676 0.015499 -0.710136
v 0.359024 0.015499 -0.706699
v 0.119631 0.031822 -0.709164
v -0.120150 0.002984 -0.716232
v -0.345011 0.015499 -0.740097
v -0.347442 0.004708 -0.739316
v -0.120150 -0.007807 -0.716232
v 0.119631 0.021031 -0.709164
v 0.359024 0.004708 -0.706699
v 0.598676 0.004708 -0.710136
v 0.810583 0.040169 -0.747563
v 0.810732 0.032934 -0.748637
v 0.605456 0.024642 -0.834244
v 0.604141 0.024642 -0.826153
v 0.662384 0.053143 -0.810030
v 0.660044 0.047141 -0.808966
v 0.817196 0.033786 -0.814774
v 0.818669 0.033786 -0.825396
v 0.736089 0.041776 -0.791214
v 0.746948 0.021794 -0.830979
v 0.736148 0.048929 -0.789740
v 0.745480 0.021794 -0.820497
v 0.814575 0.042541 -0.784804
v 0.814612 0.052393 -0.785240
v 0.635824 0.046007 -0.815768
v 0.638174 0.052393 -0.819082
v 0.741069 0.041669 -0.810434
v 0.741225 0.052393 -0.810360
v 0.816887 0.041243 -0.804299
v 0.621623 0.046514 -0.823700
v 0.817589 0.048793 -0.811882
v 0.742934 0.034219 -0.815031
v 0.743798 0.041770 -0.821796
v 0.812598 0.048516 -0.766091
v 0.648960 0.049037 -0.812836
v 0.738393 0.042640 -0.801942
v 0.738588 0.053224 -0.800191
v 0.812560 0.038765 -0.767122
v 0.651303 0.055216 -0.814613
v 0.815000 0.004708 -0.813381
v 0.815000 0.015499 -0.805595
v 0.528865 0.015499 -0.812833
v 0.358964 0.015499 -0.806235
v 0.119572 0.015499 -0.810966
v -0.120568 0.015499 -0.824536
v -0.120568 0.004708 -0.824536
v 0.119572 0.004708 -0.810966
v 0.358964 0.004708 -0.806235
v 0.598855 0.004708 -0.812833
v 0.745660 0.015499 -0.826354
v 0.768871 0.004708 0.843775
v 0.745660 0.004708 -0.820810
v 0.768871 0.015499 0.843775
v 0.766219 0.015499 0.598055
v 0.764085 0.015499 0.360308
v 0.760549 0.015499 0.119696
v 0.753384 0.015499 -0.117918
v 0.751758 0.015499 -0.357209
v 0.746676 0.015499 -0.597955
v 0.766219 0.004708 0.598055
v 0.764085 0.004708 0.360308
v 0.760549 0.004708 0.119696
v 0.753384 0.004708 -0.117918
v 0.751758 0.004708 -0.357209
v 0.746676 0.004708 -0.597955
v 0.760664 0.004708 0.722573
v 0.760664 0.015499 0.722573
v 0.739730 0.007029 -0.704758
v 0.739730 -0.003762 -0.704758
v 0.745184 0.015499 -0.794980
v 0.745184 0.004708 -0.813204
v 0.566910 0.004708 -0.820324
v 0.679474 0.015499 0.851927
v 0.672780 0.015499 0.598292
v 0.671835 0.015499 0.359629
v 0.670268 0.031822 0.119696
v 0.667095 0.015499 -0.118908
v 0.666375 0.015499 -0.358256
v 0.664123 0.015499 -0.598248
v 0.673079 0.002984 0.725845
v 0.661155 0.015499 -0.707754
v 0.568340 0.015499 -0.809867
v 0.568560 0.015499 -0.825868
v 0.679474 0.004708 0.851927
v 0.672780 0.004708 0.598292
v 0.671835 0.004708 0.359629
v 0.670268 0.021031 0.119696
v 0.667095 0.004708 -0.118909
v 0.666375 0.004708 -0.358256
v 0.664123 0.004708 -0.598248
v 0.673079 -0.007807 0.725845
v 0.661155 0.004708 -0.707754
v 0.663671 0.004708 -0.812997
v -0.817237 0.004708 -0.788583
v -0.817237 0.015499 -0.798598
v -0.188076 0.015499 -0.836532
v -0.190643 0.004708 -0.831302
v -0.469402 0.004708 -0.827787
v -0.624654 0.004708 -0.781608
v -0.470893 0.015499 -0.837802
v -0.540068 0.045839 -0.797072
v -0.541945 0.054220 -0.798727
v -0.802789 0.040169 -0.688345
v -0.803057 0.032934 -0.690285
v -0.294233 0.024642 -0.841582
v -0.273676 0.020070 -0.820867
v -0.481082 0.053498 -0.794866
v -0.477389 0.046785 -0.793474
v -0.819948 0.031836 -0.783110
v -0.822609 0.033786 -0.796115
v -0.673425 0.041776 -0.734365
v -0.693041 0.021794 -0.806201
v -0.673533 0.048929 -0.731702
v -0.690390 0.021794 -0.787266
v -0.813838 0.042541 -0.731443
v -0.814102 0.052393 -0.730993
v -0.386808 0.046007 -0.804068
v -0.389588 0.052393 -0.815193
v -0.682421 0.041669 -0.769086
v -0.682704 0.052393 -0.768952
v -0.819388 0.041243 -0.758003
v -0.358429 0.046514 -0.821469
v -0.820657 0.048793 -0.771702
v -0.685791 0.034219 -0.777391
v -0.687352 0.041770 -0.789613
v -0.807872 0.048516 -0.712719
v -0.411235 0.049037 -0.801307
v -0.677588 0.042640 -0.753745
v -0.677939 0.053224 -0.750583
v -0.807760 0.038765 -0.714860
v -0.414638 0.055216 -0.807779
v -0.815981 0.004708 -0.774410
v -0.815981 0.015499 -0.785636
v -0.188048 0.015499 -0.825516
v -0.518547 0.044142 -0.825087
v -0.531802 0.052393 -0.811619
v -0.395747 0.004708 -0.790875
v -0.690715 0.015499 -0.797846
v -0.690715 0.004708 -0.787831
v -0.530271 0.043838 -0.806123
v -0.489293 0.023218 -0.843437
v -0.689856 0.015499 -0.741168
v -0.689856 0.004708 -0.774090
v -0.256776 0.004708 -0.828651
v -0.550481 0.051036 -0.784929
v -0.259757 0.015499 -0.838666
v -0.548581 0.044458 -0.784105
v -0.568140 0.004708 -0.786063
vt 0.923147 0.968809
vt 0.843420 0.970649
vt 0.852530 0.964708
vt 0.978645 0.029064
vt 0.973146 0.095002
vt 0.164221 0.022567
vt 0.034202 0.069461
vt 0.922422 0.963080
vt 0.961885 0.963314
vt 0.961493 0.958894
vt 0.822506 0.956914
vt 0.822630 0.965930
vt 0.800272 0.963633
vt 0.800263 0.958585
vt 0.704526 0.959759
vt 0.569634 0.962536
vt 0.569637 0.957533
vt 0.434304 0.970502
vt 0.434325 0.965179
vt 0.704529 0.954867
vt 0.801073 0.963633
vt 0.845073 0.016883
vt 0.885127 0.020536
vt 0.708101 0.019319
vt 0.569200 0.024648
vt 0.435120 0.012265
vt 0.300432 0.017188
vt 0.706350 0.091333
vt 0.704599 0.163346
vt 0.839490 0.163346
vt 0.569454 0.093997
vt 0.569707 0.163346
vt 0.434816 0.163346
vt 0.300178 0.090267
vt 0.299924 0.163346
vt 0.164627 0.092957
vt 0.165033 0.163346
vt 0.038672 0.116050
vt 0.037856 0.162991
vt 0.042525 0.296867
vt 0.165033 0.298237
vt 0.046534 0.431911
vt 0.165033 0.433129
vt 0.042525 0.566904
vt 0.165033 0.568020
vt 0.041713 0.699867
vt 0.165033 0.702912
vt 0.041898 0.837098
vt 0.165033 0.837803
vt 0.299924 0.298237
vt 0.299924 0.433129
vt 0.299924 0.568020
vt 0.299924 0.702912
vt 0.299924 0.837803
vt 0.434816 0.298237
vt 0.434816 0.433129
vt 0.434816 0.568020
vt 0.434816 0.702912
vt 0.434816 0.837803
vt 0.569707 0.298237
vt 0.569707 0.433129
vt 0.569707 0.568020
vt 0.569707 0.702912
vt 0.569707 0.837803
vt 0.704599 0.298237
vt 0.704599 0.433129
vt 0.704599 0.702912
vt 0.704599 0.837803
vt 0.839490 0.298237
vt 0.839490 0.433129
vt 0.839490 0.568020
vt 0.704599 0.568020
vt 0.839490 0.702912
vt 0.881356 0.163453
vt 0.842282 0.090115
vt 0.880823 0.297933
vt 0.879941 0.433129
vt 0.878152 0.567576
vt 0.877746 0.702442
vt 0.876478 0.837672
vt 0.839490 0.837803
vt 0.041744 0.838828
vt 0.934006 0.163586
vt 0.979102 0.163701
vt 0.932804 0.297550
vt 0.977325 0.297222
vt 0.930811 0.433129
vt 0.974382 0.433129
vt 0.926774 0.567018
vt 0.968419 0.566540
vt 0.925858 0.701852
vt 0.967065 0.701347
vt 0.922994 0.837506
vt 0.962835 0.837365
vt 0.957001 0.896241
vt 0.042024 0.837893
vt 0.935500 0.025129
vt 0.930876 0.093423
vt 0.881524 0.091580
vt 0.434968 0.087805
vt 0.961493 0.954506
vt 0.704562 0.898781
vt 0.839600 0.900718
vt 0.569671 0.900170
vt 0.306487 0.917160
vt 0.434560 0.904153
vt 0.307857 0.917600
vt 0.874805 0.899376
vt 0.919080 0.897687
vt 0.875498 0.957006
vt 0.874179 0.956406
vt 0.917028 0.946403
vt 0.920886 0.959823
vt 0.922320 0.962903
vt 0.962731 0.959678
vt 0.959004 0.921807
vt 0.959088 0.922412
vt 0.960118 0.932828
vt 0.922422 0.966203
vt 0.961885 0.966438
vt 0.917062 0.945573
vt 0.963560 0.965663
vt 0.921372 0.963635
vt 0.961274 0.943037
vt 0.919923 0.957191
vt 0.918437 0.951461
vt 0.867934 0.958586
vt 0.860532 0.960239
vt 0.919835 0.957233
vt 0.961253 0.942791
vt 0.962556 0.953776
vt 0.918327 0.952448
vt 0.861856 0.962106
vt 0.869254 0.959588
vt 0.962952 0.958049
vt 0.960139 0.932247
vt 0.842679 0.966090
vt 0.839701 0.958585
vt 0.922153 0.958794
vt 0.876223 0.958677
vt 0.952046 0.883177
vt 0.948704 0.920789
vt 0.913718 0.926286
vt 0.916291 0.890335
vt 0.821700 0.962806
vt 0.300296 0.963451
vt 0.336469 0.974784
vt 0.226558 0.975830
vt 0.042478 0.936935
vt 0.041770 0.944921
vt 0.113062 0.944497
vt 0.122804 0.914370
vt 0.193151 0.942397
vt 0.192080 0.942861
vt 0.270542 0.952090
vt 0.197948 0.949704
vt 0.203468 0.954804
vt 0.210074 0.965490
vt 0.111751 0.954848
vt 0.196890 0.950636
vt 0.202605 0.957901
vt 0.117576 0.933859
vt 0.233265 0.947676
vt 0.231185 0.948461
vt 0.040558 0.927689
vt 0.040242 0.941836
vt 0.113245 0.944178
vt 0.047110 0.903380
vt 0.049760 0.889532
vt 0.049911 0.888439
vt 0.113062 0.950140
vt 0.122744 0.912870
vt 0.039843 0.935408
vt 0.114957 0.945501
vt 0.047047 0.902173
vt 0.120261 0.923508
vt 0.120458 0.925290
vt 0.117735 0.933934
vt 0.043685 0.912723
vt 0.043537 0.912470
vt 0.268624 0.955737
vt 0.282739 0.959915
vt 0.115836 0.938614
vt 0.284305 0.953646
vt 0.042478 0.943260
vt 0.182130 0.943500
vt 0.150285 0.940990
vt 0.237766 0.967011
vt 0.355895 0.973141
vt 0.357575 0.967498
vt 0.396286 0.971938
vt 0.396302 0.965731
vt 0.113546 0.936754
vt 0.279268 0.946212
vt 0.394839 0.968992
vt 0.236926 0.972654
vt 0.354015 0.959993
vt 0.125259 0.922088
vt 0.122370 0.902542
vt 0.038743 0.949165
vt 0.047301 0.893262
vt 0.041770 0.950564
vt 0.339986 0.960077
vt 0.394202 0.959579
vt 0.913934 0.940794
vt 0.356119 0.966146
vn 0.011700 -0.103100 -0.994600
vn -0.367100 0.150600 -0.917900
vn -0.521300 0.849900 -0.076700
vn 0.625100 0.577700 0.524800
vn 0.625100 -0.577700 0.524800
vn 0.686900 -0.726700 0.001100
vn -0.135200 0.622500 0.770800
vn -0.684000 0.552500 0.476300
vn -0.680200 -0.625500 0.382100
vn -0.002300 -0.853700 -0.520700
vn 0.640000 -0.664700 -0.385400
vn 0.697900 -0.715000 0.039500
vn -0.048600 0.998100 0.037300
vn -0.168100 0.459500 -0.872100
vn -0.011400 0.698400 -0.715500
vn 0.000000 1.000000 0.000000
vn -0.006900 0.714000 -0.700100
vn 0.027900 0.711400 -0.702200
vn -0.021500 0.997900 -0.061500
vn 0.034200 0.704700 -0.708600
vn 0.027900 -0.711400 -0.702200
vn -0.002000 0.998400 0.056700
vn 0.021500 -0.997900 0.061500
vn -0.006900 -0.714000 -0.700100
vn -0.013000 -0.999800 0.010300
vn 0.002300 -0.698000 -0.716000
vn -0.007500 0.634500 0.772900
vn 0.066300 -0.747100 0.661400
vn 0.086800 -0.674600 0.733100
vn -0.014800 0.672100 0.740300
vn -0.025500 -0.735300 0.677200
vn 0.003400 0.678800 0.734300
vn 0.035600 -0.761800 0.646800
vn 0.036400 0.698100 0.715000
vn 0.003900 -0.687100 0.726500
vn -0.043300 0.711500 0.701300
vn -0.010700 -0.701400 0.712600
vn -0.149400 -0.722400 0.675100
vn 0.008900 -0.999900 -0.008300
vn 0.022900 -0.994000 0.107100
vn -0.023900 -0.999500 0.021000
vn 0.030500 -0.999100 -0.029800
vn 0.026000 -0.999600 0.000100
vn 0.000500 -0.997900 0.064300
vn -0.008700 -0.999900 -0.003300
vn -0.045700 -0.998900 -0.012700
vn -0.025800 -0.993700 -0.108900
vn -0.017500 -0.999500 -0.026000
vn -0.720600 -0.690200 -0.065400
vn -0.688900 -0.723700 0.039500
vn -0.699400 -0.714700 -0.004500
vn 0.018100 -0.999600 0.018800
vn -0.685300 -0.728300 -0.000200
vn 0.077400 -0.997000 0.000400
vn -0.715400 -0.698000 0.031300
vn 0.031600 -0.999100 0.029500
vn -0.680800 -0.732400 -0.007500
vn 0.043200 -0.999000 -0.013900
vn -0.715900 -0.698100 -0.011000
vn 0.000000 -1.000000 0.000000
vn 0.038100 0.999200 0.004200
vn 0.030600 0.999500 0.002000
vn 0.026100 0.993700 0.109000
vn -0.006500 0.999800 -0.019600
vn 0.014700 0.999800 -0.016100
vn 0.003900 1.000000 0.000000
vn 0.021100 0.999800 -0.000200
vn -0.006500 0.999300 0.036600
vn -0.000800 0.999800 -0.016700
vn -0.038700 0.999200 0.006900
vn 0.000000 0.999800 -0.017000
vn -0.000200 1.000000 -0.006000
vn 0.008700 0.999900 0.003300
vn 0.000000 0.999900 0.013000
vn -0.030100 0.999500 0.000000
vn 0.017000 0.999800 0.000000
vn -0.010500 0.999600 -0.026000
vn -0.030500 0.999100 0.029800
vn -0.019500 0.999800 0.006500
vn 0.000000 0.999800 0.017000
vn -0.017000 0.999700 0.017000
vn -0.034000 0.998800 -0.034000
vn 0.018900 0.997700 0.064100
vn -0.011500 0.998500 -0.053600
vn 0.034000 0.998800 0.034000
vn 0.024000 0.999000 -0.036800
vn -0.014300 0.999100 0.040700
vn 0.012000 0.999800 -0.010500
vn -0.008900 0.999900 0.008300
vn -0.010600 0.999800 0.013900
vn -0.101700 0.994700 -0.013200
vn 0.015400 0.999800 -0.008800
vn 0.017000 0.999700 -0.017000
vn -0.065800 0.997800 -0.009800
vn 0.000800 0.999800 0.017200
vn 0.076500 0.996600 0.031500
vn 0.010200 0.999700 0.020600
vn -0.021100 0.999800 -0.001000
vn -0.010400 0.999700 -0.019800
vn -0.082600 0.996500 -0.010300
vn 0.113300 0.993500 0.010700
vn 0.068100 0.997300 0.024600
vn -0.736300 0.674800 -0.049300
vn -0.668600 0.743500 0.013700
vn -0.713000 0.700000 -0.040700
vn -0.715200 0.698900 0.000200
vn -0.704000 0.710200 -0.006200
vn -0.734400 0.678600 0.010100
vn -0.699400 0.714700 0.005900
vn 0.004300 -1.000000 -0.005600
vn 0.714600 -0.699400 0.016300
vn 0.038100 -0.999200 0.005100
vn 0.740100 -0.672400 -0.005600
vn -0.086000 -0.996300 -0.001200
vn 0.715000 -0.699100 -0.005200
vn -0.080100 -0.996800 0.005500
vn 0.639500 -0.768100 -0.032600
vn 0.709400 -0.704500 -0.017900
vn 0.011400 -0.999600 0.025600
vn 0.713000 -0.699500 -0.046400
vn 0.713000 0.699500 -0.046400
vn 0.716400 -0.697700 -0.006500
vn 0.709200 0.704900 -0.011300
vn 0.761400 0.648200 -0.008100
vn 0.703600 0.709300 -0.042100
vn 0.674200 0.738200 -0.019700
vn 0.720500 0.692500 0.036100
vn 0.084500 -0.695500 0.713600
vn 0.057900 -0.998100 -0.017900
vn 0.039800 0.735900 0.675900
vn 0.034200 0.999300 0.013100
vn 0.008800 0.999200 -0.038100
vn -0.008800 -0.999200 0.038100
vn -0.076500 -0.996600 -0.031500
vn 0.686900 0.726700 0.001100
vn 0.830500 0.443500 0.336900
vn 0.656300 0.754400 -0.006900
vn -0.008900 -0.999500 -0.028500
vn -0.000800 -0.997400 0.071300
vn -0.067300 -0.995300 0.069200
vn -0.057600 -0.990200 -0.127400
vn 0.008700 -0.999000 0.043700
vn -0.017900 -0.999700 0.014000
vn -0.018200 -0.999800 -0.009100
vn -0.002700 -0.999800 -0.019700
vn -0.012600 0.999700 -0.019900
vn 0.012500 0.999500 0.027100
vn -0.015200 0.999800 -0.013600
vn 0.008900 0.999500 0.028500
vn 0.000800 0.997400 -0.071300
vn 0.062200 0.998000 -0.013100
vn 0.027400 -0.999600 -0.000600
vn 0.004500 -0.998300 -0.058200
vn -0.181700 0.569900 0.801400
vn -0.314600 -0.724800 0.612900
vn -0.266900 -0.817500 0.510300
vn -0.048200 -0.480700 0.875500
vn -0.013400 0.442300 0.896800
vn 0.827100 -0.213700 0.519800
vn 0.374600 0.351600 0.857900
vn 0.383300 -0.700800 0.601600
vn 0.733900 -0.672100 -0.097800
vn -0.001300 -0.527400 -0.849600
vn 0.656100 -0.211200 -0.724500
vn -0.296000 0.511700 0.806500
vn 0.732700 0.238600 -0.637300
vn 0.028300 0.588700 -0.807800
vn 0.666000 0.738300 0.106700
vn 0.038300 0.919000 -0.392300
vn -0.021000 0.989700 0.141800
vn -0.235600 -0.072200 0.969100
vn -0.260400 0.094100 0.960900
vn -0.064200 -0.844900 0.531000
vn 0.742800 -0.668800 0.030100
vn 0.762900 -0.580700 0.284000
vn -0.041600 -0.999100 0.001500
vn -0.269200 0.962500 -0.032000
vn -0.203600 0.954100 0.219400
vn 0.676600 0.665900 -0.314300
vn 0.640100 0.701500 0.313100
vn -0.339700 0.894700 0.289700
vn 0.013000 0.999800 -0.010300
vn 0.011400 -0.999600 -0.025200
vn -0.010900 -0.999800 -0.012200
vn 0.007900 0.990600 0.136400
vn -0.094500 -0.995300 0.018800
vn -0.075300 -0.996800 0.025800
vn -0.016900 0.999600 0.020700
vn -0.011400 0.999600 -0.025600
vn -0.057900 0.998100 0.017900
vn 0.043200 0.717700 0.694900
vn -0.034200 -0.999300 -0.013100
vn -0.000400 -0.999400 0.033700
vn -0.158400 -0.987100 -0.022900
vn -0.020700 -0.999800 -0.007600
vn -0.001000 -0.999700 -0.022900
vn 0.080100 0.996800 -0.005500
vn 0.086000 0.996300 0.001200
vn -0.038100 0.999200 -0.005100
vn -0.004300 1.000000 0.005600
vn -0.023500 -0.844400 -0.535100
vn 0.172400 0.968800 -0.178000
vn 0.201600 0.517600 -0.831500
vn -0.086800 -0.060700 -0.994400
vn -0.703100 -0.711000 0.012800
vn -0.672200 -0.686600 -0.276700
vn -0.031600 -0.924800 -0.379200
vn 0.232100 -0.817400 0.527200
vn 0.184400 -0.709900 0.679700
vn 0.188700 0.697200 0.691500
vn 0.126700 0.091600 0.987700
vn 0.046800 -0.992600 0.111500
vn 0.054100 0.010700 0.998500
vn -0.084600 0.702100 -0.707000
vn -0.109800 -0.109600 -0.987900
vn -0.013500 0.999800 0.016100
vn -0.071300 0.912900 -0.401900
vn -0.049500 0.973100 -0.225100
vn 0.155800 -0.631700 0.759400
vn 0.084800 0.746100 0.660300
vn -0.774800 -0.584700 0.240400
vn -0.769200 -0.454100 0.449600
vn 0.060600 0.356200 0.932400
vn -0.673900 -0.738100 0.032700
vn -0.431600 -0.715100 0.549900
vn -0.396400 0.354700 0.846800
vn -0.060500 -0.741800 -0.667800
vn 0.298500 0.488900 0.819600
vn -0.693700 0.690600 -0.204700
vn -0.094700 0.787700 -0.608700
vn -0.636000 0.683200 0.358700
vn 0.009500 0.995800 0.090700
vn 0.025200 -0.999700 0.000700
vn 0.109000 -0.928900 0.353900
vn -0.730900 -0.664200 0.157000
vn -0.668200 0.710600 0.220300
vn 0.083500 0.979200 0.184800
vn 0.129800 0.983800 -0.123400
vn 0.122000 -0.709700 0.693800
vn 0.185600 0.390100 0.901900
vn -0.887700 0.200600 0.414400
vn -0.037200 -0.909300 -0.414400
vn 0.089100 0.261800 -0.961000
vn 0.004200 -0.914600 -0.404300
vn -0.003500 0.526800 -0.849900
vn 0.029700 0.998400 0.048100
vn -0.032300 -0.824400 -0.565100
vn -0.039400 -0.643700 -0.764200
vn 0.031500 -0.704700 -0.708800
vn 0.132700 0.990100 0.046400
vn -0.006000 0.998300 0.058200
vn -0.734400 0.341000 -0.586800
vn -0.606100 -0.332700 -0.722500
vn 0.033700 -0.996400 -0.078000
vn 0.000000 -0.994400 0.105700
usemtl Material.002
s 1
f 140/1/1 133/2/2 150/3/3
f 4/4/4 3/4/5 118/5/6
f 20/6/7 2/7/8 1/7/9
f 172/8/10 5/9/11 160/10/12
f 202/11/13 203/12/14 10/13/15
f 162/14/16 10/13/15 9/15/17
f 9/15/17 8/16/18 164/17/19
f 7/18/20 8/16/18 13/16/21
f 165/19/22 164/17/19 8/16/18
f 167/17/23 13/16/21 12/15/24
f 168/20/25 12/15/24 11/21/26
f 15/22/27 26/22/28 204/23/29
f 15/22/27 16/24/30 25/24/31
f 17/25/32 24/25/33 25/24/31
f 17/25/32 18/26/34 23/26/35
f 18/26/34 19/27/36 22/27/37
f 20/6/7 21/6/38 22/27/37
f 9/15/17 12/15/24 13/16/21
f 10/13/15 11/21/26 12/15/24
f 115/28/39 100/29/40 102/30/41
f 114/31/42 98/32/43 100/29/40
f 96/33/44 98/32/43 114/31/42
f 112/34/45 94/35/46 96/33/44
f 111/36/47 92/37/48 94/35/46
f 103/38/49 38/39/50 92/37/48
f 37/40/51 91/41/52 92/37/48
f 36/42/53 90/43/54 91/41/52
f 36/42/53 35/44/55 89/45/56
f 34/46/57 88/47/58 89/45/56
f 33/48/59 87/49/60 88/47/58
f 80/35/61 86/37/62 110/36/63
f 80/35/61 79/50/64 85/41/65
f 78/51/66 84/43/67 85/41/65
f 78/51/66 77/52/68 83/45/69
f 77/52/68 76/53/16 82/47/70
f 75/54/71 81/49/16 82/47/70
f 74/33/72 80/35/61 109/34/73
f 73/55/74 79/50/64 80/35/61
f 72/56/75 78/51/66 79/50/64
f 72/56/75 71/57/16 77/52/68
f 70/58/76 76/53/16 77/52/68
f 70/58/76 69/59/77 75/54/71
f 107/31/78 68/32/79 74/33/72
f 68/32/79 67/60/80 73/55/74
f 67/60/80 66/61/81 72/56/75
f 65/62/82 71/57/16 72/56/75
f 64/63/16 70/58/76 71/57/16
f 63/64/83 69/59/77 70/58/76
f 62/29/84 68/32/79 107/31/78
f 61/65/16 67/60/80 68/32/79
f 60/66/85 66/61/81 67/60/80
f 58/67/86 64/63/16 65/62/82
f 58/67/86 57/68/87 63/64/83
f 56/30/88 62/29/84 106/28/89
f 55/69/90 61/65/16 62/29/84
f 54/70/91 60/66/85 61/65/16
f 53/71/92 59/72/93 60/66/85
f 53/71/92 52/73/94 58/67/86
f 194/74/95 56/30/88 105/75/96
f 195/76/97 55/69/90 56/30/88
f 196/77/98 54/70/91 55/69/90
f 197/78/99 53/71/92 54/70/91
f 198/79/100 52/73/94 53/71/92
f 199/80/101 51/81/102 52/73/94
f 86/37/62 27/39/103 117/38/104
f 86/37/62 85/41/65 28/40/105
f 85/41/65 84/43/67 29/42/106
f 83/45/69 30/44/107 29/42/106
f 83/45/69 82/47/70 31/46/108
f 82/47/70 81/49/16 32/82/109
f 180/83/110 45/84/111 118/5/6
f 180/83/110 181/85/112 46/86/113
f 181/85/112 182/87/114 47/88/115
f 182/87/114 183/89/116 48/90/117
f 183/89/116 184/91/60 49/92/118
f 184/91/60 185/93/119 50/94/120
f 39/94/121 50/94/120 119/95/122
f 40/92/123 49/92/118 50/94/120
f 41/90/124 48/90/117 49/92/118
f 41/90/124 42/88/125 47/88/115
f 42/88/125 43/86/126 46/86/113
f 44/84/127 45/84/111 46/86/113
f 27/39/103 38/39/50 103/38/49
f 28/40/105 37/40/51 38/39/50
f 28/40/105 29/42/106 36/42/53
f 29/42/106 30/44/107 35/44/55
f 31/46/108 34/46/57 35/44/55
f 31/46/108 32/96/109 33/48/59
f 2/7/8 117/38/104 103/38/49
f 171/97/128 186/98/129 118/5/6
f 110/36/63 117/38/104 2/7/8
f 193/23/130 200/99/131 105/75/96
f 105/75/96 106/28/89 16/24/30
f 106/28/89 107/31/78 17/25/32
f 17/25/32 107/31/78 108/100/132
f 108/100/132 109/34/73 19/27/36
f 109/34/73 110/36/63 20/6/7
f 1/7/9 103/38/49 111/36/47
f 21/6/38 111/36/47 112/34/45
f 22/27/37 112/34/45 113/100/133
f 113/100/133 114/31/42 24/25/33
f 24/25/33 114/31/42 115/28/39
f 25/24/31 115/28/39 116/75/134
f 104/5/135 118/5/6 45/84/111
f 161/101/136 120/95/137 119/95/122
f 129/102/138 130/103/139 101/81/140
f 97/64/141 128/104/142 129/102/138
f 59/72/93 65/62/82 66/61/81
f 93/54/143 126/105/144 127/106/145
f 69/59/77 124/106/146 125/107/147
f 123/104/148 124/106/146 69/59/77
f 122/102/149 123/104/148 63/64/83
f 51/81/102 121/103/150 122/102/149
f 201/108/151 121/103/150 51/81/102
f 185/93/119 189/109/152 119/95/122
f 13/16/21 167/17/23 166/19/153
f 135/110/154 136/111/155 139/112/156
f 152/113/157 142/114/158 137/115/159
f 131/116/160 132/117/161 158/118/162
f 170/119/163 6/120/164 5/9/11
f 131/116/160 141/121/165 139/112/156
f 138/122/166 140/1/1 153/123/167
f 144/124/168 148/125/169 157/126/170
f 155/127/171 145/128/172 147/129/173
f 144/124/168 143/130/174 149/131/175
f 156/132/176 147/129/173 143/130/174
f 148/125/169 146/133/177 159/134/178
f 151/135/179 149/131/175 137/115/159
f 151/135/179 153/123/167 148/125/169
f 147/129/173 152/113/157 149/131/175
f 153/123/167 150/3/3 146/133/177
f 157/126/170 159/134/178 135/110/154
f 139/112/156 156/132/176 158/118/162
f 159/134/178 155/127/171 136/111/155
f 136/111/155 155/127/171 156/132/176
f 154/136/180 157/126/170 141/121/165
f 154/136/180 158/118/162 143/130/174
f 145/128/172 134/137/181 142/114/158
f 145/128/172 152/113/157 147/129/173
f 6/120/164 161/101/136 160/10/12
f 168/20/25 169/138/60 130/103/139
f 128/104/142 167/17/23 168/20/25
f 127/106/145 166/19/153 167/17/23
f 164/17/19 165/19/22 124/106/146
f 163/20/182 164/17/19 123/104/148
f 162/14/16 163/20/182 122/102/149
f 202/11/13 162/14/16 121/103/150
f 191/139/183 160/10/12 119/95/122
f 213/140/184 191/139/183 189/109/152
f 120/141/137 161/142/136 190/143/185
f 203/12/14 170/119/163 172/8/10
f 210/80/186 212/108/187 189/109/152
f 120/141/137 188/144/188 179/93/189
f 104/5/135 187/98/190 173/97/191
f 211/99/192 186/98/129 171/97/128
f 209/79/60 210/80/186 185/93/119
f 208/78/193 209/79/60 184/91/60
f 207/77/194 208/78/193 183/89/116
f 206/76/195 207/77/194 182/87/114
f 205/74/196 206/76/195 181/85/112
f 205/74/196 180/83/110 186/98/129
f 39/94/121 179/93/189 178/91/16
f 40/92/123 178/91/16 177/89/197
f 41/90/124 177/89/197 176/87/198
f 42/88/125 176/87/198 175/85/199
f 43/86/126 175/85/199 174/83/200
f 104/5/135 44/84/127 174/83/200
f 173/97/191 171/97/128 3/4/5
f 213/140/184 192/145/201 172/8/10
f 169/138/60 11/21/26 192/145/201
f 116/75/134 102/30/41 205/74/196
f 116/75/134 211/99/192 204/23/29
f 101/81/140 130/103/139 212/108/187
f 10/13/15 203/12/14 192/145/201
f 130/103/139 169/138/60 213/140/184
f 190/143/185 202/11/13 201/108/151
f 188/144/188 201/108/151 199/80/101
f 173/97/191 187/98/190 200/99/131
f 179/93/189 199/80/101 198/79/100
f 178/91/16 198/79/100 197/78/99
f 177/89/197 197/78/99 196/77/98
f 176/87/198 196/77/98 195/76/97
f 175/85/199 195/76/97 194/74/95
f 187/98/190 174/83/200 194/74/95
f 193/23/130 204/23/29 171/97/128
f 134/137/181 202/11/13 190/143/185
f 170/119/163 203/12/14 133/2/2
f 6/120/164 138/122/166 137/115/159
f 161/101/136 137/115/159 142/114/158
f 140/1/1 138/122/166 6/120/164
f 146/133/177 145/128/172 155/127/171
f 150/3/3 145/128/172 146/133/177
f 150/3/3 133/2/2 134/137/181
f 134/137/181 133/2/2 203/12/14
f 242/146/202 225/147/203 261/148/204
f 252/149/205 214/150/206 259/151/207
f 231/152/208 267/153/209 265/154/210
f 247/155/211 221/156/212 260/157/213
f 255/158/214 261/148/204 232/159/215
f 222/160/216 256/161/217 240/162/218
f 267/153/209 228/163/219 227/164/220
f 241/165/221 229/166/222 234/167/223
f 250/168/224 224/169/225 223/170/226
f 258/171/227 259/151/207 214/150/206
f 224/169/225 231/152/208 233/172/228
f 243/173/229 245/174/230 232/159/215
f 246/175/231 249/176/232 240/162/218
f 221/156/212 248/177/233 239/178/234
f 241/165/221 235/179/235 236/180/236
f 250/168/224 235/179/235 239/178/234
f 251/181/237 238/182/238 256/161/217
f 229/166/222 241/165/221 243/173/229
f 240/162/218 245/174/230 243/173/229
f 235/179/235 241/165/221 244/183/239
f 238/182/238 242/146/202 255/158/214
f 227/164/220 251/181/237 222/160/216
f 231/152/208 224/169/225 250/168/224
f 228/163/219 247/155/211 251/181/237
f 267/153/209 231/152/208 248/177/233
f 233/172/228 249/176/232 246/175/231
f 235/179/235 250/168/224 246/175/231
f 237/184/240 244/183/239 234/167/223
f 260/157/213 239/178/234 244/183/239
f 214/150/206 252/149/205 253/185/241
f 268/186/60 219/187/60 218/188/242
f 266/189/243 264/190/244 218/188/242
f 228/163/219 267/153/209 221/156/212
f 256/161/217 255/158/214 245/174/230
f 7/18/20 216/191/245 254/192/246
f 265/154/210 222/160/216 249/176/232
f 218/188/242 259/151/207 258/171/227
f 219/187/60 263/193/60 259/151/207
f 257/194/60 268/186/60 264/190/244
f 216/191/245 217/195/247 264/190/244
f 261/148/204 220/196/248 258/171/227
f 14/18/249 217/195/247 216/191/245
f 226/197/250 234/198/223 262/199/251
f 225/147/203 266/189/243 220/196/248
f 253/185/241 229/166/222 230/200/252
f 253/201/241 262/199/251 234/198/223
f 215/202/253 230/200/252 232/159/215
f 247/155/211 237/184/240 238/182/238
f 242/146/202 238/182/238 237/184/240
f 242/146/202 237/184/240 226/203/250
f 266/189/243 225/147/203 226/203/250
f 262/199/251 253/201/241 32/82/109
f 81/49/16 75/54/71 262/199/251
f 75/54/71 125/107/147 262/199/251
f 125/107/147 124/106/146 254/204/246
f 124/106/146 165/19/22 254/192/246
f 32/96/109 253/185/241 252/149/205
f 166/19/153 217/195/247 14/18/249
f 127/106/145 217/195/247 166/19/153
f 127/106/145 126/105/144 217/195/247
f 217/195/247 126/105/144 257/194/60
f 257/194/60 126/105/144 87/49/60
f 126/105/144 93/54/143 87/49/60
f 268/186/60 257/194/60 87/49/60
f 219/187/60 268/186/60 87/49/60
f 263/193/60 219/187/60 87/49/60
f 263/193/60 33/48/59 252/149/205
f 52/73/94 51/81/102 57/68/87
f 153/123/167 140/1/1 150/3/3
f 104/5/135 4/4/4 118/5/6
f 21/6/38 20/6/7 1/7/9
f 191/139/183 172/8/10 160/10/12
f 162/14/16 202/11/13 10/13/15
f 163/20/182 162/14/16 9/15/17
f 163/20/182 9/15/17 164/17/19
f 14/18/249 7/18/20 13/16/21
f 7/18/20 165/19/22 8/16/18
f 168/20/25 167/17/23 12/15/24
f 169/138/60 168/20/25 11/21/26
f 193/23/130 15/22/27 204/23/29
f 26/22/28 15/22/27 25/24/31
f 16/24/30 17/25/32 25/24/31
f 24/25/33 17/25/32 23/26/35
f 23/26/35 18/26/34 22/27/37
f 19/27/36 20/6/7 22/27/37
f 8/16/18 9/15/17 13/16/21
f 9/15/17 10/13/15 12/15/24
f 116/75/134 115/28/39 102/30/41
f 115/28/39 114/31/42 100/29/40
f 113/100/133 96/33/44 114/31/42
f 113/100/133 112/34/45 96/33/44
f 112/34/45 111/36/47 94/35/46
f 111/36/47 103/38/49 92/37/48
f 38/39/50 37/40/51 92/37/48
f 37/40/51 36/42/53 91/41/52
f 90/43/54 36/42/53 89/45/56
f 35/44/55 34/46/57 89/45/56
f 34/46/57 33/48/59 88/47/58
f 109/34/73 80/35/61 110/36/63
f 86/37/62 80/35/61 85/41/65
f 79/50/64 78/51/66 85/41/65
f 84/43/67 78/51/66 83/45/69
f 83/45/69 77/52/68 82/47/70
f 76/53/16 75/54/71 82/47/70
f 108/100/132 74/33/72 109/34/73
f 74/33/72 73/55/74 80/35/61
f 73/55/74 72/56/75 79/50/64
f 78/51/66 72/56/75 77/52/68
f 71/57/16 70/58/76 77/52/68
f 76/53/16 70/58/76 75/54/71
f 108/100/132 107/31/78 74/33/72
f 74/33/72 68/32/79 73/55/74
f 73/55/74 67/60/80 72/56/75
f 66/61/81 65/62/82 72/56/75
f 65/62/82 64/63/16 71/57/16
f 64/63/16 63/64/83 70/58/76
f 106/28/89 62/29/84 107/31/78
f 62/29/84 61/65/16 68/32/79
f 61/65/16 60/66/85 67/60/80
f 59/72/93 58/67/86 65/62/82
f 64/63/16 58/67/86 63/64/83
f 105/75/96 56/30/88 106/28/89
f 56/30/88 55/69/90 62/29/84
f 55/69/90 54/70/91 61/65/16
f 54/70/91 53/71/92 60/66/85
f 59/72/93 53/71/92 58/67/86
f 200/99/131 194/74/95 105/75/96
f 194/74/95 195/76/97 56/30/88
f 195/76/97 196/77/98 55/69/90
f 196/77/98 197/78/99 54/70/91
f 197/78/99 198/79/100 53/71/92
f 198/79/100 199/80/101 52/73/94
f 110/36/63 86/37/62 117/38/104
f 27/39/103 86/37/62 28/40/105
f 28/40/105 85/41/65 29/42/106
f 84/43/67 83/45/69 29/42/106
f 30/44/107 83/45/69 31/46/108
f 31/46/108 82/47/70 32/82/109
f 186/98/129 180/83/110 118/5/6
f 45/84/111 180/83/110 46/86/113
f 46/86/113 181/85/112 47/88/115
f 47/88/115 182/87/114 48/90/117
f 48/90/117 183/89/116 49/92/118
f 49/92/118 184/91/60 50/94/120
f 120/95/137 39/94/121 119/95/122
f 39/94/121 40/92/123 50/94/120
f 40/92/123 41/90/124 49/92/118
f 48/90/117 41/90/124 47/88/115
f 47/88/115 42/88/125 46/86/113
f 43/86/126 44/84/127 46/86/113
f 117/38/104 27/39/103 103/38/49
f 27/39/103 28/40/105 38/39/50
f 37/40/51 28/40/105 36/42/53
f 36/42/53 29/42/106 35/44/55
f 30/44/107 31/46/108 35/44/55
f 34/46/57 31/46/108 33/48/59
f 1/7/9 2/7/8 103/38/49
f 3/4/5 171/97/128 118/5/6
f 20/6/7 110/36/63 2/7/8
f 15/22/27 193/23/130 105/75/96
f 15/22/27 105/75/96 16/24/30
f 16/24/30 106/28/89 17/25/32
f 18/26/34 17/25/32 108/100/132
f 18/26/34 108/100/132 19/27/36
f 19/27/36 109/34/73 20/6/7
f 21/6/38 1/7/9 111/36/47
f 22/27/37 21/6/38 112/34/45
f 23/26/35 22/27/37 113/100/133
f 23/26/35 113/100/133 24/25/33
f 25/24/31 24/25/33 115/28/39
f 26/22/28 25/24/31 116/75/134
f 44/84/127 104/5/135 45/84/111
f 160/10/12 161/101/136 119/95/122
f 99/68/254 129/102/138 101/81/140
f 99/68/254 97/64/141 129/102/138
f 60/66/85 59/72/93 66/61/81
f 95/59/255 93/54/143 127/106/145
f 75/54/71 69/59/77 125/107/147
f 63/64/83 123/104/148 69/59/77
f 57/68/87 122/102/149 63/64/83
f 57/68/87 51/81/102 122/102/149
f 199/80/101 201/108/151 51/81/102
f 50/94/120 185/93/119 119/95/122
f 14/18/249 13/16/21 166/19/153
f 141/121/165 135/110/154 139/112/156
f 149/131/175 152/113/157 137/115/159
f 154/136/180 131/116/160 158/118/162
f 172/8/10 170/119/163 5/9/11
f 132/117/161 131/116/160 139/112/156
f 151/135/179 138/122/166 153/123/167
f 154/136/180 144/124/168 157/126/170
f 156/132/176 155/127/171 147/129/173
f 151/135/179 144/124/168 149/131/175
f 158/118/162 156/132/176 143/130/174
f 157/126/170 148/125/169 159/134/178
f 138/122/166 151/135/179 137/115/159
f 144/124/168 151/135/179 148/125/169
f 143/130/174 147/129/173 149/131/175
f 148/125/169 153/123/167 146/133/177
f 141/121/165 157/126/170 135/110/154
f 132/117/161 139/112/156 158/118/162
f 135/110/154 159/134/178 136/111/155
f 139/112/156 136/111/155 156/132/176
f 131/116/160 154/136/180 141/121/165
f 144/124/168 154/136/180 143/130/174
f 152/113/157 145/128/172 142/114/158
f 5/9/11 6/120/164 160/10/12
f 129/102/138 168/20/25 130/103/139
f 129/102/138 128/104/142 168/20/25
f 128/104/142 127/106/145 167/17/23
f 123/104/148 164/17/19 124/106/146
f 122/102/149 163/20/182 123/104/148
f 121/103/150 162/14/16 122/102/149
f 201/108/151 202/11/13 121/103/150
f 189/109/152 191/139/183 119/95/122
f 212/108/187 213/140/184 189/109/152
f 188/144/188 120/141/137 190/143/185
f 192/145/201 203/12/14 172/8/10
f 185/93/119 210/80/186 189/109/152
f 39/94/121 120/141/137 179/93/189
f 4/4/4 104/5/135 173/97/191
f 204/23/29 211/99/192 171/97/128
f 184/91/60 209/79/60 185/93/119
f 183/89/116 208/78/193 184/91/60
f 182/87/114 207/77/194 183/89/116
f 181/85/112 206/76/195 182/87/114
f 180/83/110 205/74/196 181/85/112
f 211/99/192 205/74/196 186/98/129
f 40/92/123 39/94/121 178/91/16
f 41/90/124 40/92/123 177/89/197
f 42/88/125 41/90/124 176/87/198
f 43/86/126 42/88/125 175/85/199
f 44/84/127 43/86/126 174/83/200
f 187/98/190 104/5/135 174/83/200
f 4/4/4 173/97/191 3/4/5
f 191/139/183 213/140/184 172/8/10
f 213/140/184 169/138/60 192/145/201
f 211/99/192 116/75/134 205/74/196
f 26/22/28 116/75/134 204/23/29
f 210/80/186 101/81/140 212/108/187
f 11/21/26 10/13/15 192/145/201
f 212/108/187 130/103/139 213/140/184
f 188/144/188 190/143/185 201/108/151
f 179/93/189 188/144/188 199/80/101
f 193/23/130 173/97/191 200/99/131
f 178/91/16 179/93/189 198/79/100
f 177/89/197 178/91/16 197/78/99
f 176/87/198 177/89/197 196/77/98
f 175/85/199 176/87/198 195/76/97
f 174/83/200 175/85/199 194/74/95
f 200/99/131 187/98/190 194/74/95
f 173/97/191 193/23/130 171/97/128
f 142/205/158 134/137/181 190/143/185
f 140/1/1 170/119/163 133/2/2
f 161/101/136 6/120/164 137/115/159
f 190/143/185 161/142/136 142/205/158
f 170/119/163 140/1/1 6/120/164
f 159/134/178 146/133/177 155/127/171
f 145/128/172 150/3/3 134/137/181
f 202/11/13 134/137/181 203/12/14
f 255/158/214 242/146/202 261/148/204
f 263/193/60 252/149/205 259/151/207
f 233/172/228 231/152/208 265/154/210
f 237/184/240 247/155/211 260/157/213
f 245/174/230 255/158/214 232/159/215
f 249/176/232 222/160/216 240/162/218
f 265/154/210 267/153/209 227/164/220
f 244/183/239 241/165/221 234/167/223
f 246/175/231 250/168/224 223/170/226
f 215/202/253 258/171/227 214/150/206
f 223/170/226 224/169/225 233/172/228
f 230/200/252 243/173/229 232/159/215
f 236/180/236 246/175/231 240/162/218
f 260/157/213 221/156/212 239/178/234
f 243/173/229 241/165/221 236/180/236
f 248/177/233 250/168/224 239/178/234
f 222/160/216 251/181/237 256/161/217
f 230/200/252 229/166/222 243/173/229
f 236/180/236 240/162/218 243/173/229
f 239/178/234 235/179/235 244/183/239
f 256/161/217 238/182/238 255/158/214
f 265/154/210 227/164/220 222/160/216
f 248/177/233 231/152/208 250/168/224
f 227/164/220 228/163/219 251/181/237
f 221/156/212 267/153/209 248/177/233
f 223/170/226 233/172/228 246/175/231
f 236/180/236 235/179/235 246/175/231
f 226/203/250 237/184/240 234/167/223
f 237/184/240 260/157/213 244/183/239
f 215/202/253 214/150/206 253/185/241
f 264/190/244 268/186/60 218/188/242
f 220/196/248 266/189/243 218/188/242
f 247/155/211 228/163/219 221/156/212
f 240/162/218 256/161/217 245/174/230
f 165/19/22 7/18/20 254/192/246
f 233/172/228 265/154/210 249/176/232
f 220/196/248 218/188/242 258/171/227
f 218/188/242 219/187/60 259/151/207
f 217/195/247 257/194/60 264/190/244
f 266/189/243 216/191/245 264/190/244
f 232/159/215 261/148/204 258/171/227
f 7/18/20 14/18/249 216/191/245
f 261/148/204 225/147/203 220/196/248
f 215/202/253 253/185/241 230/200/252
f 229/166/222 253/185/241 234/167/223
f 258/171/227 215/202/253 232/159/215
f 251/181/237 247/155/211 238/182/238
f 225/147/203 242/146/202 226/203/250
f 81/49/16 262/199/251 32/82/109
f 33/48/59 32/96/109 252/149/205
f 33/48/59 263/193/60 87/49/60
f 58/67/86 52/73/94 57/68/87
f 226/206/250 254/192/246 216/191/245
f 262/199/251 125/107/147 226/197/250
f 254/204/246 226/197/250 125/107/147
f 266/189/243 226/206/250 216/191/245
