# Blender v2.75 (sub 0) OBJ File: 'untitled.blend'
# www.blender.org
mtllib Coal_Pen_3.mtl
o Cube.001_Cube.006
v -0.026178 -0.001254 0.072108
v -0.024861 0.023226 0.079456
v -0.025743 -0.000252 -0.094556
v -0.024580 0.024313 -0.099591
v -0.013480 -0.000937 -0.095452
v -0.012093 0.023598 -0.097672
v -0.037995 0.000458 -0.097879
v -0.036658 0.025002 -0.101100
v -0.013919 -0.001946 0.072464
v -0.012545 0.022559 0.075251
v -0.038412 -0.000502 0.061839
v -0.037067 0.023940 0.075195
vt 0.550916 0.005386
vt 0.550387 0.499271
vt 0.501779 0.487605
vt 0.849437 0.461921
vt 0.849437 0.002194
vt 0.897867 0.030443
vt 0.598638 0.487585
vt 0.801008 0.001288
vt 0.701265 0.478283
vt 0.701265 0.001288
vt 0.798124 0.008559
vt 0.601522 0.037714
vt 0.698381 0.001288
vt 0.698381 0.487585
vt 0.501577 0.010610
vt 0.897867 0.471011
vt 0.598638 0.001288
vt 0.801008 0.464470
vt 0.798124 0.471741
vt 0.601522 0.478283
vt 0.901405 0.146127
vt 0.900750 0.077770
vt 0.948826 0.078176
vt 0.950999 0.147331
vt 0.998693 0.078754
vt 0.954264 0.071585
vt 0.951084 0.001288
vt 0.996353 0.002097
vt 0.900750 0.005232
vt 0.998693 0.146670
vt 0.996353 0.075753
vt 0.906646 0.072968
vn 0.056200 0.998400 0.006100
vn -0.056200 -0.998400 -0.006100
vn 0.998400 -0.056200 0.002300
vn -0.998400 0.056000 -0.002000
vn -0.998500 0.054100 -0.002300
vn -0.553400 -0.580600 -0.597200
vn -0.503600 0.564600 -0.653900
vn 0.158000 0.634600 -0.756500
vn 0.030900 -0.797300 -0.602700
vn 0.634000 0.511500 -0.580000
vn -0.219800 -0.735700 0.640600
vn 0.026400 0.524900 0.850700
vn -0.636200 0.539300 0.551700
vn 0.670700 0.503400 0.544800
vn 0.530200 -0.626000 -0.571800
vn -0.734900 -0.642600 0.216600
vn 0.540200 -0.638000 0.548700
usemtl Material
s off
f 4/1/1 2/2/1 10/3/1
f 3/4/2 1/5/2 11/6/2
f 12/7/1 2/2/1 4/1/1
f 9/8/2 1/5/2 3/4/2
f 6/9/3 10/10/3 9/11/3
f 11/12/4 12/13/4 8/14/4
f 6/15/1 4/1/1 10/3/1
f 7/16/2 3/4/2 11/6/2
f 8/17/1 12/7/1 4/1/1
f 5/18/2 9/8/2 3/4/2
f 5/19/3 6/9/3 9/11/3
f 7/20/5 11/12/5 8/14/5
s 1
f 7/21/6 8/22/7 4/23/8
f 3/24/9 4/23/8 6/25/10
f 1/26/11 2/27/12 12/28/13
f 10/29/14 2/27/12 1/26/11
f 3/24/9 7/21/6 4/23/8
f 5/30/15 3/24/9 6/25/10
f 11/31/16 1/26/11 12/28/13
f 9/32/17 10/29/14 1/26/11
