# Blender v2.75 (sub 0) OBJ File: 'untitled.blend'
# www.blender.org
mtllib Coal_Pen_2_COL.mtl
o Cube.005_Cube.010
v -0.007015 -0.004671 0.131787
v -0.007015 0.027681 0.132241
v -0.007015 -0.004548 -0.134817
v -0.007015 0.027804 -0.134362
v 0.025334 -0.004671 0.131787
v 0.025334 0.027681 0.132241
v 0.025334 -0.004548 -0.134817
v 0.025334 0.027804 -0.134362
vn -1.000000 -0.000000 0.000000
vn 0.000000 0.014000 -0.999900
vn 1.000000 0.000000 0.000000
vn 0.000000 -0.014000 0.999900
vn 0.000000 -1.000000 -0.000500
vn 0.000000 1.000000 0.000500
usemtl None
s off
f 4//1 3//1 1//1
f 8//2 7//2 3//2
f 8//3 6//3 5//3
f 2//4 1//4 5//4
f 3//5 7//5 5//5
f 8//6 4//6 2//6
f 2//1 4//1 1//1
f 4//2 8//2 3//2
f 7//3 8//3 5//3
f 6//4 2//4 5//4
f 1//5 3//5 5//5
f 6//6 8//6 2//6
