# Blender v2.75 (sub 0) OBJ File: 'untitled.blend'
# www.blender.org
mtllib Coin.mtl
o Cylinder
v -0.000000 0.000258 -0.035562
v -0.000000 0.008041 -0.035562
v 0.030797 0.000258 -0.017781
v 0.030797 0.008041 -0.017781
v 0.030797 0.000258 0.017781
v 0.030797 0.008041 0.017781
v -0.000000 0.000258 0.035562
v -0.000000 0.008041 0.035562
v -0.030797 0.000258 0.017781
v -0.030797 0.008041 0.017781
v -0.030797 0.000258 -0.017781
v -0.030797 0.008041 -0.017781
vt 0.627370 0.061119
vt 0.713469 0.147218
vt 0.673194 0.187493
vt 0.885667 0.319416
vt 0.845392 0.359692
vt 0.971766 0.405515
vt 0.931491 0.445791
vt 0.386166 0.955774
vt 0.300067 0.869675
vt 0.340342 0.829399
vt 0.753503 0.970109
vt 0.458965 0.888639
vt 0.918143 0.485258
vt 0.127869 0.697477
vt 0.041770 0.611377
vt 0.082045 0.571102
vt 0.168144 0.657201
vt 0.086795 0.512938
vt 0.251434 0.028087
vt 0.545972 0.109557
vt 0.587095 0.101394
vt 0.426441 0.915498
vt 0.983092 0.768419
vt 0.394015 0.605478
vt 0.623604 0.403788
vt 0.610922 0.392718
vt 0.381333 0.594408
vt 0.021845 0.229777
vn 0.000000 0.610000 -0.792400
vn 0.686200 0.610000 -0.396200
vn 0.686200 -0.610000 -0.396200
vn 0.686200 0.610000 0.396200
vn 0.686200 -0.610000 0.396200
vn 0.000000 0.610000 0.792400
vn 0.000000 -0.610000 0.792400
vn -0.686200 0.610000 0.396200
vn -0.686200 -0.610000 0.396200
vn -0.686200 0.610000 -0.396200
vn 0.000000 -0.610000 -0.792400
vn -0.686200 -0.610000 -0.396200
usemtl None
s 1
f 2/1/1 4/2/2 3/3/3
f 4/2/2 6/4/4 5/5/5
f 6/4/4 8/6/6 7/7/7
f 8/8/6 10/9/8 9/10/9
f 4/11/2 2/12/1 8/13/6
f 12/14/10 2/15/1 1/16/11
f 10/9/8 12/14/10 11/17/12
f 1/18/11 5/19/5 7/20/7
f 1/21/11 2/1/1 3/3/3
f 3/3/3 4/2/2 5/5/5
f 5/5/5 6/4/4 7/7/7
f 7/22/7 8/8/6 9/10/9
f 8/13/6 6/23/4 4/11/2
f 12/24/10 10/25/8 8/13/6
f 8/13/6 2/12/1 12/24/10
f 11/17/12 12/14/10 1/16/11
f 9/10/9 10/9/8 11/17/12
f 9/26/9 11/27/12 1/18/11
f 1/18/11 7/20/7 9/26/9
f 1/18/11 3/28/3 5/19/5
