#name "Ash"
#participants 1

say 1 "Ghost" "What is this?"
say 1 "Ghost" "Who wrote all of this...?"
say 0 "" "..."
say 0 "Ghost" "Strength, [wait 0.5]willpower, [wait 0.5]clear vision, [wait 0.5]truth?"
