# Blender v2.75 (sub 0) OBJ File: ''
# www.blender.org
mtllib Robe_Statue_COL.mtl
o Cylinder.004_Cylinder.002_Cylinder.004_Cylinder.000
v 0.084460 1.189304 -0.001591
v 0.081791 1.192818 0.029981
v 0.013177 1.173965 0.055119
v 0.080178 1.187097 0.017357
v 0.082398 1.195158 0.035485
v -0.082466 1.191454 -0.002123
v -0.023627 1.138334 0.012329
v -0.082220 1.195287 0.014997
v -0.082466 1.196039 0.016404
v 0.054103 1.358057 -0.251239
v 0.065354 1.197963 -0.162476
v -0.005355 1.324606 -0.256916
v 0.104710 1.278222 -0.121804
v 0.044214 1.432030 -0.158571
v -0.001204 1.467816 -0.062396
v 0.083598 1.404066 -0.466021
v 0.004028 1.395107 -0.239166
v 0.059094 1.235864 -0.008046
v 0.015070 1.194149 -0.006073
v 0.342795 1.664546 0.052824
v 0.318981 1.719958 0.169587
v 0.359972 1.733282 0.112718
v 0.351537 1.489251 0.120502
v 0.299178 1.500835 0.140898
v 0.336690 1.513648 0.095972
v 0.355680 1.617124 0.105022
v 0.029101 1.166228 0.005664
v -0.030365 1.179942 0.017715
v -0.081219 1.369422 -0.211193
v -0.048399 1.185059 -0.154220
v -0.104522 1.284552 -0.112594
v -0.081479 1.405672 -0.476167
v -0.345572 1.725572 0.142112
v -0.377762 1.662953 0.049554
v -0.390214 1.744139 0.127113
v -0.365439 1.607244 0.129366
v -0.356794 1.498825 0.123999
v -0.341179 1.523608 0.090401
v -0.313012 1.523011 0.115066
v -0.333242 1.706784 0.170491
v -0.412059 1.722359 0.085237
v -0.349895 1.714583 0.164947
v -0.348660 1.729731 0.155277
v -0.098952 1.233306 -0.166213
v -0.062869 1.265868 -0.036233
v -0.016273 0.812325 -0.170988
v 0.098019 0.802530 -0.104900
v 0.113719 0.822721 -0.124414
v 0.000706 0.797134 -0.151957
v 0.011849 0.787812 -0.178622
v 0.188325 0.801434 -0.063277
v 0.164783 0.815366 -0.032385
v 0.126653 0.824204 0.120319
v 0.161447 0.850585 0.109940
v -0.117515 0.828529 0.131876
v -0.105201 0.833918 0.105760
v -0.128724 0.849714 0.117538
v 0.105093 0.838499 0.104605
v -0.187407 0.827973 -0.030159
v -0.165580 0.817210 -0.035470
v -0.098991 0.812034 -0.107592
v -0.119120 0.814326 -0.131236
v -0.098029 0.802527 -0.104907
v -0.176811 0.799469 -0.048906
v -0.026352 0.840776 0.137412
v 0.024841 0.824220 0.135455
v 0.024841 0.857332 0.139369
v 0.098988 0.812034 -0.107592
v 0.063641 1.260534 -0.073641
v 0.122767 1.298316 -0.131438
v 0.055263 1.264200 -0.137700
v -0.070595 1.257098 -0.126978
v -0.127892 1.315098 -0.037072
v -0.064435 1.259399 -0.071857
v 0.016124 1.214874 -0.016322
v -0.023560 1.222898 -0.022587
v -0.044895 1.217974 -0.174053
v -0.317901 1.523026 0.201493
v -0.254547 1.414896 0.087064
v -0.312684 1.587359 0.071099
v -0.353938 1.449621 0.079189
v -0.317588 1.372781 0.142645
v -0.380553 1.503434 0.110804
v -0.220208 1.109140 0.001280
v -0.126572 1.218721 0.028694
v -0.349881 1.322614 0.073064
v -0.189435 1.291705 -0.139258
v -0.130416 1.009362 -0.142393
v -0.003081 1.194197 0.001584
v -0.153328 0.635795 -0.172487
v -0.229090 0.667807 -0.033191
v -0.143034 0.788021 -0.102000
v -0.261120 0.446139 0.062485
v -0.197028 0.671811 0.082091
v 0.047582 0.803555 -0.174013
v 0.057493 0.722672 -0.210942
v -0.183443 0.872121 0.012076
v -0.110423 0.877687 -0.166904
v -0.230675 -0.019613 0.101354
v -0.320350 0.021658 -0.066977
v -0.283917 -0.010787 -0.120321
v -0.155815 0.008192 0.249662
v -0.089828 -0.006984 0.220701
v 0.101311 0.018888 0.269918
v -0.202210 0.202182 0.143407
v -0.083150 0.040439 -0.386575
v -0.287030 0.207435 -0.026981
v -0.220891 0.342068 -0.187260
v 0.118308 0.203165 0.197750
v -0.139331 0.335451 0.156896
v -0.120690 0.293206 -0.283301
v -0.062199 0.536219 0.186434
v -0.259852 0.135820 -0.149276
v -0.065410 0.491553 -0.217244
v -0.233668 0.022255 -0.294624
v -0.069160 0.906500 0.129395
v 0.118322 0.639007 0.162430
v -0.207763 -0.003104 -0.274451
v -0.041257 1.089228 -0.219986
v 0.013234 1.049071 0.108404
v -0.001840 0.267196 -0.229074
v 0.051979 0.981101 -0.216404
v 0.000016 1.195633 -0.211794
v -0.000042 1.203954 -0.208678
v 0.000040 1.186171 -0.214459
v 0.000082 1.169860 -0.217817
v 0.000076 1.177302 -0.216769
v 0.200036 0.026548 -0.331824
v -0.064583 -0.001601 -0.365843
v 0.317540 1.372373 0.142517
v 0.316426 1.523498 0.199853
v 0.260027 1.425007 0.089720
v 0.403334 1.528382 0.081949
v 0.296869 1.535123 0.120871
v 0.352758 1.445598 0.078773
v 0.221524 1.114977 0.001138
v 0.127117 1.266420 0.022301
v 0.247992 1.268172 -0.101713
v 0.347848 1.330438 0.093744
v 0.244976 0.640809 0.020151
v 0.152272 0.834163 0.044754
v 0.178826 0.811036 -0.061062
v 0.144337 0.983582 -0.123766
v 0.109359 -0.013240 0.211497
v 0.261827 -0.020640 0.077988
v 0.288223 -0.020250 -0.146746
v 0.310894 0.189079 0.073015
v 0.318996 0.262048 -0.020637
v 0.251016 0.395658 -0.132612
v 0.274744 0.354939 0.025340
v 0.127106 0.190416 -0.293402
v 0.174868 0.481261 0.129369
v 0.121100 0.487186 -0.201648
v 0.087078 1.177844 -0.209588
v 0.094532 0.916393 0.112771
v 0.134685 0.001609 -0.327373
v 0.224543 -0.007250 -0.259790
v 0.076308 1.238783 -0.193835
v 0.107253 1.306771 -0.119594
v 0.120377 1.274512 -0.112155
v 0.099549 1.202119 -0.174658
v 0.023631 1.332053 -0.286339
v 0.121166 1.275669 -0.049150
v 0.070662 1.266398 -0.020940
v 0.013694 1.127608 -0.211600
v -0.053176 1.257434 -0.215619
v 0.069718 1.411261 -0.234836
v 0.073756 1.359880 -0.133900
v -0.081807 1.166496 -0.191364
v 0.053328 1.302352 -0.067974
v 0.037899 1.414078 -0.176568
v 0.044825 1.271198 -0.073143
v 0.062516 1.328823 -0.098920
v -0.102676 1.231717 -0.162872
v 0.002052 1.233843 -0.028692
v 0.055147 1.384453 -0.155866
v -0.080031 1.407057 -0.223912
v -0.078738 1.383019 -0.159558
v -0.091726 1.306591 -0.095256
v -0.014959 1.422587 -0.174122
v -0.122839 1.272103 -0.113929
v -0.047780 1.260592 -0.065687
v -0.101461 1.276139 -0.042932
vt 0.890492 0.165115
vt 0.885951 0.151881
vt 0.904618 0.132184
vt 0.672830 0.690946
vt 0.672873 0.684846
vt 0.672873 0.693578
vt 0.892083 0.087002
vt 0.923383 0.107349
vt 0.888830 0.094018
vt 0.888372 0.094554
vt 0.922788 0.149320
vt 0.884445 0.149719
vt 0.890421 0.556303
vt 0.893614 0.609064
vt 0.863988 0.553231
vt 0.829532 0.775727
vt 0.891700 0.757318
vt 0.900420 0.799022
vt 0.871378 0.694678
vt 0.882117 0.679420
vt 0.874665 0.723929
vt 0.887222 0.732236
vt 0.884188 0.720059
vt 0.909945 0.637352
vt 0.884176 0.695374
vt 0.654614 0.868694
vt 0.670937 0.783225
vt 0.671143 0.869077
vt 0.690467 0.912277
vt 0.686861 0.876290
vt 0.710592 0.925416
vt 0.757519 0.978286
vt 0.774344 0.963704
vt 0.773355 0.979433
vt 0.836221 0.975644
vt 0.839034 0.951225
vt 0.844596 0.987189
vt 0.921180 0.676828
vt 0.961902 0.620906
vt 0.955783 0.696081
vt 0.812850 0.804860
vt 0.952448 0.235789
vt 0.944583 0.209562
vt 0.951085 0.182373
vt 0.927217 0.157753
vt 0.774913 0.979714
vt 0.774913 0.998309
vt 0.766652 0.997906
vt 0.511309 0.991751
vt 0.517612 0.982598
vt 0.517612 0.998102
vt 0.942233 0.625283
vt 0.963177 0.129757
vt 0.824466 0.742464
vt 0.708225 0.939651
vt 0.730866 0.935467
vt 0.964799 0.039423
vt 0.958824 0.102927
vt 0.935696 0.062082
vt 0.842402 0.614285
vt 0.835692 0.557171
vt 0.717829 0.828708
vt 0.736013 0.843173
vt 0.822728 0.982970
vt 0.812428 0.985903
vt 0.825863 0.954542
vt 0.968760 0.426345
vt 0.959899 0.418584
vt 0.966670 0.391735
vt 0.426887 0.848383
vt 0.432318 0.902348
vt 0.413825 0.901554
vt 0.220033 0.689571
vt 0.199507 0.747999
vt 0.159963 0.709112
vt 0.178889 0.879218
vt 0.145048 0.915933
vt 0.161267 0.902028
vt 0.938286 0.552082
vt 0.906202 0.572669
vt 0.939316 0.504387
vt 0.067991 0.932905
vt 0.067314 0.975423
vt 0.058036 0.982364
vt 0.180640 0.970429
vt 0.168163 0.957230
vt 0.088216 0.950237
vt 0.078534 0.987009
vt 0.078906 0.958517
vt 0.352282 0.974612
vt 0.356678 0.965086
vt 0.369758 0.974291
vt 0.319717 0.976606
vt 0.310512 0.955686
vt 0.319136 0.957900
vt 0.600902 0.976948
vt 0.602523 0.951192
vt 0.612572 0.979345
vt 0.751849 0.960316
vt 0.754009 0.980044
vt 0.742930 0.980096
vt 0.757097 0.963963
vt 0.184626 0.887891
vt 0.953751 0.974164
vt 0.953751 0.994790
vt 0.950704 0.985407
vt 0.325078 0.956529
vt 0.928354 0.986586
vt 0.922374 0.994231
vt 0.922255 0.980347
vt 0.929298 0.992838
vt 0.739111 0.981813
vt 0.722718 0.977458
vt 0.727958 0.949533
vt 0.144911 0.745141
vt 0.938096 0.031121
vt 0.739696 0.897967
vt 0.990420 0.193189
vt 0.999634 0.189160
vt 0.999634 0.223733
vt 0.650226 0.935934
vt 0.667807 0.966231
vt 0.659606 0.969303
vt 0.237228 0.764363
vt 0.229270 0.759528
vt 0.268594 0.696689
vt 0.967547 0.696258
vt 0.974399 0.761689
vt 0.968956 0.757228
vt 0.984230 0.941736
vt 0.978984 0.946405
vt 0.979559 0.899635
vt 0.986822 0.328874
vt 0.984524 0.386393
vt 0.979205 0.343461
vt 0.332293 0.719365
vt 0.336914 0.815183
vt 0.332260 0.812532
vt 0.017293 0.803150
vt 0.017101 0.815455
vt 0.020685 0.722896
vt 0.797844 0.928063
vt 0.788794 0.904597
vt 0.794766 0.845922
vt 0.684985 0.999196
vt 0.675323 0.999275
vt 0.680010 0.973941
vt 0.659603 0.876852
vt 0.667807 0.879824
vt 0.655480 0.922900
vt 0.274567 0.840100
vt 0.245749 0.818095
vt 0.254360 0.809338
vt 0.270330 0.831994
vt 0.071570 0.835062
vt 0.982925 0.674826
vt 0.976471 0.636340
vt 0.983069 0.630105
vt 0.254280 0.723187
vt 0.934443 0.502566
vt 0.930794 0.501060
vt 0.935121 0.477196
vt 0.109349 0.713351
vt 0.077367 0.692630
vt 0.029520 0.710965
vt 0.975803 0.403111
vt 0.337481 0.739389
vt 0.967757 0.638827
vt 0.971048 0.674110
vt 0.130924 0.766766
vt 0.104407 0.808974
vt 0.124377 0.771700
vt 0.676284 0.975210
vt 0.980707 0.705913
vt 0.974777 0.686082
vt 0.996729 0.651131
vt 0.991715 0.658976
vt 0.991202 0.618413
vt 0.985551 0.658569
vt 0.134156 0.742734
vt 0.939449 0.502398
vt 0.282135 0.697348
vt 0.986929 0.909434
vt 0.341298 0.720814
vt 0.684985 0.974542
vt 0.228386 0.968626
vt 0.242685 0.968630
vt 0.235536 0.991195
vt 0.739309 0.492178
vt 0.728332 0.526010
vt 0.718520 0.496748
vt 0.944615 0.874580
vt 0.929747 0.868344
vt 0.938400 0.852686
vt 0.750738 0.479985
vt 0.951287 0.828038
vt 0.964043 0.891307
vt 0.928362 0.331271
vt 0.920596 0.401972
vt 0.891151 0.331661
vt 0.957433 0.781744
vt 0.922015 0.767531
vt 0.945740 0.721765
vt 0.860560 0.456433
vt 0.888989 0.475699
vt 0.871886 0.513391
vt 0.446917 0.669711
vt 0.419872 0.677615
vt 0.441606 0.649467
vt 0.846802 0.341115
vt 0.888691 0.371534
vt 0.404946 0.590863
vt 0.412873 0.645193
vt 0.335326 0.578975
vt 0.699528 0.973853
vt 0.675323 0.955138
vt 0.696676 0.945066
vt 0.820958 0.365564
vt 0.732655 0.378565
vt 0.813670 0.333892
vt 0.916496 0.731182
vt 0.764943 0.403828
vt 0.651102 0.327318
vt 0.675235 0.338384
vt 0.579282 0.374004
vt 0.472139 0.764054
vt 0.483712 0.711665
vt 0.532777 0.718815
vt 0.690004 0.441722
vt 0.934958 0.473933
vt 0.900673 0.460942
vt 0.835900 0.436566
vt 0.029788 0.957395
vt 0.044211 0.925811
vt 0.044961 0.979294
vt 0.347853 0.272645
vt 0.389303 0.205138
vt 0.394082 0.312559
vt 0.546165 0.000187
vt 0.568904 0.023572
vt 0.487256 0.006817
vt 0.373713 0.393330
vt 0.310675 0.391543
vt 0.330280 0.354005
vt 0.324994 0.444006
vt 0.960428 0.298899
vt 0.940668 0.276628
vt 0.962751 0.238606
vt 0.847514 0.969859
vt 0.867530 0.948989
vt 0.866870 0.965366
vt 0.944484 0.325325
vt 0.416612 0.776652
vt 0.418975 0.702251
vt 0.439728 0.701864
vt 0.709765 0.255944
vt 0.665091 0.165619
vt 0.794286 0.240530
vt 0.231261 0.077062
vt 0.358781 0.099426
vt 0.295289 0.165509
vt 0.423756 0.081223
vt 0.344097 0.025639
vt 0.441834 0.010665
vt 0.731479 0.116141
vt 0.818150 0.196164
vt 0.455339 0.214357
vt 0.490715 0.192676
vt 0.513629 0.271188
vt 0.315562 0.291680
vt 0.640309 0.721271
vt 0.671189 0.701188
vt 0.645601 0.761923
vt 0.426140 0.160818
vt 0.414447 0.116196
vt 0.296494 0.073424
vt 0.516820 0.122983
vt 0.458362 0.131855
vt 0.488281 0.056846
vt 0.371789 0.475907
vt 0.240437 0.020250
vt 0.290380 0.048948
vt 0.786906 0.706675
vt 0.691069 0.741082
vt 0.721771 0.662205
vt 0.544223 0.038154
vt 0.751963 0.780137
vt 0.261005 0.004961
vt 0.457304 0.682739
vt 0.488510 0.633581
vt 0.661587 0.361394
vt 0.648004 0.417152
vt 0.594880 0.428812
vt 0.506605 0.595583
vt 0.547306 0.640585
vt 0.549753 0.210688
vt 0.472373 0.452723
vt 0.502281 0.397231
vt 0.545881 0.465440
vt 0.346909 0.309593
vt 0.405183 0.419264
vt 0.637710 0.444277
vt 0.641191 0.444381
vt 0.675196 0.602533
vt 0.675196 0.610766
vt 0.675024 0.606442
vt 0.626743 0.443931
vt 0.629946 0.444032
vt 0.633708 0.444147
vt 0.515463 0.746258
vt 0.674665 0.614394
vt 0.674873 0.610365
vt 0.674873 0.617694
vt 0.458004 0.387520
vt 0.808391 0.756180
vt 0.076558 0.925656
vt 0.076223 0.885526
vt 0.128843 0.923015
vt 0.312196 0.003825
vt 0.921400 0.866334
vt 0.926810 0.936167
vt 0.881316 0.919358
vt 0.470894 0.314432
vt 0.512569 0.323867
vt 0.466088 0.326762
vt 0.511537 0.307259
vt 0.714146 0.812930
vt 0.591702 0.921357
vt 0.622193 0.901591
vt 0.626408 0.945715
vt 0.789311 0.317973
vt 0.788204 0.295412
vt 0.809881 0.302509
vt 0.341907 0.914541
vt 0.338815 0.948828
vt 0.327486 0.896763
vt 0.401886 0.686067
vt 0.386055 0.744716
vt 0.368795 0.687972
vt 0.305862 0.948978
vt 0.395364 0.921969
vt 0.362905 0.943698
vt 0.394921 0.888825
vt 0.369093 0.856675
vt 0.406347 0.838118
vt 0.725901 0.559782
vt 0.824751 0.581847
vt 0.812283 0.609913
vt 0.360185 0.754901
vt 0.765830 0.537406
vt 0.602067 0.739351
vt 0.622230 0.694047
vt 0.365089 0.707187
vt 0.190363 0.093328
vt 0.117489 0.137245
vt 0.192390 0.047688
vt 0.222133 0.042819
vt 0.229456 0.958027
vt 0.253209 0.938635
vt 0.255068 0.966844
vt 0.549574 0.725948
vt 0.768713 0.522374
vt 0.178572 0.354035
vt 0.144957 0.397144
vt 0.156863 0.307914
vt 0.112016 0.299282
vt 0.078235 0.296455
vt 0.091727 0.241016
vt 0.542568 0.471517
vt 0.526098 0.495415
vt 0.437479 0.785249
vt 0.656837 0.641521
vt 0.652635 0.567190
vt 0.672661 0.582180
vt 0.067932 0.680338
vt 0.006111 0.658012
vt 0.161234 0.610525
vt 0.703735 0.063874
vt 0.162424 0.673658
vt 0.114273 0.563827
vt 0.069736 0.496893
vt 0.745841 0.029005
vt 0.623753 0.312190
vt 0.770372 0.033577
vt 0.069591 0.372647
vt 0.126699 0.949756
vt 0.768728 0.053714
vt 0.764933 0.085740
vt 0.876822 0.830229
vt 0.864212 0.942350
vt 0.832239 0.841902
vt 0.822226 0.917124
vt 0.621606 0.057136
vt 0.644656 0.119883
vt 0.595187 0.118435
vt 0.151997 0.507767
vt 0.590351 0.245091
vt 0.596978 0.159776
vt 0.807152 0.057689
vt 0.152433 0.202164
vt 0.628044 0.468756
vt 0.647285 0.545787
vt 0.536119 0.513250
vt 0.169733 0.273379
vt 0.688615 0.492503
vt 0.679782 0.489936
vt 0.806865 0.652457
vt 0.675323 0.465891
vt 0.582368 0.600358
vt 0.661709 0.501503
vt 0.187521 0.476261
vt 0.188524 0.401741
vt 0.187606 0.447937
vt 0.751705 0.893485
vt 0.779431 0.952043
vt 0.754011 0.930881
vt 0.591523 0.634906
vt 0.612754 0.663934
vt 0.472215 0.952944
vt 0.453889 0.917948
vt 0.475303 0.887186
vt 0.107873 0.311393
vt 0.624401 0.224931
vt 0.599245 0.326071
vt 0.929747 0.939756
vt 0.942950 0.909657
vt 0.937764 0.968571
vt 0.024621 0.676747
vt 0.225698 0.668253
vt 0.374104 0.964847
vt 0.390141 0.961389
vt 0.389106 0.976320
vt 0.641855 0.155641
vt 0.225211 0.938056
vt 0.222078 0.960246
vt 0.208848 0.949063
vt 0.353764 0.882079
vt 0.885887 0.245883
vt 0.848224 0.211715
vt 0.866406 0.219567
vt 0.900922 0.240898
vt 0.290839 0.909393
vt 0.253078 0.873649
vt 0.290696 0.877532
vt 0.858432 0.195833
vt 0.858458 0.176963
vt 0.920229 0.248751
vt 0.624911 0.848017
vt 0.585954 0.833114
vt 0.620325 0.808670
vt 0.265376 0.931031
vt 0.229828 0.848019
vt 0.238831 0.895327
vt 0.627043 0.868521
vt 0.590964 0.894296
vt 0.566535 0.878509
vt 0.956328 0.563643
vt 0.947924 0.590937
vt 0.962220 0.526029
vt 0.235780 0.930631
vt 0.965226 0.572340
vt 0.958474 0.545883
vt 0.561171 0.857457
vt 0.964409 0.587241
vt 0.965201 0.511088
vt 0.958574 0.503231
vt 0.889551 0.156809
vt 0.511015 0.793810
vt 0.531076 0.829744
vt 0.477609 0.792830
vt 0.876945 0.267351
vt 0.865287 0.309860
vt 0.850561 0.286303
vt 0.593415 0.775326
vt 0.431223 0.984178
vt 0.436950 0.968338
vt 0.443828 0.982995
vt 0.896428 0.300500
vt 0.896473 0.261886
vt 0.064381 0.906551
vt 0.008423 0.866256
vt 0.040044 0.855669
vt 0.067230 0.866264
vt 0.580041 0.973709
vt 0.574915 0.989678
vt 0.571314 0.958977
vt 0.867893 0.031732
vt 0.845808 0.044765
vt 0.889437 0.014503
vt 0.018067 0.895095
vt 0.941110 0.423379
vt 0.941704 0.408929
vt 0.954784 0.452679
vt 0.479537 0.847143
vt 0.462707 0.865402
vt 0.472808 0.875880
vt 0.450889 0.791054
vt 0.477029 0.806774
vt 0.858617 0.060786
vn 0.307000 -0.942700 0.130900
vn -0.841900 0.523800 -0.129500
vn -0.683000 -0.710600 0.168900
vn -0.847400 -0.515500 0.127500
vn -0.667600 -0.698800 0.256800
vn 0.437400 -0.839400 0.322700
vn 0.842500 -0.523000 0.129400
vn 0.360800 -0.872000 0.330900
vn 0.924500 0.063500 -0.375900
vn 0.439500 -0.472400 -0.764000
vn -0.112300 -0.655800 -0.746600
vn 0.974600 0.194900 0.110700
vn 0.521200 0.827500 -0.208800
vn -0.022600 0.855900 0.516700
vn 0.281700 0.194300 -0.939600
vn 0.051400 0.951000 -0.304900
vn -0.687900 0.725700 -0.005600
vn 0.137500 0.578100 0.804300
vn 0.011500 0.221300 -0.975100
vn -0.311600 0.627700 0.713400
vn 0.429100 0.893800 -0.130600
vn 0.847900 -0.163200 0.504400
vn -0.557500 -0.275900 0.783000
vn 0.202200 -0.205300 -0.957600
vn 0.977700 -0.072100 -0.197400
vn 0.280100 0.488200 0.826600
vn 0.244200 0.552900 0.796700
vn -0.896000 0.333200 -0.293500
vn -0.249400 -0.349000 -0.903300
vn -0.955600 0.281300 0.088000
vn -0.220600 0.172500 -0.960000
vn 0.622000 0.782700 0.019800
vn -0.128400 0.018900 -0.991500
vn -0.337000 0.889300 0.309200
vn -0.732500 -0.233700 0.639400
vn -0.649200 -0.297800 0.700000
vn -0.109000 -0.305900 -0.945800
vn 0.875900 -0.047100 0.480200
vn 0.612800 0.171500 0.771400
vn -0.713000 0.558500 -0.423900
vn -0.614000 0.283900 0.736500
vn 0.710900 0.652200 0.263200
vn 0.662500 0.574700 -0.480500
vn 0.686700 0.725200 -0.050000
vn -0.192700 0.808400 -0.556200
vn -0.519300 0.078900 0.851000
vn 0.364000 0.752000 -0.549600
vn -0.145700 -0.329100 0.933000
vn 0.137100 -0.587800 -0.797300
vn 0.940200 -0.310700 -0.139600
vn -0.548000 -0.829500 0.107800
vn 0.057500 -0.667000 0.742800
vn 0.730500 0.496400 0.469000
vn -0.269000 -0.465700 0.843100
vn 0.454100 -0.316400 -0.832800
vn -0.537800 0.771800 0.339200
vn -0.240400 -0.097300 -0.965800
vn -0.811000 0.584200 0.032500
vn 0.930900 0.349000 0.107600
vn 0.519400 0.772900 0.364600
vn -0.544000 0.310400 -0.779500
vn 0.568600 0.405400 0.715800
vn -0.533500 -0.838500 -0.110800
vn -0.581000 0.657900 0.479200
vn -0.746700 0.656500 0.106700
vn -0.759500 0.641900 0.105600
vn -0.769500 0.630300 0.103000
vn 0.211100 0.705100 0.676900
vn -0.146800 0.847200 -0.510500
vn -0.263300 0.782000 -0.565000
vn -0.512600 0.534800 -0.671700
vn 0.575600 0.815800 0.056300
vn 0.644500 0.763200 -0.046300
vn -0.473000 0.816100 0.332100
vn 0.609700 0.736100 0.294000
vn -0.092900 0.545200 -0.833200
vn 0.066900 0.373000 0.925400
vn 0.840200 0.517400 0.162100
vn 0.133600 0.877600 -0.460300
vn -0.765200 -0.024200 -0.643300
vn -0.220000 -0.306200 0.926200
vn -0.986400 0.158600 -0.042900
vn -0.862100 -0.321800 0.391400
vn 0.247000 0.251100 0.935900
vn -0.946100 -0.318400 0.059300
vn -0.326300 0.510300 -0.795700
vn -0.977700 -0.190900 -0.087600
vn -0.037700 0.660200 0.750200
vn -0.561900 0.259000 -0.785600
vn -0.960300 0.226400 -0.162700
vn -0.723200 0.158400 -0.672300
vn -0.912500 0.062000 0.404500
vn -0.780200 0.174600 0.600700
vn 0.209000 0.086300 -0.974100
vn 0.229000 0.287800 -0.929900
vn -0.983000 0.091400 0.159300
vn -0.588900 -0.222800 -0.776800
vn -0.856500 -0.257000 0.447600
vn -0.958600 -0.283700 0.022100
vn -0.845900 -0.429300 -0.316600
vn -0.424900 -0.352600 0.833700
vn -0.034900 -0.914700 0.402700
vn 0.238300 -0.290300 0.926800
vn -0.665800 0.224300 0.711600
vn -0.206500 0.009900 -0.978400
vn -0.989400 0.133100 0.058600
vn -0.812900 0.149300 -0.563000
vn 0.260200 0.273300 0.926100
vn -0.392800 0.035100 0.918900
vn -0.148100 0.331300 -0.931800
vn -0.168500 -0.004900 0.985700
vn -0.658800 0.569000 -0.492100
vn -0.115800 0.125900 -0.985300
vn -0.730500 -0.133400 -0.669800
vn -0.273400 0.132700 0.952700
vn 0.425000 0.146200 0.893300
vn -0.485400 -0.774900 -0.404800
vn -0.244500 0.015200 -0.969500
vn 0.071000 0.288900 0.954700
vn 0.121600 0.298900 -0.946500
vn 0.301800 -0.157300 -0.940300
vn -0.169600 0.280700 -0.944700
vn -0.039900 0.770200 -0.636500
vn -0.020200 0.464100 -0.885600
vn 0.053000 0.262800 -0.963400
vn 0.451900 0.272800 -0.849300
vn -0.029200 0.083900 -0.996000
vn -0.078400 0.274800 -0.958300
vn -0.577300 0.211500 -0.788600
vn 0.435500 0.173800 -0.883200
vn 0.053200 0.262800 -0.963400
vn -0.030800 0.176400 -0.983800
vn 0.545800 -0.208300 -0.811600
vn -0.076400 -0.492700 -0.866800
vn 0.180200 -0.270700 0.945600
vn -0.072300 0.411500 0.908500
vn -0.830600 0.556700 0.013400
vn 0.785800 0.454300 -0.419700
vn -0.578800 0.776800 -0.247900
vn 0.653500 -0.041300 -0.755800
vn 0.872400 -0.253200 0.418100
vn -0.514900 0.452800 0.728000
vn 0.705200 0.188000 -0.683600
vn 0.902700 -0.354700 0.243500
vn 0.960400 0.250200 0.122800
vn 0.791300 0.391800 0.469400
vn 0.938100 0.096300 -0.332600
vn 0.769200 -0.126200 -0.626400
vn 0.243900 -0.835200 0.492900
vn 0.876100 -0.239500 0.418400
vn 0.959800 0.119100 -0.254200
vn 0.870200 0.227600 0.436900
vn 0.990300 0.122100 0.066400
vn 0.833800 0.236100 -0.499000
vn 0.908300 0.150900 0.390100
vn -0.019300 0.232300 -0.972400
vn 0.534700 0.044300 0.843900
vn 0.320300 0.124300 -0.939100
vn 0.308400 0.223500 -0.924600
vn 0.427500 -0.187500 0.884400
vn 0.563700 0.277000 -0.778100
vn 0.523500 0.150400 -0.838700
vn 0.120200 0.257400 -0.958800
vn 0.195100 -0.643400 -0.740300
vn 0.673800 -0.553900 -0.489100
vn 0.630700 -0.047800 -0.774600
vn 0.897800 0.440300 -0.009400
vn 0.903100 0.300000 -0.307400
vn 0.667800 0.034400 -0.743600
vn 0.178200 -0.092000 -0.979700
vn 0.247100 0.903500 0.350100
vn -0.203600 0.806800 0.554700
vn 0.079300 -0.058200 -0.995100
vn -0.547700 -0.142100 -0.824500
vn 0.620600 0.648100 -0.441400
vn 0.701100 0.616200 0.358800
vn -0.455600 -0.092700 -0.885300
vn -0.405400 0.648900 0.643800
vn 0.268400 0.959700 0.083300
vn -0.736700 0.534900 0.413800
vn -0.769500 0.579800 0.267700
vn -0.721300 0.363800 -0.589300
vn -0.212100 0.811500 0.544500
vn -0.744000 0.033100 0.667400
vn 0.987900 0.047200 -0.147600
vn 0.988800 0.052900 -0.139600
vn 0.605600 0.553000 0.572200
vn -0.356400 0.493600 0.793300
vn -0.689600 0.617600 -0.378100
vn -0.821800 0.551000 0.145000
vn -0.769800 0.637300 -0.034700
vn -0.081300 -0.226200 -0.970700
vn -0.526100 0.719800 -0.452800
vn 0.362700 0.810700 0.459600
vn 0.113000 0.814300 0.569300
vn -0.517100 0.050600 0.854400
vn -0.032200 0.590000 0.806800
vn -0.966600 -0.253900 -0.033300
usemtl (null)_IGF_Turner.001_IGF_Turner_color.tga.001_NONE.003
s off
f 1/1/1 2/2/1 3/3/1
f 2/4/2 4/5/2 5/6/2
f 6/7/3 7/8/3 8/9/3
f 8/9/4 9/10/4 6/7/4
f 7/8/5 9/10/5 8/9/5
f 3/3/6 7/11/6 1/1/6
f 1/1/7 5/12/7 2/2/7
f 3/3/8 2/2/8 5/12/8
s 1
f 10/13/9 11/14/10 12/15/11
f 13/16/12 14/17/13 15/18/14
f 12/19/11 16/20/15 10/21/9
f 10/21/9 14/17/13 13/16/12
f 14/22/13 10/21/9 17/23/16
f 16/24/15 17/23/16 10/25/9
f 17/26/16 16/27/15 12/28/11
f 18/29/17 13/30/12 19/31/18
f 20/32/19 21/33/20 22/34/21
f 23/35/22 21/36/20 24/37/23
f 20/38/19 24/39/23 21/40/20
f 19/41/18 13/16/12 15/18/14
f 23/42/22 25/43/24 26/44/25
f 25/43/24 20/45/19 26/44/25
f 23/46/22 22/47/21 21/48/20
f 26/49/25 20/50/19 22/51/21
f 25/52/24 24/39/23 20/38/19
f 23/42/22 26/44/25 22/53/21
f 11/54/10 10/21/9 13/16/12
f 27/55/26 19/31/18 28/56/27
f 29/57/28 15/58/14 14/59/13
f 12/15/11 11/14/10 30/60/29
f 12/15/11 30/60/29 29/61/28
f 15/62/14 31/63/30 19/31/18
f 12/64/11 29/65/28 32/66/31
f 29/67/28 17/68/16 32/69/31
f 32/70/31 17/71/16 12/72/11
f 15/73/14 29/74/28 31/75/30
f 33/76/32 34/77/33 35/78/34
f 36/79/35 34/80/33 37/81/36
f 34/82/33 38/83/37 37/84/36
f 34/77/33 39/85/38 38/86/37
f 39/87/38 40/88/39 36/89/35
f 39/90/38 36/91/35 37/92/36
f 34/77/33 33/76/32 39/85/38
f 41/93/40 36/94/35 35/95/34
f 33/96/32 35/97/34 36/98/35
f 36/99/35 42/100/41 33/101/32
f 36/99/35 40/102/39 42/100/41
f 33/76/32 40/103/39 39/85/38
f 36/104/35 41/105/40 34/106/33
f 41/93/40 35/95/34 34/107/33
f 40/108/39 43/109/42 42/110/41
f 43/109/42 40/108/39 33/111/32
f 30/112/29 44/113/43 31/114/30
f 31/75/30 29/74/28 30/115/29
f 29/57/28 14/59/13 17/116/16
f 19/31/18 45/117/44 28/56/27
f 45/118/44 19/119/18 31/120/30
f 46/121/45 47/122/46 48/123/47
f 49/124/48 50/125/49 51/126/50
f 50/127/49 48/128/47 51/129/50
f 52/130/51 51/131/50 53/132/52
f 48/133/47 54/134/53 51/135/50
f 53/136/52 55/137/54 56/138/55
f 56/139/55 57/140/56 58/141/57
f 57/142/56 55/143/54 54/144/53
f 59/145/58 60/146/59 61/147/60
f 62/148/61 63/149/62 49/150/48
f 50/125/49 64/151/63 62/152/61
f 50/125/49 63/153/62 64/151/63
f 63/153/62 60/154/59 64/151/63
f 64/151/63 56/138/55 55/137/54
f 57/140/56 56/139/55 59/155/58
f 59/156/58 55/157/54 57/158/56
f 47/159/46 49/124/48 51/126/50
f 46/121/45 49/150/48 47/122/46
f 68/160/64 47/161/46 52/162/51
f 48/163/47 52/164/51 54/165/53
f 53/166/52 51/135/50 54/134/53
f 54/165/53 52/164/51 58/141/57
f 58/167/57 53/136/52 56/138/55
f 58/141/57 57/140/56 54/165/53
f 50/125/49 49/124/48 63/153/62
f 50/127/49 62/168/61 46/169/45
f 46/170/45 62/171/61 49/172/48
f 61/147/60 60/146/59 63/173/62
f 62/174/61 64/175/63 59/156/58
f 64/176/63 60/177/59 56/178/55
f 59/156/58 64/175/63 55/157/54
f 59/179/58 56/178/55 60/177/59
f 50/180/49 46/170/45 48/163/47
f 48/181/47 68/160/64 52/162/51
f 52/182/51 47/159/46 51/126/50
f 58/183/57 52/130/51 53/132/52
f 53/136/52 54/184/53 55/137/54
f 62/185/61 59/145/58 61/147/60
f 67/186/65 66/187/66 65/188/67
f 69/189/68 70/190/69 71/191/70
f 72/192/71 73/193/72 74/194/73
f 75/195/74 70/190/69 69/189/68
f 73/193/72 76/196/75 74/194/73
f 77/197/76 73/193/72 72/192/71
f 78/198/77 79/199/78 80/200/79
f 79/201/78 81/202/80 80/203/79
f 82/204/81 79/205/78 78/206/77
f 78/207/77 83/208/82 82/209/81
f 84/210/83 85/211/84 82/204/81
f 86/212/85 81/213/80 87/214/86
f 82/215/81 85/216/84 79/217/78
f 79/218/78 87/219/86 81/220/80
f 80/203/79 81/202/80 83/221/82
f 81/213/80 82/209/81 83/208/82
f 82/209/81 81/213/80 86/212/85
f 87/219/86 79/218/78 73/222/72
f 86/223/85 87/224/86 88/225/87
f 73/226/72 85/227/84 89/228/88
f 87/219/86 73/222/72 77/229/76
f 79/199/78 85/230/84 73/231/72
f 86/232/85 84/210/83 82/204/81
f 90/233/89 91/234/90 92/235/91
f 91/236/90 93/237/92 94/238/93
f 95/239/94 96/240/95 92/241/91
f 97/242/96 98/243/97 92/244/91
f 97/242/96 88/245/87 98/243/97
f 99/246/98 100/247/99 101/248/100
f 102/249/101 99/250/98 103/251/102
f 102/252/101 100/247/99 99/246/98
f 104/253/103 102/254/101 103/255/102
f 102/256/101 104/257/103 105/258/104
f 106/259/105 107/260/106 108/261/107
f 105/262/104 100/263/99 102/264/101
f 105/258/104 109/265/108 110/266/109
f 108/267/107 111/268/110 106/269/105
f 108/261/107 91/236/90 90/270/89
f 100/263/99 105/262/104 107/260/106
f 110/271/109 112/272/111 93/273/92
f 110/274/109 107/260/106 105/275/104
f 107/260/106 110/274/109 93/237/92
f 107/260/106 113/276/112 100/263/99
f 114/277/113 108/278/107 90/279/89
f 84/280/83 86/212/85 88/245/87
f 115/281/114 100/263/99 113/282/112
f 116/283/115 112/284/111 117/285/116
f 96/286/95 114/277/113 90/279/89
f 94/287/93 112/284/111 116/283/115
f 100/263/99 115/281/114 118/288/117
f 85/227/84 84/289/83 116/290/115
f 87/291/86 77/292/76 119/293/118
f 116/294/115 120/295/119 85/227/84
f 111/268/110 114/277/113 121/296/120
f 120/295/119 89/228/88 85/227/84
f 95/297/94 98/298/97 122/299/121
f 88/225/87 87/291/86 98/298/97
f 91/300/90 97/242/96 92/244/91
f 84/280/83 97/242/96 116/301/115
f 91/236/90 108/261/107 93/237/92
f 123/302/122 77/292/76 124/303/123
f 84/280/83 88/245/87 97/242/96
f 87/291/86 119/293/118 98/298/97
f 124/304/124 125/305/125 123/306/126
f 126/307/127 119/293/118 127/308/128
f 77/292/76 125/309/129 127/308/128
f 89/228/88 76/310/75 73/226/72
f 127/308/128 119/293/118 77/292/76
f 127/311/130 125/312/131 126/313/132
f 92/314/91 98/298/97 95/297/94
f 97/315/96 94/287/93 116/283/115
f 98/298/97 119/293/118 122/299/121
f 92/241/91 96/240/95 90/279/89
f 94/238/93 97/242/96 91/300/90
f 106/269/105 111/268/110 121/296/120
f 128/316/133 106/317/105 121/318/120
f 123/302/122 125/309/129 77/292/76
f 101/319/100 100/263/99 118/288/117
f 93/237/92 108/261/107 107/260/106
f 113/320/112 106/321/105 115/322/114
f 115/323/114 129/324/134 118/325/117
f 106/326/105 129/324/134 115/323/114
f 93/327/92 112/284/111 94/287/93
f 111/328/110 108/329/107 114/330/113
f 113/276/112 107/260/106 106/259/105
f 105/258/104 104/257/103 109/265/108
f 78/331/77 80/332/79 83/333/82
f 130/334/135 131/335/136 132/336/137
f 131/337/136 130/338/135 133/339/138
f 134/340/139 132/336/137 131/335/136
f 135/341/140 132/342/137 133/343/138
f 136/344/141 130/338/135 137/345/142
f 138/346/143 132/347/137 135/348/140
f 136/344/141 139/349/144 130/338/135
f 132/347/137 70/190/69 137/350/142
f 138/346/143 70/190/69 132/347/137
f 137/351/142 120/295/119 136/352/141
f 135/353/140 133/339/138 130/338/135
f 139/354/144 138/355/143 135/356/140
f 130/357/135 139/354/144 135/356/140
f 137/358/142 130/359/135 132/360/137
f 75/361/74 89/228/88 137/351/142
f 75/195/74 137/362/142 70/190/69
f 117/363/116 140/364/145 141/365/146
f 142/366/147 95/367/94 143/368/148
f 122/369/121 143/370/148 95/297/94
f 104/253/103 103/255/102 144/371/149
f 145/372/150 104/373/103 144/374/149
f 146/375/151 128/376/133 147/377/152
f 109/265/108 104/257/103 147/378/152
f 146/375/151 147/377/152 145/379/150
f 148/380/153 128/376/133 149/381/154
f 109/265/108 147/378/152 148/382/153
f 128/383/133 129/324/134 106/326/105
f 148/382/153 150/384/155 109/265/108
f 96/385/95 140/364/145 149/381/154
f 121/318/120 151/386/156 128/316/133
f 109/265/108 150/387/155 152/388/157
f 128/376/133 148/380/153 147/377/152
f 110/389/109 152/390/157 112/391/111
f 117/392/116 112/391/111 152/390/157
f 96/393/95 149/394/154 153/395/158
f 149/381/154 150/396/155 148/380/153
f 151/397/156 121/296/120 153/398/158
f 109/265/108 152/399/157 110/266/109
f 138/355/143 139/354/144 136/400/141
f 153/395/158 114/277/113 96/240/95
f 119/293/118 126/307/127 154/401/159
f 154/401/159 138/402/143 143/403/148
f 155/404/160 141/365/146 142/366/147
f 121/296/120 114/277/113 153/395/158
f 77/229/76 71/405/70 154/406/159
f 142/366/147 143/368/148 136/400/141
f 136/400/141 155/404/160 142/366/147
f 117/285/116 141/407/146 116/283/115
f 154/406/159 124/408/123 77/229/76
f 70/190/69 154/406/159 71/405/70
f 123/302/161 124/303/123 154/401/159
f 120/295/119 116/294/115 155/409/160
f 70/410/69 138/402/143 154/401/159
f 150/396/155 140/364/145 152/411/157
f 117/412/116 152/413/157 140/364/145
f 126/307/127 127/308/162 154/401/159
f 89/228/88 120/295/119 137/351/142
f 154/401/159 127/308/162 125/309/163
f 95/414/94 142/415/147 96/416/95
f 154/401/159 122/299/121 119/293/118
f 120/295/119 155/417/160 136/418/141
f 141/419/146 155/420/160 116/421/115
f 143/368/148 138/355/143 136/400/141
f 142/422/147 141/365/146 140/364/145
f 128/383/133 151/397/156 149/423/154
f 128/383/133 156/424/164 129/324/134
f 123/302/161 154/401/159 125/309/163
f 122/425/121 154/426/159 143/427/148
f 146/375/151 157/428/165 128/376/133
f 149/381/154 140/364/145 150/396/155
f 145/379/150 147/377/152 104/429/103
f 128/430/133 157/431/165 156/432/164
f 96/385/95 142/422/147 140/364/145
f 153/395/158 149/433/154 151/397/156
f 131/434/136 133/435/138 134/436/139
f 134/437/139 133/343/138 132/342/137
f 158/438/166 159/439/167 160/440/168
f 158/438/166 160/440/168 161/441/169
f 162/442/170 159/443/167 158/444/166
f 159/439/167 163/445/171 160/440/168
f 164/446/172 163/445/171 159/439/167
f 165/447/173 158/438/166 161/441/169
f 158/448/166 166/449/174 162/450/170
f 162/442/170 167/451/175 159/443/167
f 164/452/172 159/443/167 168/453/176
f 166/449/174 158/454/166 165/455/173
f 167/451/175 168/453/176 159/443/167
f 166/449/174 165/455/173 169/456/177
f 170/457/178 164/458/172 168/459/176
f 171/460/179 168/453/176 167/451/175
f 172/461/180 164/458/172 170/457/178
f 173/462/181 170/457/178 168/459/176
f 174/463/182 166/449/174 169/456/177
f 172/461/180 175/464/183 164/458/172
f 176/465/184 168/459/176 171/466/179
f 4/467/185 164/446/172 2/2/186
f 5/468/187 164/469/172 3/470/188
f 177/471/189 167/472/175 162/473/170
f 162/450/170 166/449/174 177/474/189
f 3/475/188 164/476/172 175/477/183
f 177/471/189 171/478/179 167/472/175
f 171/478/179 177/471/189 178/479/190
f 179/480/191 177/481/189 166/482/174
f 166/482/174 174/483/182 179/480/191
f 180/484/192 171/485/179 178/486/190
f 181/487/193 179/488/191 174/489/182
f 179/480/191 178/490/190 177/481/189
f 175/491/183 182/492/194 3/493/188
f 3/470/188 182/494/194 183/495/195
f 183/495/195 182/494/194 179/496/191
f 7/497/196 3/498/188 183/495/195
f 181/487/193 183/499/195 179/488/191
f 183/499/195 9/10/197 7/8/196
f 2/2/186 164/446/172 5/12/187
f 183/499/195 8/9/198 9/10/197
