#name "Charge"
#participants 5
set_dialogue_color 1 0 0.52 0.95
set_dialogue_voice 1 8
set_dialogue_color 2 0.7 0.0 0.95
set_dialogue_voice 2 3
say 1 "You" "...so this will create an escape route for the slaves..."
say 1 "You" "..."
say 1 "You" "...and... [wait 0.3]there."
say 1 "You" "Light the fuse, [wait 0.3]and it'll go off before --"
say 1 "You" "...[wait 0.3]!"
say 5 "" "..."
say 5 "" "..."
say 1 "You" "..."
say 1 "You" "Ow... [wait 0.3]everything... [wait 0.3]hurts..."
say 1 "You" "The fuse...! [wait 0.5]Why did it...?"
say 1 "You" "..."
say 2 "???" "You cannot escape your fate."
say 1 "You" "W-what? [wait 0.5]You're..."
say 1 "You" "They told me to... [wait 0.3]to stay away from you!"
say 2 "???" "You dare try cheating us and running away?"
say 2 "???" "You had an entire journey before you. [wait 0.5]We would fix all our problems. [wait 0.5]You could walk away scot free."
say 2 "???" "What were you thinking!? [wait 0.5]You think we gave you that key just so you could catch a breath of fresh air!?"
say 1 "You" "..."
say 2 "???" "Nevermind that. [wait 0.5]The cats will surely retaliate and destroy your silly little Empire."
say 2 "???" "After a war or two, [wait 0.3]they will never take another step in our sacred grounds."
say 1 "You" "...[wait 0.3]?"
say 2 "???" "Rest in peace, [wait 0.3]you fruit."
say 1 "You" "..."
say 1 "You" "...[wait 0.3]w-wait!"
say 1 "You" "...[wait 0.3]no!"
say 5 "" "..."
say 5 "" "You've completed the Prologue ending."
say 5 "T2-Dev" "Thank you for playing Therium-2."
