# Blender v2.75 (sub 0) OBJ File: ''
# www.blender.org
mtllib Barrel.mtl
o group_cam
v 0.342960 0.660253 -0.093101
v 0.354786 0.660238 -0.001542
v 0.357277 0.626346 -0.002662
v 0.345755 0.625572 -0.094688
v 0.346159 0.659193 0.088753
v 0.348246 0.627859 0.089133
v 0.306964 0.658813 0.178223
v 0.312445 0.627919 0.178063
v 0.250535 0.657660 0.252771
v 0.252972 0.626491 0.253623
v 0.179629 0.658030 0.306193
v 0.182023 0.627917 0.307501
v 0.093062 0.658055 0.340862
v 0.095609 0.627950 0.345416
v 0.000631 0.657923 0.355080
v 0.000633 0.628123 0.357624
v -0.088795 0.659205 0.342733
v -0.091495 0.628159 0.347028
v -0.175640 0.659376 0.309202
v -0.177236 0.628596 0.310584
v -0.251132 0.657852 0.250722
v -0.250465 0.628956 0.252610
v -0.306665 0.657821 0.179298
v -0.310063 0.627446 0.179838
v -0.344319 0.656984 0.093205
v -0.344863 0.627013 0.093927
v -0.356487 0.657552 0.002397
v -0.358369 0.625358 0.001778
v -0.179403 0.660225 -0.308662
v -0.091468 0.660758 -0.344915
v -0.092492 0.625736 -0.349058
v -0.181509 0.627153 -0.311576
v 0.000641 0.661256 -0.355010
v 0.000422 0.626810 -0.359069
v 0.090021 0.661595 -0.344083
v 0.091024 0.628571 -0.346294
v 0.177816 0.659859 -0.310251
v 0.178141 0.627626 -0.310778
v 0.250580 0.658722 -0.251031
v 0.253931 0.626983 -0.253406
v 0.305176 0.658837 -0.181597
v 0.305705 0.625725 -0.181163
v 0.329609 0.613544 -0.090296
v 0.342025 0.613530 0.000034
v 0.330259 0.614465 0.085888
v 0.295710 0.612613 0.170769
v 0.083139 0.612071 0.331927
v -0.001686 0.611617 0.341651
v -0.082246 0.611625 0.332130
v -0.168261 0.614064 0.297022
v -0.240877 0.614469 0.242655
v -0.299649 0.612926 0.165197
v -0.329689 0.611774 0.089328
v -0.341610 0.612320 -0.000084
v -0.092122 0.614887 -0.329110
v -0.173655 0.613948 -0.294326
v -0.001555 0.613966 -0.341290
v 0.084680 0.614409 -0.330845
v 0.168493 0.614422 -0.296650
v 0.240690 0.614024 -0.242617
v 0.294510 0.612684 -0.173605
v 0.363165 0.415620 -0.001565
v 0.381438 0.405674 -0.000033
v 0.370026 0.403498 -0.097388
v 0.350769 0.416479 -0.092894
v 0.349989 0.416920 0.093723
v 0.369324 0.406540 0.101009
v 0.313520 0.417785 0.181473
v 0.330209 0.406626 0.193832
v -0.085829 0.422889 0.352119
v -0.103877 0.410366 0.367961
v -0.000667 0.410357 0.381326
v 0.000409 0.422657 0.361915
v -0.180067 0.423665 0.313890
v -0.192213 0.411824 0.330759
v -0.253669 0.425183 0.257071
v -0.269711 0.409614 0.268799
v -0.311963 0.425718 0.179522
v -0.330103 0.412275 0.190991
v -0.348979 0.426398 0.094698
v -0.367198 0.412124 0.099389
v -0.361775 0.426646 0.000522
v -0.379987 0.413437 -0.000717
v -0.267863 0.411481 -0.269745
v -0.182411 0.422098 -0.313210
v -0.191418 0.409938 -0.328766
v -0.255531 0.423181 -0.256215
v -0.093379 0.421073 -0.350578
v -0.100289 0.409872 -0.368655
v -0.000503 0.421449 -0.362026
v -0.000815 0.409629 -0.379623
v 0.086294 0.419748 -0.351987
v 0.099395 0.408629 -0.368751
v 0.181629 0.417862 -0.314426
v 0.189795 0.407063 -0.330515
v 0.257010 0.417928 -0.256018
v 0.269659 0.404566 -0.271820
v 0.315866 0.416405 -0.178536
v 0.331388 0.404559 -0.188408
v 0.360239 0.330445 -0.096525
v 0.368744 0.334134 -0.000087
v 0.373133 0.213998 0.000000
v 0.360420 0.213998 -0.096574
v 0.360420 0.213998 0.096574
v 0.355077 0.336279 0.096065
v -0.090743 0.342560 0.356826
v -0.096574 0.213998 0.360420
v 0.000000 0.213998 0.373133
v 0.002227 0.341284 0.367579
v -0.181453 0.341580 0.319800
v -0.186568 0.213998 0.323143
v -0.260624 0.343102 0.260169
v -0.263846 0.213998 0.263846
v -0.318393 0.343584 0.183817
v -0.323143 0.213998 0.186568
v -0.354488 0.343183 0.099012
v -0.360420 0.213998 0.096574
v -0.367771 0.342975 -0.000129
v -0.373133 0.213998 0.000000
v -0.353462 0.342675 -0.100948
v -0.360420 0.213998 -0.096574
v -0.318627 0.342389 -0.183697
v -0.323143 0.213998 -0.186568
v -0.261163 0.341649 -0.258753
v -0.263846 0.213998 -0.263846
v -0.186268 0.339482 -0.317749
v -0.186568 0.213998 -0.323143
v -0.096123 0.336901 -0.354923
v -0.096574 0.213998 -0.360420
v 0.186568 0.213998 -0.323143
v 0.261557 0.334501 -0.259665
v 0.263846 0.213998 -0.263846
v 0.185085 0.335105 -0.317323
v 0.320286 0.330694 -0.182635
v 0.323143 0.213998 -0.186568
v 0.385675 0.350721 -0.000293
v 0.372792 0.349274 -0.100007
v 0.372933 0.353571 0.103073
v 0.334675 0.353538 0.193206
v 0.192031 0.353253 -0.333259
v 0.272984 0.350383 -0.273994
v 0.333833 0.350384 -0.189619
v 0.100679 0.353812 -0.372551
v 0.090898 0.335634 -0.357245
v -0.102263 0.355203 0.372137
v 0.000723 0.355149 0.385378
v -0.192892 0.355257 0.334281
v -0.271625 0.357936 0.273933
v -0.332244 0.357803 0.194141
v -0.372392 0.357741 0.101276
v -0.383621 0.357354 -0.001292
v -0.368214 0.413782 -0.100967
v -0.371962 0.357452 -0.101285
v -0.331148 0.414676 -0.190930
v -0.333897 0.357422 -0.193517
v -0.273542 0.356007 -0.272498
v -0.195307 0.355956 -0.333440
v -0.099809 0.354496 -0.370897
v -0.000937 0.354398 -0.384669
v -0.003202 0.337647 -0.367886
v 0.329730 -0.244058 -0.089196
v 0.339740 -0.243153 -0.001610
v 0.328345 -0.286376 -0.087980
v 0.339928 -0.286376 -0.000000
v 0.329716 -0.244192 0.085053
v 0.328345 -0.286376 0.087980
v 0.295918 -0.245175 0.168608
v 0.294386 -0.286376 0.169964
v 0.242011 -0.245447 0.240182
v 0.240366 -0.286376 0.240366
v 0.171680 -0.245261 0.294573
v 0.169964 -0.286376 0.294386
v 0.089610 -0.245389 0.328881
v 0.087980 -0.286376 0.328345
v 0.000808 -0.245554 0.340610
v 0.000000 -0.286376 0.339928
v -0.087718 -0.245188 0.328423
v -0.087980 -0.286376 0.328345
v -0.328818 -0.243813 0.089878
v -0.343440 -0.244103 0.001326
v -0.328345 -0.286376 0.087980
v -0.339928 -0.286376 -0.000000
v -0.337164 -0.244006 -0.087663
v -0.328345 -0.286376 -0.087980
v -0.294386 -0.286376 -0.169964
v -0.303793 -0.244675 -0.170907
v -0.240366 -0.286376 -0.240366
v -0.245682 -0.245223 -0.246621
v -0.170746 -0.245198 -0.295128
v -0.169964 -0.286376 -0.294386
v -0.089246 -0.244468 -0.329461
v -0.087980 -0.286376 -0.328345
v -0.001395 -0.244714 -0.342714
v 0.000000 -0.286376 -0.339928
v 0.085868 -0.244275 -0.329398
v 0.087980 -0.286376 -0.328345
v 0.168688 -0.243507 -0.295915
v 0.169964 -0.286376 -0.294386
v 0.238265 -0.243758 -0.242640
v 0.240366 -0.286376 -0.240366
v 0.294180 -0.244106 -0.170546
v 0.294386 -0.286376 -0.169964
v 0.346010 -0.201461 -0.094166
v 0.358358 -0.201263 -0.001805
v 0.343940 -0.231264 -0.091830
v 0.355727 -0.232015 -0.001133
v 0.344698 -0.201472 0.090376
v 0.342952 -0.232835 0.090644
v 0.310473 -0.199741 0.178183
v 0.308664 -0.231938 0.176099
v 0.255445 -0.200928 0.253725
v 0.254124 -0.230025 0.252250
v 0.182584 -0.200122 0.308126
v 0.180117 -0.232866 0.307067
v 0.096289 -0.201969 0.345471
v 0.095769 -0.230623 0.342860
v 0.001498 -0.198878 0.361653
v 0.001674 -0.230634 0.358241
v -0.091185 -0.200397 0.348888
v -0.089911 -0.230347 0.346212
v -0.345319 -0.198796 0.096328
v -0.357491 -0.199532 0.001221
v -0.354812 -0.231494 0.002328
v -0.343003 -0.231520 0.095241
v -0.343996 -0.232262 -0.087604
v -0.347142 -0.200087 -0.089582
v -0.313131 -0.198673 -0.171975
v -0.308877 -0.230966 -0.174684
v -0.252077 -0.200742 -0.255616
v -0.250740 -0.231082 -0.252331
v -0.181973 -0.198300 -0.308911
v -0.178479 -0.232338 -0.306036
v -0.093320 -0.199224 -0.345817
v -0.093682 -0.231371 -0.341823
v -0.001295 -0.199221 -0.358304
v -0.000661 -0.232176 -0.354423
v 0.086846 -0.198672 -0.347460
v 0.089172 -0.232983 -0.343589
v 0.178323 -0.201366 -0.309974
v 0.176699 -0.232182 -0.309150
v 0.252297 -0.201360 -0.256106
v 0.249538 -0.232937 -0.253543
v 0.311388 -0.201290 -0.180026
v 0.308850 -0.233732 -0.178375
v 0.329346 -0.187945 -0.089197
v 0.341867 -0.187475 -0.001236
v 0.330253 -0.187173 0.085909
v 0.296288 -0.188476 0.168809
v 0.242934 -0.187782 0.240499
v 0.172575 -0.187394 0.295207
v 0.086452 -0.187006 0.329990
v 0.000511 -0.187559 0.341190
v -0.083230 -0.187051 0.331231
v -0.329545 -0.185212 0.089119
v -0.341772 -0.184376 0.001276
v -0.331469 -0.185661 -0.084130
v -0.296142 -0.186060 -0.169310
v -0.241903 -0.186654 -0.240772
v -0.171502 -0.186060 -0.295731
v 0.239964 -0.188713 -0.242996
v 0.293841 -0.189174 -0.170403
v 0.368922 0.021491 -0.098412
v 0.380400 0.022817 0.001300
v 0.363099 0.011595 -0.000751
v 0.350270 0.011365 -0.094386
v 0.369139 0.020134 0.097992
v 0.350338 0.011965 0.092822
v 0.331980 0.019758 0.187741
v 0.314417 0.010787 0.180034
v 0.271594 0.019548 0.269050
v 0.257478 0.009524 0.255801
v 0.193524 0.019668 0.329679
v 0.183534 0.009249 0.311656
v 0.101441 0.018138 0.366690
v 0.100266 0.007103 0.348472
v 0.003052 0.017279 0.380218
v 0.001737 0.006165 0.361872
v -0.096342 0.016721 0.370518
v -0.087453 0.005763 0.350676
v -0.328251 0.015279 0.191404
v -0.367378 0.013745 0.101871
v -0.311550 0.002763 0.180055
v -0.349275 0.002696 0.095719
v -0.382177 0.013244 0.003389
v -0.361755 0.002070 0.001492
v -0.370687 0.013051 -0.095502
v -0.350626 0.002143 -0.087106
v -0.333456 0.014100 -0.187731
v -0.312882 0.003240 -0.181736
v -0.269760 0.016752 -0.268991
v -0.257162 0.005249 -0.254523
v -0.192721 0.015827 -0.329261
v -0.181584 0.004601 -0.313499
v 0.270959 0.018515 -0.269886
v 0.330502 0.021749 -0.192341
v 0.311787 0.011114 -0.180555
v 0.255815 0.009936 -0.257087
v 0.355762 0.093913 -0.096034
v 0.368820 0.093664 -0.000807
v 0.356175 0.093240 0.092766
v 0.323143 0.213998 0.186568
v 0.319124 0.092422 0.183159
v 0.263846 0.213998 0.263846
v 0.261023 0.090569 0.260368
v 0.189922 0.215685 0.315763
v 0.185081 0.090659 0.318950
v 0.096574 0.213998 0.360420
v 0.090332 0.089101 0.355468
v -0.000174 0.087348 0.367844
v -0.090440 0.086078 0.356026
v -0.184754 0.086031 0.317901
v -0.259888 0.085198 0.261027
v -0.317195 0.083915 0.183517
v -0.355706 0.083421 0.094444
v -0.367668 0.083122 0.001626
v -0.352142 0.082611 -0.090106
v -0.312428 0.085172 -0.181219
v -0.259918 0.086248 -0.260070
v -0.186835 0.085142 -0.317218
v 0.261148 0.090693 -0.259853
v 0.319591 0.091972 -0.181996
v 0.383986 0.077896 -0.000531
v 0.371652 0.079255 -0.101853
v 0.373887 0.077562 0.098508
v 0.335944 0.078933 0.190029
v 0.271872 0.077412 0.274576
v 0.196264 0.076145 0.332357
v 0.272643 0.077604 -0.274136
v 0.334070 0.078817 -0.192289
v 0.101431 0.074883 0.370089
v -0.005247 0.074385 0.385957
v -0.097519 0.075242 0.373740
v -0.189893 0.073792 0.334944
v -0.190693 0.015856 0.331290
v -0.268287 0.073605 0.276748
v -0.264658 0.014986 0.274579
v -0.330990 0.072591 0.192949
v -0.371349 0.074950 0.096768
v -0.383472 0.073826 0.003396
v -0.372870 0.074388 -0.097927
v -0.334218 0.076652 -0.189355
v -0.273009 0.076580 -0.272018
v -0.193919 0.074035 -0.331423
v -0.105381 0.015666 -0.366426
v -0.099352 0.004654 -0.348041
v -0.103689 0.071800 -0.371166
v -0.099749 0.086056 -0.354101
v 0.008800 0.085450 -0.367529
v 0.011532 0.073316 -0.382590
v 0.000000 0.213998 -0.373133
v 0.096574 0.213998 -0.360420
v 0.008544 0.014258 -0.378840
v 0.183676 0.089038 -0.319523
v 0.191824 0.075991 -0.334854
v 0.162613 0.091798 -0.330889
v 0.167138 0.077011 -0.345206
v 0.190275 0.019388 -0.332344
v 0.164407 0.021646 -0.344463
v 0.164563 0.084849 -0.362350
v 0.161658 0.009798 -0.361325
v 0.095613 0.088573 -0.386419
v 0.092591 0.007662 -0.386296
v 0.018774 0.009405 -0.392429
v 0.022071 0.083930 -0.392865
v 0.086766 0.111657 -0.358898
v 0.015854 0.102243 -0.368139
v 0.159847 0.104487 -0.332901
v 0.180310 0.009743 -0.314946
v 0.159007 0.008450 -0.326126
v 0.169773 -0.188127 -0.295916
v 0.156627 -0.006523 -0.325842
v 0.081993 -0.187323 -0.329776
v 0.084624 -0.014385 -0.350578
v -0.000236 -0.185868 -0.341399
v 0.009972 -0.009446 -0.360390
v 0.007500 0.003959 -0.361637
v -0.089519 -0.185435 -0.328258
v 0.318745 0.337169 0.183502
v 0.091107 0.341561 0.355722
v 0.262294 0.416826 0.251122
v 0.271951 0.405275 0.268046
v 0.275070 0.349581 0.266372
v 0.266193 0.336548 0.255104
v 0.262690 0.322739 0.259654
v 0.279142 0.341146 0.282636
v 0.207457 0.315287 0.305968
v 0.143267 0.324518 0.340202
v 0.137919 0.343205 0.341383
v 0.098626 0.354927 0.372682
v 0.142556 0.355177 0.355333
v 0.096804 0.410660 0.369726
v 0.081742 0.423643 0.352937
v 0.138958 0.411797 0.353126
v 0.131638 0.424474 0.337585
v 0.153284 0.421257 0.360135
v 0.156143 0.347115 0.361435
v 0.221625 0.335428 0.329841
v 0.218119 0.422949 0.329355
v 0.272831 0.420359 0.285528
v 0.173332 0.611718 0.295268
v 0.137462 0.439935 0.333780
v 0.201929 0.442045 0.299103
v 0.256189 0.434164 0.255231
v 0.242053 0.613267 0.241715
v -0.257047 0.661324 -0.244840
v -0.344809 0.659136 -0.090335
v -0.345309 0.625517 -0.092375
v -0.331745 0.614041 -0.082437
v -0.332050 0.657535 -0.123290
v -0.320342 0.614077 -0.119947
v -0.333775 0.627704 -0.127415
v -0.341000 0.672119 -0.137073
v -0.338694 0.617223 -0.141975
v -0.319340 0.618565 -0.187026
v -0.305004 0.678960 -0.193722
v -0.260181 0.628237 -0.245707
v -0.248585 0.614916 -0.233748
v -0.274629 0.618001 -0.243695
v -0.266911 0.677848 -0.240195
v -0.348366 0.424930 -0.099457
v -0.319473 0.599045 -0.127182
v -0.312303 0.424537 -0.182691
v -0.295599 0.596067 -0.176116
v -0.252420 0.600979 -0.232060
v -0.294521 -0.244485 0.171691
v -0.294386 -0.286376 0.169964
v -0.308045 -0.230778 0.179909
v -0.309608 -0.198931 0.180670
v -0.296647 -0.185681 0.170089
v -0.180942 -0.200328 0.308523
v -0.178527 -0.233011 0.306449
v -0.171738 -0.245169 0.293808
v -0.270816 -0.257581 0.204323
v -0.240366 -0.286376 0.240366
v -0.226579 -0.262374 0.252914
v -0.236621 -0.246503 0.276818
v -0.290786 -0.243726 0.226137
v -0.189701 -0.249637 0.304667
v -0.192462 -0.187685 0.311165
v -0.240173 -0.189486 0.280499
v -0.286734 -0.187006 0.227979
v -0.274065 -0.187308 0.204250
v -0.285995 -0.200810 0.215183
v -0.271589 -0.171047 0.210790
v -0.284776 -0.232165 0.209432
v -0.276318 -0.244835 0.199508
v -0.169964 -0.286376 0.294386
v -0.177117 -0.260076 0.289328
v -0.171722 -0.188373 0.294737
v -0.254608 0.003200 0.257811
v -0.235280 -0.168647 0.251257
v -0.180970 0.004828 0.313355
v -0.179863 -0.173089 0.292131
v -0.252916 0.677848 -0.233030
v -0.291009 0.678960 -0.186557
v -0.327005 0.672119 -0.129908
v 0.291751 -0.293376 -0.078174
v 0.320595 -0.293376 -0.085903
v 0.331905 -0.293376 -0.000000
v 0.302042 -0.293376 -0.000000
v 0.291751 -0.293376 0.078174
v 0.320595 -0.293376 0.085903
v 0.261577 -0.293376 0.151021
v 0.287438 -0.293376 0.165952
v 0.234693 -0.293376 0.234693
v 0.213576 -0.293376 0.213576
v 0.151021 -0.293376 0.261577
v 0.165952 -0.293376 0.287438
v 0.085903 -0.293376 0.320595
v 0.078174 -0.293376 0.291751
v 0.000000 -0.293376 0.331905
v 0.000000 -0.293376 0.302042
v -0.078174 -0.293376 0.291751
v -0.085903 -0.293376 0.320595
v -0.151021 -0.293376 0.261577
v -0.165952 -0.293376 0.287438
v -0.234693 -0.293376 0.234693
v -0.213576 -0.293376 0.213576
v -0.261577 -0.293376 0.151021
v -0.287438 -0.293376 0.165952
v -0.320595 -0.293376 0.085903
v -0.291751 -0.293376 0.078174
v -0.331905 -0.293376 -0.000000
v -0.302042 -0.293376 -0.000000
v -0.291751 -0.293376 -0.078174
v -0.320595 -0.293376 -0.085903
v -0.261577 -0.293376 -0.151021
v -0.287438 -0.293376 -0.165952
v -0.234693 -0.293376 -0.234693
v -0.213576 -0.293376 -0.213576
v -0.151021 -0.293376 -0.261577
v -0.165952 -0.293376 -0.287438
v -0.085903 -0.293376 -0.320595
v -0.078174 -0.293376 -0.291751
v 0.000000 -0.293376 -0.331905
v 0.000000 -0.293376 -0.302042
v 0.085903 -0.293376 -0.320595
v 0.078174 -0.293376 -0.291751
v 0.165952 -0.293376 -0.287438
v 0.151021 -0.293376 -0.261577
v 0.234693 -0.293376 -0.234693
v 0.213576 -0.293376 -0.213576
v 0.287438 -0.293376 -0.165952
v 0.261577 -0.293376 -0.151021
v 0.281985 -0.273031 -0.000000
v 0.272377 -0.273031 -0.072983
v 0.272377 -0.273031 0.072983
v 0.244206 -0.273031 0.140993
v 0.199395 -0.273031 0.199395
v 0.140993 -0.273031 0.244206
v 0.072983 -0.273031 0.272377
v 0.000000 -0.273031 0.281985
v -0.072983 -0.273031 0.272377
v -0.199395 -0.273031 0.199395
v -0.140993 -0.273031 0.244206
v -0.244206 -0.273031 0.140993
v -0.272377 -0.273031 0.072983
v -0.281985 -0.273031 -0.000000
v -0.272377 -0.273031 -0.072983
v -0.244206 -0.273031 -0.140993
v -0.199395 -0.273031 -0.199393
v -0.140993 -0.273031 -0.244206
v -0.072983 -0.273031 -0.272377
v 0.000000 -0.273031 -0.281985
v 0.072983 -0.273031 -0.272377
v 0.140993 -0.273031 -0.244206
v 0.199395 -0.273031 -0.199393
v 0.244206 -0.273031 -0.140993
v 0.330697 0.663987 -0.089708
v 0.342101 0.663972 -0.001412
v 0.333782 0.662965 0.085666
v 0.295983 0.662598 0.171948
v 0.241565 0.661486 0.243840
v 0.173186 0.661843 0.295358
v 0.089704 0.661867 0.328792
v 0.000566 0.661740 0.342503
v -0.085674 0.662976 0.330596
v -0.169424 0.663141 0.298260
v -0.242226 0.661671 0.241864
v -0.295781 0.661642 0.172985
v -0.332093 0.660834 0.089960
v -0.343827 0.661382 0.002387
v -0.173053 0.663960 -0.297588
v -0.088251 0.664474 -0.332549
v 0.000575 0.664954 -0.342285
v 0.086771 0.665281 -0.331747
v 0.171437 0.663607 -0.299121
v 0.241608 0.662511 -0.242011
v 0.294259 0.662621 -0.175051
v -0.247931 0.665020 -0.236040
v -0.332566 0.662910 -0.087041
v -0.320261 0.661366 -0.118821
v 0.318733 0.660226 -0.086398
v 0.329726 0.660212 -0.001285
v 0.321706 0.659241 0.082655
v 0.285271 0.658887 0.165826
v 0.232814 0.657815 0.235126
v 0.166899 0.658159 0.284788
v 0.086427 0.658183 0.317016
v 0.000502 0.658060 0.330233
v -0.082629 0.659252 0.318755
v -0.163360 0.659411 0.287585
v -0.233538 0.657994 0.233221
v -0.285162 0.657965 0.166825
v -0.320165 0.657187 0.086793
v -0.331477 0.657715 0.002377
v -0.166858 0.660200 -0.286785
v -0.085114 0.660695 -0.320486
v 0.000511 0.661158 -0.329870
v 0.083600 0.661474 -0.319712
v 0.165214 0.659860 -0.288262
v 0.232856 0.658803 -0.233211
v 0.283608 0.658910 -0.168664
v -0.239037 0.661222 -0.227455
v -0.320621 0.659188 -0.083827
v -0.308760 0.657699 -0.114462
v 0.318733 -0.253282 -0.086398
v 0.329726 -0.253296 -0.001285
v 0.321706 -0.254267 0.082655
v 0.285271 -0.254621 0.165826
v 0.232814 -0.255693 0.235126
v 0.166899 -0.255349 0.284788
v 0.086427 -0.255325 0.317016
v 0.000502 -0.255448 0.330233
v -0.082629 -0.254256 0.318755
v -0.163360 -0.254097 0.287585
v -0.233538 -0.255514 0.233221
v -0.285162 -0.255543 0.166825
v -0.320165 -0.256321 0.086793
v -0.331477 -0.255793 0.002377
v -0.166858 -0.253308 -0.286785
v -0.085114 -0.252813 -0.320486
v 0.000511 -0.252350 -0.329870
v 0.083600 -0.252035 -0.319712
v 0.165214 -0.253648 -0.288262
v 0.232856 -0.254705 -0.233211
v 0.283608 -0.254598 -0.168664
v -0.239037 -0.252286 -0.227455
v -0.320621 -0.254320 -0.083827
v -0.308760 -0.255809 -0.114462
v 0.300385 0.214308 -0.178724
v 0.337578 0.215702 -0.091612
v -0.087425 0.214670 0.337407
v -0.172912 0.214839 0.304400
v 0.000612 0.216690 -0.349425
v 0.088595 0.217023 -0.338669
v -0.247224 0.213339 0.246835
v -0.301888 0.213308 0.176527
v 0.349219 0.215687 -0.001485
v 0.340727 0.214659 0.087399
v 0.175017 0.215314 -0.305366
v 0.091588 0.213538 0.335565
v 0.000603 0.213409 0.349561
v 0.302145 0.214285 0.175469
v 0.246599 0.213150 0.248851
v -0.338954 0.212484 0.091781
v -0.350931 0.213043 0.002392
v -0.253046 0.216757 -0.240978
v -0.176616 0.215675 -0.303802
v 0.246643 0.214195 -0.247072
v -0.339436 0.214603 -0.088890
v -0.326876 0.213027 -0.121329
v -0.090056 0.216199 -0.339488
v 0.176801 0.213514 0.301438
vt 0.061515 0.569129
vt 0.022932 0.571812
vt 0.022604 0.553210
vt 0.061407 0.550120
vt 0.973341 0.583467
vt 0.935353 0.579636
vt 0.936367 0.562590
vt 0.974505 0.564703
vt 0.894693 0.577291
vt 0.896893 0.560230
vt 0.855547 0.574977
vt 0.856818 0.558129
vt 0.817491 0.572905
vt 0.818669 0.556798
vt 0.777262 0.572215
vt 0.777965 0.555851
vt 0.737094 0.571252
vt 0.737255 0.555252
vt 0.698435 0.572449
vt 0.697975 0.555526
vt 0.658681 0.572499
vt 0.658338 0.555969
vt 0.617617 0.571767
vt 0.618461 0.556237
vt 0.578671 0.571271
vt 0.578272 0.554877
vt 0.538583 0.569478
vt 0.538953 0.553400
vt 0.499388 0.569361
vt 0.498696 0.552074
vt 0.336146 0.570643
vt 0.295260 0.569577
vt 0.295395 0.550681
vt 0.336478 0.552871
vt 0.255650 0.569265
vt 0.255645 0.550619
vt 0.217314 0.568681
vt 0.217083 0.550669
vt 0.177728 0.567602
vt 0.177409 0.550140
vt 0.138186 0.567681
vt 0.137641 0.550214
vt 0.101482 0.566692
vt 0.100673 0.548379
vt 0.061118 0.539088
vt 0.022301 0.542426
vt 0.936256 0.550234
vt 0.972742 0.553697
vt 0.896791 0.547447
vt 0.774482 0.543827
vt 0.736237 0.543386
vt 0.700199 0.543077
vt 0.658860 0.544476
vt 0.618509 0.545496
vt 0.575195 0.543247
vt 0.538854 0.541883
vt 0.498110 0.541164
vt 0.297493 0.539116
vt 0.337395 0.540966
vt 0.256332 0.539027
vt 0.217855 0.539102
vt 0.177860 0.538701
vt 0.138152 0.538827
vt 0.100080 0.537990
vt 0.012450 0.435366
vt 0.010304 0.423840
vt 0.050210 0.419964
vt 0.051523 0.432670
vt 0.945955 0.443498
vt 0.946061 0.430889
vt 0.987408 0.433913
vt 0.986634 0.445522
vt 0.905503 0.442795
vt 0.904795 0.429967
vt 0.702996 0.442816
vt 0.697859 0.430005
vt 0.739955 0.430952
vt 0.740089 0.443205
vt 0.659244 0.443429
vt 0.658893 0.430414
vt 0.619927 0.443002
vt 0.618838 0.429295
vt 0.578897 0.443951
vt 0.579049 0.430133
vt 0.539315 0.443509
vt 0.539018 0.430628
vt 0.498657 0.444200
vt 0.498214 0.431525
vt 0.376358 0.429829
vt 0.336730 0.439088
vt 0.336850 0.427088
vt 0.376748 0.441325
vt 0.295335 0.438234
vt 0.296195 0.426179
vt 0.255131 0.436907
vt 0.255196 0.425647
vt 0.217619 0.435684
vt 0.214206 0.423479
vt 0.173473 0.434041
vt 0.173862 0.422440
vt 0.132668 0.433491
vt 0.133319 0.420517
vt 0.090985 0.432145
vt 0.090797 0.420229
vt 0.049547 0.376704
vt 0.009515 0.379243
vt 0.007826 0.311687
vt 0.048578 0.312673
vt 0.989670 0.320766
vt 0.988423 0.388880
vt 0.949317 0.320530
vt 0.947536 0.387345
vt 0.702509 0.387207
vt 0.701063 0.317663
vt 0.742044 0.317318
vt 0.741591 0.387185
vt 0.661006 0.386283
vt 0.660414 0.316794
vt 0.619336 0.387209
vt 0.620020 0.316488
vt 0.579238 0.387376
vt 0.579654 0.316384
vt 0.540640 0.387128
vt 0.539275 0.316572
vt 0.498807 0.387745
vt 0.499143 0.316305
vt 0.455769 0.386423
vt 0.458877 0.317036
vt 0.417715 0.386073
vt 0.417980 0.316764
vt 0.377628 0.385684
vt 0.377539 0.315873
vt 0.337435 0.383394
vt 0.337055 0.315225
vt 0.296241 0.382101
vt 0.296620 0.314858
vt 0.172742 0.313787
vt 0.131189 0.377678
vt 0.131286 0.313230
vt 0.172342 0.378638
vt 0.089755 0.376505
vt 0.089790 0.313367
vt 0.008724 0.392577
vt 0.049817 0.389570
vt 0.989427 0.402165
vt 0.946433 0.401372
vt 0.906717 0.400023
vt 0.173343 0.392540
vt 0.132396 0.390634
vt 0.089640 0.389930
vt 0.214006 0.393080
vt 0.216548 0.379591
vt 0.699476 0.399123
vt 0.740942 0.399511
vt 0.659837 0.398799
vt 0.620025 0.400081
vt 0.579988 0.399446
vt 0.539462 0.399867
vt 0.498228 0.399868
vt 0.457300 0.430682
vt 0.457675 0.399161
vt 0.417832 0.430393
vt 0.417322 0.398637
vt 0.377233 0.398492
vt 0.337358 0.396843
vt 0.295875 0.395367
vt 0.255576 0.394616
vt 0.256723 0.381665
vt 0.063913 0.042489
vt 0.026302 0.039806
vt 0.064525 0.019805
vt 0.026838 0.016528
vt 0.974939 0.048654
vt 0.937612 0.051606
vt 0.973129 0.025645
vt 0.935476 0.029078
vt 0.898647 0.051562
vt 0.897541 0.029558
vt 0.859789 0.050850
vt 0.858892 0.029265
vt 0.820911 0.052449
vt 0.820084 0.030821
vt 0.781800 0.052559
vt 0.781334 0.030992
vt 0.742207 0.050577
vt 0.742140 0.029314
vt 0.702289 0.049366
vt 0.702656 0.027950
vt 0.540443 0.049085
vt 0.500721 0.051167
vt 0.539061 0.026974
vt 0.499635 0.029091
vt 0.461125 0.052174
vt 0.459884 0.029860
vt 0.419920 0.028394
vt 0.421275 0.050480
vt 0.379866 0.026509
vt 0.379136 0.048439
vt 0.339691 0.047214
vt 0.339668 0.025967
vt 0.300220 0.048299
vt 0.299747 0.026617
vt 0.260580 0.049074
vt 0.260206 0.027374
vt 0.221090 0.046915
vt 0.220506 0.025093
vt 0.181193 0.046903
vt 0.181128 0.024472
vt 0.142510 0.043783
vt 0.141923 0.021388
vt 0.102533 0.042142
vt 0.102785 0.019910
vt 0.062995 0.069407
vt 0.024427 0.067131
vt 0.062978 0.052905
vt 0.024716 0.050274
vt 0.977033 0.075704
vt 0.937957 0.078561
vt 0.976054 0.058971
vt 0.937202 0.061403
vt 0.898858 0.079950
vt 0.898774 0.062206
vt 0.860206 0.079325
vt 0.859924 0.063368
vt 0.822386 0.080743
vt 0.821485 0.062826
vt 0.782828 0.079439
vt 0.782789 0.063829
vt 0.742269 0.079972
vt 0.742446 0.062768
vt 0.702474 0.077596
vt 0.703055 0.061485
vt 0.541995 0.076944
vt 0.500750 0.077179
vt 0.501128 0.060078
vt 0.541314 0.059301
vt 0.461843 0.059190
vt 0.461230 0.076355
vt 0.422510 0.075615
vt 0.420862 0.058375
vt 0.378209 0.073361
vt 0.378892 0.056981
vt 0.340830 0.075469
vt 0.340284 0.056976
vt 0.300343 0.075162
vt 0.300753 0.057848
vt 0.260557 0.075885
vt 0.260333 0.058086
vt 0.222395 0.074692
vt 0.221038 0.056507
vt 0.179467 0.073621
vt 0.180678 0.057002
vt 0.141065 0.071162
vt 0.141877 0.053844
vt 0.101090 0.070413
vt 0.101788 0.052585
vt 0.062577 0.081566
vt 0.024999 0.078763
vt 0.975811 0.087370
vt 0.938447 0.089687
vt 0.899770 0.090852
vt 0.860843 0.091541
vt 0.821660 0.091729
vt 0.780739 0.091715
vt 0.741947 0.091957
vt 0.704194 0.089960
vt 0.540540 0.088416
vt 0.501016 0.088374
vt 0.461722 0.088008
vt 0.419573 0.086150
vt 0.379472 0.084978
vt 0.339880 0.086669
vt 0.140098 0.083070
vt 0.100682 0.082726
vt 0.051468 0.201639
vt 0.011002 0.198980
vt 0.013096 0.187349
vt 0.052915 0.189803
vt 0.986811 0.207103
vt 0.946589 0.208807
vt 0.945895 0.197184
vt 0.986006 0.195629
vt 0.906782 0.209173
vt 0.905475 0.197705
vt 0.865521 0.209221
vt 0.864895 0.197461
vt 0.824952 0.208571
vt 0.825155 0.196375
vt 0.784402 0.206589
vt 0.785957 0.195221
vt 0.743595 0.204907
vt 0.743245 0.193245
vt 0.702792 0.204392
vt 0.704473 0.191577
vt 0.580842 0.202097
vt 0.541262 0.200567
vt 0.580302 0.189117
vt 0.541036 0.188525
vt 0.500873 0.199889
vt 0.500388 0.187411
vt 0.461145 0.198054
vt 0.462278 0.184563
vt 0.420776 0.198700
vt 0.418392 0.186098
vt 0.379199 0.201510
vt 0.379857 0.189259
vt 0.339801 0.201247
vt 0.339553 0.188956
vt 0.132761 0.201913
vt 0.092805 0.203371
vt 0.093276 0.190052
vt 0.133692 0.190092
vt 0.050264 0.246518
vt 0.010879 0.243403
vt 0.948985 0.254274
vt 0.987408 0.251907
vt 0.907891 0.319768
vt 0.907401 0.254314
vt 0.865994 0.319060
vt 0.865928 0.253467
vt 0.826873 0.318527
vt 0.824451 0.251881
vt 0.782978 0.317780
vt 0.781109 0.250196
vt 0.742384 0.248949
vt 0.703524 0.248865
vt 0.660240 0.247149
vt 0.620400 0.245892
vt 0.579885 0.245133
vt 0.539223 0.244880
vt 0.499949 0.244613
vt 0.460938 0.245311
vt 0.418986 0.247101
vt 0.378753 0.245985
vt 0.339730 0.244832
vt 0.131042 0.247158
vt 0.089597 0.247332
vt 0.009702 0.230885
vt 0.051154 0.234185
vt 0.948367 0.240637
vt 0.988161 0.239330
vt 0.908063 0.242293
vt 0.864754 0.241282
vt 0.825728 0.239826
vt 0.132302 0.234956
vt 0.090810 0.235308
vt 0.783932 0.238138
vt 0.740367 0.237010
vt 0.702689 0.236805
vt 0.661883 0.235543
vt 0.661102 0.203156
vt 0.622628 0.234665
vt 0.623271 0.201692
vt 0.580508 0.234230
vt 0.538540 0.234853
vt 0.500899 0.234423
vt 0.460165 0.232396
vt 0.420290 0.233690
vt 0.379073 0.235218
vt 0.339369 0.234110
vt 0.301557 0.201001
vt 0.301775 0.188951
vt 0.299244 0.232111
vt 0.300128 0.244601
vt 0.255012 0.244221
vt 0.253384 0.233016
vt 0.256017 0.314463
vt 0.214123 0.315072
vt 0.254279 0.197645
vt 0.172567 0.246546
vt 0.172887 0.234031
vt 0.181474 0.247828
vt 0.182892 0.235167
vt 0.173186 0.200993
vt 0.184094 0.201853
vt 0.189274 0.238618
vt 0.191234 0.197392
vt 0.218332 0.241722
vt 0.219805 0.196863
vt 0.248116 0.197077
vt 0.247346 0.239180
vt 0.219633 0.262180
vt 0.251456 0.254840
vt 0.184681 0.255710
vt 0.174098 0.188468
vt 0.182785 0.188139
vt 0.179107 0.084704
vt 0.186319 0.178612
vt 0.222244 0.085488
vt 0.221015 0.172824
vt 0.260379 0.087454
vt 0.255067 0.179411
vt 0.256800 0.186167
vt 0.300887 0.086840
vt 0.907493 0.386154
vt 0.778831 0.386766
vt 0.868890 0.441736
vt 0.866931 0.429153
vt 0.870236 0.396179
vt 0.871528 0.384653
vt 0.867050 0.376488
vt 0.863989 0.392932
vt 0.834796 0.370224
vt 0.802630 0.377259
vt 0.797291 0.388128
vt 0.780002 0.399849
vt 0.798188 0.399283
vt 0.779203 0.431909
vt 0.775048 0.445061
vt 0.796881 0.433164
vt 0.795706 0.445938
vt 0.803152 0.436782
vt 0.804205 0.394826
vt 0.833774 0.388978
vt 0.831315 0.436968
vt 0.858913 0.434844
vt 0.818391 0.545294
vt 0.800692 0.455095
vt 0.833427 0.458841
vt 0.864866 0.452126
vt 0.857944 0.547140
vt 0.459501 0.572649
vt 0.458368 0.554208
vt 0.460766 0.543639
vt 0.444915 0.543715
vt 0.443487 0.555372
vt 0.445201 0.572751
vt 0.438265 0.578394
vt 0.436698 0.549843
vt 0.416243 0.550968
vt 0.410589 0.584720
vt 0.379641 0.572147
vt 0.380943 0.554219
vt 0.379796 0.542634
vt 0.387447 0.549461
vt 0.384763 0.580536
vt 0.455560 0.442864
vt 0.439755 0.535197
vt 0.416808 0.442593
vt 0.414542 0.532146
vt 0.381812 0.534567
vt 0.579604 0.047036
vt 0.578620 0.025213
vt 0.580030 0.058457
vt 0.580358 0.076253
vt 0.579275 0.088070
vt 0.660482 0.076919
vt 0.661371 0.058957
vt 0.663342 0.048476
vt 0.598020 0.038275
vt 0.620668 0.022918
vt 0.629433 0.035057
vt 0.632699 0.050230
vt 0.602187 0.053244
vt 0.656332 0.050419
vt 0.654924 0.082165
vt 0.632489 0.082158
vt 0.603307 0.082920
vt 0.595377 0.087267
vt 0.597376 0.075250
vt 0.600802 0.096603
vt 0.594932 0.056878
vt 0.593466 0.045978
vt 0.663163 0.026380
vt 0.659550 0.038877
vt 0.661862 0.088451
vt 0.621267 0.189574
vt 0.625788 0.099025
vt 0.660934 0.190242
vt 0.657798 0.097491
vt 0.356165 0.762760
vt 0.370776 0.758860
vt 0.377036 0.804258
vt 0.361931 0.804260
vt 0.356183 0.845735
vt 0.370809 0.849633
vt 0.340431 0.884466
vt 0.353575 0.892039
vt 0.325412 0.928169
vt 0.314732 0.917486
vt 0.281707 0.943192
vt 0.289281 0.956336
vt 0.246868 0.973538
vt 0.242973 0.958908
vt 0.201509 0.979795
vt 0.201509 0.964685
vt 0.160043 0.958911
vt 0.156149 0.973541
vt 0.121310 0.943193
vt 0.113737 0.956337
vt 0.077601 0.928176
vt 0.088281 0.917493
vt 0.062584 0.884469
vt 0.049442 0.892043
vt 0.032202 0.849640
vt 0.046828 0.845742
vt 0.025973 0.804267
vt 0.041079 0.804268
vt 0.046840 0.762775
vt 0.032227 0.758874
vt 0.062615 0.723991
vt 0.049467 0.716442
vt 0.077510 0.680191
vt 0.088189 0.690900
vt 0.121371 0.665506
vt 0.113822 0.652338
vt 0.156140 0.635037
vt 0.160048 0.649664
vt 0.201491 0.628761
vt 0.201493 0.643877
vt 0.246840 0.635030
vt 0.242937 0.649659
vt 0.289168 0.652309
vt 0.281622 0.665478
vt 0.325492 0.680156
vt 0.314814 0.690864
vt 0.353532 0.716421
vt 0.340386 0.723969
vt 0.347113 0.804270
vt 0.342207 0.766580
vt 0.342201 0.841951
vt 0.327599 0.877071
vt 0.304501 0.907230
vt 0.274307 0.930366
vt 0.239205 0.944919
vt 0.201508 0.949874
vt 0.163811 0.944922
vt 0.098514 0.907239
vt 0.128710 0.930366
vt 0.075416 0.877070
vt 0.060812 0.841964
vt 0.055897 0.804272
vt 0.060801 0.766593
vt 0.075398 0.731491
vt 0.098447 0.701358
vt 0.128632 0.678220
vt 0.163822 0.663654
vt 0.201494 0.658696
vt 0.239168 0.663651
vt 0.274364 0.678193
vt 0.304555 0.701319
vt 0.327607 0.731468
vt 0.376012 0.757454
vt 0.382433 0.804257
vt 0.376048 0.851039
vt 0.358257 0.894761
vt 0.329225 0.931982
vt 0.292002 0.961018
vt 0.248274 0.978778
vt 0.201509 0.985195
vt 0.154743 0.978781
vt 0.044760 0.894765
vt 0.026962 0.851047
vt 0.020575 0.804266
vt 0.026990 0.757468
vt 0.044783 0.713729
vt 0.073702 0.676368
vt 0.111115 0.647645
vt 0.154724 0.629796
vt 0.201490 0.623361
vt 0.248254 0.629789
vt 0.291873 0.647615
vt 0.329299 0.676334
vt 0.358215 0.713709
vt 0.111016 0.961019
vt 0.073788 0.931989
vt 0.379154 0.584590
vt 0.375211 0.574208
vt 0.382523 0.577437
vt 0.450456 0.569604
vt 0.448631 0.579529
vt 0.442296 0.575391
vt 0.441107 0.585213
vt 0.413638 0.587134
vt 0.413860 0.579364
vt 0.384746 0.585213
vt 0.382860 0.577327
vt 0.573789 0.462139
vt 0.574009 0.531394
vt 0.533109 0.531311
vt 0.219454 0.462811
vt 0.218693 0.532022
vt 0.179232 0.532227
vt 0.728988 0.462542
vt 0.729637 0.531771
vt 0.691427 0.531610
vt 0.101683 0.463620
vt 0.139843 0.463340
vt 0.138861 0.532517
vt 0.455397 0.462081
vt 0.493857 0.462037
vt 0.493856 0.531299
vt 0.650999 0.462283
vt 0.690883 0.462371
vt 0.180102 0.463030
vt 0.257675 0.462657
vt 0.297257 0.462487
vt 0.296711 0.531719
vt 0.374371 0.462256
vt 0.413988 0.462144
vt 0.413766 0.531399
vt 0.062132 0.463962
vt 0.060936 0.533099
vt 0.022251 0.533402
vt 0.808350 0.462997
vt 0.850825 0.463246
vt 0.851812 0.532429
vt 0.611227 0.462215
vt 0.651433 0.531528
vt 0.910870 0.463817
vt 0.925834 0.463891
vt 0.927028 0.533032
vt 0.533002 0.462050
vt 0.455289 0.531339
vt 0.257020 0.531878
vt 0.965074 0.464287
vt 0.966377 0.533402
vt 0.768169 0.462750
vt 0.768927 0.531965
vt 0.809219 0.532196
vt 0.100597 0.532778
vt 0.374039 0.531503
vt 0.336313 0.531589
vt 0.611551 0.531465
vt 0.336749 0.462348
vt 0.341475 0.100667
vt 0.339032 0.181063
vt 0.299406 0.180884
vt 0.612715 0.100580
vt 0.614524 0.181183
vt 0.576952 0.181271
vt 0.378632 0.100561
vt 0.376772 0.181209
vt 0.070124 0.102101
vt 0.109256 0.101830
vt 0.103173 0.179452
vt 0.807418 0.101384
vt 0.812280 0.180070
vt 0.771934 0.180347
vt 0.767695 0.101184
vt 0.732594 0.180575
vt 0.962439 0.102431
vt 0.969731 0.178619
vt 0.930214 0.179008
vt 0.263352 0.100946
vt 0.259685 0.180677
vt 0.221419 0.180384
vt 0.417801 0.100521
vt 0.458721 0.100483
vt 0.458116 0.181318
vt 0.535404 0.100511
vt 0.536001 0.181279
vt 0.496717 0.181296
vt 0.908915 0.101996
vt 0.923532 0.102150
vt 0.651974 0.100705
vt 0.654399 0.181011
vt 0.849278 0.101672
vt 0.854796 0.179670
vt 0.063428 0.179076
vt 0.024807 0.178619
vt 0.416555 0.181266
vt 0.302460 0.100796
vt 0.146940 0.101573
vt 0.186820 0.101369
vt 0.181953 0.180090
vt 0.691302 0.100879
vt 0.694343 0.180769
vt 0.496726 0.100499
vt 0.141448 0.179807
vt 0.728962 0.101019
vt 0.225676 0.101157
vt 0.575723 0.100517
vt 0.444331 0.568537
vt 0.379582 0.569437
vt 0.414210 0.578642
vt 0.380555 0.562961
vt 0.442970 0.562094
vt 0.912023 0.532963
vt 0.452704 0.857997
vt 0.623269 0.660673
vt 0.695563 0.903982
vt 0.442185 0.575776
vt 0.023553 0.464287
vt 0.915368 0.179221
vt 0.032100 0.102431
vt 0.459609 0.732356
vt 0.481759 0.702108
vt 0.441078 0.806228
vt 0.445035 0.768467
vt 0.446944 0.844518
vt 0.554993 0.946951
vt 0.518137 0.932977
vt 0.485184 0.907501
vt 0.593267 0.950040
vt 0.666127 0.929382
vt 0.630161 0.944454
vt 0.735761 0.799395
vt 0.717352 0.874572
vt 0.731952 0.837461
vt 0.713810 0.725498
vt 0.731111 0.762092
vt 0.659540 0.674004
vt 0.689547 0.695288
vt 0.547913 0.662060
vt 0.584813 0.655885
vt 0.512339 0.676984
vn 0.769700 0.616000 -0.167700
vn 0.780200 0.625100 0.024100
vn 0.916100 -0.398500 -0.044100
vn 0.866800 -0.407100 -0.287900
vn 0.717200 0.661000 0.220800
vn 0.918500 -0.327800 0.221300
vn 0.688800 0.604800 0.399600
vn 0.800600 -0.374500 0.467700
vn 0.589000 0.553400 0.588900
vn 0.627400 -0.484100 0.609900
vn 0.382700 0.629600 0.676100
vn 0.505700 -0.350900 0.788100
vn 0.193400 0.641000 0.742800
vn 0.287000 -0.316200 0.904200
vn 0.038700 0.608700 0.792400
vn 0.005300 -0.319000 0.947700
vn -0.152900 0.640800 0.752400
vn -0.279100 -0.336500 0.899400
vn -0.354200 0.618000 0.701800
vn -0.507100 -0.371400 0.777800
vn -0.564800 0.605400 0.560800
vn -0.653100 -0.358300 0.667100
vn -0.699800 0.616900 0.360200
vn -0.779000 -0.362400 0.511800
vn -0.777100 0.590600 0.217600
vn -0.913300 -0.307600 0.267000
vn -0.799800 0.597900 0.052700
vn -0.881100 -0.472600 -0.016600
vn -0.357700 0.682700 -0.637200
vn -0.151300 0.626300 -0.764800
vn -0.240500 -0.437900 -0.866200
vn -0.482900 -0.430600 -0.762500
vn 0.018700 0.690800 -0.722800
vn 0.027500 -0.320500 -0.946900
vn 0.189900 0.627800 -0.754900
vn 0.272200 -0.400700 -0.874800
vn 0.410100 0.585800 -0.699000
vn 0.486100 -0.417100 -0.768000
vn 0.597100 0.573800 -0.560600
vn 0.640900 -0.469400 -0.607400
vn 0.696200 0.609600 -0.379100
vn 0.811700 -0.284000 -0.510400
vn 0.895200 -0.399100 -0.198300
vn 0.874800 -0.484100 0.017500
vn 0.889800 -0.395400 0.228000
vn 0.809900 -0.375500 0.450600
vn 0.225900 -0.331200 0.916100
vn 0.022900 -0.235300 0.971600
vn -0.194700 -0.332000 0.922900
vn -0.429800 -0.355400 0.830100
vn -0.659800 -0.347900 0.666000
vn -0.828700 -0.358600 0.429600
vn -0.910400 -0.359500 0.204600
vn -0.920400 -0.390900 0.000500
vn -0.241500 -0.554200 -0.796600
vn -0.464800 -0.405600 -0.787000
vn -0.036800 -0.426700 -0.903700
vn 0.197900 -0.384200 -0.901800
vn 0.415500 -0.385400 -0.823900
vn 0.655100 -0.320900 -0.684000
vn 0.783800 -0.442700 -0.435500
vn 0.875200 0.483600 -0.014200
vn 0.772300 0.635300 0.005700
vn 0.795400 0.574900 -0.191900
vn 0.859600 0.440200 -0.259300
vn 0.794300 0.566200 0.220400
vn 0.809800 0.552800 0.196500
vn 0.711800 0.563500 0.419300
vn 0.733500 0.534200 0.420200
vn -0.218600 0.529700 0.819500
vn -0.252900 0.516100 0.818400
vn -0.024600 0.564500 0.825000
vn -0.028900 0.445200 0.895000
vn -0.420400 0.546600 0.724200
vn -0.425300 0.590600 0.685800
vn -0.570100 0.580300 0.581500
vn -0.648500 0.429500 0.628500
vn -0.719500 0.511800 0.469500
vn -0.761600 0.505400 0.405500
vn -0.823100 0.503600 0.262600
vn -0.853800 0.486900 0.184300
vn -0.858700 0.512400 0.005600
vn -0.875300 0.483600 0.008700
vn -0.589000 0.531900 -0.608400
vn -0.426500 0.585400 -0.689500
vn -0.427700 0.422900 -0.798900
vn -0.667300 0.385100 -0.637400
vn -0.214200 0.476200 -0.852800
vn -0.221400 0.595600 -0.772200
vn 0.026900 0.436300 -0.899400
vn -0.019100 0.574600 -0.818200
vn 0.223100 0.538900 -0.812300
vn 0.205300 0.536000 -0.818900
vn 0.421600 0.599700 -0.680100
vn 0.431900 0.431300 -0.792100
vn 0.582600 0.600300 -0.547900
vn 0.628900 0.445400 -0.637200
vn 0.734600 0.524600 -0.430300
vn 0.757200 0.500300 -0.419900
vn 0.902200 -0.370400 -0.221100
vn 0.956500 -0.286000 0.057200
vn 0.999900 -0.010800 -0.013200
vn 0.951200 -0.013300 -0.308300
vn 0.960600 0.005800 0.277700
vn 0.858400 -0.462900 0.221200
vn -0.187400 -0.434500 0.881000
vn -0.298800 -0.002900 0.954300
vn 0.003200 -0.000900 1.000000
vn 0.006000 -0.420300 0.907400
vn -0.412800 -0.436200 0.799500
vn -0.535100 0.000300 0.844800
vn -0.648100 -0.412900 0.639900
vn -0.707000 0.000300 0.707200
vn -0.835400 -0.316300 0.449500
vn -0.845400 -0.003100 0.534200
vn -0.830100 -0.498200 0.250400
vn -0.959800 0.004700 0.280700
vn -0.916300 -0.400600 -0.001500
vn -0.999800 -0.018100 -0.006500
vn -0.832500 -0.495500 -0.247900
vn -0.959400 -0.010200 -0.281900
vn -0.835900 -0.316200 -0.448700
vn -0.849100 -0.017300 -0.528000
vn -0.678100 -0.350700 -0.645900
vn -0.707100 0.000200 -0.707100
vn -0.463200 -0.486700 -0.740600
vn -0.502900 0.001000 -0.864300
vn -0.283400 -0.359700 -0.889000
vn -0.234900 0.008900 -0.972000
vn 0.527500 0.001500 -0.849600
vn 0.683400 -0.305100 -0.663200
vn 0.707100 -0.000200 -0.707100
vn 0.429100 -0.423000 -0.798100
vn 0.844100 -0.242600 -0.478100
vn 0.844700 -0.002100 -0.535200
vn 0.941900 -0.335800 0.010600
vn 0.936100 -0.203600 -0.286900
vn 0.882700 -0.374200 0.284400
vn 0.775500 -0.384800 0.500400
vn 0.497300 -0.257900 -0.828400
vn 0.612000 -0.455000 -0.646900
vn 0.796300 -0.362700 -0.484100
vn 0.283300 -0.340200 -0.896700
vn 0.193000 -0.358200 -0.913500
vn -0.221800 -0.423900 0.878100
vn 0.019600 -0.482000 0.876000
vn -0.489500 -0.338800 0.803500
vn -0.659900 -0.377400 0.649700
vn -0.757400 -0.456900 0.466500
vn -0.891100 -0.382200 0.244700
vn -0.976000 -0.218000 0.000300
vn -0.837600 0.516600 -0.177600
vn -0.887500 -0.392100 -0.241900
vn -0.736600 0.548700 -0.395400
vn -0.758800 -0.458900 -0.462100
vn -0.615700 -0.476600 -0.627500
vn -0.476400 -0.342500 -0.809700
vn -0.232500 -0.279900 -0.931500
vn 0.025500 -0.335700 -0.941600
vn -0.052400 -0.357600 -0.932400
vn 0.854700 -0.448600 -0.261400
vn 0.892000 -0.450200 -0.041300
vn 0.851800 -0.482500 -0.204300
vn 0.942400 -0.333400 0.025300
vn 0.875400 -0.447400 0.183300
vn 0.842800 -0.478800 0.245700
vn 0.806400 -0.424000 0.412300
vn 0.764700 -0.423700 0.485500
vn 0.639900 -0.478700 0.601100
vn 0.643500 -0.346000 0.682800
vn 0.458000 -0.426600 0.779900
vn 0.445700 -0.426500 0.787100
vn 0.249200 -0.410700 0.877100
vn 0.207200 -0.480700 0.852000
vn 0.006200 -0.431900 0.901900
vn -0.030000 -0.337300 0.940900
vn -0.255400 -0.364800 0.895400
vn -0.216700 -0.546500 0.809000
vn -0.873800 -0.416500 0.251000
vn -0.934000 -0.355600 0.035300
vn -0.846500 -0.488800 0.211100
vn -0.915700 -0.401500 -0.014600
vn -0.932300 -0.282800 -0.225600
vn -0.775500 -0.596200 -0.207900
vn -0.753200 -0.503000 -0.423800
vn -0.821800 -0.321200 -0.470700
vn -0.645700 -0.374300 -0.665500
vn -0.628400 -0.424600 -0.651800
vn -0.437000 -0.426700 -0.791800
vn -0.445800 -0.427900 -0.786200
vn -0.279700 -0.323600 -0.903900
vn -0.208900 -0.489500 -0.846600
vn -0.040800 -0.397500 -0.916700
vn 0.033000 -0.360000 -0.932400
vn 0.196900 -0.428900 -0.881600
vn 0.245800 -0.478200 -0.843200
vn 0.408400 -0.454200 -0.791800
vn 0.487300 -0.421200 -0.764900
vn 0.594800 -0.464100 -0.656400
vn 0.686100 -0.332600 -0.647100
vn 0.734200 -0.479000 -0.481100
vn 0.787500 -0.421800 -0.449300
vn 0.915200 0.298500 -0.270700
vn 0.919400 0.391500 -0.037300
vn 0.864900 -0.466800 -0.184400
vn 0.873300 -0.485600 0.038700
vn 0.890100 0.390700 0.234600
vn 0.818200 -0.525000 0.234200
vn 0.772200 0.433300 0.464700
vn 0.788300 -0.439700 0.430300
vn 0.642800 0.426800 0.636200
vn 0.676400 -0.317500 0.664600
vn 0.486900 0.413800 0.769300
vn 0.439800 -0.453900 0.774900
vn 0.278200 0.315800 0.907200
vn 0.249900 -0.509400 0.823500
vn -0.009000 0.505600 0.862700
vn 0.055400 -0.455900 0.888300
vn -0.292300 0.419300 0.859500
vn -0.197900 -0.467900 0.861400
vn -0.908000 0.331400 0.256500
vn -0.902900 0.429700 -0.015900
vn -0.907200 -0.418300 0.045500
vn -0.812700 -0.532900 0.235500
vn -0.913500 -0.348400 -0.210200
vn -0.925000 0.269800 -0.267500
vn -0.795800 0.393500 -0.460200
vn -0.839300 -0.265100 -0.474700
vn -0.597600 0.550700 -0.582700
vn -0.691000 -0.228600 -0.685700
vn -0.503000 0.288900 -0.814600
vn -0.445600 -0.397300 -0.802200
vn -0.251300 0.463300 -0.849800
vn -0.212600 -0.477100 -0.852800
vn -0.036100 0.277800 -0.960000
vn 0.032400 -0.442700 -0.896100
vn 0.204400 0.491000 -0.846800
vn 0.255200 -0.478400 -0.840200
vn 0.474500 0.338400 -0.812600
vn 0.421500 -0.561100 -0.712400
vn 0.635000 0.409400 -0.655100
vn 0.629000 -0.454800 -0.630500
vn 0.736500 0.502800 -0.452600
vn 0.768900 -0.501600 -0.396500
vn 0.853700 0.474800 -0.214100
vn 0.887700 0.460000 0.018700
vn 0.941300 0.252700 0.223900
vn 0.819500 0.398700 0.411500
vn 0.649000 0.410700 0.640400
vn 0.428800 0.386700 0.816500
vn 0.207000 0.401700 0.892100
vn 0.004700 0.463300 0.886200
vn -0.195000 0.433100 0.880000
vn -0.907200 0.370200 0.200000
vn -0.968100 0.249500 -0.021600
vn -0.824400 0.524300 -0.213500
vn -0.803700 0.386900 -0.452000
vn -0.695000 0.213400 -0.686600
vn -0.424700 0.470500 -0.773500
vn 0.644200 0.415500 -0.642100
vn 0.828000 0.330000 -0.453300
vn 0.829800 -0.530600 -0.172900
vn 0.845600 -0.533100 0.027700
vn 0.878900 -0.476900 -0.007200
vn 0.782400 -0.566700 -0.258300
vn 0.784200 -0.589300 0.194100
vn 0.739600 -0.639400 0.209900
vn 0.728400 -0.575700 0.371400
vn 0.695600 -0.575900 0.429500
vn 0.630200 -0.487300 0.604500
vn 0.529800 -0.652300 0.542100
vn 0.381500 -0.604800 0.699100
vn 0.476100 -0.474700 0.740300
vn 0.198100 -0.600900 0.774400
vn 0.264000 -0.546100 0.795000
vn 0.030800 -0.536300 0.843500
vn 0.018700 -0.476600 0.878900
vn -0.225400 -0.482000 0.846700
vn -0.214100 -0.556000 0.803100
vn -0.684900 -0.594300 0.421600
vn -0.811500 -0.515500 0.275200
vn -0.731800 -0.530000 0.428400
vn -0.800500 -0.549800 0.238500
vn -0.805300 -0.592000 0.032500
vn -0.883500 -0.467300 0.034000
vn -0.878400 -0.438300 -0.190800
vn -0.798300 -0.565100 -0.208300
vn -0.744800 -0.535000 -0.398900
vn -0.697100 -0.555300 -0.453500
vn -0.634000 -0.455500 -0.625000
vn -0.544900 -0.622700 -0.561600
vn -0.420000 -0.606200 -0.675400
vn -0.435400 -0.546600 -0.715300
vn 0.574900 -0.572700 -0.584400
vn 0.766500 -0.482600 -0.423700
vn 0.691800 -0.581600 -0.427900
vn 0.517300 -0.677100 -0.523400
vn 0.901200 0.383900 -0.201100
vn 0.933800 0.357900 0.000300
vn 0.863400 0.461400 0.204000
vn 0.845400 -0.000300 0.534200
vn 0.831300 0.331400 0.446300
vn 0.681500 -0.004800 0.731800
vn 0.632400 0.430300 0.644100
vn 0.517400 -0.011300 0.855600
vn 0.417400 0.417500 0.807200
vn 0.300000 -0.003700 0.953900
vn 0.188000 0.410400 0.892300
vn -0.003700 0.440900 0.897500
vn -0.197700 0.537100 0.820000
vn -0.434100 0.446800 0.782300
vn -0.669000 0.378700 0.639500
vn -0.829300 0.345400 0.439300
vn -0.807500 0.555000 0.199700
vn -0.791400 0.611000 -0.021200
vn -0.811000 0.547300 -0.206800
vn -0.760400 0.513900 -0.397100
vn -0.689600 0.299200 -0.659500
vn -0.426600 0.559000 -0.711000
vn 0.665700 0.368400 -0.649000
vn 0.803700 0.420000 -0.421400
vn 0.904100 0.426700 -0.020900
vn 0.875200 0.398700 -0.273900
vn 0.944000 0.227400 0.238900
vn 0.751000 0.477900 0.455600
vn 0.639500 0.419400 0.644300
vn 0.485400 0.400700 0.777000
vn 0.642600 0.426400 -0.636500
vn 0.729700 0.522000 -0.441600
vn 0.251700 0.323900 0.912000
vn -0.010700 0.492100 0.870500
vn -0.230500 0.478000 0.847600
vn -0.453000 0.376900 0.807900
vn -0.419100 -0.534000 0.734300
vn -0.587900 0.531900 0.609500
vn -0.619300 -0.455800 0.639300
vn -0.771300 0.452700 0.447400
vn -0.895700 0.388500 0.216400
vn -0.870500 0.492200 -0.005300
vn -0.816900 0.532200 -0.222500
vn -0.714200 0.557400 -0.423400
vn -0.532300 0.657000 -0.533900
vn -0.457900 0.355800 -0.814700
vn -0.259100 -0.529100 -0.808000
vn -0.225900 -0.547300 -0.805900
vn -0.188400 0.399100 -0.897400
vn -0.253800 0.353900 -0.900200
vn -0.375300 0.426600 -0.822900
vn -0.573900 0.256600 -0.777700
vn 0.017300 -0.009700 -0.999800
vn 0.293400 0.006600 -0.956000
vn -0.510400 -0.431300 -0.743900
vn 0.493300 0.433200 -0.754300
vn 0.486400 0.335800 -0.806700
vn 0.736500 0.476400 -0.480100
vn 0.799400 0.282400 -0.530300
vn 0.372700 -0.690700 -0.619700
vn 0.801400 -0.266900 -0.535200
vn 0.839500 0.354300 -0.412000
vn 0.747100 -0.425300 -0.510800
vn 0.224800 0.335500 -0.914800
vn 0.168300 -0.397500 -0.902000
vn -0.451800 -0.432800 -0.780100
vn -0.380700 0.395000 -0.836100
vn 0.174500 0.497300 -0.849800
vn -0.214600 0.322200 -0.922000
vn 0.565300 0.177200 -0.805600
vn 0.499600 -0.416100 -0.759800
vn 0.709100 -0.570800 -0.413900
vn 0.431200 0.321100 -0.843200
vn 0.602600 -0.334100 -0.724700
vn 0.232000 0.435000 -0.870000
vn 0.199100 -0.556600 -0.806600
vn 0.017400 0.475900 -0.879400
vn -0.390200 -0.367900 -0.844000
vn -0.398100 -0.395100 -0.827900
vn -0.202600 0.216600 -0.955000
vn 0.825600 -0.336100 0.453300
vn 0.195300 -0.361000 0.911900
vn 0.815900 0.521400 0.249800
vn 0.945300 0.268700 0.185200
vn 0.951100 -0.276700 0.137300
vn 0.855100 -0.494500 0.155700
vn 0.840600 -0.207100 0.500500
vn 0.924300 -0.370900 0.089800
vn 0.468900 -0.506900 0.723300
vn 0.199100 -0.176500 0.963900
vn -0.133500 -0.557000 0.819700
vn 0.259800 -0.419100 0.870000
vn -0.198000 -0.288300 0.936900
vn 0.189900 0.493800 0.848600
vn 0.168500 0.465100 0.869100
vn -0.030100 0.327500 0.944400
vn -0.142100 0.609700 0.779800
vn -0.218800 0.455700 0.862800
vn -0.078200 -0.389100 0.917900
vn 0.513600 -0.345400 0.785400
vn 0.463500 0.419100 0.780700
vn 0.844900 0.469200 0.256900
vn 0.457400 -0.322800 0.828600
vn 0.195700 0.327300 0.924400
vn 0.451700 0.621300 0.640200
vn 0.786400 0.460400 0.411800
vn 0.691500 -0.234000 0.683400
vn -0.803100 0.577200 -0.147700
vn -0.876700 -0.412800 -0.247100
vn -0.925900 -0.324300 -0.193600
vn -0.848600 -0.520000 0.097300
vn -0.941400 -0.268600 0.204100
vn -0.766700 0.553300 0.325700
vn -0.847200 0.531200 0.005200
vn -0.878900 -0.462800 0.115300
vn -0.821200 -0.281000 -0.496700
vn -0.552200 0.742900 -0.378400
vn -0.265800 0.441300 -0.857100
vn -0.315800 -0.468300 -0.825200
vn -0.354100 -0.236400 -0.904800
vn -0.365000 -0.292900 -0.883700
vn -0.110400 0.634500 -0.765000
vn -0.795700 0.556000 -0.240300
vn -0.968300 -0.139500 -0.207200
vn -0.711000 0.555800 -0.430800
vn -0.745800 -0.458900 -0.482800
vn -0.499500 -0.257100 -0.827300
vn -0.782900 -0.451600 0.428000
vn -0.798400 -0.375300 0.470900
vn -0.788000 -0.434400 0.436400
vn -0.780200 0.393700 0.486100
vn -0.838100 0.317500 0.443600
vn -0.001800 0.219500 0.975600
vn -0.155900 -0.418800 0.894600
vn -0.038100 -0.399000 0.916100
vn -0.843600 -0.308700 0.439300
vn -0.670100 -0.344900 0.657200
vn -0.577200 -0.499700 0.645900
vn -0.505800 -0.534700 0.677000
vn -0.917900 -0.381200 0.109900
vn 0.069600 -0.397200 0.915100
vn -0.019200 0.284700 0.958400
vn -0.583300 0.426700 0.691100
vn -0.874800 0.475900 0.090700
vn -0.849700 0.517700 0.100000
vn -0.965700 0.259300 0.009600
vn -0.884000 0.147200 0.443700
vn -0.947000 -0.258400 0.191100
vn -0.835300 -0.539800 0.104200
vn -0.497300 -0.320400 0.806200
vn -0.306700 -0.541500 0.782800
vn -0.095900 0.376100 0.921600
vn -0.616300 -0.529400 0.583100
vn -0.608600 0.395000 0.688200
vn -0.420000 -0.555300 0.717800
vn -0.285300 0.467500 0.836700
vn -0.296400 -0.951700 0.079400
vn 0.269900 -0.960200 -0.072300
vn 0.350400 -0.936600 -0.000000
vn -0.509000 -0.860700 0.000000
vn -0.296400 -0.951700 -0.079400
vn 0.269900 -0.960200 0.072300
vn -0.333500 -0.922900 -0.192600
vn 0.372400 -0.907600 0.193800
vn 0.247800 -0.936600 0.247800
vn -0.272300 -0.922900 -0.272300
vn -0.192600 -0.922900 -0.333500
vn 0.193800 -0.907600 0.372400
vn 0.072300 -0.960200 0.269900
vn -0.079400 -0.951700 -0.296400
vn 0.000000 -0.936600 0.350400
vn -0.000000 -0.860700 -0.509000
vn 0.079400 -0.951700 -0.296400
vn -0.072300 -0.960200 0.269900
vn 0.192600 -0.922900 -0.333500
vn -0.193800 -0.907600 0.372400
vn -0.247800 -0.936600 0.247800
vn 0.272300 -0.922900 -0.272300
vn 0.333500 -0.922900 -0.192600
vn -0.372400 -0.907600 0.193800
vn -0.269900 -0.960200 0.072300
vn 0.296400 -0.951700 -0.079400
vn -0.350400 -0.936600 0.000000
vn 0.509000 -0.860700 -0.000000
vn 0.296400 -0.951700 0.079400
vn -0.269900 -0.960200 -0.072300
vn 0.333500 -0.922900 0.192600
vn -0.372400 -0.907600 -0.193800
vn -0.247800 -0.936600 -0.247800
vn 0.311400 -0.887400 0.340000
vn 0.152200 -0.944100 0.292500
vn -0.193800 -0.907600 -0.372400
vn -0.072300 -0.960200 -0.269900
vn 0.079400 -0.951700 0.296400
vn -0.000000 -0.936600 -0.350400
vn 0.000000 -0.860800 0.509000
vn 0.072300 -0.960200 -0.269900
vn -0.079400 -0.951700 0.296400
vn 0.193800 -0.907600 -0.372400
vn -0.152200 -0.944100 0.292500
vn 0.247800 -0.936600 -0.247800
vn -0.311400 -0.887400 0.340000
vn 0.372400 -0.907600 -0.193800
vn -0.333500 -0.922900 0.192600
vn -0.306900 -0.951800 -0.000000
vn -0.372000 -0.922900 0.099700
vn -0.424500 -0.898200 -0.113700
vn -0.265700 -0.951800 -0.153400
vn -0.310800 -0.898200 -0.310800
vn -0.153400 -0.951800 -0.265700
vn -0.131700 -0.860800 -0.491700
vn 0.000000 -0.860800 -0.509000
vn 0.113800 -0.898200 -0.424500
vn 0.310800 -0.898200 -0.310800
vn 0.153400 -0.951700 -0.265800
vn 0.265800 -0.951800 -0.153400
vn 0.424500 -0.898200 -0.113800
vn 0.306900 -0.951800 0.000000
vn 0.491700 -0.860800 0.131700
vn 0.220000 -0.967200 0.127000
vn 0.284200 -0.922700 0.260300
vn 0.207200 -0.922700 0.325000
vn 0.131700 -0.860800 0.491700
vn -0.113800 -0.898200 0.424500
vn -0.207200 -0.922700 0.325000
vn -0.284200 -0.922700 0.260300
vn 0.107400 0.883100 0.456700
vn 0.641800 0.766500 -0.022800
vn 0.368300 0.886500 0.280000
vn 0.007500 0.999800 0.020600
vn 0.000200 1.000000 0.003000
vn -0.024000 0.997800 0.062200
vn 0.039900 0.998500 0.037500
vn 0.063500 0.997900 -0.009200
vn -0.029200 0.999400 0.019400
vn 0.008800 0.999900 0.007000
vn -0.072900 0.996700 -0.035900
vn -0.003600 0.999700 -0.023600
vn 0.026300 0.999600 -0.005300
vn -0.012600 0.999500 0.027900
vn -0.056400 0.998100 0.025600
vn -0.005700 0.998900 0.046000
vn 0.050600 0.998500 -0.019700
vn 0.033200 0.999400 0.005900
vn 0.020000 0.998000 -0.060700
vn -0.003200 0.999800 0.021900
vn 0.027100 0.999300 0.025100
vn 0.000200 0.998900 0.047000
vn -0.010500 0.999800 -0.015800
vn 0.368800 0.925000 -0.091400
vn -0.071100 0.994900 -0.071600
vn -0.082900 0.996500 -0.009200
vn 0.767200 0.608900 -0.201600
vn 0.819800 0.572600 0.000000
vn 0.538700 0.650100 0.535900
vn 0.360200 0.671800 0.647200
vn -0.390600 0.615700 0.684400
vn 0.177700 0.946600 0.268900
vn 0.733700 0.657900 0.169600
vn -0.756800 0.606400 0.243900
vn -0.763500 0.585700 -0.271900
vn 0.006100 0.627400 -0.778700
vn 0.198200 0.570100 0.797300
vn 0.706200 0.571900 -0.417500
vn -0.602500 0.611200 -0.513300
vn -0.534000 0.583500 0.611800
vn -0.648600 0.633800 0.421400
vn -0.367300 0.601100 -0.709800
vn 0.206000 0.624600 -0.753200
vn 0.383800 0.573500 -0.723700
vn -0.097200 0.588400 0.802700
vn -0.172000 0.597800 0.783000
vn 0.574600 0.604000 -0.552300
vn -0.817000 0.576600 -0.005500
vn -0.208500 0.600600 -0.771900
vn -0.707700 0.604600 -0.365600
vn -0.876200 0.027500 0.481200
vn -0.639000 0.673800 0.370900
vn -0.695600 0.690200 0.199100
vn 0.228400 0.004800 -0.973600
vn 0.181800 0.706800 -0.683700
vn 0.384600 0.657400 -0.648000
vn -0.018900 0.067500 0.997500
vn -0.043800 0.672100 0.739200
vn -0.178000 0.658700 0.731100
vn 0.858200 0.031500 -0.512300
vn 0.705500 0.016200 -0.708500
vn 0.520000 0.686500 -0.508200
vn -0.981600 0.020200 -0.189800
vn -0.999800 0.015300 -0.008700
vn -0.721600 0.691300 0.037900
vn -0.498400 -0.007800 0.866900
vn -0.237500 0.013700 0.971300
vn 0.459500 0.013800 -0.888100
vn -0.013100 -0.023400 -0.999600
vn -0.263000 0.001000 -0.964800
vn -0.189900 0.693100 -0.695400
vn -0.671400 -0.005400 -0.741100
vn -0.862900 -0.031400 -0.504500
vn -0.591300 0.713900 -0.375000
vn 0.962500 0.010000 -0.271100
vn 0.683400 0.708300 -0.176900
vn 0.729000 0.684400 0.011500
vn 0.494200 0.066500 0.866800
vn 0.766300 0.054700 0.640200
vn 0.543800 0.648300 0.532900
vn -0.743900 0.010400 0.668200
vn -0.359300 0.693200 0.624900
vn 0.898900 -0.093100 0.428100
vn 0.980400 -0.016800 0.196500
vn 0.763800 0.606800 0.220200
vn -0.964500 -0.035000 0.261800
vn -0.724700 0.667600 -0.170900
vn 0.007400 0.717500 -0.696500
vn 0.999400 0.003500 -0.035000
vn 0.212900 0.001500 0.977100
vn 0.180100 0.671200 0.719100
vn 0.364200 0.673100 0.643600
vn 0.620000 0.682600 -0.387000
vn -0.521700 0.712800 -0.468800
vn -0.346100 0.684100 -0.642000
vn -0.523400 0.678900 0.514800
vn -0.487900 0.020300 -0.872700
vn 0.796200 0.486300 0.359900
vn 0.617000 0.731900 0.289300
usemtl cam
s 1
f 1/1/1 2/2/2 3/3/3
f 1/1/1 3/3/3 4/4/4
f 2/5/2 5/6/5 6/7/6
f 2/5/2 6/7/6 3/8/3
f 7/9/7 8/10/8 6/7/6
f 5/6/5 7/9/7 6/7/6
f 8/10/8 9/11/9 10/12/10
f 7/9/7 9/11/9 8/10/8
f 9/11/9 11/13/11 12/14/12
f 9/11/9 12/14/12 10/12/10
f 11/13/11 13/15/13 14/16/14
f 11/13/11 14/16/14 12/14/12
f 13/15/13 15/17/15 16/18/16
f 13/15/13 16/18/16 14/16/14
f 17/19/17 18/20/18 16/18/16
f 15/17/15 17/19/17 16/18/16
f 19/21/19 20/22/20 18/20/18
f 17/19/17 19/21/19 18/20/18
f 21/23/21 22/24/22 20/22/20
f 19/21/19 21/23/21 20/22/20
f 21/23/21 23/25/23 24/26/24
f 22/24/22 21/23/21 24/26/24
f 23/25/23 25/27/25 26/28/26
f 24/26/24 23/25/23 26/28/26
f 26/28/26 27/29/27 28/30/28
f 25/27/25 27/29/27 26/28/26
f 29/31/29 30/32/30 31/33/31
f 32/34/32 29/31/29 31/33/31
f 30/32/30 33/35/33 34/36/34
f 30/32/30 34/36/34 31/33/31
f 35/37/35 36/38/36 34/36/34
f 33/35/33 35/37/35 34/36/34
f 36/38/36 37/39/37 38/40/38
f 35/37/35 37/39/37 36/38/36
f 38/40/38 39/41/39 40/42/40
f 37/39/37 39/41/39 38/40/38
f 39/41/39 41/43/41 42/44/42
f 40/42/40 39/41/39 42/44/42
f 41/43/41 1/1/1 4/4/4
f 42/44/42 41/43/41 4/4/4
f 43/45/43 3/3/3 44/46/44
f 4/4/4 3/3/3 43/45/43
f 6/7/6 45/47/45 44/48/44
f 3/8/3 6/7/6 44/48/44
f 45/47/45 8/10/8 46/49/46
f 6/7/6 8/10/8 45/47/45
f 47/50/47 16/18/16 48/51/48
f 14/16/14 16/18/16 47/50/47
f 16/18/16 49/52/49 48/51/48
f 16/18/16 18/20/18 49/52/49
f 18/20/18 50/53/50 49/52/49
f 18/20/18 20/22/20 50/53/50
f 20/22/20 51/54/51 50/53/50
f 20/22/20 22/24/22 51/54/51
f 51/54/51 24/26/24 52/55/52
f 22/24/22 24/26/24 51/54/51
f 52/55/52 26/28/26 53/56/53
f 24/26/24 26/28/26 52/55/52
f 28/30/28 54/57/54 53/56/53
f 26/28/26 28/30/28 53/56/53
f 32/34/32 55/58/55 56/59/56
f 32/34/32 31/33/31 55/58/55
f 55/58/55 31/33/31 57/60/57
f 31/33/31 34/36/34 57/60/57
f 34/36/34 58/61/58 57/60/57
f 34/36/34 36/38/36 58/61/58
f 36/38/36 59/62/59 58/61/58
f 36/38/36 38/40/38 59/62/59
f 59/62/59 38/40/38 60/63/60
f 38/40/38 40/42/40 60/63/60
f 60/63/60 40/42/40 61/64/61
f 40/42/40 42/44/42 61/64/61
f 4/4/4 43/45/43 61/64/61
f 42/44/42 4/4/4 61/64/61
f 62/65/62 63/66/63 64/67/64
f 65/68/65 62/65/62 64/67/64
f 66/69/66 67/70/67 63/71/63
f 62/72/62 66/69/66 63/71/63
f 68/73/68 69/74/69 67/70/67
f 66/69/66 68/73/68 67/70/67
f 70/75/70 71/76/71 72/77/72
f 73/78/73 70/75/70 72/77/72
f 74/79/74 75/80/75 71/76/71
f 70/75/70 74/79/74 71/76/71
f 75/80/75 76/81/76 77/82/77
f 74/79/74 76/81/76 75/80/75
f 78/83/78 79/84/79 77/82/77
f 76/81/76 78/83/78 77/82/77
f 79/84/79 80/85/80 81/86/81
f 78/83/78 80/85/80 79/84/79
f 82/87/82 83/88/83 81/86/81
f 80/85/80 82/87/82 81/86/81
f 84/89/84 85/90/85 86/91/86
f 87/92/87 85/90/85 84/89/84
f 85/90/85 88/93/88 89/94/89
f 86/91/86 85/90/85 89/94/89
f 88/93/88 90/95/90 91/96/91
f 89/94/89 88/93/88 91/96/91
f 91/96/91 92/97/92 93/98/93
f 90/95/90 92/97/92 91/96/91
f 93/98/93 94/99/94 95/100/95
f 92/97/92 94/99/94 93/98/93
f 94/99/94 96/101/96 97/102/97
f 95/100/95 94/99/94 97/102/97
f 96/101/96 98/103/98 99/104/99
f 97/102/97 96/101/96 99/104/99
f 98/103/98 65/68/65 64/67/64
f 99/104/99 98/103/98 64/67/64
f 65/68/65 43/45/43 62/65/62
f 43/45/43 44/46/44 62/65/62
f 45/47/45 66/69/66 62/72/62
f 44/48/44 45/47/45 62/72/62
f 46/49/46 68/73/68 66/69/66
f 45/47/45 46/49/46 66/69/66
f 49/52/49 70/75/70 73/78/73
f 48/51/48 49/52/49 73/78/73
f 50/53/50 74/79/74 70/75/70
f 49/52/49 50/53/50 70/75/70
f 51/54/51 76/81/76 74/79/74
f 50/53/50 51/54/51 74/79/74
f 51/54/51 78/83/78 76/81/76
f 51/54/51 52/55/52 78/83/78
f 52/55/52 80/85/80 78/83/78
f 52/55/52 53/56/53 80/85/80
f 53/56/53 82/87/82 80/85/80
f 53/56/53 54/57/54 82/87/82
f 85/90/85 56/59/56 88/93/88
f 56/59/56 55/58/55 88/93/88
f 57/60/57 90/95/90 88/93/88
f 55/58/55 57/60/57 88/93/88
f 90/95/90 58/61/58 92/97/92
f 57/60/57 58/61/58 90/95/90
f 92/97/92 59/62/59 94/99/94
f 58/61/58 59/62/59 92/97/92
f 60/63/60 96/101/96 94/99/94
f 59/62/59 60/63/60 94/99/94
f 96/101/96 60/63/60 98/103/98
f 60/63/60 61/64/61 98/103/98
f 61/64/61 65/68/65 98/103/98
f 61/64/61 43/45/43 65/68/65
f 100/105/100 101/106/101 102/107/102
f 103/108/103 100/105/100 102/107/102
f 102/109/102 101/110/101 104/111/104
f 101/110/101 105/112/105 104/111/104
f 106/113/106 107/114/107 108/115/108
f 109/116/109 106/113/106 108/115/108
f 110/117/110 111/118/111 107/114/107
f 106/113/106 110/117/110 107/114/107
f 112/119/112 113/120/113 111/118/111
f 110/117/110 112/119/112 111/118/111
f 112/119/112 114/121/114 115/122/115
f 112/119/112 115/122/115 113/120/113
f 114/121/114 116/123/116 117/124/117
f 114/121/114 117/124/117 115/122/115
f 118/125/118 119/126/119 117/124/117
f 116/123/116 118/125/118 117/124/117
f 118/125/118 120/127/120 121/128/121
f 118/125/118 121/128/121 119/126/119
f 122/129/122 123/130/123 121/128/121
f 120/127/120 122/129/122 121/128/121
f 124/131/124 125/132/125 123/130/123
f 122/129/122 124/131/124 123/130/123
f 124/131/124 126/133/126 127/134/127
f 124/131/124 127/134/127 125/132/125
f 128/135/128 129/136/129 127/134/127
f 126/133/126 128/135/128 127/134/127
f 130/137/130 131/138/131 132/139/132
f 133/140/133 131/138/131 130/137/130
f 131/138/131 134/141/134 135/142/135
f 132/139/132 131/138/131 135/142/135
f 134/141/134 100/105/100 103/108/103
f 135/142/135 134/141/134 103/108/103
f 64/67/64 63/66/63 136/143/136
f 64/67/64 136/143/136 137/144/137
f 137/144/137 136/143/136 100/105/100
f 136/143/136 101/106/101 100/105/100
f 63/71/63 67/70/67 136/145/136
f 67/70/67 138/146/138 136/145/136
f 136/145/136 138/146/138 105/112/105
f 136/145/136 105/112/105 101/110/101
f 67/70/67 69/74/69 138/146/138
f 138/146/138 69/74/69 139/147/139
f 95/100/95 97/102/97 140/148/140
f 140/148/140 97/102/97 141/149/141
f 140/148/140 141/149/141 133/140/133
f 133/140/133 141/149/141 131/138/131
f 97/102/97 99/104/99 142/150/142
f 97/102/97 142/150/142 141/149/141
f 141/149/141 142/150/142 131/138/131
f 131/138/131 142/150/142 134/141/134
f 99/104/99 64/67/64 137/144/137
f 142/150/142 99/104/99 137/144/137
f 142/150/142 137/144/137 100/105/100
f 134/141/134 142/150/142 100/105/100
f 93/98/93 95/100/95 143/151/143
f 143/151/143 95/100/95 140/148/140
f 143/151/143 140/148/140 133/140/133
f 144/152/144 143/151/143 133/140/133
f 72/77/72 71/76/71 145/153/145
f 72/77/72 145/153/145 146/154/146
f 146/154/146 145/153/145 106/113/106
f 146/154/146 106/113/106 109/116/109
f 71/76/71 75/80/75 147/155/147
f 71/76/71 147/155/147 145/153/145
f 145/153/145 147/155/147 110/117/110
f 106/113/106 145/153/145 110/117/110
f 75/80/75 77/82/77 147/155/147
f 77/82/77 148/156/148 147/155/147
f 147/155/147 148/156/148 112/119/112
f 147/155/147 112/119/112 110/117/110
f 77/82/77 79/84/79 149/157/149
f 148/156/148 77/82/77 149/157/149
f 148/156/148 149/157/149 112/119/112
f 149/157/149 114/121/114 112/119/112
f 79/84/79 81/86/81 150/158/150
f 149/157/149 79/84/79 150/158/150
f 149/157/149 150/158/150 116/123/116
f 114/121/114 149/157/149 116/123/116
f 81/86/81 83/88/83 151/159/151
f 150/158/150 81/86/81 151/159/151
f 116/123/116 150/158/150 118/125/118
f 150/158/150 151/159/151 118/125/118
f 83/88/83 152/160/152 151/159/151
f 152/160/152 153/161/153 151/159/151
f 151/159/151 153/161/153 118/125/118
f 118/125/118 153/161/153 120/127/120
f 152/160/152 154/162/154 153/161/153
f 153/161/153 154/162/154 155/163/155
f 153/161/153 155/163/155 120/127/120
f 120/127/120 155/163/155 122/129/122
f 154/162/154 84/89/84 155/163/155
f 155/163/155 84/89/84 156/164/156
f 155/163/155 156/164/156 124/131/124
f 122/129/122 155/163/155 124/131/124
f 84/89/84 86/91/86 157/165/157
f 156/164/156 84/89/84 157/165/157
f 156/164/156 157/165/157 126/133/126
f 124/131/124 156/164/156 126/133/126
f 86/91/86 89/94/89 158/166/158
f 157/165/157 86/91/86 158/166/158
f 157/165/157 158/166/158 128/135/128
f 126/133/126 157/165/157 128/135/128
f 89/94/89 91/96/91 158/166/158
f 158/166/158 91/96/91 159/167/159
f 158/166/158 160/168/160 128/135/128
f 158/166/158 159/167/159 160/168/160
f 91/96/91 93/98/93 159/167/159
f 159/167/159 93/98/93 143/151/143
f 159/167/159 143/151/143 144/152/144
f 160/168/160 159/167/159 144/152/144
f 161/169/161 162/170/162 163/171/163
f 163/171/163 162/170/162 164/172/164
f 162/173/162 165/174/165 164/175/164
f 164/175/164 165/174/165 166/176/166
f 165/174/165 167/177/167 166/176/166
f 166/176/166 167/177/167 168/178/168
f 167/177/167 169/179/169 168/178/168
f 168/178/168 169/179/169 170/180/170
f 169/179/169 171/181/171 170/180/170
f 170/180/170 171/181/171 172/182/172
f 171/181/171 173/183/173 172/182/172
f 172/182/172 173/183/173 174/184/174
f 174/184/174 175/185/175 176/186/176
f 173/183/173 175/185/175 174/184/174
f 175/185/175 177/187/177 176/186/176
f 177/187/177 178/188/178 176/186/176
f 179/189/179 180/190/180 181/191/181
f 180/190/180 182/192/182 181/191/181
f 180/190/180 183/193/183 182/192/182
f 183/193/183 184/194/184 182/192/182
f 183/193/183 185/195/185 184/194/184
f 183/193/183 186/196/186 185/195/185
f 186/196/186 187/197/187 185/195/185
f 186/196/186 188/198/188 187/197/187
f 188/198/188 189/199/189 187/197/187
f 189/199/189 190/200/190 187/197/187
f 189/199/189 191/201/191 190/200/190
f 191/201/191 192/202/192 190/200/190
f 193/203/193 194/204/194 192/202/192
f 191/201/191 193/203/193 192/202/192
f 193/203/193 195/205/195 194/204/194
f 194/204/194 195/205/195 196/206/196
f 195/205/195 197/207/197 196/206/196
f 196/206/196 197/207/197 198/208/198
f 197/207/197 199/209/199 198/208/198
f 198/208/198 199/209/199 200/210/200
f 199/209/199 201/211/201 200/210/200
f 200/210/200 201/211/201 202/212/202
f 201/211/201 161/169/161 202/212/202
f 202/212/202 161/169/161 163/171/163
f 203/213/203 204/214/204 205/215/205
f 205/215/205 204/214/204 206/216/206
f 204/217/204 207/218/207 206/219/206
f 206/219/206 207/218/207 208/220/208
f 207/218/207 209/221/209 210/222/210
f 207/218/207 210/222/210 208/220/208
f 209/221/209 211/223/211 212/224/212
f 209/221/209 212/224/212 210/222/210
f 211/223/211 213/225/213 212/224/212
f 212/224/212 213/225/213 214/226/214
f 213/225/213 215/227/215 214/226/214
f 215/227/215 216/228/216 214/226/214
f 215/227/215 217/229/217 218/230/218
f 216/228/216 215/227/215 218/230/218
f 217/229/217 219/231/219 220/232/220
f 217/229/217 220/232/220 218/230/218
f 221/233/221 222/234/222 223/235/223
f 221/233/221 223/235/223 224/236/224
f 223/235/223 222/234/222 225/237/225
f 222/234/222 226/238/226 225/237/225
f 226/238/226 227/239/227 228/240/228
f 226/238/226 228/240/228 225/237/225
f 227/239/227 229/241/229 230/242/230
f 228/240/228 227/239/227 230/242/230
f 229/241/229 231/243/231 230/242/230
f 230/242/230 231/243/231 232/244/232
f 231/243/231 233/245/233 232/244/232
f 233/245/233 234/246/234 232/244/232
f 233/245/233 235/247/235 234/246/234
f 234/246/234 235/247/235 236/248/236
f 235/247/235 237/249/237 236/248/236
f 236/248/236 237/249/237 238/250/238
f 237/249/237 239/251/239 238/250/238
f 239/251/239 240/252/240 238/250/238
f 239/251/239 241/253/241 242/254/242
f 240/252/240 239/251/239 242/254/242
f 241/253/241 243/255/243 242/254/242
f 242/254/242 243/255/243 244/256/244
f 243/255/243 203/213/203 244/256/244
f 203/213/203 205/215/205 244/256/244
f 205/215/205 162/170/162 161/169/161
f 205/215/205 206/216/206 162/170/162
f 162/173/162 206/219/206 165/174/165
f 206/219/206 208/220/208 165/174/165
f 165/174/165 208/220/208 167/177/167
f 208/220/208 210/222/210 167/177/167
f 167/177/167 210/222/210 169/179/169
f 210/222/210 212/224/212 169/179/169
f 212/224/212 214/226/214 169/179/169
f 214/226/214 171/181/171 169/179/169
f 214/226/214 216/228/216 171/181/171
f 171/181/171 216/228/216 173/183/173
f 216/228/216 218/230/218 173/183/173
f 173/183/173 218/230/218 175/185/175
f 218/230/218 220/232/220 175/185/175
f 220/232/220 177/187/177 175/185/175
f 224/236/224 223/235/223 179/189/179
f 179/189/179 223/235/223 180/190/180
f 223/235/223 225/237/225 180/190/180
f 225/237/225 183/193/183 180/190/180
f 183/193/183 225/237/225 186/196/186
f 225/237/225 228/240/228 186/196/186
f 186/196/186 228/240/228 188/198/188
f 228/240/228 230/242/230 188/198/188
f 230/242/230 232/244/232 188/198/188
f 232/244/232 189/199/189 188/198/188
f 232/244/232 234/246/234 189/199/189
f 234/246/234 191/201/191 189/199/189
f 191/201/191 234/246/234 193/203/193
f 234/246/234 236/248/236 193/203/193
f 236/248/236 195/205/195 193/203/193
f 236/248/236 238/250/238 195/205/195
f 238/250/238 197/207/197 195/205/195
f 238/250/238 240/252/240 197/207/197
f 197/207/197 240/252/240 199/209/199
f 240/252/240 242/254/242 199/209/199
f 199/209/199 242/254/242 201/211/201
f 242/254/242 244/256/244 201/211/201
f 244/256/244 161/169/161 201/211/201
f 244/256/244 205/215/205 161/169/161
f 245/257/245 204/214/204 203/213/203
f 245/257/245 246/258/246 204/214/204
f 204/217/204 246/259/246 207/218/207
f 246/259/246 247/260/247 207/218/207
f 247/260/247 248/261/248 207/218/207
f 248/261/248 209/221/209 207/218/207
f 248/261/248 249/262/249 209/221/209
f 209/221/209 249/262/249 211/223/211
f 249/262/249 213/225/213 211/223/211
f 249/262/249 250/263/250 213/225/213
f 213/225/213 250/263/250 215/227/215
f 250/263/250 251/264/251 215/227/215
f 251/264/251 217/229/217 215/227/215
f 251/264/251 252/265/252 217/229/217
f 252/265/252 253/266/253 217/229/217
f 217/229/217 253/266/253 219/231/219
f 221/233/221 254/267/254 222/234/222
f 254/267/254 255/268/255 222/234/222
f 255/268/255 256/269/256 222/234/222
f 222/234/222 256/269/256 226/238/226
f 256/269/256 227/239/227 226/238/226
f 256/269/256 257/270/257 227/239/227
f 227/239/227 257/270/257 229/241/229
f 257/270/257 258/271/258 229/241/229
f 258/271/258 259/272/259 229/241/229
f 259/272/259 231/243/231 229/241/229
f 260/273/260 243/255/243 241/253/241
f 260/273/260 261/274/261 243/255/243
f 261/274/261 245/257/245 243/255/243
f 243/255/243 245/257/245 203/213/203
f 262/275/262 263/276/263 264/277/264
f 262/275/262 264/277/264 265/278/265
f 263/279/263 266/280/266 267/281/267
f 263/279/263 267/281/267 264/282/264
f 266/280/266 268/283/268 267/281/267
f 267/281/267 268/283/268 269/284/269
f 268/283/268 270/285/270 269/284/269
f 269/284/269 270/285/270 271/286/271
f 270/285/270 272/287/272 271/286/271
f 271/286/271 272/287/272 273/288/273
f 272/287/272 274/289/274 275/290/275
f 273/288/273 272/287/272 275/290/275
f 274/289/274 276/291/276 277/292/277
f 275/290/275 274/289/274 277/292/277
f 276/291/276 278/293/278 279/294/279
f 277/292/277 276/291/276 279/294/279
f 280/295/280 281/296/281 282/297/282
f 282/297/282 281/296/281 283/298/283
f 281/296/281 284/299/284 283/298/283
f 283/298/283 284/299/284 285/300/285
f 284/299/284 286/301/286 287/302/287
f 284/299/284 287/302/287 285/300/285
f 286/301/286 288/303/288 287/302/287
f 288/303/288 289/304/289 287/302/287
f 288/303/288 290/305/290 289/304/289
f 290/305/290 291/306/291 289/304/289
f 290/305/290 292/307/292 291/306/291
f 291/306/291 292/307/292 293/308/293
f 294/309/294 295/310/295 296/311/296
f 294/309/294 296/311/296 297/312/297
f 295/310/295 262/275/262 265/278/265
f 295/310/295 265/278/265 296/311/296
f 265/278/265 264/277/264 245/257/245
f 264/277/264 246/258/246 245/257/245
f 264/282/264 247/260/247 246/259/246
f 264/282/264 267/281/267 247/260/247
f 247/260/247 267/281/267 248/261/248
f 267/281/267 269/284/269 248/261/248
f 269/284/269 249/262/249 248/261/248
f 269/284/269 271/286/271 249/262/249
f 271/286/271 273/288/273 249/262/249
f 273/288/273 250/263/250 249/262/249
f 273/288/273 275/290/275 250/263/250
f 275/290/275 251/264/251 250/263/250
f 275/290/275 277/292/277 251/264/251
f 251/264/251 277/292/277 252/265/252
f 277/292/277 253/266/253 252/265/252
f 277/292/277 279/294/279 253/266/253
f 283/298/283 285/300/285 254/267/254
f 285/300/285 255/268/255 254/267/254
f 285/300/285 287/302/287 255/268/255
f 255/268/255 287/302/287 256/269/256
f 256/269/256 287/302/287 257/270/257
f 287/302/287 289/304/289 257/270/257
f 257/270/257 289/304/289 258/271/258
f 289/304/289 291/306/291 258/271/258
f 291/306/291 293/308/293 258/271/258
f 293/308/293 259/272/259 258/271/258
f 297/312/297 296/311/296 260/273/260
f 260/273/260 296/311/296 261/274/261
f 296/311/296 265/278/265 261/274/261
f 265/278/265 245/257/245 261/274/261
f 103/108/103 102/107/102 298/313/298
f 298/313/298 102/107/102 299/314/299
f 102/109/102 104/111/104 300/315/300
f 299/316/299 102/109/102 300/315/300
f 104/111/104 301/317/301 302/318/302
f 300/315/300 104/111/104 302/318/302
f 301/317/301 303/319/303 304/320/304
f 302/318/302 301/317/301 304/320/304
f 305/321/305 306/322/306 304/320/304
f 303/319/303 305/321/305 304/320/304
f 307/323/307 108/115/108 308/324/308
f 308/324/308 108/115/108 309/325/309
f 108/115/108 107/114/107 310/326/310
f 309/325/309 108/115/108 310/326/310
f 107/114/107 111/118/111 311/327/311
f 310/326/310 107/114/107 311/327/311
f 111/118/111 113/120/113 312/328/312
f 311/327/311 111/118/111 312/328/312
f 113/120/113 115/122/115 312/328/312
f 312/328/312 115/122/115 313/329/313
f 115/122/115 117/124/117 313/329/313
f 313/329/313 117/124/117 314/330/314
f 117/124/117 119/126/119 314/330/314
f 314/330/314 119/126/119 315/331/315
f 119/126/119 121/128/121 316/332/316
f 315/331/315 119/126/119 316/332/316
f 121/128/121 123/130/123 317/333/317
f 121/128/121 317/333/317 316/332/316
f 123/130/123 125/132/125 318/334/318
f 123/130/123 318/334/318 317/333/317
f 125/132/125 127/134/127 318/334/318
f 318/334/318 127/134/127 319/335/319
f 132/139/132 135/142/135 320/336/320
f 135/142/135 321/337/321 320/336/320
f 135/142/135 103/108/103 321/337/321
f 103/108/103 298/313/298 321/337/321
f 322/338/322 263/276/263 262/275/262
f 323/339/323 322/338/322 262/275/262
f 298/313/298 299/314/299 322/338/322
f 323/339/323 298/313/298 322/338/322
f 263/279/263 324/340/324 266/280/266
f 322/341/322 324/340/324 263/279/263
f 322/341/322 300/315/300 324/340/324
f 299/316/299 300/315/300 322/341/322
f 324/340/324 325/342/325 268/283/268
f 266/280/266 324/340/324 268/283/268
f 300/315/300 302/318/302 325/342/325
f 300/315/300 325/342/325 324/340/324
f 325/342/325 326/343/326 270/285/270
f 268/283/268 325/342/325 270/285/270
f 325/342/325 304/320/304 326/343/326
f 302/318/302 304/320/304 325/342/325
f 327/344/327 272/287/272 270/285/270
f 326/343/326 327/344/327 270/285/270
f 304/320/304 306/322/306 327/344/327
f 326/343/326 304/320/304 327/344/327
f 328/345/328 329/346/329 295/310/295
f 328/345/328 295/310/295 294/309/294
f 320/336/320 321/337/321 329/346/329
f 320/336/320 329/346/329 328/345/328
f 295/310/295 323/339/323 262/275/262
f 329/346/329 323/339/323 295/310/295
f 321/337/321 298/313/298 323/339/323
f 321/337/321 323/339/323 329/346/329
f 272/287/272 330/347/330 274/289/274
f 327/344/327 330/347/330 272/287/272
f 306/322/306 308/324/308 330/347/330
f 327/344/327 306/322/306 330/347/330
f 330/347/330 331/348/331 276/291/276
f 274/289/274 330/347/330 276/291/276
f 308/324/308 309/325/309 331/348/331
f 330/347/330 308/324/308 331/348/331
f 331/348/331 332/349/332 278/293/278
f 276/291/276 331/348/331 278/293/278
f 310/326/310 332/349/332 331/348/331
f 309/325/309 310/326/310 331/348/331
f 278/293/278 333/350/333 334/351/334
f 332/349/332 333/350/333 278/293/278
f 310/326/310 311/327/311 333/350/333
f 332/349/332 310/326/310 333/350/333
f 333/350/333 335/352/335 336/353/336
f 334/351/334 333/350/333 336/353/336
f 311/327/311 312/328/312 335/352/335
f 333/350/333 311/327/311 335/352/335
f 337/354/337 280/295/280 336/353/336
f 335/352/335 337/354/337 336/353/336
f 312/328/312 313/329/313 337/354/337
f 335/352/335 312/328/312 337/354/337
f 337/354/337 338/355/338 281/296/281
f 280/295/280 337/354/337 281/296/281
f 314/330/314 338/355/338 337/354/337
f 313/329/313 314/330/314 337/354/337
f 338/355/338 339/356/339 284/299/284
f 281/296/281 338/355/338 284/299/284
f 338/355/338 314/330/314 339/356/339
f 314/330/314 315/331/315 339/356/339
f 339/356/339 340/357/340 286/301/286
f 284/299/284 339/356/339 286/301/286
f 315/331/315 316/332/316 340/357/340
f 315/331/315 340/357/340 339/356/339
f 340/357/340 341/358/341 288/303/288
f 340/357/340 288/303/288 286/301/286
f 316/332/316 317/333/317 341/358/341
f 316/332/316 341/358/341 340/357/340
f 341/358/341 342/359/342 290/305/290
f 341/358/341 290/305/290 288/303/288
f 317/333/317 318/334/318 342/359/342
f 341/358/341 317/333/317 342/359/342
f 290/305/290 343/360/343 292/307/292
f 342/359/342 343/360/343 290/305/290
f 342/359/342 319/335/319 343/360/343
f 318/334/318 319/335/319 342/359/342
f 292/307/292 344/361/344 293/308/293
f 344/361/344 345/362/345 293/308/293
f 343/360/343 346/363/346 344/361/344
f 292/307/292 343/360/343 344/361/344
f 127/134/127 129/136/129 347/364/347
f 127/134/127 347/364/347 319/335/319
f 319/335/319 347/364/347 343/360/343
f 343/360/343 347/364/347 346/363/346
f 347/364/347 348/365/348 346/363/346
f 348/365/348 349/366/349 346/363/346
f 350/367/350 144/152/144 351/368/351
f 160/168/160 144/152/144 350/367/350
f 346/363/346 349/366/349 352/369/352
f 344/361/344 346/363/346 352/369/352
f 160/168/160 350/367/350 129/136/129
f 128/135/128 160/168/160 129/136/129
f 129/136/129 350/367/350 347/364/347
f 347/364/347 350/367/350 348/365/348
f 353/370/353 328/345/328 354/371/354
f 353/370/353 320/336/320 328/345/328
f 355/372/355 353/370/353 354/371/354
f 356/373/356 355/372/355 354/371/354
f 357/374/357 354/371/354 294/309/294
f 354/371/354 328/345/328 294/309/294
f 358/375/358 354/371/354 357/374/357
f 356/373/356 354/371/354 358/375/358
f 359/376/359 358/375/358 360/377/360
f 359/376/359 356/373/356 358/375/358
f 361/378/361 360/377/360 362/379/362
f 361/378/361 359/376/359 360/377/360
f 363/380/363 364/381/364 362/379/362
f 364/381/364 361/378/361 362/379/362
f 365/382/365 361/378/361 364/381/364
f 366/383/366 365/382/365 364/381/364
f 349/366/349 364/381/364 363/380/363
f 352/369/352 349/366/349 363/380/363
f 348/365/348 366/383/366 364/381/364
f 348/365/348 364/381/364 349/366/349
f 350/367/350 365/382/365 366/383/366
f 350/367/350 351/368/351 365/382/365
f 350/367/350 366/383/366 348/365/348
f 351/368/351 133/140/133 130/137/130
f 144/152/144 133/140/133 351/368/351
f 351/368/351 130/137/130 367/384/367
f 365/382/365 351/368/351 367/384/367
f 130/137/130 320/336/320 353/370/353
f 130/137/130 132/139/132 320/336/320
f 355/372/355 367/384/367 353/370/353
f 367/384/367 130/137/130 353/370/353
f 365/382/365 367/384/367 359/376/359
f 361/378/361 365/382/365 359/376/359
f 359/376/359 355/372/355 356/373/356
f 367/384/367 355/372/355 359/376/359
f 357/374/357 294/309/294 297/312/297
f 357/374/357 297/312/297 368/385/368
f 357/374/357 368/385/368 369/386/369
f 358/375/358 357/374/357 369/386/369
f 370/387/370 260/273/260 239/251/239
f 260/273/260 241/253/241 239/251/239
f 370/387/370 368/385/368 260/273/260
f 368/385/368 297/312/297 260/273/260
f 371/388/371 368/385/368 370/387/370
f 369/386/369 368/385/368 371/388/371
f 360/377/360 369/386/369 371/388/371
f 360/377/360 358/375/358 369/386/369
f 372/389/372 370/387/370 237/249/237
f 237/249/237 370/387/370 239/251/239
f 372/389/372 373/390/373 370/387/370
f 373/390/373 371/388/371 370/387/370
f 360/377/360 371/388/371 373/390/373
f 362/379/362 360/377/360 373/390/373
f 374/391/374 237/249/237 235/247/235
f 374/391/374 372/389/372 237/249/237
f 375/392/375 363/380/363 373/390/373
f 363/380/363 362/379/362 373/390/373
f 374/391/374 373/390/373 372/389/372
f 375/392/375 373/390/373 374/391/374
f 344/361/344 352/369/352 345/362/345
f 345/362/345 352/369/352 376/393/376
f 231/243/231 259/272/259 233/245/233
f 259/272/259 377/394/377 233/245/233
f 377/394/377 374/391/374 233/245/233
f 374/391/374 235/247/235 233/245/233
f 293/308/293 345/362/345 259/272/259
f 345/362/345 377/394/377 259/272/259
f 377/394/377 375/392/375 374/391/374
f 376/393/376 375/392/375 377/394/377
f 345/362/345 376/393/376 377/394/377
f 376/393/376 352/369/352 375/392/375
f 352/369/352 363/380/363 375/392/375
f 105/112/105 378/395/378 104/111/104
f 104/111/104 378/395/378 301/317/301
f 138/146/138 139/147/139 378/395/378
f 138/146/138 378/395/378 105/112/105
f 379/396/379 109/116/109 108/115/108
f 307/323/307 379/396/379 108/115/108
f 305/321/305 307/323/307 306/322/306
f 306/322/306 307/323/307 308/324/308
f 68/73/68 380/397/380 69/74/69
f 69/74/69 380/397/380 381/398/381
f 69/74/69 381/398/381 139/147/139
f 139/147/139 381/398/381 382/399/382
f 139/147/139 382/399/382 383/400/383
f 378/395/378 139/147/139 383/400/383
f 378/395/378 384/401/384 301/317/301
f 301/317/301 384/401/384 303/319/303
f 378/395/378 383/400/383 384/401/384
f 382/399/382 385/402/385 383/400/383
f 383/400/383 385/402/385 384/401/384
f 384/401/384 386/403/386 303/319/303
f 386/403/386 305/321/305 303/319/303
f 386/403/386 387/404/387 305/321/305
f 305/321/305 387/404/387 307/323/307
f 387/404/387 379/396/379 307/323/307
f 388/405/388 379/396/379 387/404/387
f 389/406/389 146/154/146 379/396/379
f 379/396/379 146/154/146 109/116/109
f 390/407/390 389/406/389 388/405/388
f 388/405/388 389/406/389 379/396/379
f 391/408/391 146/154/146 389/406/389
f 391/408/391 72/77/72 146/154/146
f 391/408/391 392/409/392 72/77/72
f 392/409/392 73/78/73 72/77/72
f 390/407/390 393/410/393 389/406/389
f 393/410/393 391/408/391 389/406/389
f 393/410/393 394/411/394 391/408/391
f 394/411/394 392/409/392 391/408/391
f 395/412/395 390/407/390 396/413/396
f 395/412/395 393/410/393 390/407/390
f 396/413/396 388/405/388 387/404/387
f 396/413/396 390/407/390 388/405/388
f 397/414/397 396/413/396 386/403/386
f 396/413/396 387/404/387 386/403/386
f 385/402/385 397/414/397 386/403/386
f 384/401/384 385/402/385 386/403/386
f 398/415/398 396/413/396 397/414/397
f 398/415/398 395/412/395 396/413/396
f 385/402/385 399/416/399 397/414/397
f 399/416/399 398/415/398 397/414/397
f 382/399/382 381/398/381 385/402/385
f 381/398/381 399/416/399 385/402/385
f 14/16/14 47/50/47 400/417/400
f 12/14/12 14/16/14 400/417/400
f 392/409/392 48/51/48 73/78/73
f 47/50/47 48/51/48 392/409/392
f 394/411/394 401/418/401 392/409/392
f 401/418/401 47/50/47 392/409/392
f 395/412/395 394/411/394 393/410/393
f 401/418/401 394/411/394 395/412/395
f 400/417/400 47/50/47 401/418/401
f 402/419/402 400/417/400 401/418/401
f 403/420/403 402/419/402 399/416/399
f 402/419/402 398/415/398 399/416/399
f 398/415/398 402/419/402 395/412/395
f 402/419/402 401/418/401 395/412/395
f 46/49/46 404/421/404 68/73/68
f 68/73/68 404/421/404 380/397/380
f 10/12/10 404/421/404 46/49/46
f 8/10/8 10/12/10 46/49/46
f 404/421/404 12/14/12 400/417/400
f 10/12/10 12/14/12 404/421/404
f 404/421/404 400/417/400 402/419/402
f 404/421/404 403/420/403 380/397/380
f 404/421/404 402/419/402 403/420/403
f 403/420/403 399/416/399 380/397/380
f 380/397/380 399/416/399 381/398/381
f 406/422/405 407/423/406 28/30/28
f 27/29/27 406/422/405 28/30/28
f 28/30/28 407/423/406 408/424/407
f 28/30/28 408/424/407 54/57/54
f 407/423/406 410/425/408 408/424/407
f 407/423/406 411/426/409 410/425/408
f 406/422/405 409/427/410 407/423/406
f 409/427/410 411/426/409 407/423/406
f 409/427/410 412/428/411 411/426/409
f 411/426/409 412/428/411 413/429/412
f 412/428/411 414/430/413 413/429/412
f 412/428/411 415/431/414 414/430/413
f 405/432/415 29/31/29 32/34/32
f 416/433/416 405/432/415 32/34/32
f 417/434/417 416/433/416 56/59/56
f 416/433/416 32/34/32 56/59/56
f 414/430/413 415/431/414 418/435/418
f 415/431/414 419/436/419 418/435/418
f 419/436/419 405/432/415 418/435/418
f 405/432/415 416/433/416 418/435/418
f 82/87/82 420/437/420 152/160/152
f 82/87/82 152/160/152 83/88/83
f 54/57/54 408/424/407 82/87/82
f 82/87/82 408/424/407 420/437/420
f 408/424/407 410/425/408 421/438/421
f 408/424/407 421/438/421 420/437/420
f 411/426/409 413/429/412 410/425/408
f 410/425/408 413/429/412 421/438/421
f 420/437/420 422/439/422 154/162/154
f 420/437/420 154/162/154 152/160/152
f 421/438/421 423/440/423 422/439/422
f 420/437/420 421/438/421 422/439/422
f 413/429/412 414/430/413 423/440/423
f 421/438/421 413/429/412 423/440/423
f 422/439/422 87/92/87 84/89/84
f 154/162/154 422/439/422 84/89/84
f 87/92/87 417/434/417 85/90/85
f 417/434/417 56/59/56 85/90/85
f 414/430/413 418/435/418 423/440/423
f 418/435/418 424/441/424 423/440/423
f 418/435/418 417/434/417 424/441/424
f 418/435/418 416/433/416 417/434/417
f 425/442/425 179/189/179 426/443/426
f 179/189/179 181/191/181 426/443/426
f 224/236/224 179/189/179 425/442/425
f 427/444/427 224/236/224 425/442/425
f 428/445/428 221/233/221 427/444/427
f 427/444/427 221/233/221 224/236/224
f 429/446/429 221/233/221 428/445/428
f 429/446/429 254/267/254 221/233/221
f 219/231/219 430/447/430 431/448/431
f 220/232/220 219/231/219 431/448/431
f 220/232/220 431/448/431 177/187/177
f 431/448/431 432/449/432 177/187/177
f 433/450/433 426/443/426 434/451/434
f 435/452/435 433/450/433 434/451/434
f 436/453/436 437/454/437 435/452/435
f 437/454/437 433/450/433 435/452/435
f 431/448/431 430/447/430 438/455/438
f 430/447/430 439/456/439 438/455/438
f 439/456/439 436/453/436 438/455/438
f 439/456/439 440/457/440 436/453/436
f 440/457/440 441/458/441 437/454/437
f 440/457/440 437/454/437 436/453/436
f 441/458/441 442/459/442 443/460/443
f 441/458/441 444/461/444 442/459/442
f 442/459/442 429/446/429 428/445/428
f 442/459/442 428/445/428 443/460/443
f 441/458/441 443/460/443 437/454/437
f 443/460/443 445/462/445 437/454/437
f 437/454/437 445/462/445 446/463/446
f 437/454/437 446/463/446 433/450/433
f 428/445/428 427/444/427 445/462/445
f 443/460/443 428/445/428 445/462/445
f 427/444/427 425/442/425 446/463/446
f 445/462/445 427/444/427 446/463/446
f 446/463/446 425/442/425 433/450/433
f 433/450/433 425/442/425 426/443/426
f 177/187/177 432/449/432 447/464/447
f 177/187/177 447/464/447 178/188/178
f 435/452/435 434/451/434 447/464/447
f 448/465/448 435/452/435 447/464/447
f 432/449/432 448/465/448 447/464/447
f 448/465/448 436/453/436 435/452/435
f 438/455/438 436/453/436 448/465/448
f 432/449/432 431/448/431 438/455/438
f 432/449/432 438/455/438 448/465/448
f 253/266/253 449/466/449 219/231/219
f 449/466/449 430/447/430 219/231/219
f 283/298/283 254/267/254 429/446/429
f 282/297/282 283/298/283 429/446/429
f 444/461/444 429/446/429 442/459/442
f 444/461/444 282/297/282 429/446/429
f 450/467/450 280/295/280 282/297/282
f 336/353/336 280/295/280 450/467/450
f 451/468/451 450/467/450 444/461/444
f 450/467/450 282/297/282 444/461/444
f 451/468/451 441/458/441 440/457/440
f 451/468/451 444/461/444 441/458/441
f 278/293/278 334/351/334 452/469/452
f 279/294/279 278/293/278 452/469/452
f 279/294/279 452/469/452 449/466/449
f 253/266/253 279/294/279 449/466/449
f 452/469/452 336/353/336 450/467/450
f 334/351/334 336/353/336 452/469/452
f 452/469/452 451/468/451 453/470/453
f 452/469/452 450/467/450 451/468/451
f 452/469/452 453/470/453 449/466/449
f 439/456/439 453/470/453 440/457/440
f 453/470/453 451/468/451 440/457/440
f 453/470/453 439/456/439 449/466/449
f 449/466/449 439/456/439 430/447/430
f 422/439/422 423/440/423 87/92/87
f 424/441/424 417/434/417 87/92/87
f 423/440/423 424/441/424 87/92/87
f 457/471/454 458/472/455 459/473/456
f 457/471/454 459/473/456 460/474/457
f 461/475/458 459/473/456 462/476/459
f 460/474/457 459/473/456 461/475/458
f 463/477/460 462/476/459 464/478/461
f 461/475/458 462/476/459 463/477/460
f 463/477/460 464/478/461 465/479/462
f 466/480/463 463/477/460 465/479/462
f 467/481/464 465/479/462 468/482/465
f 466/480/463 465/479/462 467/481/464
f 467/481/464 468/482/465 469/483/466
f 470/484/467 467/481/464 469/483/466
f 470/484/467 469/483/466 471/485/468
f 472/486/469 470/484/467 471/485/468
f 473/487/470 472/486/469 471/485/468
f 474/488/471 473/487/470 471/485/468
f 475/489/472 473/487/470 474/488/471
f 476/490/473 475/489/472 474/488/471
f 477/491/474 475/489/472 476/490/473
f 477/491/474 478/492/475 475/489/472
f 479/493/476 478/492/475 477/491/474
f 480/494/477 479/493/476 477/491/474
f 481/495/478 479/493/476 480/494/477
f 481/495/478 482/496/479 479/493/476
f 483/497/480 482/496/479 481/495/478
f 483/497/480 484/498/481 482/496/479
f 483/497/480 485/499/482 484/498/481
f 486/500/483 485/499/482 483/497/480
f 486/500/483 487/501/484 485/499/482
f 488/502/485 487/501/484 486/500/483
f 489/503/486 490/504/487 487/501/484
f 488/502/485 489/503/486 487/501/484
f 489/503/486 491/505/488 490/504/487
f 492/506/489 491/505/488 489/503/486
f 493/507/490 494/508/491 491/505/488
f 492/506/489 493/507/490 491/505/488
f 495/509/492 496/510/493 494/508/491
f 493/507/490 495/509/492 494/508/491
f 495/509/492 497/511/494 498/512/495
f 496/510/493 495/509/492 498/512/495
f 497/511/494 499/513/496 500/514/497
f 498/512/495 497/511/494 500/514/497
f 500/514/497 501/515/498 502/516/499
f 500/514/497 499/513/496 501/515/498
f 501/515/498 503/517/500 504/518/501
f 502/516/499 501/515/498 504/518/501
f 504/518/501 458/472/455 457/471/454
f 504/518/501 503/517/500 458/472/455
f 505/519/502 506/520/503 460/474/457
f 506/520/503 457/471/454 460/474/457
f 507/521/504 460/474/457 461/475/458
f 507/521/504 505/519/502 460/474/457
f 508/522/505 507/521/504 463/477/460
f 507/521/504 461/475/458 463/477/460
f 509/523/506 463/477/460 466/480/463
f 509/523/506 508/522/505 463/477/460
f 510/524/507 509/523/506 467/481/464
f 509/523/506 466/480/463 467/481/464
f 511/525/508 467/481/464 470/484/467
f 511/525/508 510/524/507 467/481/464
f 512/526/509 511/525/508 472/486/469
f 511/525/508 470/484/467 472/486/469
f 513/527/510 512/526/509 472/486/469
f 473/487/470 513/527/510 472/486/469
f 514/528/511 515/529/512 475/489/472
f 478/492/475 514/528/511 475/489/472
f 516/530/513 514/528/511 479/493/476
f 479/493/476 514/528/511 478/492/475
f 517/531/514 516/530/513 479/493/476
f 482/496/479 517/531/514 479/493/476
f 518/532/515 517/531/514 484/498/481
f 484/498/481 517/531/514 482/496/479
f 519/533/516 518/532/515 484/498/481
f 485/499/482 519/533/516 484/498/481
f 520/534/517 519/533/516 487/501/484
f 487/501/484 519/533/516 485/499/482
f 521/535/518 520/534/517 487/501/484
f 490/504/487 521/535/518 487/501/484
f 522/536/519 521/535/518 490/504/487
f 491/505/488 522/536/519 490/504/487
f 523/537/520 522/536/519 491/505/488
f 494/508/491 523/537/520 491/505/488
f 524/538/493 523/537/520 496/510/493
f 496/510/493 523/537/520 494/508/491
f 525/539/521 496/510/493 498/512/495
f 525/539/521 524/538/493 496/510/493
f 526/540/522 525/539/521 500/514/497
f 525/539/521 498/512/495 500/514/497
f 527/541/523 526/540/522 502/516/499
f 526/540/522 500/514/497 502/516/499
f 528/542/501 527/541/523 504/518/501
f 527/541/523 502/516/499 504/518/501
f 506/520/503 504/518/501 457/471/454
f 506/520/503 528/542/501 504/518/501
f 163/543/163 164/544/164 459/473/456
f 458/472/455 163/543/163 459/473/456
f 164/544/164 166/545/166 459/473/456
f 459/473/456 166/545/166 462/476/459
f 166/545/166 168/546/168 464/478/461
f 462/476/459 166/545/166 464/478/461
f 168/546/168 170/547/170 465/479/462
f 464/478/461 168/546/168 465/479/462
f 170/547/170 172/548/172 465/479/462
f 465/479/462 172/548/172 468/482/465
f 172/548/172 174/549/174 468/482/465
f 468/482/465 174/549/174 469/483/466
f 174/549/174 176/550/176 471/485/468
f 469/483/466 174/549/174 471/485/468
f 176/550/176 178/551/178 471/485/468
f 178/551/178 474/488/471 471/485/468
f 426/552/426 181/553/181 480/494/477
f 181/553/181 481/495/478 480/494/477
f 181/553/181 483/497/480 481/495/478
f 181/553/181 182/554/182 483/497/480
f 182/554/182 184/555/184 483/497/480
f 184/555/184 486/500/483 483/497/480
f 184/555/184 488/502/485 486/500/483
f 184/555/184 185/556/185 488/502/485
f 185/556/185 489/503/486 488/502/485
f 185/556/185 187/557/187 489/503/486
f 187/557/187 190/558/190 489/503/486
f 190/558/190 492/506/489 489/503/486
f 190/558/190 192/559/192 492/506/489
f 192/559/192 493/507/490 492/506/489
f 192/559/192 495/509/492 493/507/490
f 192/559/192 194/560/194 495/509/492
f 194/560/194 196/561/196 495/509/492
f 495/509/492 196/561/196 497/511/494
f 196/561/196 198/562/198 499/513/496
f 497/511/494 196/561/196 499/513/496
f 198/562/198 200/563/200 501/515/498
f 499/513/496 198/562/198 501/515/498
f 200/563/200 202/564/202 501/515/498
f 501/515/498 202/564/202 503/517/500
f 202/564/202 163/543/163 503/517/500
f 503/517/500 163/543/163 458/472/455
f 447/565/447 477/491/474 476/490/473
f 447/565/447 434/566/434 477/491/474
f 434/566/434 426/552/426 477/491/474
f 426/552/426 480/494/477 477/491/474
f 178/551/178 476/490/473 474/488/471
f 178/551/178 447/565/447 476/490/473
f 475/489/472 513/527/510 473/487/470
f 515/529/512 513/527/510 475/489/472
f 520/534/517 506/520/503 519/533/516
f 520/534/517 528/542/501 506/520/503
f 412/567/411 409/568/410 456/569/524
f 405/570/415 419/571/419 454/572/525
f 419/573/419 415/574/414 455/575/526
f 415/574/414 412/576/411 456/577/524
f 513/527/510 511/525/508 512/526/509
f 515/529/512 510/524/507 513/527/510
f 510/524/507 511/525/508 513/527/510
f 514/528/511 509/523/506 515/529/512
f 509/523/506 510/524/507 515/529/512
f 516/530/513 508/522/505 514/528/511
f 508/522/505 509/523/506 514/528/511
f 517/531/514 507/521/504 516/530/513
f 507/521/504 508/522/505 516/530/513
f 518/532/515 505/519/502 517/531/514
f 505/519/502 507/521/504 517/531/514
f 519/533/516 506/520/503 518/532/515
f 506/520/503 505/519/502 518/532/515
f 527/541/523 528/542/501 520/534/517
f 521/535/518 527/541/523 520/534/517
f 526/540/522 527/541/523 521/535/518
f 522/536/519 526/540/522 521/535/518
f 525/539/521 526/540/522 522/536/519
f 523/537/520 525/539/521 522/536/519
f 523/537/520 524/538/493 525/539/521
f 13/15/13 535/15/527 536/17/528
f 21/23/21 19/21/19 538/21/529
f 39/41/39 548/41/530 549/43/531
f 25/27/25 541/27/532 542/29/533
f 409/427/410 406/422/405 551/422/534
f 35/37/35 546/37/535 547/39/536
f 21/23/21 539/23/537 540/25/538
f 7/9/7 532/9/539 533/11/540
f 11/13/11 9/11/9 533/11/540
f 39/41/39 37/39/37 547/39/536
f 13/15/13 11/13/11 534/13/541
f 7/9/7 5/6/5 531/6/542
f 33/35/33 30/32/30 544/32/543
f 27/29/27 542/29/533 551/422/534
f 2/2/2 1/1/1 529/1/544
f 1/1/1 41/43/41 549/43/531
f 17/19/17 537/19/545 538/21/529
f 2/5/2 530/5/546 531/6/542
f 17/19/17 15/17/15 536/17/528
f 405/432/415 550/432/547 543/31/548
f 29/31/29 543/31/548 544/32/543
f 33/35/33 545/35/549 546/37/535
f 23/25/23 540/25/538 541/27/532
f 541/27/532 565/27/550 566/29/551
f 550/432/547 574/432/552 567/31/553
f 548/41/530 547/39/536 571/39/554
f 552/427/555 551/422/534 575/422/556
f 530/2/546 529/1/544 553/1/557
f 532/9/539 531/6/542 555/6/558
f 537/19/545 536/17/528 560/17/559
f 542/29/533 566/29/551 575/422/556
f 545/35/549 544/32/543 568/32/560
f 543/31/548 567/31/553 568/32/560
f 540/25/538 564/25/561 565/27/550
f 534/13/541 533/11/540 557/11/562
f 548/41/530 572/41/563 573/43/564
f 535/15/527 534/13/541 558/13/565
f 549/43/531 573/43/564 553/1/557
f 537/19/545 561/19/566 562/21/567
f 545/35/549 569/35/568 570/37/569
f 539/23/537 563/23/570 564/25/561
f 530/5/546 554/5/571 555/6/558
f 546/37/535 570/37/569 571/39/554
f 539/23/537 538/21/529 562/21/567
f 535/15/527 559/15/572 560/17/559
f 533/11/540 532/9/539 556/9/573
f 601/578/574 597/579/575 577/580/576
f 603/581/577 585/582/578 586/583/579
f 605/584/580 593/585/581 594/586/582
f 608/587/583 607/588/584 587/589/585
f 610/590/586 609/591/587 578/592/588
f 611/593/589 606/594/590 594/586/582
f 607/588/584 604/595/591 586/583/579
f 613/596/592 612/597/593 583/598/594
f 615/599/595 614/600/596 580/601/597
f 616/602/598 589/603/599 590/604/600
f 619/605/601 618/606/602 598/607/603
f 620/608/604 611/593/589 595/609/605
f 622/610/606 621/611/607 599/612/608
f 609/591/587 602/613/609 577/580/576
f 614/600/596 610/590/586 579/614/610
f 613/596/592 584/615/611 585/582/578
f 617/616/612 590/617/600 599/612/608
f 623/618/613 592/619/614 593/585/581
f 619/605/601 591/620/615 592/619/614
f 616/602/598 608/587/583 588/621/616
f 615/599/595 581/622/617 582/623/618
f 620/608/604 596/624/619 597/579/575
f 612/597/593 624/625/620 582/623/618
f 558/626/565 624/627/620 612/628/593
f 572/629/563 620/630/604 601/631/574
f 557/632/562 615/633/595 624/627/620
f 565/634/550 564/635/561 608/636/583
f 567/637/553 619/638/601 623/639/613
f 568/640/560 623/639/613 605/641/580
f 566/642/551 617/643/612 621/644/607
f 560/645/559 613/646/592 603/647/577
f 556/648/573 555/649/558 610/650/586
f 553/651/557 602/652/609 609/653/587
f 576/654/621 575/655/556 621/644/607
f 572/629/563 571/656/554 611/657/589
f 567/637/553 574/658/552 618/659/602
f 565/634/550 616/660/598 617/661/612
f 557/632/562 556/648/573 614/662/596
f 560/645/559 559/663/572 612/628/593
f 563/664/570 562/665/567 604/666/591
f 571/656/554 570/667/569 606/668/590
f 555/649/558 554/669/571 609/653/587
f 564/635/561 563/664/570 607/670/584
f 569/671/568 605/641/580 606/668/590
f 561/672/566 603/647/577 604/666/591
f 573/673/564 601/631/574 602/652/609
f 405/570/415 454/572/525 550/674/547
f 409/568/410 552/675/555 456/569/524
f 454/572/525 455/676/526 550/674/547
f 455/676/526 456/569/524 552/675/555
f 550/674/547 455/676/526 552/675/555
f 552/675/555 576/677/621 574/678/552
f 618/659/602 574/658/552 576/654/621
f 622/610/606 600/679/622 598/607/603
f 600/680/622 583/681/594 596/682/619
f 454/683/525 419/573/419 455/575/526
f 455/575/526 415/574/414 456/577/524
f 15/17/15 13/15/13 536/17/528
f 539/23/537 21/23/21 538/21/529
f 41/43/41 39/41/39 549/43/531
f 27/29/27 25/27/25 542/29/533
f 552/427/555 409/427/410 551/422/534
f 37/39/37 35/37/35 547/39/536
f 23/25/23 21/23/21 540/25/538
f 9/11/9 7/9/7 533/11/540
f 534/13/541 11/13/11 533/11/540
f 548/41/530 39/41/39 547/39/536
f 535/15/527 13/15/13 534/13/541
f 532/9/539 7/9/7 531/6/542
f 545/35/549 33/35/33 544/32/543
f 406/422/405 27/29/27 551/422/534
f 530/2/546 2/2/2 529/1/544
f 529/1/544 1/1/1 549/43/531
f 19/21/19 17/19/17 538/21/529
f 5/6/5 2/5/2 531/6/542
f 537/19/545 17/19/17 536/17/528
f 29/31/29 405/432/415 543/31/548
f 30/32/30 29/31/29 544/32/543
f 35/37/35 33/35/33 546/37/535
f 25/27/25 23/25/23 541/27/532
f 542/29/533 541/27/532 566/29/551
f 543/31/548 550/432/547 567/31/553
f 572/41/563 548/41/530 571/39/554
f 576/427/621 552/427/555 575/422/556
f 554/2/571 530/2/546 553/1/557
f 556/9/573 532/9/539 555/6/558
f 561/19/566 537/19/545 560/17/559
f 551/422/534 542/29/533 575/422/556
f 569/35/568 545/35/549 568/32/560
f 544/32/543 543/31/548 568/32/560
f 541/27/532 540/25/538 565/27/550
f 558/13/565 534/13/541 557/11/562
f 549/43/531 548/41/530 573/43/564
f 559/15/572 535/15/527 558/13/565
f 529/1/544 549/43/531 553/1/557
f 538/21/529 537/19/545 562/21/567
f 546/37/535 545/35/549 570/37/569
f 540/25/538 539/23/537 564/25/561
f 531/6/542 530/5/546 555/6/558
f 547/39/536 546/37/535 571/39/554
f 563/23/570 539/23/537 562/21/567
f 536/17/528 535/15/527 560/17/559
f 557/11/562 533/11/540 556/9/573
f 602/613/609 601/578/574 577/580/576
f 604/595/591 603/581/577 586/583/579
f 606/594/590 605/584/580 594/586/582
f 588/621/616 608/587/583 587/589/585
f 579/614/610 610/590/586 578/592/588
f 595/609/605 611/593/589 594/586/582
f 587/589/585 607/588/584 586/583/579
f 584/615/611 613/596/592 583/598/594
f 581/622/617 615/599/595 580/601/597
f 617/684/612 616/602/598 590/604/600
f 591/620/615 619/605/601 598/607/603
f 596/624/619 620/608/604 595/609/605
f 600/679/622 622/610/606 599/612/608
f 578/592/588 609/591/587 577/580/576
f 580/601/597 614/600/596 579/614/610
f 603/581/577 613/596/592 585/582/578
f 621/611/607 617/616/612 599/612/608
f 605/584/580 623/618/613 593/585/581
f 623/618/613 619/605/601 592/619/614
f 589/603/599 616/602/598 588/621/616
f 624/625/620 615/599/595 582/623/618
f 601/578/574 620/608/604 597/579/575
f 583/598/594 612/597/593 582/623/618
f 559/663/572 558/626/565 612/628/593
f 573/673/564 572/629/563 601/631/574
f 558/626/565 557/632/562 624/627/620
f 616/660/598 565/634/550 608/636/583
f 568/640/560 567/637/553 623/639/613
f 569/671/568 568/640/560 605/641/580
f 575/655/556 566/642/551 621/644/607
f 561/672/566 560/645/559 603/647/577
f 614/662/596 556/648/573 610/650/586
f 554/669/571 553/651/557 609/653/587
f 622/685/606 576/654/621 621/644/607
f 620/630/604 572/629/563 611/657/589
f 619/638/601 567/637/553 618/659/602
f 566/686/551 565/634/550 617/661/612
f 615/633/595 557/632/562 614/662/596
f 613/646/592 560/645/559 612/628/593
f 607/670/584 563/664/570 604/666/591
f 611/657/589 571/656/554 606/668/590
f 610/650/586 555/649/558 609/653/587
f 608/636/583 564/635/561 607/670/584
f 570/667/569 569/671/568 606/668/590
f 562/665/567 561/672/566 604/666/591
f 553/651/557 573/673/564 602/652/609
f 550/674/547 552/675/555 574/678/552
f 622/685/606 618/659/602 576/654/621
f 618/606/602 622/610/606 598/607/603
f 600/680/622 588/687/616 587/688/585
f 588/687/616 590/689/600 589/690/599
f 590/689/600 600/680/622 599/691/608
f 592/692/614 591/693/615 598/694/603
f 598/694/603 593/695/581 592/692/614
f 596/682/619 595/696/605 594/697/582
f 578/698/588 597/699/575 596/682/619
f 597/699/575 578/698/588 577/700/576
f 578/698/588 580/701/597 579/702/610
f 580/701/597 582/703/618 581/704/617
f 585/705/578 584/706/611 583/681/594
f 587/688/585 586/707/579 585/705/578
f 600/680/622 590/689/600 588/687/616
f 587/688/585 585/705/578 600/680/622
f 596/682/619 594/697/582 593/695/581
f 583/681/594 578/698/588 596/682/619
f 583/681/594 582/703/618 580/701/597
f 600/680/622 585/705/578 583/681/594
f 596/682/619 593/695/581 600/680/622
f 598/694/603 600/680/622 593/695/581
f 578/698/588 583/681/594 580/701/597
