# Blender v2.75 (sub 0) OBJ File: ''
# www.blender.org
mtllib Barrel_COL.mtl
o group_Default
v 0.326734 0.692917 -0.106162
v 0.343548 0.692917 0.000000
v 0.385576 0.412520 0.000000
v 0.366705 0.412520 -0.119150
v 0.326734 0.692917 0.106162
v 0.366705 0.412520 0.119150
v 0.277936 0.692917 0.201933
v 0.311938 0.412520 0.226636
v 0.201933 0.692917 0.277936
v 0.226636 0.412520 0.311938
v 0.106162 0.692917 0.326734
v 0.119150 0.412520 0.366705
v -0.000000 0.692917 0.343548
v -0.000000 0.412520 0.385576
v -0.106162 0.692917 0.326734
v -0.119150 0.412520 0.366705
v -0.201933 0.692917 0.277936
v -0.226636 0.412520 0.311938
v -0.277936 0.692917 0.201933
v -0.311938 0.412520 0.226636
v -0.366705 0.412520 0.119150
v -0.326734 0.692917 0.106162
v -0.385576 0.412520 0.000000
v -0.343548 0.692917 0.000000
v -0.326734 0.692917 -0.106162
v -0.366705 0.412520 -0.119150
v -0.277936 0.692917 -0.201933
v -0.311938 0.412520 -0.226636
v -0.226636 0.412520 -0.311938
v -0.201933 0.692917 -0.277936
v -0.119150 0.412520 -0.366705
v -0.106162 0.692917 -0.326734
v -0.000000 0.412520 -0.385576
v -0.000000 0.692917 -0.343548
v 0.106162 0.692917 -0.326734
v 0.119150 0.412520 -0.366705
v 0.201933 0.692917 -0.277936
v 0.226636 0.412520 -0.311938
v 0.277936 0.692917 -0.201933
v 0.311938 0.412520 -0.226636
v 0.366705 0.015477 -0.119150
v 0.385576 0.015477 0.000000
v 0.326734 -0.293673 -0.106162
v 0.343548 -0.293673 -0.000000
v 0.366705 0.015477 0.119150
v 0.326734 -0.293673 0.106162
v 0.311938 0.015477 0.226636
v 0.277936 -0.293673 0.201933
v 0.226636 0.015477 0.311938
v 0.201933 -0.293673 0.277936
v 0.119150 0.015477 0.366705
v 0.106162 -0.293673 0.326734
v -0.000000 0.015477 0.385576
v -0.000000 -0.293673 0.343548
v -0.106162 -0.293673 0.326734
v -0.119150 0.015477 0.366705
v -0.201933 -0.293673 0.277936
v -0.226636 0.015477 0.311938
v -0.277936 -0.293673 0.201933
v -0.311938 0.015477 0.226636
v -0.366705 0.015477 0.119150
v -0.326734 -0.293673 0.106162
v -0.385576 0.015477 0.000000
v -0.343548 -0.293673 -0.000000
v -0.326734 -0.293673 -0.106162
v -0.366705 0.015477 -0.119150
v -0.277936 -0.293673 -0.201933
v -0.311938 0.015477 -0.226636
v -0.226636 0.015477 -0.311938
v -0.201933 -0.293673 -0.277936
v -0.119150 0.015477 -0.366705
v -0.106162 -0.293673 -0.326734
v -0.000000 0.015477 -0.385576
v -0.000000 -0.293673 -0.343548
v 0.119150 0.015477 -0.366705
v 0.106162 -0.293673 -0.326734
v 0.226636 0.015477 -0.311938
v 0.201933 -0.293673 -0.277936
v 0.311938 0.015477 -0.226636
v 0.277936 -0.293673 -0.201933
v -0.178224 0.692917 -0.242094
v -0.094803 0.692917 -0.284599
v -0.244426 0.692917 0.175893
v -0.244426 0.692917 -0.175892
v -0.002332 0.692917 -0.299245
v -0.178224 0.692917 0.242095
v -0.286931 0.692917 0.092472
v -0.286931 0.692917 -0.092472
v -0.301577 0.692917 0.000000
v 0.173561 0.692917 0.242095
v 0.090140 0.692917 0.284600
v 0.173561 0.692917 -0.242094
v -0.002332 0.692917 0.299245
v -0.094803 0.692917 0.284600
v 0.090140 0.692917 -0.284599
v 0.282268 0.692917 0.092472
v 0.239763 0.692917 0.175893
v 0.282268 0.692917 -0.092472
v 0.239763 0.692917 -0.175892
v -0.178224 -0.226729 -0.242094
v -0.094803 -0.226729 -0.284599
v -0.244426 -0.226729 0.175893
v -0.244426 -0.226729 -0.175892
v -0.002332 -0.226729 -0.299245
v -0.178224 -0.226729 0.242095
v -0.286931 -0.226729 0.092472
v -0.286931 -0.226729 -0.092472
v -0.301577 -0.226729 0.000000
v 0.173561 -0.226729 0.242095
v 0.090140 -0.226729 0.284600
v 0.173561 -0.226729 -0.242094
v -0.002332 -0.226729 0.299245
v -0.094803 -0.226729 0.284600
v 0.090140 -0.226729 -0.284599
v 0.282268 -0.226729 0.092472
v 0.239763 -0.226729 0.175893
v 0.282268 -0.226729 -0.092472
v 0.239763 -0.226729 -0.175892
vn 0.626200 0.761800 -0.166100
vn 0.835800 0.549100 0.000000
vn 0.996200 0.084600 0.022400
vn 0.948500 0.073800 -0.308200
vn 0.747200 0.634300 0.198400
vn 0.930800 0.074100 0.357900
vn 0.598000 0.673500 0.434500
vn 0.788400 0.060600 0.612100
vn 0.353000 0.760800 0.544600
vn 0.586000 0.074200 0.806900
vn 0.144600 0.831500 0.536400
vn 0.308200 0.073800 0.948500
vn -0.000000 0.761100 0.648700
vn -0.022400 0.084600 0.996200
vn -0.168800 0.759800 0.627900
vn -0.357900 0.074100 0.930800
vn -0.300700 0.833800 0.463000
vn -0.628000 0.074100 0.774600
vn -0.678000 0.545500 0.492600
vn -0.825800 0.060600 0.560700
vn -0.948500 0.073800 0.308200
vn -0.625700 0.762400 0.165200
vn -0.996200 0.083800 -0.022700
vn -0.842700 0.538500 -0.000000
vn -0.748300 0.633100 -0.198200
vn -0.930800 0.074100 -0.357900
vn -0.524000 0.761900 -0.380700
vn -0.788400 0.060600 -0.612100
vn -0.586000 0.074200 -0.806900
vn -0.419300 0.636800 -0.647100
vn -0.308200 0.073800 -0.948500
vn -0.168500 0.760000 -0.627700
vn 0.022700 0.083800 -0.996200
vn 0.000000 0.903600 -0.428500
vn 0.199000 0.637800 -0.744000
vn 0.357900 0.074100 -0.930800
vn 0.433400 0.675500 -0.596600
vn 0.612100 0.060600 -0.788400
vn 0.544400 0.761300 -0.352200
vn 0.806900 0.074100 -0.586000
vn -0.070000 0.694200 -0.716400
vn 0.506800 0.747100 0.430200
vn 0.274400 0.779000 0.563700
vn 0.525700 0.731200 -0.434700
vn 0.162200 0.724800 0.669600
vn 0.301700 0.668300 0.679900
vn 0.650300 0.755700 0.077500
vn -0.570100 0.751600 -0.331600
vn -0.342400 0.737300 0.582400
vn -0.490600 0.758400 0.429100
vn -0.658300 0.728700 0.188700
vn -0.625800 0.729600 -0.275700
vn 0.252300 0.758000 -0.601500
vn -0.325300 0.728000 0.603600
vn 0.372700 0.751900 -0.543800
vn 0.679300 0.713200 -0.172600
vn -0.375900 0.713000 -0.592000
vn 0.931300 -0.067400 -0.357900
vn 0.996800 -0.077100 -0.022700
vn 0.632000 -0.756300 -0.169100
vn 0.839700 -0.543100 -0.000000
vn 0.948900 -0.067100 0.308300
vn 0.748500 -0.632200 0.200300
vn 0.826100 -0.054000 0.561000
vn 0.600700 -0.669800 0.436400
vn 0.628200 -0.067400 0.775100
vn 0.356100 -0.756300 0.548900
vn 0.357900 -0.067400 0.931300
vn 0.143600 -0.831400 0.536900
vn 0.022700 -0.077100 0.996800
vn 0.000000 -0.756700 0.653700
vn -0.169100 -0.756200 0.632100
vn -0.308300 -0.067100 0.948900
vn -0.302500 -0.831400 0.466200
vn -0.586300 -0.067500 0.807300
vn -0.679300 -0.543000 0.493600
vn -0.788800 -0.054000 0.612300
vn -0.931300 -0.067400 0.357900
vn -0.632000 -0.756300 0.169100
vn -0.996800 -0.077100 0.022700
vn -0.839700 -0.543100 0.000000
vn -0.748500 -0.632200 -0.200300
vn -0.948900 -0.067100 -0.308300
vn -0.528900 -0.756700 -0.384300
vn -0.826100 -0.054000 -0.561000
vn -0.628200 -0.067400 -0.775100
vn -0.421800 -0.632100 -0.650000
vn -0.357900 -0.067400 -0.931300
vn -0.169100 -0.756200 -0.632100
vn -0.022700 -0.077100 -0.996800
vn -0.000000 -0.908900 -0.417100
vn 0.308300 -0.067100 -0.948900
vn 0.200300 -0.632200 -0.748500
vn 0.561000 -0.054000 -0.826100
vn 0.436400 -0.669800 -0.600700
vn 0.775100 -0.067400 -0.628200
vn 0.548900 -0.756300 -0.356100
vn 0.579000 0.675500 0.456600
vn 0.416700 0.722900 0.551200
vn 0.205000 0.662500 0.720400
vn 0.021100 0.552500 0.833200
vn -0.415500 0.661100 -0.624800
vn -0.268300 0.611700 -0.744200
vn -0.714500 0.669100 0.204600
vn -0.244000 0.716700 0.653300
vn -0.579100 0.702400 -0.413900
vn 0.713600 0.684100 0.151300
vn 0.523900 0.657500 -0.541500
vn 0.713000 0.651800 -0.258500
vn -0.739600 0.666200 -0.095800
vn 0.494100 0.688900 -0.530300
vn 0.246500 0.687600 -0.682900
vn -0.424100 0.699400 0.575400
vn -0.003800 0.653000 -0.757300
vn 0.831300 0.555800 -0.000000
vn 0.741800 0.655700 -0.140700
vn -0.626100 0.660500 0.414500
vn 0.050200 0.736500 -0.674600
usemtl Default
s 1
f 1//1 2//2 3//3
f 4//4 1//1 3//3
f 3//3 5//5 6//6
f 2//2 5//5 3//3
f 6//6 7//7 8//8
f 5//5 7//7 6//6
f 7//7 9//9 10//10
f 8//8 7//7 10//10
f 9//9 11//11 12//12
f 10//10 9//9 12//12
f 11//11 13//13 14//14
f 12//12 11//11 14//14
f 15//15 16//16 14//14
f 13//13 15//15 14//14
f 17//17 18//18 16//16
f 15//15 17//17 16//16
f 19//19 20//20 18//18
f 17//17 19//19 18//18
f 19//19 21//21 20//20
f 19//19 22//22 21//21
f 22//22 23//23 21//21
f 22//22 24//24 23//23
f 25//25 26//26 23//23
f 24//24 25//25 23//23
f 27//27 28//28 26//26
f 25//25 27//27 26//26
f 27//27 29//29 28//28
f 27//27 30//30 29//29
f 30//30 31//31 29//29
f 30//30 32//32 31//31
f 32//32 33//33 31//31
f 32//32 34//34 33//33
f 33//33 35//35 36//36
f 34//34 35//35 33//33
f 36//36 37//37 38//38
f 35//35 37//37 36//36
f 37//37 39//39 40//40
f 38//38 37//37 40//40
f 39//39 1//1 4//4
f 40//40 39//39 4//4
f 2//2 1//1 5//5
f 13//13 11//11 91//41
f 27//27 84//42 81//43
f 19//19 17//17 86//44
f 32//32 82//45 85//46
f 25//25 88//47 84//42
f 9//9 7//7 97//48
f 37//37 92//49 99//50
f 1//1 98//51 96//52
f 17//17 15//15 94//53
f 34//34 85//46 95//54
f 22//22 19//19 83//55
f 24//24 22//22 87//56
f 35//35 95//54 92//49
f 11//11 9//9 90//57
f 39//39 99//50 98//51
f 7//7 5//5 96//52
f 30//30 81//43 82//45
f 41//58 42//59 43//60
f 43//60 42//59 44//61
f 42//59 45//62 46//63
f 44//61 42//59 46//63
f 45//62 47//64 48//65
f 46//63 45//62 48//65
f 47//64 49//66 48//65
f 48//65 49//66 50//67
f 49//66 51//68 50//67
f 50//67 51//68 52//69
f 51//68 53//70 52//69
f 52//69 53//70 54//71
f 53//70 55//72 54//71
f 53//70 56//73 55//72
f 56//73 57//74 55//72
f 56//73 58//75 57//74
f 58//75 59//76 57//74
f 58//75 60//77 59//76
f 60//77 61//78 59//76
f 61//78 62//79 59//76
f 61//78 63//80 62//79
f 63//80 64//81 62//79
f 63//80 65//82 64//81
f 63//80 66//83 65//82
f 66//83 67//84 65//82
f 66//83 68//85 67//84
f 68//85 69//86 67//84
f 69//86 70//87 67//84
f 69//86 71//88 70//87
f 71//88 72//89 70//87
f 71//88 73//90 72//89
f 73//90 74//91 72//89
f 73//90 75//92 76//93
f 74//91 73//90 76//93
f 75//92 77//94 78//95
f 76//93 75//92 78//95
f 77//94 79//96 78//95
f 78//95 79//96 80//97
f 79//96 41//58 80//97
f 80//97 41//58 43//60
f 43//60 44//61 46//63
f 72//89 74//91 55//72
f 55//72 74//91 54//71
f 74//91 76//93 52//69
f 74//91 52//69 54//71
f 78//95 50//67 52//69
f 76//93 78//95 52//69
f 80//97 48//65 50//67
f 78//95 80//97 50//67
f 43//60 46//63 48//65
f 80//97 43//60 48//65
f 57//74 72//89 55//72
f 70//87 72//89 57//74
f 67//84 70//87 57//74
f 59//76 67//84 57//74
f 62//79 67//84 59//76
f 65//82 67//84 62//79
f 64//81 65//82 62//79
f 51//68 12//12 53//70
f 12//12 14//14 53//70
f 14//14 56//73 53//70
f 14//14 16//16 56//73
f 16//16 58//75 56//73
f 16//16 18//18 58//75
f 18//18 60//77 58//75
f 18//18 20//20 60//77
f 20//20 61//78 60//77
f 20//20 21//21 61//78
f 21//21 63//80 61//78
f 21//21 23//23 63//80
f 23//23 66//83 63//80
f 23//23 26//26 66//83
f 26//26 68//85 66//83
f 26//26 28//28 68//85
f 28//28 69//86 68//85
f 28//28 29//29 69//86
f 29//29 71//88 69//86
f 29//29 31//31 71//88
f 31//31 73//90 71//88
f 31//31 33//33 73//90
f 73//90 33//33 75//92
f 33//33 36//36 75//92
f 75//92 36//36 77//94
f 36//36 38//38 77//94
f 77//94 38//38 79//96
f 38//38 40//40 79//96
f 79//96 40//40 41//58
f 40//40 4//4 41//58
f 41//58 4//4 42//59
f 4//4 3//3 42//59
f 42//59 3//3 45//62
f 3//3 6//6 45//62
f 45//62 6//6 47//64
f 6//6 8//8 47//64
f 47//64 8//8 49//66
f 8//8 10//10 49//66
f 49//66 10//10 51//68
f 10//10 12//12 51//68
f 84//42 103//98 100//99
f 82//45 101//100 104//101
f 90//57 109//102 110//103
f 96//52 98//51 117//104
f 85//46 104//101 114//105
f 90//57 97//48 116//106
f 81//43 100//99 101//100
f 88//47 107//107 103//98
f 83//55 102//108 106//109
f 96//52 115//110 116//106
f 86//44 105//111 102//108
f 94//53 113//112 105//111
f 95//54 114//105 111//113
f 91//41 110//103 112//114
f 89//115 108//116 107//107
f 87//56 106//109 108//116
f 99//50 118//117 117//104
f 24//24 89//115 88//47
f 15//15 13//13 93//118
f 104//101 113//112 112//114
f 104//101 101//100 113//112
f 110//103 104//101 112//114
f 114//105 104//101 110//103
f 109//102 111//113 110//103
f 111//113 114//105 110//103
f 116//106 118//117 109//102
f 118//117 111//113 109//102
f 115//110 117//104 116//106
f 117//104 118//117 116//106
f 101//100 105//111 113//112
f 101//100 100//99 105//111
f 103//98 102//108 105//111
f 100//99 103//98 105//111
f 103//98 106//109 102//108
f 103//98 107//107 106//109
f 107//107 108//116 106//109
f 99//50 92//49 111//113
f 93//118 112//114 113//112
f 93//118 13//13 91//41
f 30//30 27//27 81//43
f 83//55 19//19 86//44
f 34//34 32//32 85//46
f 27//27 25//25 84//42
f 90//57 9//9 97//48
f 39//39 37//37 99//50
f 5//5 1//1 96//52
f 86//44 17//17 94//53
f 35//35 34//34 95//54
f 87//56 22//22 83//55
f 89//115 24//24 87//56
f 37//37 35//35 92//49
f 91//41 11//11 90//57
f 1//1 39//39 98//51
f 97//48 7//7 96//52
f 32//32 30//30 82//45
f 81//43 84//42 100//99
f 85//46 82//45 104//101
f 91//41 90//57 110//103
f 115//110 96//52 117//104
f 95//54 85//46 114//105
f 109//102 90//57 116//106
f 82//45 81//43 101//100
f 84//42 88//47 103//98
f 87//56 83//55 106//109
f 97//48 96//52 116//106
f 83//55 86//44 102//108
f 86//44 94//53 105//111
f 92//49 95//54 111//113
f 93//118 91//41 112//114
f 88//47 89//115 107//107
f 89//115 87//56 108//116
f 98//51 99//50 117//104
f 25//25 24//24 88//47
f 94//53 15//15 93//118
f 118//117 99//50 111//113
f 94//53 93//118 113//112
