# Blender v2.75 (sub 0) OBJ File: ''
# www.blender.org
mtllib Lid.mtl
o group_cam.001
v -0.246426 1.673537 -0.235418
v -0.293165 1.672649 -0.172457
v -0.294386 1.714373 -0.169964
v -0.320734 1.671356 -0.115321
v -0.329547 1.674374 -0.087252
v -0.328345 1.714373 -0.087980
v -0.240366 1.714373 -0.240366
v 0.294386 1.714373 -0.169964
v 0.293337 1.675334 -0.175215
v 0.240366 1.714373 -0.240366
v 0.241249 1.675740 -0.240688
v 0.169964 1.714373 -0.294386
v 0.168030 1.674948 -0.296544
v 0.087980 1.714373 -0.328345
v 0.086104 1.675787 -0.329891
v 0.000000 1.714373 -0.339928
v 0.000010 1.674813 -0.340807
v -0.087980 1.714373 -0.328345
v -0.087200 1.673278 -0.329366
v -0.169964 1.714373 -0.294386
v -0.171240 1.674863 -0.294627
v -0.339928 1.714373 0.000000
v -0.340922 1.673667 0.001510
v -0.328345 1.714373 0.087980
v -0.328902 1.674471 0.089732
v -0.294386 1.714373 0.169964
v -0.294492 1.674311 0.172581
v -0.240366 1.714373 0.240366
v -0.240340 1.674737 0.240658
v -0.169964 1.714373 0.294386
v -0.169026 1.675723 0.295262
v -0.089264 1.675465 0.327523
v -0.087980 1.714373 0.328345
v 0.000000 1.714373 0.339928
v -0.000919 1.672010 0.340895
v 0.087980 1.714373 0.328345
v 0.091194 1.671880 0.336218
v 0.169964 1.714373 0.294386
v 0.175424 1.672096 0.301156
v 0.246618 1.673286 0.244942
v 0.240366 1.714373 0.240366
v 0.294386 1.714373 0.169964
v 0.296079 1.674601 0.169465
v 0.328345 1.714373 0.087980
v 0.330307 1.673756 0.086160
v 0.339928 1.714373 0.000000
v 0.328573 1.674452 -0.090236
v 0.341355 1.674638 -0.002408
v 0.328345 1.714373 -0.087980
v 0.331905 1.721373 0.000000
v 0.291751 1.721373 -0.078174
v 0.302042 1.721373 0.000000
v 0.320595 1.721373 -0.085903
v 0.291751 1.721373 0.078174
v 0.320595 1.721373 0.085903
v 0.261577 1.721373 0.151021
v 0.287438 1.721373 0.165952
v 0.213576 1.721373 0.213576
v 0.234693 1.721373 0.234693
v 0.151021 1.721373 0.261577
v 0.165952 1.721373 0.287438
v 0.078174 1.721373 0.291751
v 0.085903 1.721373 0.320595
v 0.000000 1.721373 0.302042
v 0.000000 1.721373 0.331905
v -0.078174 1.721373 0.291751
v -0.085903 1.721373 0.320595
v -0.151021 1.721373 0.261577
v -0.165952 1.721373 0.287438
v -0.234693 1.721373 0.234693
v -0.213576 1.721373 0.213576
v -0.261577 1.721373 0.151021
v -0.287438 1.721373 0.165952
v -0.320595 1.721373 0.085903
v -0.291751 1.721373 0.078174
v -0.331905 1.721373 0.000000
v -0.302042 1.721373 0.000000
v -0.291751 1.721373 -0.078174
v -0.320595 1.721373 -0.085903
v -0.261577 1.721373 -0.151021
v -0.287438 1.721373 -0.165952
v -0.234693 1.721373 -0.234693
v -0.213576 1.721373 -0.213576
v -0.151021 1.721373 -0.261577
v -0.165952 1.721373 -0.287438
v -0.085903 1.721373 -0.320595
v -0.078174 1.721373 -0.291751
v 0.000000 1.721373 -0.331905
v 0.000000 1.721373 -0.302042
v 0.078174 1.721373 -0.291751
v 0.085903 1.721373 -0.320595
v 0.151021 1.721373 -0.261577
v 0.165952 1.721373 -0.287438
v 0.234693 1.721373 -0.234693
v 0.213576 1.721373 -0.213576
v 0.261577 1.721373 -0.151021
v 0.287438 1.721373 -0.165952
v 0.272377 1.701028 -0.072983
v 0.281985 1.701028 0.000000
v 0.272377 1.701028 0.072983
v 0.244206 1.701028 0.140993
v 0.199395 1.701028 0.199395
v 0.140993 1.701028 0.244206
v 0.072983 1.701028 0.272377
v 0.000000 1.701028 0.281985
v -0.072983 1.701028 0.272377
v -0.140993 1.701028 0.244206
v -0.199395 1.701028 0.199395
v -0.244206 1.701028 0.140993
v -0.272377 1.701028 0.072983
v -0.281985 1.701028 0.000000
v -0.272377 1.701028 -0.072983
v -0.244206 1.701028 -0.140993
v -0.199395 1.701028 -0.199393
v -0.140993 1.701028 -0.244206
v -0.072983 1.701028 -0.272377
v 0.000000 1.701028 -0.281985
v 0.072983 1.701028 -0.272377
v 0.140993 1.701028 -0.244206
v 0.199395 1.701028 -0.199393
v 0.244206 1.701028 -0.140993
vt 0.509209 0.664267
vt 0.465486 0.679286
vt 0.501636 0.651120
vt 0.544058 0.633889
vt 0.589441 0.642770
vt 0.547957 0.648520
vt 0.589438 0.627656
vt 0.677243 0.651088
vt 0.669674 0.664239
vt 0.634817 0.633873
vt 0.630923 0.648506
vt 0.713403 0.679240
vt 0.702722 0.689928
vt 0.728449 0.722957
vt 0.758811 0.757809
vt 0.744181 0.761706
vt 0.765073 0.803193
vt 0.749964 0.803192
vt 0.744168 0.844696
vt 0.415823 0.597747
vt 0.416823 0.609790
vt 0.381687 0.592429
vt 0.445353 0.590888
vt 0.459801 0.605088
vt 0.459852 0.584241
vt 0.499080 0.602594
vt 0.374533 0.603822
vt 0.334858 0.602490
vt 0.335672 0.582016
vt 0.138336 0.599847
vt 0.100234 0.599206
vt 0.101893 0.578222
vt 0.177308 0.600262
vt 0.138144 0.579448
vt 0.216505 0.599759
vt 0.178522 0.579578
vt 0.255688 0.600246
vt 0.217449 0.579520
vt 0.255918 0.579635
vt 0.295185 0.601613
vt 0.295077 0.580276
vt 0.538829 0.582095
vt 0.538148 0.602839
vt 0.499295 0.581205
vt 0.617536 0.603760
vt 0.577730 0.603359
vt 0.578772 0.582591
vt 0.617829 0.583297
vt 0.658091 0.584279
vt 0.657417 0.604264
vt 0.697192 0.604216
vt 0.696474 0.584000
vt 0.736259 0.581823
vt 0.736834 0.603804
vt 0.776353 0.602701
vt 0.776853 0.580008
vt 0.815553 0.603702
vt 0.816797 0.581086
vt 0.856265 0.584557
vt 0.854643 0.606604
vt 0.895233 0.588640
vt 0.893435 0.609545
vt 0.931974 0.612695
vt 0.933996 0.591119
vt 0.972263 0.593964
vt 0.970126 0.615130
vt 0.062373 0.601575
vt 0.024525 0.603800
vt 0.024611 0.582402
vt 0.062466 0.580104
vt 0.741593 0.715379
vt 0.758788 0.848594
vt 0.476171 0.689970
vt 0.450457 0.723010
vt 0.437310 0.715437
vt 0.420108 0.757874
vt 0.434740 0.761764
vt 0.413864 0.803260
vt 0.428973 0.803253
vt 0.434785 0.844755
vt 0.420167 0.848659
vt 0.450541 0.883546
vt 0.437393 0.891109
vt 0.465528 0.927300
vt 0.476205 0.916584
vt 0.509370 0.942017
vt 0.501812 0.955187
vt 0.544115 0.972555
vt 0.548029 0.957925
vt 0.589500 0.978775
vt 0.589497 0.963656
vt 0.630965 0.957910
vt 0.634884 0.972538
vt 0.669622 0.941988
vt 0.677183 0.955155
vt 0.713458 0.927253
vt 0.702777 0.916542
vt 0.728428 0.883494
vt 0.741578 0.891052
vt 0.730197 0.840894
vt 0.735148 0.803186
vt 0.730190 0.765476
vt 0.715621 0.730363
vt 0.692469 0.700166
vt 0.662282 0.677077
vt 0.627144 0.662494
vt 0.589445 0.657590
vt 0.551738 0.662507
vt 0.516605 0.677104
vt 0.486428 0.700204
vt 0.463287 0.730410
vt 0.448733 0.765529
vt 0.443789 0.803241
vt 0.448755 0.840946
vt 0.463322 0.876029
vt 0.486467 0.906127
vt 0.516651 0.929304
vt 0.551794 0.943929
vt 0.589492 0.948836
vt 0.627199 0.943916
vt 0.662336 0.929278
vt 0.692511 0.906088
vt 0.715644 0.875981
vt 0.764027 0.850001
vt 0.770473 0.803194
vt 0.764052 0.756402
vt 0.746275 0.712656
vt 0.717215 0.675425
vt 0.679964 0.646404
vt 0.636222 0.628631
vt 0.589437 0.622255
vt 0.542652 0.628648
vt 0.498914 0.646437
vt 0.461672 0.675472
vt 0.432626 0.712716
vt 0.414867 0.756468
vt 0.408464 0.803263
vt 0.432711 0.893828
vt 0.414929 0.850067
vt 0.499098 0.959879
vt 0.461721 0.931126
vt 0.542698 0.977798
vt 0.589501 0.984174
vt 0.636303 0.977780
vt 0.679899 0.959846
vt 0.717266 0.931079
vt 0.746262 0.893769
vt 0.377483 0.582376
vt 0.503500 0.955799
vt 0.739327 0.891159
vt 0.589626 0.978055
vt 0.419499 0.760265
vt 0.420812 0.850567
vt 0.414058 0.805635
vt 0.465881 0.927379
vt 0.439057 0.893986
vt 0.545523 0.972674
vt 0.634251 0.971989
vt 0.715549 0.923504
vt 0.677197 0.953998
vt 0.757774 0.847454
vt 0.753739 0.862047
vt 0.763351 0.801981
vt 0.711272 0.679798
vt 0.739161 0.714517
vt 0.756982 0.756845
vt 0.633715 0.635699
vt 0.674628 0.652017
vt 0.436822 0.717534
vt 0.588430 0.629009
vt 0.498254 0.649798
vt 0.541286 0.631636
vt 0.461951 0.678764
vn 0.206400 0.931300 -0.300200
vn -0.247800 0.936600 0.247800
vn -0.139500 0.930100 0.339800
vn -0.170500 0.889200 0.424600
vn 0.165900 0.927900 -0.333900
vn 0.141200 0.936200 -0.321900
vn -0.025000 0.930700 0.365000
vn 0.237600 0.916300 0.322300
vn -0.156800 0.931300 -0.328900
vn 0.104900 0.958200 0.266200
vn -0.079400 0.951700 -0.296400
vn 0.240400 0.930700 0.275800
vn -0.230100 0.934600 -0.271200
vn -0.292500 0.934600 -0.202400
vn 0.324100 0.926300 0.192000
vn -0.365100 0.930000 -0.042200
vn 0.365000 0.930700 0.025000
vn -0.334000 0.927900 -0.165900
vn -0.296400 0.951700 0.079400
vn -0.517800 -0.647800 -0.558800
vn -0.766700 0.407700 -0.495900
vn -0.468800 -0.775600 -0.422700
vn -0.515100 -0.848800 -0.119400
vn -0.854300 0.485300 -0.186400
vn -0.738000 -0.674700 -0.013600
vn -0.894100 0.442300 -0.071000
vn -0.643100 0.298900 -0.705100
vn -0.441600 0.409100 -0.798500
vn -0.264100 -0.686000 -0.678000
vn 0.677200 0.441600 -0.588600
vn 0.785000 0.432200 -0.443900
vn 0.618000 -0.657700 -0.430700
vn 0.434300 0.443200 -0.784200
vn 0.496100 -0.650200 -0.575500
vn 0.159200 0.421100 -0.892900
vn 0.320200 -0.684000 -0.655400
vn 0.069000 0.440500 -0.895100
vn 0.144100 -0.639500 -0.755200
vn 0.002000 -0.630400 -0.776200
vn -0.207200 0.480200 -0.852400
vn -0.228300 -0.704000 -0.672600
vn -0.747400 -0.646900 0.151300
vn -0.842700 0.450500 0.294700
vn -0.733800 -0.679300 0.014300
vn -0.681300 0.434400 0.589200
vn -0.785800 0.429900 0.444600
vn -0.605500 -0.676900 0.418500
vn -0.444200 -0.653400 0.612900
vn -0.356900 -0.650500 0.670400
vn -0.448100 0.442000 0.777100
vn -0.221200 0.406700 0.886400
vn -0.297700 -0.688000 0.661900
vn 0.007800 -0.637700 0.770300
vn 0.015800 0.412300 0.910900
vn 0.248700 0.505000 0.826500
vn 0.112400 -0.597300 0.794100
vn 0.445100 0.495800 0.745600
vn 0.421500 -0.608400 0.672400
vn 0.531600 -0.606800 0.590900
vn 0.565300 0.440500 0.697400
vn 0.672900 -0.634200 0.380800
vn 0.831300 0.420700 0.363200
vn 0.876300 0.452000 0.166800
vn 0.750000 -0.640600 0.164500
vn 0.791500 -0.611000 -0.014800
vn 0.904000 0.420600 0.077100
vn 0.841300 0.483800 -0.240900
vn 0.674000 -0.699800 -0.236700
vn 0.339800 0.930100 0.139500
vn 0.269900 0.960200 -0.072300
vn 0.272300 0.922900 -0.272300
vn 0.333500 0.922900 -0.192600
vn -0.372400 0.907600 0.193800
vn -0.269900 0.960200 0.072300
vn 0.296400 0.951700 -0.079400
vn -0.350400 0.936600 -0.000000
vn 0.509000 0.860800 -0.000100
vn 0.296400 0.951700 0.079400
vn -0.269900 0.960200 -0.072300
vn 0.333500 0.922900 0.192600
vn -0.372400 0.907600 -0.193800
vn -0.247800 0.936600 -0.247800
vn 0.311400 0.887300 0.340000
vn 0.152200 0.944100 0.292500
vn -0.193800 0.907600 -0.372400
vn -0.072300 0.960200 -0.269900
vn 0.079400 0.951700 0.296400
vn 0.000000 0.936600 -0.350400
vn 0.000000 0.860800 0.509000
vn -0.079400 0.951700 0.296400
vn 0.072300 0.960200 -0.269900
vn -0.152200 0.944100 0.292500
vn 0.193800 0.907600 -0.372400
vn 0.247800 0.936600 -0.247800
vn -0.311400 0.887300 0.340000
vn -0.333500 0.922900 0.192600
vn 0.372400 0.907600 -0.193800
vn -0.491700 0.860800 0.131700
vn -0.509000 0.860800 0.000000
vn -0.424500 0.898200 -0.113800
vn -0.265800 0.951700 -0.153400
vn -0.359900 0.860800 -0.359900
vn -0.153400 0.951800 -0.265700
vn -0.113700 0.898200 -0.424500
vn 0.000000 0.951800 -0.306900
vn 0.099700 0.922900 -0.372000
vn 0.153400 0.951800 -0.265700
vn 0.359900 0.860800 -0.359900
vn 0.265800 0.951700 -0.153400
vn 0.424500 0.898200 -0.113800
vn 0.509000 0.860800 0.000000
vn 0.491700 0.860800 0.131700
vn 0.265700 0.951800 0.153400
vn 0.243100 0.944100 0.222700
vn 0.207200 0.922700 0.325000
vn 0.131700 0.860800 0.491700
vn 0.000000 0.951800 0.306900
vn -0.113800 0.898200 0.424500
vn -0.207200 0.922700 0.325000
vn -0.243100 0.944100 0.222700
vn -0.265700 0.951800 0.153400
usemtl cam
s 1
f 68/1/1 70/2/2 69/3/3
f 68/1/1 69/3/3 67/4/4
f 64/5/5 66/6/6 65/7/7
f 61/8/8 60/9/9 63/10/10
f 60/9/9 62/11/11 63/10/10
f 59/12/12 58/13/13 60/9/9
f 56/14/14 58/13/13 59/12/12
f 55/15/15 54/16/16 56/14/14
f 50/17/17 52/18/18 54/16/16
f 50/17/17 51/19/19 52/18/18
f 2/20/20 3/21/21 1/22/22
f 3/21/21 2/20/20 4/23/23
f 6/24/24 4/23/23 5/25/25
f 22/26/26 6/24/24 5/25/25
f 7/27/27 20/28/28 21/29/29
f 10/30/30 8/31/31 9/32/32
f 12/33/33 10/30/30 11/34/34
f 14/35/35 12/33/33 13/36/36
f 16/37/37 14/35/35 15/38/38
f 16/37/37 15/38/38 17/39/39
f 20/28/28 18/40/40 19/41/41
f 21/29/29 20/28/28 19/41/41
f 25/42/42 24/43/43 23/44/44
f 28/45/45 26/46/46 27/47/47
f 29/48/48 28/45/45 27/47/47
f 31/49/49 30/50/50 29/48/48
f 30/50/50 28/45/45 29/48/48
f 33/51/51 31/49/49 32/52/52
f 33/51/51 30/50/50 31/49/49
f 33/51/51 32/52/52 35/53/53
f 34/54/54 33/51/51 35/53/53
f 36/55/55 35/53/53 37/56/56
f 36/55/55 34/54/54 35/53/53
f 38/57/57 36/55/55 37/56/56
f 39/58/58 38/57/57 37/56/56
f 40/59/59 41/60/60 39/58/58
f 41/60/60 38/57/57 39/58/58
f 43/61/61 41/60/60 40/59/59
f 42/62/62 41/60/60 43/61/61
f 44/63/63 43/61/61 45/64/64
f 44/63/63 42/62/62 43/61/61
f 48/65/65 46/66/66 45/64/64
f 46/66/66 44/63/63 45/64/64
f 49/67/67 46/68/66 48/69/65
f 49/67/67 48/69/65 47/70/68
f 62/11/11 64/5/5 65/7/7
f 66/6/6 68/1/1 67/4/4
f 63/10/10 62/11/11 65/7/7
f 66/6/6 67/4/4 65/7/7
f 59/12/12 60/9/9 61/8/8
f 57/71/69 56/14/14 59/12/12
f 53/72/70 51/19/19 50/17/17
f 55/15/15 56/14/14 57/71/69
f 3/21/21 7/27/27 1/22/22
f 50/17/17 54/16/16 55/15/15
f 6/24/24 3/21/21 4/23/23
f 22/26/26 5/25/25 23/44/44
f 8/31/31 49/67/67 47/70/68
f 9/32/32 8/31/31 47/70/68
f 11/34/34 10/30/30 9/32/32
f 12/33/33 11/34/34 13/36/36
f 15/38/38 14/35/35 13/36/36
f 18/40/40 17/39/39 19/41/41
f 18/40/40 16/37/37 17/39/39
f 26/46/46 24/43/43 25/42/42
f 24/43/43 22/26/26 23/44/44
f 26/46/46 25/42/42 27/47/47
f 71/73/71 70/2/2 68/1/1
f 72/74/72 73/75/73 70/2/2
f 71/73/71 72/74/72 70/2/2
f 72/74/72 74/76/74 73/75/73
f 75/77/75 74/76/74 72/74/72
f 75/77/75 76/78/76 74/76/74
f 77/79/77 76/78/76 75/77/75
f 78/80/78 79/81/79 76/78/76
f 78/80/78 76/78/76 77/79/77
f 80/82/80 79/81/79 78/80/78
f 80/82/80 81/83/81 79/81/79
f 82/84/82 81/83/81 80/82/80
f 83/85/83 82/84/82 80/82/80
f 84/86/84 82/84/82 83/85/83
f 84/86/84 85/87/85 82/84/82
f 86/88/86 85/87/85 84/86/84
f 87/89/87 86/88/86 84/86/84
f 88/90/88 86/88/86 87/89/87
f 89/91/89 88/90/88 87/89/87
f 88/90/88 89/91/89 90/92/90
f 91/93/91 88/90/88 90/92/90
f 91/93/91 90/92/90 92/94/92
f 93/95/93 91/93/91 92/94/92
f 94/96/94 92/94/92 95/97/95
f 93/95/93 92/94/92 94/96/94
f 94/96/94 95/97/95 96/98/96
f 97/99/97 94/96/94 96/98/96
f 53/72/70 96/98/96 51/19/19
f 97/99/97 96/98/96 53/72/70
f 52/18/18 98/100/98 99/101/99
f 52/18/18 51/19/19 98/100/98
f 52/18/18 99/101/99 100/102/100
f 54/16/16 52/18/18 100/102/100
f 56/14/14 100/102/100 101/103/101
f 56/14/14 54/16/16 100/102/100
f 56/14/14 101/103/101 102/104/102
f 58/13/13 56/14/14 102/104/102
f 60/9/9 102/104/102 103/105/103
f 60/9/9 58/13/13 102/104/102
f 60/9/9 103/105/103 104/106/104
f 62/11/11 60/9/9 104/106/104
f 64/5/5 104/106/104 105/107/105
f 64/5/5 62/11/11 104/106/104
f 106/108/106 64/5/5 105/107/105
f 66/6/6 64/5/5 106/108/106
f 68/1/1 66/6/6 106/108/106
f 107/109/107 68/1/1 106/108/106
f 108/110/108 68/1/1 107/109/107
f 71/73/71 68/1/1 108/110/108
f 72/74/72 71/73/71 108/110/108
f 109/111/109 72/74/72 108/110/108
f 110/112/110 72/74/72 109/111/109
f 75/77/75 72/74/72 110/112/110
f 77/79/77 75/77/75 110/112/110
f 111/113/111 77/79/77 110/112/110
f 112/114/112 77/79/77 111/113/111
f 78/80/78 77/79/77 112/114/112
f 80/82/80 78/80/78 112/114/112
f 113/115/113 80/82/80 112/114/112
f 114/116/114 80/82/80 113/115/113
f 83/85/83 80/82/80 114/116/114
f 115/117/115 83/85/83 114/116/114
f 84/86/84 83/85/83 115/117/115
f 116/118/116 84/86/84 115/117/115
f 87/89/87 84/86/84 116/118/116
f 89/91/89 87/89/87 116/118/116
f 117/119/117 89/91/89 116/118/116
f 89/91/89 117/119/117 118/120/118
f 90/92/90 89/91/89 118/120/118
f 92/94/92 118/120/118 119/121/119
f 92/94/92 90/92/90 118/120/118
f 95/97/95 119/121/119 120/122/120
f 95/97/95 92/94/92 119/121/119
f 96/98/96 120/122/120 121/123/121
f 96/98/96 95/97/95 120/122/120
f 96/98/96 121/123/121 98/100/98
f 51/19/19 96/98/96 98/100/98
f 49/124/67 50/17/17 46/125/66
f 53/72/70 50/17/17 49/124/67
f 50/17/17 55/15/15 44/126/63
f 46/125/66 50/17/17 44/126/63
f 44/126/63 57/71/69 42/127/62
f 55/15/15 57/71/69 44/126/63
f 42/127/62 59/12/12 41/128/60
f 57/71/69 59/12/12 42/127/62
f 59/12/12 61/8/8 38/129/57
f 41/128/60 59/12/12 38/129/57
f 61/8/8 63/10/10 36/130/55
f 38/129/57 61/8/8 36/130/55
f 36/130/55 65/7/7 34/131/54
f 63/10/10 65/7/7 36/130/55
f 65/7/7 33/132/51 34/131/54
f 65/7/7 67/4/4 33/132/51
f 69/3/3 30/133/50 33/132/51
f 67/4/4 69/3/3 33/132/51
f 70/2/2 28/134/45 30/133/50
f 69/3/3 70/2/2 30/133/50
f 70/2/2 26/135/46 28/134/45
f 70/2/2 73/75/73 26/135/46
f 73/75/73 24/136/43 26/135/46
f 73/75/73 74/76/74 24/136/43
f 76/78/76 22/137/26 24/136/43
f 74/76/74 76/78/76 24/136/43
f 81/83/81 3/138/21 6/139/24
f 79/81/79 81/83/81 6/139/24
f 82/84/82 20/140/28 7/141/27
f 82/84/82 85/87/85 20/140/28
f 85/87/85 18/142/40 20/140/28
f 85/87/85 86/88/86 18/142/40
f 88/90/88 16/143/37 18/142/40
f 86/88/86 88/90/88 18/142/40
f 88/90/88 91/93/91 14/144/35
f 16/143/37 88/90/88 14/144/35
f 14/144/35 93/95/93 12/145/33
f 91/93/91 93/95/93 14/144/35
f 12/145/33 94/96/94 10/146/30
f 93/95/93 94/96/94 12/145/33
f 94/96/94 97/99/97 8/147/31
f 10/146/30 94/96/94 8/147/31
f 97/99/97 53/72/70 49/124/67
f 8/147/31 97/99/97 49/124/67
f 82/84/82 7/141/27 3/138/21
f 81/83/81 82/84/82 3/138/21
f 76/78/76 79/81/79 6/139/24
f 76/78/76 6/139/24 22/137/26
f 115/117/115 107/109/107 106/108/106
f 116/118/116 115/117/115 106/108/106
f 114/116/114 109/111/109 108/110/108
f 114/116/114 113/115/113 109/111/109
f 113/115/113 110/112/110 109/111/109
f 113/115/113 112/114/112 110/112/110
f 112/114/112 111/113/111 110/112/110
f 114/116/114 108/110/108 107/109/107
f 115/117/115 114/116/114 107/109/107
f 117/119/117 116/118/116 106/108/106
f 117/119/117 106/108/106 105/107/105
f 118/120/118 117/119/117 105/107/105
f 104/106/104 118/120/118 105/107/105
f 119/121/119 118/120/118 104/106/104
f 103/105/103 119/121/119 104/106/104
f 120/122/120 119/121/119 103/105/103
f 102/104/102 120/122/120 103/105/103
f 121/123/121 120/122/120 101/103/101
f 101/103/101 120/122/120 102/104/102
f 98/100/98 121/123/121 100/102/100
f 100/102/100 121/123/121 101/103/101
f 99/101/99 98/100/98 100/102/100
f 7/27/27 21/29/29 1/148/22
f 13/149/36 2/150/20 17/151/39
f 45/152/64 47/153/68 48/154/65
f 47/153/68 11/155/34 9/156/32
f 17/151/39 15/157/38 13/149/36
f 2/150/20 19/158/41 17/151/39
f 2/150/20 1/159/22 21/160/29
f 5/161/25 4/162/23 2/150/20
f 2/150/20 23/163/44 5/161/25
f 29/164/48 27/165/47 25/166/42
f 32/167/52 31/168/49 29/164/48
f 43/169/61 35/170/53 32/167/52
f 35/170/53 39/171/58 37/172/56
f 39/171/58 43/169/61 40/173/59
f 43/169/61 47/153/68 45/152/64
f 47/153/68 32/167/52 11/155/34
f 2/150/20 21/160/29 19/158/41
f 29/164/48 23/163/44 2/150/20
f 23/163/44 29/164/48 25/166/42
f 43/169/61 39/171/58 35/170/53
f 32/167/52 47/153/68 43/169/61
f 11/155/34 2/150/20 13/149/36
f 32/167/52 29/164/48 2/150/20
f 2/150/20 11/155/34 32/167/52
