# Blender v2.75 (sub 0) OBJ File: ''
# www.blender.org
mtllib Lid_COL.mtl
o Cylinder
v 0.000000 1.726863 -0.343565
v 0.000000 1.669405 -0.343565
v 0.131477 1.726863 -0.317413
v 0.131477 1.669405 -0.317413
v 0.242937 1.726863 -0.242937
v 0.242937 1.669405 -0.242937
v 0.317413 1.726863 -0.131477
v 0.317413 1.669405 -0.131477
v 0.343565 1.726863 0.000000
v 0.343565 1.669405 0.000000
v 0.317413 1.726863 0.131477
v 0.317413 1.669405 0.131477
v 0.242937 1.726863 0.242937
v 0.242937 1.669405 0.242937
v 0.131477 1.726863 0.317413
v 0.131477 1.669405 0.317413
v 0.000000 1.726863 0.343565
v 0.000000 1.669405 0.343565
v -0.131477 1.726863 0.317413
v -0.131477 1.669405 0.317413
v -0.242937 1.726863 0.242937
v -0.242937 1.669405 0.242937
v -0.317413 1.726863 0.131477
v -0.317413 1.669405 0.131477
v -0.343565 1.726863 0.000000
v -0.343565 1.669405 0.000000
v -0.317413 1.726863 -0.131477
v -0.317413 1.669405 -0.131477
v -0.242937 1.726863 -0.242937
v -0.242937 1.669405 -0.242937
v -0.131476 1.726863 -0.317413
v -0.131476 1.669405 -0.317413
vn 0.195100 0.000000 -0.980800
vn 0.555600 0.000000 -0.831500
vn 0.831500 0.000000 -0.555600
vn 0.980800 0.000000 -0.195100
vn 0.980800 0.000000 0.195100
vn 0.831500 0.000000 0.555600
vn 0.555600 0.000000 0.831500
vn 0.195100 0.000000 0.980800
vn -0.195100 0.000000 0.980800
vn -0.555600 0.000000 0.831500
vn -0.831500 0.000000 0.555600
vn -0.980800 0.000000 0.195100
vn -0.980800 0.000000 -0.195100
vn -0.831500 0.000000 -0.555600
vn 0.000000 -1.000000 0.000000
vn -0.195100 0.000000 -0.980800
vn -0.555600 0.000000 -0.831500
vn 0.000000 1.000000 0.000000
usemtl None
s off
f 2//1 3//1 4//1
f 4//2 5//2 6//2
f 6//3 7//3 8//3
f 8//4 9//4 10//4
f 10//5 11//5 12//5
f 12//6 13//6 14//6
f 14//7 15//7 16//7
f 16//8 17//8 18//8
f 18//9 19//9 20//9
f 20//10 21//10 22//10
f 22//11 23//11 24//11
f 24//12 25//12 26//12
f 26//13 27//13 28//13
f 28//14 29//14 30//14
f 4//15 20//15 28//15
f 32//16 1//16 2//16
f 30//17 31//17 32//17
f 1//18 13//18 9//18
f 1//1 3//1 2//1
f 3//2 5//2 4//2
f 5//3 7//3 6//3
f 7//4 9//4 8//4
f 9//5 11//5 10//5
f 11//6 13//6 12//6
f 13//7 15//7 14//7
f 15//8 17//8 16//8
f 17//9 19//9 18//9
f 19//10 21//10 20//10
f 21//11 23//11 22//11
f 23//12 25//12 24//12
f 25//13 27//13 26//13
f 27//14 29//14 28//14
f 8//15 4//15 6//15
f 12//15 8//15 10//15
f 16//15 12//15 14//15
f 20//15 16//15 18//15
f 24//15 20//15 22//15
f 20//15 24//15 26//15
f 32//15 28//15 30//15
f 4//15 32//15 2//15
f 12//15 4//15 8//15
f 4//15 12//15 16//15
f 28//15 20//15 26//15
f 4//15 28//15 32//15
f 20//15 4//15 16//15
f 31//16 1//16 32//16
f 29//17 31//17 30//17
f 29//18 1//18 31//18
f 1//18 29//18 27//18
f 21//18 25//18 23//18
f 17//18 21//18 19//18
f 13//18 17//18 15//18
f 9//18 13//18 11//18
f 1//18 9//18 7//18
f 1//18 5//18 3//18
f 25//18 1//18 27//18
f 1//18 25//18 21//18
f 1//18 17//18 13//18
f 1//18 7//18 5//18
f 17//18 1//18 21//18
