# Blender v2.75 (sub 0) OBJ File: ''
# www.blender.org
mtllib untitled.mtl
o Cube_Cube.001
v -0.012902 0.010100 -0.030041
v -0.012902 0.017460 -0.029923
v -0.012943 0.017347 -0.055814
v -0.012943 0.010516 -0.055923
v -0.012943 0.003680 -0.056033
v -0.012902 0.002737 -0.030159
v -0.009168 0.009300 0.019887
v -0.009168 0.014418 0.019969
v -0.000000 0.019676 -0.055797
v -0.010032 0.016094 -0.074435
v -0.010032 0.010814 -0.074520
v -0.009168 0.004177 0.019805
v -0.010032 0.005530 -0.074605
v -0.000000 0.001352 -0.056091
v 0.000041 0.020129 -0.029900
v -0.013971 0.009166 0.028217
v -0.013971 0.014691 0.028305
v -0.000012 0.018817 -0.063265
v -0.004372 0.017894 -0.064477
v -0.005582 0.017453 -0.066425
v -0.006312 0.017243 -0.067601
v -0.004382 0.017240 -0.070720
v -0.000030 0.017533 -0.074428
v -0.003504 0.012850 -0.087781
v -0.003504 0.011027 -0.087811
v 0.000041 0.000068 -0.030222
v -0.013971 0.003637 0.028128
v -0.003504 0.009200 -0.087840
v -0.000030 0.004091 -0.074644
v -0.002181 0.004023 -0.071543
v -0.004382 0.004265 -0.070928
v -0.006312 0.004163 -0.067810
v -0.005582 0.003914 -0.066642
v -0.004372 0.003411 -0.064710
v 0.000302 0.002482 -0.063441
v 0.000119 0.015190 0.019967
v -0.042131 0.009012 0.037823
v -0.042131 0.015492 0.037927
v 0.012943 0.017348 -0.055855
v 0.000288 0.017766 -0.072009
v -0.000051 0.013347 -0.087779
v 0.000119 0.003405 0.019778
v -0.042131 0.002528 0.037719
v -0.000051 0.008703 -0.087853
v -0.000026 0.003723 -0.072147
v 0.012943 0.003681 -0.056074
v 0.004971 0.003357 -0.064725
v 0.012984 0.017460 -0.029964
v 0.000133 0.015473 0.028295
v -0.042063 0.008325 0.080614
v -0.042063 0.014805 0.080718
v 0.009973 0.016094 -0.074467
v 0.006902 0.017302 -0.067620
v 0.004971 0.017949 -0.064491
v 0.004961 0.017243 -0.070734
v 0.003403 0.012850 -0.087792
v -0.000053 0.011052 -0.089349
v 0.012984 0.002738 -0.030200
v 0.000133 0.002856 0.028093
v -0.042063 0.001841 0.080510
v 0.003403 0.009200 -0.087851
v 0.009973 0.005531 -0.074636
v 0.006902 0.004103 -0.067832
v 0.004961 0.004263 -0.070942
v 0.009407 0.014418 0.019940
v 0.000148 0.015493 0.037860
v 0.000215 0.014806 0.080651
v -0.039128 0.008325 0.080610
v -0.039128 0.013709 0.080696
v 0.012984 0.010101 -0.030082
v 0.012943 0.010516 -0.055964
v 0.009973 0.010815 -0.074552
v 0.003403 0.011027 -0.087821
v 0.009407 0.004177 0.019775
v 0.000148 0.002529 0.037652
v 0.000215 0.001842 0.080443
v -0.039128 0.002938 0.080523
v 0.009407 0.009300 0.019857
v 0.014237 0.014692 0.028261
v 0.042426 0.015494 0.037793
v 0.042494 0.014807 0.080585
v 0.000215 0.013710 0.080634
v -0.045260 0.007142 0.154398
v -0.045260 0.014007 0.154508
v 0.014237 0.003637 0.028083
v 0.042426 0.002530 0.037585
v 0.042494 0.001843 0.080377
v 0.000215 0.002939 0.080461
v -0.045260 0.000272 0.154288
v 0.014237 0.009167 0.028172
v 0.042426 0.009014 0.037689
v 0.042494 0.008327 0.080481
v 0.039558 0.013711 0.080572
v 0.000332 0.014009 0.154436
v 0.000332 0.007143 0.154326
v 0.039558 0.002940 0.080399
v 0.000332 0.000273 0.154216
v 0.039558 0.008327 0.080485
v 0.045923 0.014010 0.154364
v 0.045923 0.007144 0.154254
v 0.045923 0.000274 0.154144
vt 0.900789 0.581865
vt 0.877768 0.581865
vt 0.879419 0.475835
vt 0.900789 0.475835
vt 0.922173 0.475835
vt 0.900790 0.786036
vt 0.884779 0.786036
vt 0.183190 0.250989
vt 0.142553 0.249442
vt 0.142569 0.143427
vt 0.884274 0.399360
vt 0.916814 0.786036
vt 0.900789 0.399360
vt 0.917318 0.399360
vt 0.427773 0.575337
vt 0.427747 0.469328
vt 0.468413 0.467783
vt 0.171769 0.454046
vt 0.142630 0.452684
vt 0.900790 0.820637
vt 0.183200 0.145049
vt 0.156272 0.108329
vt 0.088787 0.731619
vt 0.088787 0.775802
vt 0.074409 0.777516
vt 0.895087 0.344266
vt 0.427871 0.266124
vt 0.457018 0.264758
vt 0.918086 0.820637
vt 0.900789 0.344266
vt 0.906505 0.344266
vt 0.459254 0.650561
vt 0.441520 0.636077
vt 0.447586 0.623009
vt 0.441497 0.610437
vt 0.426821 0.605732
vt 0.186865 0.488957
vt 0.142622 0.486801
vt 0.401565 0.729715
vt 0.418848 0.729715
vt 0.418875 0.827581
vt 0.102016 0.246716
vt 0.427846 0.651896
vt 0.396524 0.653880
vt 0.412221 0.637626
vt 0.142615 0.066873
vt 0.142697 0.011605
vt 0.153536 0.012065
vt 0.303363 0.741512
vt 0.310616 0.741252
vt 0.310620 0.753309
vt 0.427858 0.232007
vt 0.436145 0.729715
vt 0.439159 0.827581
vt 0.317890 0.741512
vt 0.438821 0.706719
vt 0.427977 0.707180
vt 0.434607 0.638872
vt 0.427836 0.641594
vt 0.387257 0.578009
vt 0.387241 0.472077
vt 0.113520 0.450980
vt 0.275198 0.532912
vt 0.142619 0.525933
vt 0.540144 0.729715
vt 0.540144 0.905014
vt 0.519874 0.905014
vt 0.412197 0.611975
vt 0.406149 0.625188
vt 0.111275 0.064904
vt 0.131877 0.010925
vt 0.398770 0.267839
vt 0.472109 0.229844
vt 0.427853 0.192878
vt 0.560428 0.905014
vt 0.417163 0.707865
vt 0.132323 0.729718
vt 0.132323 0.779387
vt 0.120408 0.777016
vt 0.098409 0.484301
vt 0.275198 0.707868
vt 0.142619 0.700889
vt 0.789940 0.966443
vt 0.789940 0.956414
vt 0.806780 0.956414
vt 0.966925 0.579471
vt 0.966925 0.683733
vt 0.945555 0.683733
vt 0.966925 0.759986
vt 0.950410 0.759986
vt 0.966925 0.816507
vt 0.961223 0.816507
vt 0.304918 0.729715
vt 0.310620 0.729715
vt 0.383655 0.234523
vt 0.427853 0.017938
vt 0.560428 0.010925
vt 0.560428 0.185865
vt 0.773086 0.956414
vt 0.972641 0.816507
vt 0.988309 0.683733
vt 0.983454 0.759986
vt 0.943904 0.579471
vt 0.950915 0.380015
vt 0.010040 0.518955
vt 0.810210 0.822023
vt 0.810210 0.966443
vt 0.648195 0.677602
vt 0.665035 0.677602
vt 0.665035 0.980502
vt 0.966925 0.380015
vt 0.982949 0.380015
vt 0.295278 0.199891
vt 0.295278 0.024951
vt 0.769656 0.822022
vt 0.773086 0.822022
vt 0.681888 0.677602
vt 0.686526 0.980502
vt 0.949642 0.344266
vt 0.966925 0.344266
vt 0.499794 0.729715
vt 0.499794 0.902090
vt 0.479523 0.902091
vt 0.806780 0.822023
vt 0.806780 0.687631
vt 0.857709 0.286510
vt 0.580509 0.322416
vt 0.580509 0.166671
vt 0.580509 0.833339
vt 0.580509 0.677602
vt 0.601986 0.677602
vt 0.984222 0.344266
vt 0.459240 0.902091
vt 0.459240 0.729715
vt 0.773086 0.687631
vt 0.580509 0.500009
vt 0.580509 0.344266
vt 0.857688 0.380226
vt 0.623477 0.677603
vt 0.623477 0.833339
vt 0.375564 0.729715
vt 0.378524 0.824340
vt 0.358254 0.824340
vt 0.789940 0.677603
vt 0.810210 0.677603
vt 0.857709 0.017710
vt 0.857709 0.152110
vt 0.580509 0.989075
vt 0.601986 0.833339
vt 0.337971 0.824340
vt 0.340984 0.729715
vt 0.789940 0.687631
vt 0.857688 0.649022
vt 0.580509 0.655752
vt 0.623477 0.989075
vt 0.744938 0.677602
vt 0.749575 0.977688
vt 0.728098 0.977688
vt 0.706607 0.977688
vt 0.711245 0.677602
vt 0.152404 0.776449
vt 0.152404 0.732284
vt 0.163114 0.732105
vt 0.167767 0.777408
vt 0.163114 0.776627
vt 0.141627 0.076756
vt 0.156286 0.082691
vt 0.039374 0.732813
vt 0.039374 0.782110
vt 0.025878 0.785312
vt 0.162353 0.095758
vt 0.174008 0.068206
vt 0.059455 0.775793
vt 0.066504 0.730771
vt 0.126986 0.081149
vt 0.126971 0.106799
vt 0.102025 0.140777
vt 0.120916 0.093590
vt 0.024908 0.729718
vt 0.010040 0.782296
vt 0.108868 0.732461
vt 0.120408 0.732089
vt 0.923824 0.581865
vt 0.468429 0.573715
vt 0.883506 0.820637
vt 0.160064 0.100485
vt 0.142587 0.112740
vt 0.073406 0.729718
vt 0.445294 0.618282
vt 0.398605 0.827581
vt 0.304918 0.753309
vt 0.316335 0.753309
vt 0.519874 0.729715
vt 0.560428 0.729715
vt 0.769656 0.966442
vt 0.316335 0.729715
vt 0.989960 0.579471
vt 0.010040 0.693911
vt 0.643558 0.980502
vt 0.479523 0.729715
vt 0.769656 0.677602
vt 0.857688 0.514624
vt 0.358281 0.729715
vt 0.580509 0.010925
vt 0.601986 0.989075
vt 0.728098 0.677602
vt 0.175468 0.729718
vt 0.175468 0.779015
vt 0.167767 0.731324
vt 0.059455 0.731628
vt 0.010040 0.732627
vt 0.108868 0.776644
vn -0.999300 -0.000600 0.038100
vn -0.772900 0.633000 0.043700
vn -0.768700 0.634300 -0.082500
vn -0.997000 0.001200 -0.076700
vn -0.768700 -0.631300 -0.102800
vn -0.975000 0.003500 -0.222300
vn -0.659600 0.740600 -0.128000
vn 0.000000 0.999500 0.030500
vn -0.002700 0.998300 -0.057800
vn -0.721200 0.624700 -0.299300
vn -0.659600 -0.736100 -0.151600
vn -0.953600 0.004800 -0.301100
vn -0.721200 -0.614800 -0.319200
vn -0.002900 -0.995800 -0.090800
vn 0.000000 -1.000000 -0.001600
vn -0.772900 -0.634100 0.023400
vn 0.000000 0.999500 0.032400
vn -0.635200 0.012400 -0.772200
vn 0.194900 0.784500 -0.588700
vn -0.268000 -0.863600 0.426900
vn -0.278200 0.847200 0.452600
vn 0.012400 0.820800 0.571100
vn -0.460900 0.466000 -0.755200
vn 0.000000 -1.000000 0.000400
vn -0.384700 -0.756500 -0.528800
vn -0.597500 0.012900 -0.801800
vn -0.460900 -0.441500 -0.769800
vn 0.275400 -0.855200 0.439000
vn 0.460500 -0.878300 -0.128200
vn 0.197800 -0.766000 -0.611700
vn -0.002100 -0.742700 -0.669600
vn -0.384700 0.773100 -0.504300
vn -0.000100 0.999700 -0.025100
vn -0.813700 0.009300 -0.581100
vn 0.773000 0.633000 0.041300
vn -0.003900 -0.972400 -0.233400
vn 0.721700 -0.610500 -0.326200
vn -0.004800 0.980300 -0.197400
vn -0.001000 0.766400 -0.642400
vn -0.001600 0.016400 -0.999800
vn -0.000100 -0.998400 -0.057200
vn -0.651000 -0.590000 -0.477600
vn -0.001000 -0.745100 -0.667000
vn 0.091700 -0.759300 0.644200
vn -0.003500 -0.840900 0.541100
vn 0.770100 -0.629700 -0.101600
vn 0.773000 -0.634000 0.020900
vn 0.659200 0.740600 -0.130000
vn -0.651000 0.605000 -0.458400
vn -0.000000 0.999900 -0.008500
vn -0.706000 -0.011400 0.708100
vn -0.576400 0.568000 0.587400
vn -0.203700 -0.773200 -0.600500
vn -0.444000 -0.884900 -0.140200
vn 0.721700 0.620600 -0.306400
vn 0.458400 0.466000 -0.756700
vn 0.659200 -0.736100 -0.153700
vn -0.000000 -0.999200 -0.040600
vn -0.576400 -0.586500 0.568900
vn 0.458400 -0.441500 -0.771300
vn -0.193200 0.793800 -0.576600
vn -0.444000 0.889000 -0.111800
vn 0.383100 0.773100 -0.505500
vn 0.001100 0.695700 0.718300
vn -0.735300 -0.010900 0.677700
vn -0.310000 0.310700 0.898500
vn 0.999400 -0.000500 0.034900
vn 0.996800 0.001300 -0.079900
vn 0.770100 0.632600 -0.081300
vn 0.952600 0.004900 -0.304100
vn 0.595000 0.012900 -0.803600
vn 0.383100 -0.756500 -0.530000
vn 0.001100 -0.718300 0.695700
vn -0.310000 -0.339400 0.888100
vn 0.649600 0.605000 -0.460400
vn 0.974200 0.003600 -0.225300
vn 0.649600 -0.590000 -0.479600
vn 0.578200 -0.586500 0.567100
vn 0.001100 -0.725300 0.688400
vn -0.601300 -0.587800 0.541100
vn 0.632800 0.012400 -0.774200
vn 0.578200 0.568000 0.585600
vn 0.708200 -0.011300 0.705900
vn 0.001100 0.702800 0.711300
vn 0.312800 0.310800 0.897500
vn -0.601300 0.570200 0.559700
vn 0.312800 -0.339400 0.887100
vn 0.811900 0.009300 -0.583700
vn 0.603000 0.570200 0.557800
vn 0.001600 -0.016000 0.999800
vn 0.737400 -0.010800 0.675300
vn 0.603000 -0.587800 0.539200
vn 0.275900 0.840700 0.465900
vn 0.460500 0.882000 -0.099900
vn 0.513600 -0.708300 -0.484300
vn -0.005700 0.762200 -0.647300
vn 0.513600 0.723400 -0.461300
usemtl Material.001
s 1
f 1/1/1 2/2/2 3/3/3
f 1/1/1 4/4/4 5/5/5
f 1/1/1 7/6/6 8/7/7
f 2/8/2 15/9/8 9/10/9
f 4/4/4 3/3/3 10/11/10
f 12/12/11 7/6/6 1/1/1
f 4/4/4 11/13/12 13/14/13
f 14/15/14 26/16/15 6/17/16
f 8/18/7 36/19/17 15/9/8
f 8/7/7 7/6/6 16/20/18
f 3/21/3 9/10/9 19/22/19
f 64/23/20 55/24/21 40/25/22
f 11/13/12 10/11/10 24/26/23
f 26/16/15 42/27/24 12/28/11
f 12/12/11 27/29/25 16/20/18
f 11/13/12 25/30/26 28/31/27
f 13/32/13 31/33/28 32/34/29
f 14/15/14 34/35/30 35/36/31
f 8/18/7 17/37/32 49/38/33
f 17/39/32 16/40/18 37/41/34
f 9/10/9 15/9/8 48/42/35
f 29/43/36 62/44/37 64/45/20
f 23/46/38 41/47/39 24/48/23
f 41/49/39 57/50/40 25/51/26
f 12/28/11 42/27/24 59/52/41
f 27/53/25 43/54/42 37/41/34
f 25/51/26 57/50/40 44/55/43
f 28/56/27 44/57/43 29/43/36
f 30/58/44 29/43/36 45/59/45
f 14/15/14 46/60/46 58/61/47
f 15/9/8 36/19/17 65/62/48
f 17/37/32 38/63/49 66/64/50
f 37/65/34 50/66/51 51/67/52
f 47/68/53 63/69/54 46/60/46
f 23/46/38 52/70/55 56/71/56
f 26/16/15 58/61/47 74/72/57
f 27/73/25 59/52/41 75/74/58
f 60/75/59 50/66/51 37/65/34
f 29/43/36 44/57/43 61/76/60
f 47/77/53 54/78/61 53/79/62
f 49/38/33 79/80/63 65/62/48
f 38/63/49 51/81/52 67/82/64
f 50/83/51 68/84/65 69/85/66
f 70/86/67 71/87/68 39/88/69
f 71/87/68 72/89/70 52/90/55
f 72/89/70 73/91/71 56/92/56
f 41/49/39 56/93/56 73/94/71
f 74/72/57 85/95/72 59/52/41
f 76/96/73 60/97/59 43/98/42
f 77/99/74 68/84/65 50/83/51
f 44/55/43 57/50/40 73/94/71
f 61/100/60 73/91/71 72/89/70
f 46/101/46 71/87/68 70/86/67
f 62/102/37 72/89/70 71/87/68
f 70/86/67 48/103/35 65/104/48
f 66/64/50 80/105/75 79/80/63
f 80/105/75 66/64/50 67/82/64
f 67/106/64 51/107/52 69/85/66
f 69/108/66 68/109/65 83/110/65
f 70/86/67 78/111/76 74/112/57
f 85/95/72 86/113/77 75/74/58
f 86/113/77 87/114/78 76/96/73
f 76/115/73 88/116/79 77/99/74
f 77/117/74 89/118/80 83/110/65
f 65/104/48 79/119/63 90/120/81
f 80/121/75 81/122/82 92/123/83
f 67/106/64 82/124/84 93/125/85
f 69/126/66 84/127/86 94/128/84
f 94/129/84 84/130/86 83/131/65
f 90/120/81 85/132/72 74/112/57
f 92/123/83 87/133/78 86/134/77
f 96/135/87 88/116/79 76/115/73
f 97/136/79 89/137/80 77/138/74
f 83/131/65 89/139/80 97/140/79
f 79/141/63 80/142/75 91/143/88
f 92/144/83 81/145/82 93/125/85
f 93/146/85 82/147/84 94/128/84
f 99/148/89 94/129/84 95/149/90
f 91/143/88 86/150/77 85/151/72
f 92/144/83 98/152/91 96/135/87
f 96/153/87 101/154/92 97/136/79
f 95/149/90 97/140/79 101/155/92
f 93/156/85 99/157/89 100/158/91
f 100/158/91 101/159/92 96/160/87
f 31/161/28 22/162/93 21/163/94
f 33/164/95 32/165/29 21/163/94
f 40/166/22 23/46/38 22/167/93
f 34/168/30 19/169/19 18/170/96
f 3/21/3 21/171/94 10/172/10
f 22/173/93 30/174/44 40/25/22
f 52/70/55 23/46/38 55/175/21
f 54/176/61 39/177/69 53/178/62
f 35/179/31 18/170/96 54/180/61
f 14/15/14 35/36/31 47/68/53
f 64/181/20 63/182/54 53/79/62
f 4/4/4 1/1/1 3/3/3
f 6/183/16 1/1/1 5/5/5
f 2/2/2 1/1/1 8/7/7
f 3/21/3 2/8/2 9/10/9
f 11/13/12 4/4/4 10/11/10
f 6/183/16 12/12/11 1/1/1
f 5/5/5 4/4/4 13/14/13
f 5/184/5 14/15/14 6/17/16
f 2/8/2 8/18/7 15/9/8
f 17/185/32 8/7/7 16/20/18
f 19/22/19 20/186/97 3/21/3
f 9/10/9 18/187/96 19/22/19
f 45/188/45 64/23/20 40/25/22
f 25/30/26 11/13/12 24/26/23
f 6/17/16 26/16/15 12/28/11
f 7/6/6 12/12/11 16/20/18
f 13/14/13 11/13/12 28/31/27
f 32/34/29 33/189/95 5/184/5
f 29/43/36 30/58/44 31/33/28
f 32/34/29 5/184/5 13/32/13
f 13/32/13 29/43/36 31/33/28
f 34/35/30 14/15/14 5/184/5
f 5/184/5 33/189/95 34/35/30
f 36/19/17 8/18/7 49/38/33
f 38/190/49 17/39/32 37/41/34
f 39/177/69 9/10/9 48/42/35
f 62/44/37 63/69/54 64/45/20
f 64/45/20 45/59/45 29/43/36
f 10/172/10 23/46/38 24/48/23
f 24/191/23 41/49/39 25/51/26
f 27/73/25 12/28/11 59/52/41
f 16/40/18 27/53/25 37/41/34
f 28/192/27 25/51/26 44/55/43
f 13/32/13 28/56/27 29/43/36
f 26/16/15 14/15/14 58/61/47
f 48/42/35 15/9/8 65/62/48
f 49/38/33 17/37/32 66/64/50
f 38/193/49 37/65/34 51/67/52
f 63/69/54 62/44/37 46/60/46
f 46/60/46 14/15/14 47/68/53
f 41/47/39 23/46/38 56/71/56
f 42/27/24 26/16/15 74/72/57
f 43/98/42 27/73/25 75/74/58
f 43/194/42 60/75/59 37/65/34
f 62/44/37 29/43/36 61/76/60
f 63/182/54 47/77/53 53/79/62
f 36/19/17 49/38/33 65/62/48
f 66/64/50 38/63/49 67/82/64
f 51/107/52 50/83/51 69/85/66
f 48/103/35 70/86/67 39/88/69
f 39/88/69 71/87/68 52/90/55
f 52/90/55 72/89/70 56/92/56
f 57/50/40 41/49/39 73/94/71
f 42/27/24 74/72/57 59/52/41
f 75/74/58 76/96/73 43/98/42
f 60/195/59 77/99/74 50/83/51
f 61/196/60 44/55/43 73/94/71
f 62/102/37 61/100/60 72/89/70
f 58/197/47 46/101/46 70/86/67
f 46/101/46 62/102/37 71/87/68
f 78/111/76 70/86/67 65/104/48
f 49/38/33 66/64/50 79/80/63
f 81/198/82 80/105/75 67/82/64
f 82/124/84 67/106/64 69/85/66
f 84/199/86 69/108/66 83/110/65
f 58/197/47 70/86/67 74/112/57
f 59/52/41 85/95/72 75/74/58
f 75/74/58 86/113/77 76/96/73
f 60/195/59 76/115/73 77/99/74
f 68/109/65 77/117/74 83/110/65
f 78/111/76 65/104/48 90/120/81
f 91/200/88 80/121/75 92/123/83
f 81/145/82 67/106/64 93/125/85
f 82/147/84 69/126/66 94/128/84
f 95/149/90 94/129/84 83/131/65
f 78/111/76 90/120/81 74/112/57
f 91/200/88 92/123/83 86/134/77
f 87/201/78 96/135/87 76/115/73
f 88/202/79 97/136/79 77/138/74
f 95/149/90 83/131/65 97/140/79
f 90/203/81 79/141/63 91/143/88
f 98/152/91 92/144/83 93/125/85
f 99/204/89 93/146/85 94/128/84
f 100/205/91 99/148/89 95/149/90
f 90/203/81 91/143/88 85/151/72
f 87/201/78 92/144/83 96/135/87
f 88/202/79 96/153/87 97/136/79
f 100/205/91 95/149/90 101/155/92
f 98/206/91 93/156/85 100/158/91
f 98/206/91 100/158/91 96/160/87
f 32/165/29 31/161/28 21/163/94
f 33/164/95 19/207/19 34/208/30
f 33/164/95 21/163/94 20/209/97
f 20/209/97 19/207/19 33/164/95
f 35/179/31 34/168/30 18/170/96
f 22/167/93 23/46/38 10/172/10
f 3/21/3 20/186/97 21/171/94
f 21/171/94 22/167/93 10/172/10
f 30/174/44 22/173/93 31/210/28
f 30/174/44 45/188/45 40/25/22
f 23/46/38 40/166/22 55/175/21
f 55/175/21 53/178/62 52/70/55
f 54/176/61 18/187/96 9/10/9
f 39/177/69 52/70/55 53/178/62
f 39/177/69 54/176/61 9/10/9
f 47/211/53 35/179/31 54/180/61
f 55/212/21 64/181/20 53/79/62
