# Blender v2.75 (sub 0) OBJ File: 'untitled.blend'
# www.blender.org
mtllib Big_Paintbrush_COL.mtl
o Cube.001_Cube.000
v -0.016165 -0.002357 0.026772
v -0.016165 0.020590 0.027180
v -0.016165 -0.000517 -0.091505
v -0.016165 0.022430 -0.091098
v 0.016165 -0.002357 0.026772
v 0.016165 0.020590 0.027180
v 0.016165 -0.000517 -0.091505
v 0.016165 0.022430 -0.091098
v -0.043857 -0.002357 0.026772
v -0.043857 0.020590 0.027180
v 0.043857 -0.002357 0.026772
v 0.043857 0.020590 0.027180
v -0.050821 -0.004371 0.156252
v -0.050821 0.018576 0.156660
v 0.050821 -0.004371 0.156252
v 0.050821 0.018576 0.156660
vt 0.000000 0.000000
vn -0.577400 0.586800 -0.567600
vn -0.577200 -0.567700 -0.586900
vn -0.571600 0.580800 -0.579600
vn 0.577400 0.586800 -0.567600
vn 0.577200 -0.567700 -0.586900
vn 0.583300 -0.573800 -0.574900
vn 0.297200 -0.881100 -0.367800
vn -0.300100 0.906900 -0.295800
vn -0.560100 -0.570300 -0.600800
vn 0.560300 0.589900 -0.581400
vn 0.593900 0.565200 0.572500
vn 0.594200 -0.583800 0.553200
vn 0.560100 -0.570400 -0.600800
vn -0.560300 0.589900 -0.581400
vn -0.593900 0.565200 0.572500
vn -0.594200 -0.583800 0.553200
usemtl Material.001
s 1
f 4/1/1 3/1/2 1/1/3
f 8/1/4 7/1/5 3/1/2
f 8/1/4 6/1/6 5/1/7
f 2/1/8 1/1/3 9/1/9
f 3/1/2 7/1/5 5/1/7
f 6/1/6 8/1/4 4/1/1
f 12/1/10 16/1/11 15/1/12
f 1/1/3 5/1/7 11/1/13
f 6/1/6 2/1/8 10/1/14
f 5/1/7 6/1/6 12/1/10
f 16/1/11 14/1/15 13/1/16
f 10/1/14 14/1/15 16/1/11
f 10/1/14 9/1/9 13/1/16
f 9/1/9 11/1/13 15/1/12
f 2/1/8 4/1/1 1/1/3
f 4/1/1 8/1/4 3/1/2
f 7/1/5 8/1/4 5/1/7
f 10/1/14 2/1/8 9/1/9
f 1/1/3 3/1/2 5/1/7
f 2/1/8 6/1/6 4/1/1
f 11/1/13 12/1/10 15/1/12
f 9/1/9 1/1/3 11/1/13
f 12/1/10 6/1/6 10/1/14
f 11/1/13 5/1/7 12/1/10
f 15/1/12 16/1/11 13/1/16
f 12/1/10 10/1/14 16/1/11
f 14/1/15 10/1/14 13/1/16
f 13/1/16 9/1/9 15/1/12
