# Blender v2.75 (sub 0) OBJ File: 'bridge.blend'
# www.blender.org
mtllib Bridge_rope_medium.mtl
o Cylinder.008_Cylinder.011
v -3.398171 12.046488 -0.017056
v -3.763471 12.001848 -0.017056
v -4.128771 11.963834 -0.017056
v -4.494071 11.931307 -0.017056
v -4.859371 11.903497 -0.017056
v -5.224671 11.879852 -0.017056
v -5.589971 11.859975 -0.017056
v -5.955271 11.843564 -0.017056
v -6.320570 11.830399 -0.017056
v -6.685870 11.820313 -0.017056
v -7.051170 11.813189 -0.017056
v -7.416470 11.808945 -0.017056
v -7.781770 11.807535 -0.017056
v -8.147070 11.808945 -0.017056
v -8.512370 11.813189 -0.017056
v -8.877670 11.820313 -0.017056
v -9.242970 11.830399 -0.017056
v -9.608271 11.843564 -0.017056
v -9.973570 11.859975 -0.017056
v -10.338869 11.879852 -0.017056
v -10.704168 11.903497 -0.017056
v -11.069469 11.931307 -0.017056
v -11.434769 11.963834 -0.017056
v -11.800070 12.001848 -0.017056
v -11.800070 12.029309 -0.003832
v -11.434769 11.991294 -0.003832
v -11.069469 11.958768 -0.003832
v -10.704168 11.930957 -0.003832
v -10.338869 11.907313 -0.003832
v -9.973570 11.887435 -0.003832
v -9.608270 11.871025 -0.003832
v -9.242970 11.857860 -0.003832
v -8.877670 11.847774 -0.003832
v -8.512370 11.840650 -0.003832
v -8.147070 11.836406 -0.003832
v -7.781770 11.834996 -0.003832
v -7.416471 11.836406 -0.003832
v -7.051170 11.840650 -0.003832
v -6.685870 11.847774 -0.003832
v -6.320570 11.857860 -0.003832
v -5.955271 11.871025 -0.003832
v -5.589971 11.887435 -0.003832
v -5.224671 11.907313 -0.003832
v -4.859371 11.930957 -0.003832
v -4.494071 11.958768 -0.003832
v -4.128771 11.991294 -0.003832
v -3.763471 12.029308 -0.003832
v -3.398171 12.073948 -0.003832
v -11.800070 12.036091 0.025883
v -11.434769 11.998076 0.025883
v -11.069469 11.965549 0.025883
v -10.704168 11.937739 0.025883
v -10.338869 11.914095 0.025883
v -9.973570 11.894217 0.025883
v -9.608270 11.877807 0.025883
v -9.242970 11.864641 0.025883
v -8.877670 11.854556 0.025883
v -8.512370 11.847431 0.025883
v -8.147070 11.843187 0.025883
v -7.781770 11.841778 0.025883
v -7.416471 11.843187 0.025883
v -7.051170 11.847431 0.025883
v -6.685870 11.854556 0.025883
v -6.320570 11.864641 0.025883
v -5.955271 11.877807 0.025883
v -5.589971 11.894217 0.025883
v -5.224671 11.914095 0.025883
v -4.859371 11.937739 0.025883
v -4.494071 11.965549 0.025883
v -4.128771 11.998076 0.025883
v -3.763471 12.036091 0.025883
v -3.398171 12.080730 0.025883
v -11.800070 12.017088 0.049712
v -11.434769 11.979074 0.049712
v -11.069469 11.946547 0.049712
v -10.704168 11.918736 0.049712
v -10.338869 11.895092 0.049712
v -9.973570 11.875214 0.049712
v -9.608271 11.858804 0.049712
v -9.242970 11.845638 0.049712
v -8.877670 11.835553 0.049712
v -8.512370 11.828428 0.049712
v -8.147070 11.824184 0.049712
v -7.781770 11.822775 0.049712
v -7.416471 11.824184 0.049712
v -7.051170 11.828428 0.049712
v -6.685870 11.835553 0.049712
v -6.320570 11.845638 0.049712
v -5.955271 11.858804 0.049712
v -5.589971 11.875214 0.049712
v -5.224671 11.895092 0.049712
v -4.859371 11.918736 0.049712
v -4.494071 11.946547 0.049712
v -4.128771 11.979073 0.049712
v -3.763471 12.017088 0.049712
v -3.398171 12.061727 0.049712
v -11.800070 11.986609 0.049712
v -11.434769 11.948594 0.049712
v -11.069469 11.916068 0.049712
v -10.704168 11.888257 0.049712
v -10.338869 11.864614 0.049712
v -9.973570 11.844735 0.049712
v -9.608271 11.828325 0.049712
v -9.242970 11.815160 0.049712
v -8.877670 11.805074 0.049712
v -8.512370 11.797950 0.049712
v -8.147070 11.793706 0.049712
v -7.781770 11.792296 0.049712
v -7.416471 11.793706 0.049712
v -7.051170 11.797950 0.049712
v -6.685870 11.805074 0.049712
v -6.320570 11.815160 0.049712
v -5.955271 11.828325 0.049712
v -5.589971 11.844735 0.049712
v -5.224671 11.864614 0.049712
v -4.859371 11.888257 0.049712
v -4.494071 11.916068 0.049712
v -4.128771 11.948594 0.049712
v -3.763471 11.986609 0.049712
v -3.398171 12.031248 0.049712
v -11.800070 11.967606 0.025883
v -11.434769 11.929591 0.025883
v -11.069469 11.897064 0.025883
v -10.704168 11.869254 0.025883
v -10.338869 11.845610 0.025883
v -9.973570 11.825732 0.025883
v -9.608271 11.809321 0.025883
v -9.242970 11.796156 0.025883
v -8.877670 11.786071 0.025883
v -8.512370 11.778946 0.025883
v -8.147070 11.774702 0.025883
v -7.781770 11.773293 0.025883
v -7.416471 11.774702 0.025883
v -7.051170 11.778946 0.025883
v -6.685871 11.786071 0.025883
v -6.320570 11.796156 0.025883
v -5.955271 11.809321 0.025883
v -5.589971 11.825732 0.025883
v -5.224671 11.845610 0.025883
v -4.859371 11.869254 0.025883
v -4.494071 11.897064 0.025883
v -4.128771 11.929591 0.025883
v -3.763471 11.967606 0.025883
v -3.398171 12.012245 0.025883
v -11.800070 11.974388 -0.003832
v -11.434769 11.936374 -0.003832
v -11.069469 11.903847 -0.003832
v -10.704168 11.876036 -0.003832
v -10.338869 11.852392 -0.003832
v -9.973570 11.832514 -0.003832
v -9.608271 11.816104 -0.003832
v -9.242970 11.802938 -0.003832
v -8.877670 11.792852 -0.003832
v -8.512370 11.785728 -0.003832
v -8.147070 11.781485 -0.003832
v -7.781770 11.780075 -0.003832
v -7.416471 11.781485 -0.003832
v -7.051170 11.785728 -0.003832
v -6.685871 11.792852 -0.003832
v -6.320570 11.802938 -0.003832
v -5.955271 11.816104 -0.003832
v -5.589971 11.832514 -0.003832
v -5.224671 11.852392 -0.003832
v -4.859371 11.876036 -0.003832
v -4.494071 11.903847 -0.003832
v -4.128771 11.936373 -0.003832
v -3.763471 11.974388 -0.003832
v -3.398171 12.019027 -0.003832
vt 0.482930 0.032537
vt -0.025476 0.032536
vt -0.025476 0.003528
vt 0.482930 0.031471
vt -0.025476 0.031471
vt -0.025476 0.002459
vt 0.482930 0.032168
vt -0.025476 0.032167
vt -0.025476 0.003153
vt 0.482930 0.031395
vt -0.025476 0.031396
vt -0.025476 0.002380
vt 0.482930 0.035572
vt -0.025476 0.035572
vt -0.025476 0.001537
vt 0.482930 0.034554
vt -0.025476 0.034554
vt -0.025476 0.000518
vt 0.482930 0.031599
vt -0.025476 0.031599
vt -0.025476 0.002579
vt -0.025476 0.000560
vt 0.482930 0.035106
vt -0.025476 0.035100
vt -0.025476 0.001061
vt 0.482930 0.036072
vt -0.025476 0.036072
vt -0.025476 0.002034
vt 0.482930 0.036177
vt -0.025476 0.036177
vt -0.025476 0.002139
vt 0.482930 0.036739
vt -0.025476 0.036739
vt -0.025476 0.002700
vt -0.025476 0.031202
vt -0.025476 0.002182
vt 0.482930 0.002181
vt -0.025476 0.034399
vt -0.025476 0.000360
vt 0.482930 0.000361
vt -0.025476 0.032137
vt -0.025476 0.003117
vt 0.482930 0.003123
vt -0.025476 0.032311
vt -0.025476 0.003291
vt 0.482930 0.003300
vt -0.025476 0.033474
vt -0.025476 0.004454
vt 0.482930 0.004454
vt -0.025476 0.031664
vt 0.482930 0.002645
vt -0.025476 0.036314
vt -0.025476 0.002277
vt 0.482930 0.002279
vt -0.025476 0.034507
vt 0.482930 0.000472
vt -0.025476 0.035338
vt -0.025476 0.001304
vt 0.482930 0.001304
vt -0.025476 0.032735
vt -0.025476 0.003721
vt 0.482930 0.003722
vt 0.482930 0.000554
vt 0.590557 0.039450
vt 0.082151 0.039449
vt 0.082151 0.002762
vt 0.590557 0.038290
vt 0.082151 0.038291
vt 0.082151 0.001543
vt 0.590557 0.039044
vt 0.082151 0.039043
vt 0.082151 0.002252
vt 0.590557 0.038205
vt 0.082151 0.038205
vt 0.082151 0.001383
vt 0.590557 0.042732
vt 0.082151 0.042732
vt 0.082151 0.005885
vt 0.590557 0.041627
vt 0.082151 0.041627
vt 0.082151 0.004763
vt 0.590557 0.038421
vt 0.082151 0.038421
vt 0.590557 0.041674
vt 0.082151 0.041673
vt 0.590557 0.042223
vt 0.082151 0.042216
vt 0.082151 0.005319
vt 0.590557 0.043270
vt 0.082151 0.043270
vt 0.082151 0.006368
vt 0.590557 0.043385
vt 0.082151 0.043384
vt 0.082151 0.006478
vt 0.590557 0.043993
vt 0.082151 0.043993
vt 0.082151 0.007084
vt 0.082151 0.037990
vt 0.082151 0.001081
vt 0.590557 0.001081
vt 0.082151 0.041456
vt 0.082151 0.004549
vt 0.590557 0.004550
vt 0.082151 0.002101
vt 0.590557 0.002107
vt 0.082151 0.039193
vt 0.590557 0.002306
vt 0.082151 0.040453
vt 0.082151 0.003564
vt 0.590557 0.003565
vt 0.082151 0.038492
vt 0.082151 0.001614
vt 0.590557 0.001614
vt 0.082151 0.043535
vt 0.082151 0.006670
vt 0.590557 0.006672
vt 0.082151 0.004731
vt 0.590557 0.004731
vt 0.082151 0.042479
vt 0.082151 0.005657
vt 0.590557 0.005657
vt 0.082151 0.039659
vt 0.082151 0.002869
vt 0.590557 0.002869
vt 0.082151 0.004917
vt 0.590557 0.004918
vt -0.025476 0.056388
vt -0.025476 0.055349
vt -0.025476 0.056064
vt -0.025476 0.059494
vt -0.025476 0.058485
vt -0.025476 0.055535
vt -0.025476 0.059044
vt -0.025476 0.060019
vt -0.025476 0.060126
vt -0.025476 0.060688
vt 0.482930 0.055152
vt -0.025476 0.055152
vt 0.482930 0.058348
vt -0.025476 0.058348
vt 0.482930 0.056089
vt 0.482930 0.056264
vt -0.025476 0.056256
vt 0.482930 0.057414
vt -0.025476 0.057414
vt 0.482930 0.055601
vt -0.025476 0.055600
vt 0.482930 0.060245
vt -0.025476 0.060244
vt 0.482930 0.058429
vt -0.025476 0.058429
vt 0.482930 0.059250
vt -0.025476 0.059250
vt 0.482930 0.056633
vt -0.025476 0.056633
vt 0.482930 0.058462
vt 0.023901 0.046737
vt 0.023901 0.010101
vt 0.532307 0.010102
vt 0.023901 0.045685
vt 0.023901 0.008974
vt 0.532307 0.008974
vt 0.023901 0.046513
vt 0.023901 0.009750
vt 0.532307 0.009750
vt 0.023901 0.008928
vt 0.532307 0.008929
vt 0.023901 0.050300
vt 0.023901 0.013469
vt 0.532307 0.013468
vt 0.023901 0.049227
vt 0.023901 0.012374
vt 0.532307 0.012373
vt 0.023901 0.046047
vt 0.023901 0.009176
vt 0.532307 0.009176
vt 0.023901 0.049318
vt 0.023901 0.049875
vt 0.023901 0.012981
vt 0.532307 0.012987
vt 0.023901 0.050939
vt 0.023901 0.014038
vt 0.532307 0.014037
vt 0.023901 0.051060
vt 0.023901 0.014153
vt 0.532307 0.014154
vt 0.023901 0.051671
vt 0.023901 0.014763
vt 0.532307 0.014763
vt 0.532307 0.045669
vt 0.023901 0.008760
vt 0.532307 0.049132
vt 0.023901 0.049131
vt 0.023901 0.012225
vt 0.532307 0.046678
vt 0.023901 0.009771
vt 0.532307 0.046861
vt 0.023901 0.046851
vt 0.023901 0.009957
vt 0.532307 0.048098
vt 0.023901 0.048098
vt 0.023901 0.011213
vt 0.532307 0.046118
vt 0.023901 0.046118
vt 0.532307 0.051137
vt 0.023901 0.014282
vt 0.023901 0.012313
vt 0.532307 0.050006
vt 0.023901 0.050006
vt 0.023901 0.013204
vt 0.532307 0.047130
vt 0.023901 0.047129
vt 0.023901 0.010366
vt 0.077230 0.034822
vt 0.077230 0.004112
vt 0.577716 0.004112
vt 0.077230 0.033828
vt 0.077230 0.003090
vt 0.577716 0.003090
vt 0.077230 0.034651
vt 0.077230 0.003894
vt 0.577716 0.003894
vt 0.077230 0.033907
vt 0.077230 0.038354
vt 0.077230 0.002552
vt 0.577716 0.002552
vt 0.077230 0.037321
vt 0.077230 0.001511
vt 0.577716 0.001511
vt 0.077230 0.034241
vt 0.077230 0.003442
vt 0.577716 0.003442
vt 0.077230 0.037421
vt 0.077230 0.001599
vt 0.577716 0.001600
vt 0.077230 0.037966
vt 0.077230 0.002140
vt 0.577716 0.002146
vt 0.077230 0.039001
vt 0.077230 0.003173
vt 0.577716 0.003173
vt 0.077230 0.039120
vt 0.077230 0.003290
vt 0.577716 0.003290
vt 0.077230 0.039714
vt 0.577716 0.033888
vt 0.577716 0.037248
vt 0.077230 0.037247
vt 0.077230 0.001418
vt 0.577716 0.034864
vt 0.077230 0.034859
vt 0.077230 0.004049
vt 0.577716 0.035039
vt 0.077230 0.035030
vt 0.077230 0.004223
vt 0.577716 0.036236
vt 0.077230 0.036236
vt 0.077230 0.000415
vt 0.577716 0.034310
vt 0.077230 0.034310
vt 0.077230 0.003511
vt 0.577716 0.039174
vt 0.077230 0.039173
vt 0.577716 0.038058
vt 0.077230 0.038057
vt 0.077230 0.002267
vt 0.577716 0.035251
vt 0.077230 0.035251
vt 0.077230 0.004493
vt 0.577716 0.037105
vt 0.077230 0.037104
vt 0.077230 0.001347
vt 0.609933 0.060550
vt 0.109447 0.060550
vt 0.609933 0.059559
vt 0.109447 0.059560
vt 0.609933 0.060386
vt 0.109447 0.060386
vt 0.609933 0.064091
vt 0.109447 0.064091
vt 0.609933 0.063059
vt 0.109447 0.063059
vt 0.609933 0.059980
vt 0.109447 0.059979
vt 0.609933 0.063162
vt 0.109447 0.063161
vt 0.609933 0.063712
vt 0.109447 0.063707
vt 0.609933 0.064742
vt 0.109447 0.064742
vt 0.609933 0.064861
vt 0.109447 0.064861
vt 0.609933 0.065457
vt 0.109447 0.065456
vt 0.109447 0.062989
vt 0.109447 0.060600
vt 0.109447 0.060770
vt 0.109447 0.061976
vt 0.109447 0.063793
vt 0.109447 0.060985
vt 0.109447 0.062835
vt 0.557598 0.054149
vt 0.049192 0.054149
vt 0.049192 0.002227
vt 0.557598 0.052660
vt 0.049192 0.052659
vt 0.049192 0.000644
vt 0.557598 0.054048
vt 0.049192 0.054048
vt 0.049192 0.001965
vt 0.557598 0.052912
vt 0.049192 0.052909
vt 0.049192 0.000777
vt 0.557598 0.060058
vt 0.049192 0.060058
vt 0.049192 0.002870
vt 0.557598 0.058437
vt 0.049192 0.058437
vt 0.049192 0.001221
vt 0.557598 0.053533
vt 0.049192 0.053533
vt 0.049192 0.001314
vt 0.557598 0.058639
vt 0.049192 0.058638
vt 0.049192 0.001384
vt 0.557598 0.059530
vt 0.049192 0.059520
vt 0.049192 0.002255
vt 0.557598 0.061186
vt 0.049192 0.061185
vt 0.049192 0.003911
vt 0.557598 0.061380
vt 0.049192 0.061380
vt 0.049192 0.004100
vt 0.557598 0.062337
vt 0.049192 0.062335
vt 0.049192 0.005052
vt 0.049192 0.053020
vt 0.557598 0.000754
vt 0.049192 0.001108
vt 0.557598 0.001108
vt 0.049192 0.054564
vt 0.557598 0.002314
vt 0.049192 0.054828
vt 0.049192 0.002579
vt 0.557598 0.002593
vt 0.049192 0.056744
vt 0.049192 0.004507
vt 0.557598 0.004507
vt 0.049192 0.053645
vt 0.557598 0.001427
vt 0.049192 0.004183
vt 0.557598 0.004184
vt 0.049192 0.058266
vt 0.049192 0.002394
vt 0.557598 0.002394
vt 0.049192 0.055005
vt 0.557598 0.002922
vt 0.049192 0.057897
vt 0.049192 0.000862
vt 0.557598 0.000863
vt 0.482930 0.003529
vt 0.482930 0.002459
vt 0.482930 0.003154
vt 0.482930 0.002380
vt 0.482930 0.001537
vt 0.482930 0.001067
vt 0.482930 0.002034
vt 0.482930 0.002139
vt 0.482930 0.002700
vt 0.482930 0.031202
vt 0.482930 0.034400
vt 0.482930 0.032142
vt 0.482930 0.032319
vt 0.482930 0.033473
vt 0.482930 0.031664
vt 0.482930 0.036315
vt 0.482930 0.034507
vt 0.482930 0.035338
vt 0.482930 0.032736
vt 0.590557 0.002763
vt 0.590557 0.001543
vt 0.590557 0.001383
vt 0.590557 0.005886
vt 0.590557 0.004763
vt 0.590557 0.005326
vt 0.590557 0.006368
vt 0.590557 0.006478
vt 0.590557 0.007084
vt 0.590557 0.037989
vt 0.590557 0.041457
vt 0.590557 0.039202
vt 0.590557 0.040454
vt 0.590557 0.038493
vt 0.590557 0.043536
vt 0.590557 0.042479
vt 0.590557 0.039660
vt 0.482930 0.056389
vt 0.482930 0.055349
vt 0.482930 0.059494
vt 0.482930 0.055536
vt 0.482930 0.059050
vt 0.482930 0.060019
vt 0.482930 0.060126
vt 0.482930 0.060688
vt 0.532307 0.046512
vt 0.532307 0.050300
vt 0.532307 0.049228
vt 0.532307 0.046047
vt 0.532307 0.049319
vt 0.532307 0.049881
vt 0.532307 0.050939
vt 0.532307 0.051672
vt 0.532307 0.008760
vt 0.532307 0.012226
vt 0.532307 0.009966
vt 0.532307 0.011213
vt 0.532307 0.014282
vt 0.532307 0.012313
vt 0.532307 0.013204
vt 0.532307 0.010366
vt 0.577716 0.034822
vt 0.577716 0.033827
vt 0.577716 0.034651
vt 0.577716 0.038354
vt 0.577716 0.037321
vt 0.577716 0.034240
vt 0.577716 0.037422
vt 0.577716 0.037972
vt 0.577716 0.039001
vt 0.577716 0.039120
vt 0.577716 0.039715
vt 0.577716 0.001419
vt 0.577716 0.004232
vt 0.577716 0.000415
vt 0.577716 0.003511
vt 0.577716 0.002267
vt 0.577716 0.004493
vt 0.577716 0.001348
vt 0.609933 0.062989
vt 0.609933 0.060604
vt 0.609933 0.060779
vt 0.609933 0.061976
vt 0.609933 0.063793
vt 0.609933 0.060985
vt 0.609933 0.062836
vt 0.557598 0.002227
vt 0.557598 0.000643
vt 0.557598 0.001965
vt 0.557598 0.001221
vt 0.557598 0.001315
vt 0.557598 0.003911
vt 0.557598 0.004100
vt 0.557598 0.005053
vt 0.557598 0.053020
vt 0.557598 0.054570
vt 0.557598 0.054840
vt 0.557598 0.056744
vt 0.557598 0.053646
vt 0.557598 0.058265
vt 0.557598 0.055005
vt 0.557598 0.057897
vn 0.665200 -0.726600 0.171800
vn 0.109300 -0.969100 0.221200
vn 0.088000 -0.779000 -0.620800
vn 0.093500 -0.970600 0.221500
vn 0.075200 -0.779900 -0.621400
vn 0.080100 -0.971800 0.221700
vn 0.064400 -0.780500 -0.621800
vn 0.068400 -0.972700 0.221800
vn 0.055000 -0.781000 -0.622100
vn 0.057900 -0.973300 0.222000
vn 0.046500 -0.781300 -0.622400
vn 0.048300 -0.973800 0.222100
vn 0.038800 -0.781600 -0.622500
vn 0.039400 -0.974200 0.222100
vn 0.031600 -0.781800 -0.622700
vn 0.031000 -0.974500 0.222200
vn 0.024900 -0.782000 -0.622800
vn 0.022900 -0.974700 0.222200
vn 0.018400 -0.782100 -0.622900
vn 0.015100 -0.974900 0.222300
vn 0.012100 -0.782200 -0.622900
vn 0.007500 -0.974900 0.222300
vn 0.006000 -0.782200 -0.622900
vn 0.000000 -0.975000 0.222300
vn 0.000000 -0.782200 -0.622900
vn -0.007500 -0.974900 0.222300
vn -0.006000 -0.782200 -0.622900
vn -0.015100 -0.974900 0.222300
vn -0.012100 -0.782200 -0.622900
vn -0.022900 -0.974700 0.222200
vn -0.018400 -0.782100 -0.622900
vn -0.031000 -0.974500 0.222200
vn -0.024900 -0.781900 -0.622800
vn -0.039400 -0.974200 0.222100
vn -0.031600 -0.781800 -0.622700
vn -0.048300 -0.973800 0.222100
vn -0.038800 -0.781600 -0.622500
vn -0.057900 -0.973300 0.222000
vn -0.046500 -0.781300 -0.622400
vn -0.068400 -0.972700 0.221800
vn -0.055000 -0.781000 -0.622100
vn -0.080100 -0.971800 0.221700
vn -0.064400 -0.780500 -0.621800
vn -0.093500 -0.970700 0.221400
vn -0.075200 -0.779800 -0.621400
vn -0.658800 -0.732300 0.172200
vn -0.651100 -0.584600 -0.484100
vn 0.656100 -0.579600 -0.483300
vn 0.000500 -0.002400 -1.000000
vn 0.000400 -0.002000 -1.000000
vn 0.000300 -0.001800 -1.000000
vn 0.000200 -0.001500 -1.000000
vn 0.000200 -0.001400 -1.000000
vn 0.000100 -0.001300 -1.000000
vn 0.000100 -0.001200 -1.000000
vn 0.000000 -0.001100 -1.000000
vn 0.000000 -0.001000 -1.000000
vn -0.000100 -0.001200 -1.000000
vn -0.000100 -0.001300 -1.000000
vn -0.000200 -0.001400 -1.000000
vn -0.000200 -0.001500 -1.000000
vn -0.000300 -0.001700 -1.000000
vn -0.000400 -0.002000 -1.000000
vn -0.620000 0.022400 -0.784200
vn 0.049300 -0.434500 0.899300
vn 0.042100 -0.434600 0.899700
vn 0.036000 -0.434600 0.899900
vn 0.030700 -0.434600 0.900100
vn 0.025900 -0.434600 0.900200
vn 0.021600 -0.434600 0.900300
vn 0.017600 -0.434700 0.900400
vn 0.013900 -0.434700 0.900400
vn 0.010300 -0.434700 0.900500
vn 0.006800 -0.434700 0.900500
vn 0.003400 -0.434700 0.900500
vn 0.000000 -0.434700 0.900500
vn -0.003400 -0.434700 0.900500
vn -0.006800 -0.434700 0.900500
vn -0.010300 -0.434700 0.900500
vn -0.013900 -0.434700 0.900400
vn -0.017600 -0.434700 0.900400
vn -0.021600 -0.434600 0.900300
vn -0.025900 -0.434600 0.900200
vn -0.030700 -0.434600 0.900100
vn -0.036000 -0.434600 0.899900
vn -0.042100 -0.434600 0.899700
vn -0.637100 -0.316000 0.703000
vn -0.048500 0.430500 0.901200
vn 0.639700 -0.311900 0.702500
vn -0.041500 0.431200 0.901300
vn -0.035600 0.431700 0.901300
vn -0.030300 0.432100 0.901300
vn -0.025700 0.432400 0.901300
vn -0.021400 0.432500 0.901300
vn -0.017500 0.432700 0.901400
vn -0.013700 0.432800 0.901400
vn -0.010200 0.432900 0.901400
vn -0.006700 0.433000 0.901400
vn -0.003300 0.433000 0.901400
vn 0.000000 0.433000 0.901400
vn 0.003300 0.433000 0.901400
vn 0.006700 0.433000 0.901400
vn 0.010200 0.432900 0.901400
vn 0.013700 0.432800 0.901400
vn 0.017500 0.432700 0.901300
vn 0.021400 0.432500 0.901300
vn 0.025700 0.432400 0.901300
vn 0.030300 0.432100 0.901300
vn 0.035600 0.431700 0.901300
vn 0.041500 0.431200 0.901300
vn -0.603300 0.364100 0.709600
vn -0.109800 0.968800 0.222200
vn 0.599900 0.368300 0.710200
vn -0.093800 0.970400 0.222300
vn -0.080400 0.971600 0.222400
vn -0.068600 0.972500 0.222500
vn -0.058000 0.973200 0.222600
vn -0.048400 0.973700 0.222600
vn -0.039500 0.974100 0.222700
vn -0.031000 0.974400 0.222700
vn -0.023000 0.974600 0.222700
vn -0.015200 0.974700 0.222700
vn -0.007500 0.974800 0.222700
vn 0.000000 0.974900 0.222700
vn 0.007500 0.974800 0.222700
vn 0.015200 0.974700 0.222700
vn 0.023000 0.974600 0.222700
vn 0.031000 0.974400 0.222700
vn 0.039500 0.974100 0.222700
vn 0.048400 0.973700 0.222600
vn 0.058000 0.973200 0.222600
vn 0.068600 0.972500 0.222500
vn 0.080400 0.971600 0.222400
vn 0.093800 0.970400 0.222300
vn -0.582900 0.793200 0.176000
vn 0.584600 0.644400 -0.493000
vn -0.088000 0.777100 -0.623200
vn -0.075200 0.778300 -0.623400
vn -0.064400 0.779100 -0.623500
vn -0.054900 0.779700 -0.623600
vn -0.046500 0.780200 -0.623700
vn -0.038800 0.780600 -0.623800
vn -0.031600 0.780800 -0.623900
vn -0.024800 0.781100 -0.623900
vn -0.018400 0.781200 -0.624000
vn -0.012100 0.781300 -0.624000
vn -0.006000 0.781400 -0.624000
vn 0.000000 0.781400 -0.624000
vn 0.006000 0.781400 -0.624000
vn 0.012100 0.781300 -0.624000
vn 0.018400 0.781200 -0.624000
vn 0.024800 0.781100 -0.623900
vn 0.031600 0.780800 -0.623900
vn 0.038800 0.780600 -0.623800
vn 0.046500 0.780200 -0.623700
vn 0.054900 0.779700 -0.623600
vn 0.064400 0.779100 -0.623500
vn 0.075200 0.778300 -0.623400
vn -0.590100 0.639800 -0.492400
vn 0.619600 0.026300 -0.784500
vn 0.576200 0.798100 0.176200
usemtl texture
s 1
f 144/1/1 143/2/2 167/3/3
f 143/4/2 142/5/4 166/6/5
f 142/7/4 141/8/6 165/9/7
f 141/10/6 140/11/8 164/12/9
f 140/13/8 139/14/10 163/15/11
f 139/16/10 138/17/12 162/18/13
f 138/19/12 137/20/14 161/21/15
f 137/16/14 136/17/16 160/22/17
f 136/23/16 135/24/18 159/25/19
f 135/26/18 134/27/20 158/28/21
f 134/29/20 133/30/22 157/31/23
f 133/32/22 132/33/24 156/34/25
f 131/35/26 155/36/27 156/37/25
f 130/38/28 154/39/29 155/40/27
f 129/41/30 153/42/31 154/43/29
f 128/44/32 152/45/33 153/46/31
f 127/47/34 151/48/35 152/49/33
f 126/50/36 150/21/37 151/51/35
f 125/52/38 149/53/39 150/54/37
f 124/55/40 148/18/41 149/56/39
f 123/57/42 147/58/43 148/59/41
f 122/60/44 146/61/45 147/62/43
f 121/17/46 145/22/47 146/63/45
f 168/64/48 167/65/3 2/66/49
f 167/67/3 166/68/5 3/69/50
f 166/70/5 165/71/7 4/72/51
f 165/73/7 164/74/9 5/75/52
f 164/76/9 163/77/11 6/78/53
f 163/79/11 162/80/13 7/81/54
f 162/82/13 161/83/15 8/69/55
f 161/84/15 160/85/17 9/81/55
f 160/86/17 159/87/19 10/88/56
f 159/89/19 158/90/21 11/91/56
f 158/92/21 157/93/23 12/94/57
f 157/95/23 156/96/25 13/97/57
f 155/98/27 14/99/57 13/100/57
f 154/101/29 15/102/56 14/103/57
f 153/71/31 16/104/56 15/105/56
f 152/106/33 17/72/58 16/107/56
f 151/108/35 18/109/58 17/110/58
f 150/111/37 19/112/59 18/113/58
f 149/114/39 20/115/60 19/116/59
f 148/80/41 21/117/61 20/118/60
f 147/119/43 22/120/62 21/121/61
f 146/122/45 23/123/63 22/124/62
f 145/85/47 24/125/64 23/126/63
f 119/127/65 143/2/2 144/1/1
f 118/128/66 142/5/4 143/4/2
f 117/129/67 141/8/6 142/7/4
f 116/128/68 140/11/8 141/10/6
f 115/130/69 139/14/10 140/13/8
f 114/131/70 138/17/12 139/16/10
f 113/132/71 137/20/14 138/19/12
f 112/131/72 136/17/16 137/16/14
f 111/133/73 135/24/18 136/23/16
f 110/134/74 134/27/20 135/26/18
f 109/135/75 133/30/22 134/29/20
f 108/136/76 132/33/24 133/32/22
f 108/137/76 107/138/77 131/35/26
f 107/139/77 106/140/78 130/38/28
f 106/141/78 105/129/79 129/41/30
f 105/142/79 104/143/80 128/44/32
f 104/144/80 103/145/81 127/47/34
f 103/146/81 102/147/82 126/50/36
f 102/148/82 101/149/83 125/52/38
f 101/150/83 100/151/84 124/55/40
f 100/152/84 99/153/85 123/57/42
f 99/154/85 98/155/86 122/60/44
f 98/156/86 97/131/87 121/17/46
f 95/157/88 119/158/65 120/159/89
f 94/160/90 118/161/66 119/162/65
f 93/163/91 117/164/67 118/165/66
f 92/160/92 116/166/68 117/167/67
f 91/168/93 115/169/69 116/170/68
f 90/171/94 114/172/70 115/173/69
f 89/174/95 113/175/71 114/176/70
f 88/177/96 112/172/72 113/173/71
f 87/178/97 111/179/73 112/180/72
f 86/181/98 110/182/74 111/183/73
f 85/184/99 109/185/75 110/186/74
f 84/187/100 108/188/76 109/189/75
f 84/190/100 83/160/101 107/191/77
f 83/192/101 82/193/102 106/194/78
f 82/195/102 81/157/103 105/196/79
f 81/197/103 80/198/104 104/199/80
f 80/200/104 79/201/105 103/202/81
f 79/203/105 78/204/106 102/175/82
f 78/205/106 77/184/107 101/206/83
f 77/192/107 76/193/108 100/207/84
f 76/208/108 75/209/109 99/210/85
f 75/211/109 74/212/110 98/213/86
f 74/192/110 73/193/111 97/207/87
f 71/214/112 95/215/88 96/216/113
f 70/217/114 94/218/90 95/219/88
f 69/220/115 93/221/91 94/222/90
f 68/223/116 92/218/92 93/219/91
f 67/224/117 91/225/93 92/226/92
f 66/227/118 90/228/94 91/229/93
f 65/230/119 89/231/95 90/232/94
f 64/233/120 88/234/96 89/235/95
f 63/236/121 87/237/97 88/238/96
f 62/239/122 86/240/98 87/241/97
f 61/242/123 85/243/99 86/244/98
f 60/245/124 84/221/100 85/222/99
f 60/246/124 59/223/125 83/218/101
f 59/247/125 58/248/126 82/249/102
f 58/250/126 57/251/127 81/252/103
f 57/253/127 56/254/128 80/255/104
f 56/256/128 55/257/129 79/258/105
f 55/259/129 54/260/130 78/261/106
f 54/262/130 53/263/131 77/231/107
f 53/247/131 52/248/132 76/249/108
f 52/264/132 51/265/133 75/266/109
f 51/267/133 50/268/134 74/269/110
f 50/270/134 49/271/135 73/272/111
f 48/273/136 47/274/137 71/214/112
f 47/275/137 46/276/138 70/217/114
f 46/277/138 45/278/139 69/220/115
f 45/275/139 44/276/140 68/223/116
f 44/279/140 43/280/141 67/224/117
f 43/281/141 42/282/142 66/227/118
f 42/283/142 41/284/143 65/230/119
f 41/285/143 40/286/144 64/233/120
f 40/287/144 39/288/145 63/236/121
f 39/289/145 38/290/146 62/239/122
f 38/291/146 37/292/147 61/242/123
f 37/293/147 36/294/148 60/245/124
f 35/276/149 59/223/125 60/246/124
f 34/295/150 58/248/126 59/247/125
f 33/296/151 57/251/127 58/250/126
f 32/297/152 56/254/128 57/253/127
f 31/298/153 55/257/129 56/256/128
f 30/284/154 54/260/130 55/259/129
f 29/292/155 53/263/131 54/262/130
f 28/295/156 52/248/132 53/247/131
f 27/299/157 51/265/133 52/264/132
f 26/300/158 50/268/134 51/267/133
f 25/301/159 49/271/135 50/270/134
f 1/302/160 2/303/49 47/304/137
f 2/305/49 3/306/50 46/307/138
f 3/308/50 4/309/51 45/310/139
f 4/311/51 5/312/52 44/313/140
f 5/314/52 6/315/53 43/316/141
f 6/317/53 7/318/54 42/319/142
f 7/320/54 8/321/55 41/322/143
f 8/323/55 9/324/55 40/325/144
f 9/326/55 10/327/56 39/328/145
f 10/329/56 11/330/56 38/331/146
f 11/332/56 12/333/57 37/334/147
f 12/335/57 13/336/57 36/337/148
f 14/338/57 35/313/149 36/339/148
f 15/318/56 34/340/150 35/341/149
f 16/342/56 33/328/151 34/343/150
f 17/344/58 32/345/152 33/346/151
f 18/347/58 31/348/153 32/349/152
f 19/350/59 30/325/154 31/351/153
f 20/333/60 29/352/155 30/353/154
f 21/354/61 28/340/156 29/341/155
f 22/327/62 27/355/157 28/356/156
f 23/357/63 26/316/158 27/358/157
f 24/359/64 25/360/159 26/361/158
f 168/362/48 144/1/1 167/3/3
f 167/363/3 143/4/2 166/6/5
f 166/364/5 142/7/4 165/9/7
f 165/365/7 141/10/6 164/12/9
f 164/366/9 140/13/8 163/15/11
f 163/56/11 139/16/10 162/18/13
f 162/51/13 138/19/12 161/21/15
f 161/63/15 137/16/14 160/22/17
f 160/367/17 136/23/16 159/25/19
f 159/368/19 135/26/18 158/28/21
f 158/369/21 134/29/20 157/31/23
f 157/370/23 133/32/22 156/34/25
f 132/371/24 131/35/26 156/37/25
f 131/372/26 130/38/28 155/40/27
f 130/373/28 129/41/30 154/43/29
f 129/374/30 128/44/32 153/46/31
f 128/375/32 127/47/34 152/49/33
f 127/376/34 126/50/36 151/51/35
f 126/377/36 125/52/38 150/54/37
f 125/378/38 124/55/40 149/56/39
f 124/379/40 123/57/42 148/59/41
f 123/380/42 122/60/44 147/62/43
f 122/16/44 121/17/46 146/63/45
f 1/381/160 168/64/48 2/66/49
f 2/382/49 167/67/3 3/69/50
f 3/107/50 166/70/5 4/72/51
f 4/383/51 165/73/7 5/75/52
f 5/384/52 164/76/9 6/78/53
f 6/385/53 163/79/11 7/81/54
f 7/382/54 162/82/13 8/69/55
f 8/385/55 161/84/15 9/81/55
f 9/386/55 160/86/17 10/88/56
f 10/387/56 159/89/19 11/91/56
f 11/388/56 158/92/21 12/94/57
f 12/389/57 157/95/23 13/97/57
f 156/390/25 155/98/27 13/100/57
f 155/391/27 154/101/29 14/103/57
f 154/70/29 153/71/31 15/105/56
f 153/392/31 152/106/33 16/107/56
f 152/393/33 151/108/35 17/110/58
f 151/394/35 150/111/37 18/113/58
f 150/395/37 149/114/39 19/116/59
f 149/79/39 148/80/41 20/118/60
f 148/396/41 147/119/43 21/121/61
f 147/397/43 146/122/45 22/124/62
f 146/84/45 145/85/47 23/126/63
f 120/398/89 119/127/65 144/1/1
f 119/399/65 118/128/66 143/4/2
f 118/141/66 117/129/67 142/7/4
f 117/399/67 116/128/68 141/10/6
f 116/400/68 115/130/69 140/13/8
f 115/156/69 114/131/70 139/16/10
f 114/401/70 113/132/71 138/19/12
f 113/156/71 112/131/72 137/16/14
f 112/402/72 111/133/73 136/23/16
f 111/403/73 110/134/74 135/26/18
f 110/404/74 109/135/75 134/29/20
f 109/405/75 108/136/76 133/32/22
f 132/371/24 108/137/76 131/35/26
f 131/372/26 107/139/77 130/38/28
f 130/373/28 106/141/78 129/41/30
f 129/374/30 105/142/79 128/44/32
f 128/375/32 104/144/80 127/47/34
f 127/376/34 103/146/81 126/50/36
f 126/377/36 102/148/82 125/52/38
f 125/378/38 101/150/83 124/55/40
f 124/379/40 100/152/84 123/57/42
f 123/380/42 99/154/85 122/60/44
f 122/16/44 98/156/86 121/17/46
f 96/195/113 95/157/88 120/159/89
f 95/190/88 94/160/90 119/162/65
f 94/406/90 93/163/91 118/165/66
f 93/190/91 92/160/92 117/167/67
f 92/407/92 91/168/93 116/170/68
f 91/408/93 90/171/94 115/173/69
f 90/409/94 89/174/95 114/176/70
f 89/410/95 88/177/96 113/173/71
f 88/411/96 87/178/97 112/180/72
f 87/412/97 86/181/98 111/183/73
f 86/205/98 85/184/99 110/186/74
f 85/413/99 84/187/100 109/189/75
f 108/414/76 84/190/100 107/191/77
f 107/415/77 83/192/101 106/194/78
f 106/165/78 82/195/102 105/196/79
f 105/416/79 81/197/103 104/199/80
f 104/417/80 80/200/104 103/202/81
f 103/176/81 79/203/105 102/175/82
f 102/418/82 78/205/106 101/206/83
f 101/419/83 77/192/107 100/207/84
f 100/420/84 76/208/108 99/210/85
f 99/421/85 75/211/109 98/213/86
f 98/419/86 74/192/110 97/207/87
f 72/422/161 71/214/112 96/216/113
f 71/423/112 70/217/114 95/219/88
f 70/424/114 69/220/115 94/222/90
f 69/246/115 68/223/116 93/219/91
f 68/425/116 67/224/117 92/226/92
f 67/426/117 66/227/118 91/229/93
f 66/427/118 65/230/119 90/232/94
f 65/428/119 64/233/120 89/235/95
f 64/429/120 63/236/121 88/238/96
f 63/430/121 62/239/122 87/241/97
f 62/431/122 61/242/123 86/244/98
f 61/432/123 60/245/124 85/222/99
f 84/219/100 60/246/124 83/218/101
f 83/433/101 59/247/125 82/249/102
f 82/216/102 58/250/126 81/252/103
f 81/434/103 57/253/127 80/255/104
f 80/435/104 56/256/128 79/258/105
f 79/436/105 55/259/129 78/261/106
f 78/232/106 54/262/130 77/231/107
f 77/433/107 53/247/131 76/249/108
f 76/437/108 52/264/132 75/266/109
f 75/438/109 51/267/133 74/269/110
f 74/439/110 50/270/134 73/272/111
f 72/422/161 48/273/136 71/214/112
f 71/423/112 47/275/137 70/217/114
f 70/424/114 46/277/138 69/220/115
f 69/246/115 45/275/139 68/223/116
f 68/425/116 44/279/140 67/224/117
f 67/426/117 43/281/141 66/227/118
f 66/427/118 42/283/142 65/230/119
f 65/428/119 41/285/143 64/233/120
f 64/429/120 40/287/144 63/236/121
f 63/430/121 39/289/145 62/239/122
f 62/431/122 38/291/146 61/242/123
f 61/432/123 37/293/147 60/245/124
f 36/275/148 35/276/149 60/246/124
f 35/440/149 34/295/150 59/247/125
f 34/441/150 33/296/151 58/250/126
f 33/442/151 32/297/152 57/253/127
f 32/443/152 31/298/153 56/256/128
f 31/283/153 30/284/154 55/259/129
f 30/291/154 29/292/155 54/262/130
f 29/440/155 28/295/156 53/247/131
f 28/444/156 27/299/157 52/264/132
f 27/445/157 26/300/158 51/267/133
f 26/446/158 25/301/159 50/270/134
f 48/447/136 1/302/160 47/304/137
f 47/448/137 2/305/49 46/307/138
f 46/449/138 3/308/50 45/310/139
f 45/339/139 4/311/51 44/313/140
f 44/358/140 5/314/52 43/316/141
f 43/450/141 6/317/53 42/319/142
f 42/451/142 7/320/54 41/322/143
f 41/351/143 8/323/55 40/325/144
f 40/343/144 9/326/55 39/328/145
f 39/452/145 10/329/56 38/331/146
f 38/453/146 11/332/56 37/334/147
f 37/454/147 12/335/57 36/337/148
f 13/455/57 14/338/57 36/339/148
f 14/317/57 15/318/56 35/341/149
f 15/456/56 16/342/56 34/343/150
f 16/457/56 17/344/58 33/346/151
f 17/458/58 18/347/58 32/349/152
f 18/459/58 19/350/59 31/351/153
f 19/332/59 20/333/60 30/353/154
f 20/460/60 21/354/61 29/341/155
f 21/326/61 22/327/62 28/356/156
f 22/461/62 23/357/63 27/358/157
f 23/462/63 24/359/64 26/361/158
usemtl texture_NONE
f 121/131/46 97/193/87 73/271/111 49/301/135 25/359/159 24/85/64 145/17/47
f 144/1/1 168/362/48 1/381/160 48/447/136 72/422/161 96/216/113 120/159/89
