# Blender v2.75 (sub 0) OBJ File: 'bridge.blend'
# www.blender.org
mtllib Circular_rope_aka_bridge_stump_knot_thing.mtl
o Cylinder.011_Cylinder.016
v -9.287139 7.739813 0.050463
v -9.308246 7.718850 -0.061678
v -9.311296 7.744893 -0.063939
v -9.290905 7.765146 0.044403
v -9.330650 7.761899 -0.058567
v -9.311985 7.780438 0.040605
v -9.354972 7.759907 -0.048709
v -9.338033 7.776731 0.041292
v -9.370014 7.740082 -0.040140
v -9.353787 7.756197 0.046064
v -9.366962 7.714039 -0.037878
v -9.350023 7.730863 0.052124
v -9.347608 7.697033 -0.043250
v -9.328942 7.715571 0.055922
v -9.323287 7.699025 -0.053108
v -9.302896 7.719278 0.055234
v -9.370009 7.711863 -0.159642
v -9.370968 7.738142 -0.158585
v -9.385272 7.755721 -0.145202
v -9.404543 7.754299 -0.127333
v -9.417491 7.734711 -0.115445
v -9.416533 7.708431 -0.116502
v -9.402228 7.690854 -0.129885
v -9.382958 7.692275 -0.147754
v -9.463026 7.719915 -0.228515
v -9.460834 7.745923 -0.225125
v -9.467531 7.762841 -0.206110
v -9.479197 7.760762 -0.182610
v -9.488994 7.740901 -0.168389
v -9.491186 7.714894 -0.171778
v -9.484488 7.697974 -0.190793
v -9.472824 7.700054 -0.214294
v -9.573135 7.741781 -0.257812
v -9.567213 7.767047 -0.253430
v -9.564907 7.782178 -0.232020
v -9.567567 7.778311 -0.206123
v -9.573636 7.757709 -0.190910
v -9.579558 7.732443 -0.195292
v -9.581865 7.717312 -0.216702
v -9.579205 7.721179 -0.242599
v -9.683574 7.774131 -0.243073
v -9.673911 7.798302 -0.239190
v -9.662575 7.810788 -0.218985
v -9.656203 7.804274 -0.194293
v -9.658531 7.782577 -0.179579
v -9.668193 7.758406 -0.183462
v -9.679532 7.745920 -0.203667
v -9.685902 7.752433 -0.228359
v -9.777530 7.812040 -0.186541
v -9.764684 7.834928 -0.184573
v -9.745664 7.844314 -0.168991
v -9.731609 7.834700 -0.148922
v -9.730755 7.811719 -0.136123
v -9.743600 7.788832 -0.138091
v -9.762620 7.779446 -0.153673
v -9.776675 7.789059 -0.173742
v -9.840696 7.849739 -0.096823
v -9.825711 7.871348 -0.097894
v -9.801526 7.877651 -0.089649
v -9.782306 7.864955 -0.076917
v -9.779311 7.840698 -0.067156
v -9.794296 7.819088 -0.066085
v -9.818482 7.812785 -0.074331
v -9.837702 7.825480 -0.087063
v -9.863460 7.881486 0.012422
v -9.847703 7.902020 0.007650
v -9.821656 7.905727 0.006963
v -9.800575 7.890435 0.010761
v -9.796810 7.865102 0.016821
v -9.812566 7.844567 0.021592
v -9.838614 7.840860 0.022280
v -9.859694 7.856153 0.018481
v -9.842353 7.902449 0.124562
v -9.827311 7.922274 0.115993
v -9.802990 7.924266 0.106135
v -9.783635 7.907259 0.100763
v -9.780584 7.881217 0.103024
v -9.795626 7.861392 0.111594
v -9.819947 7.859399 0.121452
v -9.839301 7.876405 0.126824
v -9.780589 7.909436 0.222526
v -9.767640 7.929024 0.210638
v -9.748369 7.930445 0.192770
v -9.734065 7.912868 0.179387
v -9.733107 7.886588 0.178330
v -9.746056 7.867000 0.190218
v -9.765326 7.865578 0.208087
v -9.779631 7.883156 0.221470
v -9.687571 7.901384 0.291400
v -9.677773 7.921245 0.277179
v -9.666110 7.923325 0.253678
v -9.659411 7.906405 0.234663
v -9.661604 7.880398 0.231274
v -9.671401 7.860537 0.245494
v -9.683067 7.858457 0.268995
v -9.689764 7.875376 0.288010
v -9.577462 7.879519 0.320697
v -9.571394 7.900120 0.305484
v -9.568734 7.903987 0.279587
v -9.571040 7.888856 0.258176
v -9.576962 7.863590 0.253795
v -9.583031 7.842988 0.269008
v -9.585691 7.839120 0.294904
v -9.583385 7.854251 0.316315
v -9.467024 7.847168 0.305958
v -9.464696 7.868865 0.291244
v -9.471066 7.875379 0.266552
v -9.482405 7.862893 0.246347
v -9.492066 7.838721 0.242464
v -9.494394 7.817025 0.257178
v -9.488024 7.810511 0.281870
v -9.476686 7.822997 0.302075
v -9.373070 7.809258 0.249426
v -9.373923 7.832239 0.236627
v -9.387978 7.841853 0.216558
v -9.406998 7.832467 0.200976
v -9.419843 7.809580 0.199008
v -9.418988 7.786599 0.211807
v -9.404934 7.776985 0.231876
v -9.385914 7.786372 0.247458
v -9.309901 7.771560 0.159708
v -9.312897 7.795818 0.149948
v -9.332115 7.808514 0.137216
v -9.356301 7.802211 0.128970
v -9.371287 7.780601 0.130041
v -9.368292 7.756343 0.139801
v -9.349072 7.743647 0.152534
v -9.324886 7.749950 0.160779
v -9.305612 7.764129 -0.006356
v -9.331470 7.794021 -0.115435
v -9.338089 7.817418 -0.105364
v -9.313106 7.788539 0.000020
v -9.359104 7.826965 -0.092720
v -9.336235 7.800531 0.003744
v -9.382207 7.817070 -0.084910
v -9.361453 7.793079 0.002635
v -9.393865 7.793527 -0.086508
v -9.373984 7.770549 -0.002658
v -9.387245 7.770129 -0.096579
v -9.366491 7.746139 -0.009034
v -9.366230 7.760582 -0.109222
v -9.343361 7.734148 -0.012758
v -9.343127 7.770478 -0.117033
v -9.318144 7.741599 -0.011649
v -9.398399 7.823586 -0.205474
v -9.402750 7.845983 -0.192353
v -9.418293 7.853113 -0.172347
v -9.435923 7.840798 -0.157173
v -9.445312 7.816254 -0.155721
v -9.440960 7.793858 -0.168842
v -9.425418 7.786729 -0.188849
v -9.407788 7.799043 -0.204022
v -9.496206 7.848327 -0.262765
v -9.497244 7.869885 -0.247703
v -9.504788 7.874991 -0.223012
v -9.514421 7.860654 -0.203153
v -9.520496 7.835272 -0.199761
v -9.519459 7.813714 -0.214822
v -9.511913 7.808608 -0.239514
v -9.502282 7.822945 -0.259372
v -9.610002 7.864474 -0.278585
v -9.607185 7.885485 -0.262988
v -9.605425 7.889271 -0.237003
v -9.605750 7.873614 -0.215851
v -9.607972 7.847684 -0.211923
v -9.610789 7.826673 -0.227519
v -9.612551 7.822887 -0.253505
v -9.612224 7.838545 -0.274657
v -9.722461 7.869570 -0.250528
v -9.715836 7.890409 -0.235881
v -9.704880 7.893778 -0.212190
v -9.696009 7.877703 -0.193332
v -9.694422 7.851602 -0.190354
v -9.701046 7.830763 -0.205001
v -9.712005 7.827394 -0.228692
v -9.720875 7.843468 -0.247550
v -9.816465 7.862838 -0.182863
v -9.806656 7.883906 -0.170508
v -9.788012 7.887825 -0.152350
v -9.771454 7.872301 -0.139026
v -9.766683 7.846428 -0.138340
v -9.776492 7.825361 -0.150695
v -9.795136 7.821441 -0.168852
v -9.811694 7.836965 -0.182177
v -9.877702 7.845306 -0.085892
v -9.865817 7.866966 -0.076822
v -9.842166 7.872319 -0.066594
v -9.820601 7.858229 -0.061199
v -9.813755 7.832950 -0.063798
v -9.825639 7.811289 -0.072868
v -9.849291 7.805936 -0.083096
v -9.870855 7.820025 -0.088491
v -9.896847 7.819640 0.025621
v -9.884314 7.842170 0.030914
v -9.859097 7.849622 0.032023
v -9.835966 7.837631 0.028299
v -9.828472 7.813220 0.021923
v -9.841004 7.790690 0.016630
v -9.866222 7.783238 0.015521
v -9.889353 7.795230 0.019245
v -9.870987 7.789749 0.134700
v -9.859329 7.813291 0.136298
v -9.836227 7.823187 0.128488
v -9.815211 7.813641 0.115844
v -9.808593 7.790243 0.105773
v -9.820250 7.766700 0.104175
v -9.843352 7.756804 0.111986
v -9.864368 7.766351 0.124630
v -9.804059 7.760182 0.224739
v -9.794669 7.784726 0.223287
v -9.777040 7.797040 0.208114
v -9.761497 7.789911 0.188107
v -9.757146 7.767515 0.174987
v -9.766535 7.742970 0.176438
v -9.784164 7.730657 0.191612
v -9.799708 7.737786 0.211619
v -9.706250 7.735443 0.282030
v -9.700174 7.760825 0.278638
v -9.690544 7.775162 0.258779
v -9.682999 7.770056 0.234087
v -9.681960 7.748497 0.219027
v -9.688036 7.723115 0.222419
v -9.697669 7.708778 0.242277
v -9.705213 7.713884 0.266969
v -9.592456 7.719296 0.297851
v -9.590234 7.745224 0.293923
v -9.589908 7.760882 0.272770
v -9.591668 7.757097 0.246785
v -9.594485 7.736085 0.231188
v -9.596706 7.710156 0.235116
v -9.597034 7.694499 0.256268
v -9.595272 7.698284 0.282254
v -9.479996 7.714200 0.269793
v -9.481583 7.740302 0.266815
v -9.490453 7.756376 0.247957
v -9.501410 7.753006 0.224266
v -9.508036 7.732168 0.209620
v -9.506449 7.706066 0.212597
v -9.497578 7.689992 0.231455
v -9.486621 7.693361 0.255146
v -9.385993 7.720931 0.202128
v -9.390763 7.746804 0.201442
v -9.407320 7.762328 0.188118
v -9.425965 7.758409 0.169960
v -9.435775 7.737342 0.157605
v -9.431003 7.711468 0.158291
v -9.414446 7.695944 0.171616
v -9.395802 7.699864 0.189774
v -9.324756 7.738463 0.105158
v -9.331602 7.763743 0.107756
v -9.353166 7.777833 0.102361
v -9.376818 7.772480 0.092133
v -9.388703 7.750819 0.083063
v -9.381857 7.725540 0.080465
v -9.360291 7.711450 0.085859
v -9.336640 7.716803 0.096088
v -9.294711 7.871721 0.034017
v -9.303917 7.866701 -0.081527
v -9.318523 7.888485 -0.079337
v -9.309629 7.893335 0.032294
v -9.343507 7.893561 -0.072804
v -9.335366 7.898001 0.029379
v -9.364236 7.878955 -0.065754
v -9.356848 7.882984 0.026979
v -9.368566 7.853223 -0.062318
v -9.361487 7.857082 0.026502
v -9.353959 7.831439 -0.064509
v -9.346571 7.835468 0.028225
v -9.328975 7.826364 -0.071042
v -9.320833 7.830803 0.031140
v -9.308247 7.840969 -0.078091
v -9.299353 7.845819 0.033539
v -9.355676 7.852809 -0.184428
v -9.368528 7.875064 -0.178753
v -9.389280 7.881276 -0.163805
v -9.405776 7.867806 -0.148341
v -9.408352 7.842544 -0.141419
v -9.395499 7.820290 -0.147095
v -9.374747 7.814078 -0.162043
v -9.358253 7.827548 -0.177507
v -9.442106 7.832161 -0.259020
v -9.452031 7.855116 -0.250817
v -9.465715 7.863016 -0.229770
v -9.475143 7.851234 -0.208206
v -9.474792 7.826672 -0.198758
v -9.464867 7.803718 -0.206960
v -9.451181 7.795818 -0.228008
v -9.441755 7.807599 -0.249572
v -9.550052 7.807900 -0.293946
v -9.556319 7.831676 -0.284561
v -9.561177 7.841560 -0.260657
v -9.561777 7.831763 -0.236237
v -9.557770 7.808022 -0.225606
v -9.551501 7.784246 -0.234992
v -9.546645 7.774362 -0.258895
v -9.546043 7.784160 -0.283315
v -9.663075 7.783720 -0.283890
v -9.665516 7.808314 -0.274845
v -9.661132 7.820176 -0.251764
v -9.652489 7.812356 -0.228167
v -9.644652 7.789434 -0.217876
v -9.642212 7.764840 -0.226921
v -9.646599 7.752977 -0.250002
v -9.655240 7.760798 -0.273600
v -9.763975 7.763300 -0.230382
v -9.762998 7.788588 -0.223150
v -9.750361 7.802119 -0.204444
v -9.733468 7.795968 -0.185222
v -9.722214 7.773739 -0.176744
v -9.723192 7.748452 -0.183977
v -9.735827 7.734921 -0.202682
v -9.752721 7.741071 -0.221904
v -9.837386 7.749752 -0.141569
v -9.833921 7.775498 -0.137345
v -9.815283 7.790137 -0.125902
v -9.792386 7.785094 -0.113943
v -9.778646 7.763324 -0.108473
v -9.782110 7.737578 -0.112697
v -9.800750 7.722939 -0.124140
v -9.823645 7.727982 -0.136100
v -9.872134 7.745137 -0.030972
v -9.867493 7.771039 -0.030494
v -9.846011 7.786055 -0.028095
v -9.820274 7.781390 -0.025179
v -9.805357 7.759776 -0.023456
v -9.809998 7.733874 -0.023934
v -9.831479 7.718857 -0.026333
v -9.857216 7.723523 -0.029248
v -9.862927 7.750157 0.084573
v -9.858598 7.775889 0.081137
v -9.837870 7.790495 0.074087
v -9.812885 7.785419 0.067554
v -9.798279 7.763636 0.065364
v -9.802608 7.737903 0.068800
v -9.823337 7.723297 0.075849
v -9.848321 7.728373 0.082383
v -9.811169 7.764049 0.187474
v -9.808593 7.789310 0.180552
v -9.792097 7.802780 0.165088
v -9.771345 7.796568 0.150140
v -9.758492 7.774313 0.144465
v -9.761069 7.749052 0.151386
v -9.777564 7.735582 0.166850
v -9.798317 7.741794 0.181798
v -9.724737 7.784698 0.262065
v -9.725089 7.809259 0.252617
v -9.715662 7.821041 0.231054
v -9.701977 7.813140 0.210006
v -9.692053 7.790186 0.201804
v -9.691701 7.765625 0.211252
v -9.701130 7.753842 0.232815
v -9.714813 7.761743 0.253863
v -9.616794 7.808958 0.296992
v -9.620801 7.832698 0.286361
v -9.620201 7.842495 0.261941
v -9.615343 7.832612 0.238037
v -9.609076 7.808836 0.228652
v -9.605067 7.785096 0.239283
v -9.605668 7.775298 0.263703
v -9.610525 7.785182 0.287606
v -9.503768 7.833138 0.286935
v -9.511604 7.856061 0.276645
v -9.520247 7.863881 0.253048
v -9.524632 7.852019 0.229966
v -9.522191 7.827424 0.220922
v -9.514356 7.804502 0.231212
v -9.505713 7.796682 0.254809
v -9.501328 7.808544 0.277891
v -9.402870 7.853558 0.233428
v -9.414124 7.875787 0.224950
v -9.431016 7.881938 0.205728
v -9.443653 7.868407 0.187022
v -9.444630 7.843120 0.179790
v -9.433376 7.820890 0.188268
v -9.416483 7.814740 0.207490
v -9.403848 7.828271 0.226196
v -9.329458 7.867106 0.144615
v -9.343200 7.888876 0.139145
v -9.366095 7.893919 0.127186
v -9.384734 7.879280 0.115743
v -9.388200 7.853534 0.111519
v -9.374458 7.831764 0.116989
v -9.351562 7.826721 0.128948
v -9.332923 7.841361 0.140391
vt 0.332151 0.511587
vt 0.332151 0.467146
vt 0.508066 0.467146
vt 0.470310 0.559789
vt 0.292082 0.559789
vt 0.291862 0.526732
vt 0.292037 0.493425
vt 0.470310 0.493425
vt 0.292067 0.463545
vt 0.470310 0.463545
vt 0.112787 0.463545
vt 0.292157 0.463545
vt 0.292148 0.493425
vt 0.291706 0.526732
vt 0.112787 0.526732
vt 0.291387 0.559789
vt 0.112787 0.559789
vt 0.508066 0.556187
vt 0.332151 0.556187
vt 0.156201 0.511587
vt 0.156201 0.467146
vt 0.112787 0.493425
vt 0.470310 0.526732
vt 0.156201 0.556187
vt 0.291626 0.559789
vt 0.291442 0.526732
vt 0.291539 0.493425
vt 0.291006 0.463545
vt 0.291996 0.463545
vt 0.292350 0.526732
vt 0.292389 0.559789
vt 0.508066 0.511587
vt 0.290730 0.559789
vt 0.290690 0.526732
vt 0.290328 0.493425
vt 0.290338 0.463545
vt 0.292196 0.493425
vt 0.291816 0.526732
vt 0.291792 0.559789
vt 0.291288 0.493425
vt 0.291348 0.463545
vt 0.292811 0.463545
vt 0.292763 0.493425
vt 0.292933 0.526732
vt 0.293054 0.559789
vt 0.291542 0.559789
vt 0.291459 0.526732
vt 0.291660 0.493425
vt 0.291700 0.463545
vt 0.290775 0.559789
vt 0.291059 0.526732
vt 0.291627 0.493425
vt 0.291569 0.463545
vt 0.292199 0.526732
vt 0.292482 0.559789
vt 0.291981 0.559789
vt 0.291131 0.493425
vt 0.291189 0.463545
vt 0.290483 0.463545
vt 0.290483 0.493425
vt 0.290482 0.526732
vt 0.290482 0.559789
vt 0.291197 0.559789
vt 0.291581 0.526732
vt 0.291816 0.493425
vt 0.291777 0.463545
vt 0.292194 0.559789
vn 0.898100 -0.308700 -0.313200
vn 0.823800 0.420000 -0.380800
vn 0.875500 0.471400 -0.105700
vn 0.289200 0.927400 -0.237400
vn -0.431700 0.900600 0.050500
vn -0.480100 0.852500 -0.206600
vn -0.898100 0.308700 0.313200
vn -0.969100 0.238200 -0.064000
vn -0.792600 -0.479700 0.376400
vn -0.203400 -0.956900 0.207500
vn -0.200000 -0.953500 0.225500
vn 0.486400 -0.870400 -0.076100
vn 0.538200 -0.819000 0.199000
vn 0.690400 -0.332200 -0.642600
vn 0.672300 0.402800 -0.621100
vn 0.279200 0.926200 -0.253200
vn -0.290200 0.916600 0.275100
vn -0.690400 0.332200 0.642600
vn -0.651000 -0.463700 0.601000
vn -0.213300 -0.958000 0.191800
vn 0.334900 -0.887500 -0.316400
vn 0.377600 -0.305100 -0.874300
vn 0.444100 0.422600 -0.790100
vn 0.264300 0.927500 -0.264200
vn -0.076900 0.898100 0.432900
vn -0.377600 0.305200 0.874300
vn -0.437800 -0.482200 0.758900
vn -0.228300 -0.956700 0.180700
vn 0.106800 -0.867800 -0.485400
vn 0.007300 -0.231600 -0.972800
vn 0.174000 0.476200 -0.861900
vn 0.246600 0.931100 -0.268900
vn 0.175500 0.848000 0.500100
vn -0.007300 0.231600 0.972800
vn -0.185400 -0.532300 0.826000
vn -0.245900 -0.953200 0.176000
vn -0.163300 -0.814100 -0.557200
vn -0.364100 -0.122800 -0.923200
vn -0.096900 0.555600 -0.825800
vn 0.228900 0.936300 -0.266500
vn 0.428600 0.773900 0.466300
vn 0.364100 0.122800 0.923200
vn 0.067800 -0.606400 0.792200
vn -0.263700 -0.948000 0.178400
vn -0.434300 -0.734800 -0.521100
vn -0.680100 0.004700 -0.733100
vn -0.327400 0.648600 -0.687100
vn 0.213800 0.942300 -0.257500
vn 0.644000 0.687000 0.336700
vn 0.680100 -0.004700 0.733100
vn 0.283200 -0.693300 0.662700
vn -0.278700 -0.941900 0.187500
vn -0.664800 -0.641800 -0.382400
vn -0.892500 0.131500 -0.431400
vn -0.482400 0.741100 -0.467000
vn 0.203700 0.948400 -0.243100
vn 0.788800 0.600500 0.131100
vn 0.892500 -0.131400 0.431400
vn 0.427900 -0.779800 0.457000
vn -0.288900 -0.935800 0.201900
vn -0.819700 -0.549300 -0.162300
vn -0.538200 0.819000 -0.199000
vn 0.200000 0.953500 -0.225500
vn 0.840900 0.527800 -0.119400
vn 0.969100 -0.238200 0.064000
vn 0.480100 -0.852500 0.206600
vn -0.292600 -0.930700 0.219400
vn -0.875600 -0.471400 0.105700
vn -0.486400 0.870400 0.076100
vn 0.203400 0.956800 -0.207500
vn 0.792600 0.479700 -0.376400
vn 0.431800 -0.900600 -0.050500
vn -0.289200 -0.927400 0.237400
vn -0.823800 -0.420000 0.380800
vn -0.335000 0.887500 0.316400
vn 0.213300 0.958000 -0.191800
vn 0.651000 0.463700 -0.601000
vn 0.290200 -0.916600 -0.275000
vn -0.279200 -0.926300 0.253100
vn -0.672300 -0.402800 0.621100
vn -0.377600 0.305100 0.874300
vn -0.106800 0.867800 0.485400
vn 0.228300 0.956700 -0.180700
vn 0.437800 0.482200 -0.758900
vn 0.076900 -0.898100 -0.433000
vn -0.264300 -0.927600 0.264200
vn -0.444100 -0.422600 0.790100
vn 0.163400 0.814200 0.557200
vn 0.245900 0.953200 -0.176000
vn 0.185400 0.532300 -0.826000
vn -0.175500 -0.848000 -0.500100
vn -0.246600 -0.931100 0.268900
vn -0.174000 -0.476200 0.861900
vn 0.434300 0.734800 0.521100
vn 0.263700 0.948000 -0.178400
vn -0.067800 0.606400 -0.792200
vn -0.428600 -0.773900 -0.466300
vn -0.228900 -0.936300 0.266500
vn 0.097000 -0.555600 0.825800
vn 0.664800 0.641700 0.382400
vn 0.278800 0.941900 -0.187500
vn -0.283200 0.693300 -0.662600
vn -0.644000 -0.687000 -0.336700
vn -0.213800 -0.942300 0.257500
vn 0.327500 -0.648600 0.687100
vn 0.892600 -0.131500 0.431400
vn 0.819700 0.549300 0.162300
vn 0.288900 0.935800 -0.201900
vn -0.427900 0.779800 -0.457000
vn -0.788800 -0.600600 -0.131000
vn -0.203700 -0.948400 0.243100
vn 0.482400 -0.741100 0.467000
vn 0.292500 0.930700 -0.219400
vn -0.841000 -0.527800 0.119400
vn 0.994200 -0.093300 -0.053800
vn 0.907200 0.007200 -0.420600
vn 0.732600 0.665500 -0.142600
vn 0.796100 0.592200 0.124900
vn 0.146800 0.964500 0.219600
vn -0.542500 0.701400 0.462300
vn -0.601800 0.769900 0.212200
vn -0.907200 -0.007200 0.420600
vn -0.694200 -0.711200 0.111100
vn -0.753500 -0.642700 -0.138900
vn -0.060200 -0.963800 -0.259700
vn 0.590900 -0.655100 -0.470900
vn 0.654300 -0.728400 -0.203400
vn 0.682100 0.106600 -0.723400
vn 0.568500 0.738000 -0.363600
vn 0.136100 0.969200 0.205100
vn -0.389100 0.633600 0.668700
vn -0.682100 -0.106600 0.723400
vn -0.540700 -0.779000 0.317500
vn -0.070900 -0.959100 -0.274200
vn 0.426700 -0.582500 -0.691800
vn 0.353200 0.189800 -0.916100
vn 0.328500 0.798700 -0.504100
vn 0.120300 0.973200 0.195900
vn -0.164900 0.576900 0.800000
vn -0.353200 -0.189800 0.916100
vn -0.316500 -0.835700 0.448800
vn -0.086600 -0.955100 -0.283400
vn 0.186800 -0.521800 -0.832400
vn -0.029500 0.244100 -0.969300
vn 0.049300 0.838300 -0.542900
vn 0.102100 0.975800 0.193400
vn 0.095900 0.539900 0.836200
vn 0.029500 -0.244100 0.969300
vn -0.055700 -0.872700 0.485100
vn -0.104900 -0.952500 -0.286000
vn -0.092400 -0.482200 -0.871200
vn -0.407700 0.261300 -0.874900
vn -0.226500 0.850800 -0.474100
vn 0.084000 0.976600 0.197900
vn 0.353700 0.528200 0.771900
vn 0.407700 -0.261300 0.874900
vn 0.202100 -0.884400 0.420800
vn -0.122900 -0.951700 -0.281400
vn -0.368300 -0.469700 -0.802300
vn -0.723900 0.238600 -0.647400
vn -0.457100 0.834300 -0.308100
vn 0.068900 0.975500 0.208800
vn 0.569200 0.543600 0.616800
vn 0.723800 -0.238600 0.647400
vn 0.417600 -0.868900 0.265700
vn -0.138000 -0.952800 -0.270600
vn -0.598900 -0.486200 -0.636300
vn -0.929800 0.179600 -0.321200
vn -0.607300 0.791300 -0.070200
vn 0.059100 0.972700 0.224300
vn 0.709500 0.583900 0.394500
vn 0.929800 -0.179600 0.321300
vn 0.557900 -0.828800 0.043400
vn -0.147900 -0.955600 -0.255000
vn -0.749100 -0.529300 -0.398500
vn -0.994200 0.093400 0.053800
vn -0.654300 0.728400 0.203400
vn 0.056000 0.968600 0.242200
vn 0.753400 0.642700 0.138900
vn 0.994200 -0.093400 -0.053800
vn 0.601800 -0.769900 -0.212200
vn -0.151000 -0.959700 -0.237100
vn -0.796100 -0.592200 -0.124900
vn -0.590900 0.655000 0.470900
vn 0.060200 0.963800 0.259800
vn 0.694200 0.711200 -0.111100
vn 0.542500 -0.701400 -0.462300
vn -0.146800 -0.964500 -0.219600
vn -0.732600 -0.665500 0.142700
vn -0.426700 0.582500 0.691800
vn 0.070900 0.959100 0.274200
vn 0.540700 0.779000 -0.317500
vn 0.389100 -0.633600 -0.668700
vn -0.136100 -0.969200 -0.205100
vn -0.568400 -0.738000 0.363600
vn -0.186800 0.521800 0.832400
vn 0.086600 0.955100 0.283400
vn 0.316600 0.835700 -0.448800
vn 0.164900 -0.576900 -0.800000
vn -0.120300 -0.973200 -0.195900
vn -0.328500 -0.798700 0.504100
vn 0.092400 0.482200 0.871200
vn 0.104900 0.952500 0.286000
vn 0.055700 0.872700 -0.485100
vn -0.095900 -0.539900 -0.836300
vn -0.102100 -0.975800 -0.193400
vn -0.049400 -0.838300 0.542900
vn 0.368300 0.469700 0.802300
vn 0.122900 0.951700 0.281400
vn -0.202100 0.884400 -0.420800
vn -0.353700 -0.528200 -0.771900
vn -0.084000 -0.976600 -0.197900
vn 0.226500 -0.850800 0.474100
vn 0.598900 0.486200 0.636400
vn 0.138100 0.952700 0.270600
vn -0.417600 0.868900 -0.265700
vn -0.569200 -0.543700 -0.616800
vn -0.068900 -0.975500 -0.208700
vn 0.457200 -0.834300 0.308100
vn 0.749100 0.529300 0.398400
vn 0.147900 0.955600 0.255000
vn -0.557900 0.828800 -0.043400
vn -0.929800 0.179700 -0.321300
vn -0.709500 -0.583900 -0.394500
vn -0.059100 -0.972700 -0.224300
vn 0.607300 -0.791300 0.070200
vn 0.151000 0.959700 0.237100
vn -0.056000 -0.968600 -0.242200
vn 0.971000 0.212900 0.109300
vn 0.940000 0.196000 -0.279300
vn 0.541100 0.811300 -0.221300
vn 0.563700 0.823600 0.062200
vn -0.166200 0.985300 -0.038900
vn -0.795300 0.581400 0.171600
vn -0.816400 0.569800 -0.093200
vn -0.940000 -0.196000 0.279300
vn -0.486000 -0.848500 0.209100
vn -0.507200 -0.860000 -0.055700
vn 0.255900 -0.966600 0.012300
vn 0.830200 -0.525400 -0.186200
vn 0.852800 -0.513100 0.097200
vn 0.765900 0.149200 -0.625400
vn 0.414200 0.777200 -0.473700
vn -0.174500 0.983100 -0.055400
vn -0.676700 0.613200 0.407500
vn -0.765900 -0.149300 0.625400
vn -0.367400 -0.816700 0.445000
vn 0.247600 -0.968800 -0.004300
vn 0.703200 -0.559500 -0.438600
vn 0.475300 0.079800 -0.876200
vn 0.202100 0.726600 -0.656700
vn -0.188400 0.979800 -0.067400
vn -0.478600 0.660600 0.578500
vn -0.475300 -0.079800 0.876200
vn -0.169300 -0.769400 0.616000
vn 0.233800 -0.972200 -0.016200
vn 0.491200 -0.610200 -0.621600
vn 0.112200 -0.001800 -0.993700
vn -0.062700 0.667100 -0.742400
vn -0.205700 0.975900 -0.073000
vn -0.231100 0.716200 0.658500
vn -0.112200 0.001800 0.993700
vn 0.078100 -0.713800 0.696000
vn 0.216400 -0.976100 -0.021900
vn 0.226400 -0.669700 -0.707300
vn -0.267900 -0.083100 -0.959900
vn -0.339900 0.607800 -0.717700
vn -0.223900 0.972000 -0.071400
vn 0.028000 0.771600 0.635500
vn 0.267900 0.083100 0.959900
vn 0.337200 -0.658300 0.673000
vn 0.198300 -0.979900 -0.020200
vn -0.050900 -0.729000 -0.682600
vn -0.607200 -0.151800 -0.779900
vn -0.587500 0.557700 -0.586400
vn -0.240100 0.968700 -0.062800
vn 0.259200 0.818400 0.512900
vn 0.607200 0.151700 0.779900
vn 0.568500 -0.611500 0.550300
vn 0.182100 -0.983200 -0.011600
vn -0.298400 -0.779100 -0.551400
vn -0.854100 -0.197300 -0.481200
vn -0.767600 0.524400 -0.368500
vn -0.251800 0.966500 -0.048500
vn 0.427500 0.849500 0.309300
vn 0.854100 0.197400 0.481200
vn 0.736800 -0.580400 0.346800
vn 0.170300 -0.985400 0.002600
vn -0.478400 -0.812300 -0.333500
vn -0.971000 -0.212800 -0.109300
vn -0.852800 0.513100 -0.097200
vn -0.257400 0.965800 -0.030800
vn 0.507200 0.860000 0.055700
vn 0.971000 0.212800 0.109300
vn 0.816400 -0.569900 0.093200
vn 0.164700 -0.986100 0.020400
vn -0.563700 -0.823600 -0.062200
vn -0.830200 0.525400 0.186200
vn -0.255900 0.966600 -0.012300
vn 0.486100 0.848500 -0.209100
vn 0.795300 -0.581400 -0.171600
vn 0.166200 -0.985300 0.038900
vn -0.541100 -0.811300 0.221200
vn -0.765900 -0.149200 0.625400
vn -0.703200 0.559500 0.438600
vn -0.247600 0.968800 0.004300
vn 0.367400 0.816700 -0.445000
vn 0.676700 -0.613200 -0.407500
vn 0.174500 -0.983100 0.055400
vn -0.414200 -0.777200 0.473700
vn -0.491200 0.610100 0.621600
vn -0.233800 0.972200 0.016200
vn 0.169300 0.769300 -0.616000
vn 0.478600 -0.660500 -0.578500
vn 0.188400 -0.979800 0.067400
vn -0.202100 -0.726600 0.656700
vn -0.226400 0.669700 0.707300
vn -0.216400 0.976100 0.021900
vn -0.078100 0.713700 -0.696000
vn 0.231100 -0.716200 -0.658600
vn 0.205700 -0.975900 0.073000
vn 0.062700 -0.667100 0.742300
vn 0.050900 0.729000 0.682600
vn -0.198300 0.979900 0.020200
vn -0.337200 0.658300 -0.673000
vn -0.028000 -0.771600 -0.635500
vn 0.223900 -0.972000 0.071400
vn 0.339900 -0.607700 0.717700
vn 0.607200 0.151800 0.779900
vn 0.298400 0.779100 0.551400
vn -0.182100 0.983200 0.011700
vn -0.568500 0.611500 -0.550300
vn -0.259200 -0.818400 -0.512900
vn 0.240100 -0.968700 0.062800
vn 0.587500 -0.557600 0.586400
vn 0.854100 0.197300 0.481200
vn 0.478400 0.812300 0.333500
vn -0.170300 0.985400 -0.002600
vn -0.736800 0.580400 -0.346800
vn -0.427500 -0.849500 -0.309300
vn 0.251900 -0.966500 0.048600
vn 0.767600 -0.524400 0.368500
vn -0.164700 0.986100 -0.020400
vn -0.971000 -0.212900 -0.109300
vn 0.257400 -0.965800 0.030800
usemtl texture
s 1
f 2/1/1 3/2/2 4/3/3
f 4/4/3 3/5/2 5/6/4
f 5/6/4 7/7/5 8/8/6
f 7/7/5 9/9/7 10/10/8
f 10/11/8 9/12/7 11/13/9
f 11/13/9 13/14/10 14/15/11
f 13/14/10 15/16/12 16/17/13
f 16/18/13 15/19/12 2/1/1
f 2/1/1 17/20/14 18/21/15
f 3/5/2 18/17/15 19/15/16
f 19/15/16 20/22/17 7/7/5
f 20/22/17 21/11/18 9/9/7
f 9/12/7 21/10/18 22/8/19
f 11/13/9 22/8/19 23/23/20
f 23/23/20 24/4/21 15/16/12
f 15/19/12 24/24/21 17/20/14
f 17/20/14 25/1/22 26/19/23
f 18/4/15 26/25/23 27/26/24
f 27/26/24 28/27/25 20/8/17
f 20/8/17 28/27/25 29/28/26
f 29/29/26 30/7/27 22/22/19
f 22/22/19 30/7/27 31/30/28
f 31/30/28 32/31/29 24/17/21
f 24/21/21 32/2/29 25/1/22
f 25/1/22 33/32/30 34/18/31
f 26/25/23 34/17/31 35/15/32
f 35/15/32 36/22/33 28/27/25
f 28/27/25 36/22/33 37/11/34
f 37/10/34 38/8/35 30/7/27
f 30/7/27 38/8/35 39/23/36
f 39/23/36 40/4/37 32/31/29
f 32/2/29 40/3/37 33/32/30
f 33/20/30 41/1/38 42/19/39
f 42/33/39 43/34/40 35/23/32
f 35/23/32 43/34/40 44/35/41
f 44/35/41 45/36/42 37/10/34
f 37/11/34 45/12/42 46/37/43
f 46/37/43 47/38/44 39/15/36
f 39/15/36 47/38/44 48/39/45
f 40/21/37 48/2/45 41/1/38
f 41/1/38 49/32/46 50/18/47
f 50/17/47 51/15/48 43/34/40
f 43/34/40 51/15/48 52/22/49
f 52/22/49 53/11/50 45/36/42
f 45/12/42 53/10/50 54/8/51
f 54/8/51 55/23/52 47/38/44
f 47/38/44 55/23/52 56/4/53
f 48/2/45 56/3/53 49/32/46
f 49/20/46 57/1/54 58/19/55
f 50/4/47 58/5/55 59/6/56
f 51/23/48 59/6/56 60/40/57
f 60/40/57 61/41/58 53/10/50
f 61/42/58 62/43/59 54/22/51
f 54/22/51 62/43/59 63/44/60
f 55/15/52 63/44/60 64/45/61
f 64/2/61 57/1/54 49/20/46
f 57/1/54 65/32/8 66/18/62
f 66/17/62 67/15/63 59/6/56
f 59/6/56 67/15/63 68/22/64
f 68/22/64 69/11/65 61/41/58
f 69/10/65 70/8/66 62/43/59
f 70/8/66 71/23/67 63/44/60
f 63/44/60 71/23/67 72/4/68
f 72/3/68 65/32/8 57/1/54
f 73/1/7 74/19/69 66/24/62
f 74/46/69 75/47/70 67/23/63
f 67/23/63 75/47/70 76/48/71
f 76/48/71 77/49/1 69/10/65
f 69/11/65 77/29/1 78/7/72
f 70/22/66 78/7/72 79/38/73
f 79/38/73 80/46/74 72/17/68
f 72/21/68 80/2/74 73/1/7
f 81/32/18 82/18/75 74/19/69
f 82/17/75 83/15/76 75/47/70
f 75/47/70 83/15/76 84/22/77
f 76/48/71 84/22/77 85/11/14
f 77/29/1 85/10/14 86/8/78
f 86/8/78 87/23/79 79/38/73
f 87/23/79 88/4/80 80/46/74
f 80/2/74 88/3/80 81/32/18
f 81/32/18 89/1/81 90/2/82
f 90/50/82 91/51/83 83/23/76
f 91/51/83 92/52/84 84/8/77
f 92/52/84 93/53/22 85/10/14
f 93/49/22 94/52/85 86/22/78
f 86/22/78 94/52/85 95/54/86
f 95/54/86 96/55/87 88/17/80
f 96/19/87 89/1/81 81/32/18
f 89/1/81 97/20/34 98/21/88
f 90/50/82 98/17/88 99/15/89
f 99/15/89 100/22/90 92/52/84
f 92/52/84 100/22/90 101/11/30
f 101/10/30 102/8/91 94/52/85
f 94/52/85 102/8/91 103/23/92
f 103/23/92 104/4/93 96/55/87
f 104/24/93 97/20/34 89/1/81
f 97/32/34 105/1/42 106/2/94
f 106/56/94 107/14/95 99/23/89
f 99/23/89 107/14/95 108/57/96
f 108/57/96 109/58/38 101/10/30
f 101/11/30 109/59/38 110/60/97
f 102/22/91 110/60/97 111/61/98
f 111/61/98 112/62/99 104/17/93
f 112/19/99 105/1/42 97/32/34
f 113/20/50 114/21/100 106/2/94
f 106/56/94 114/17/100 115/15/101
f 107/14/95 115/15/101 116/22/102
f 116/22/102 117/11/46 109/58/38
f 109/59/38 117/10/46 118/8/103
f 118/8/103 119/23/104 111/61/98
f 119/23/104 120/4/105 112/62/99
f 112/19/99 120/24/105 113/20/50
f 121/1/106 122/2/107 114/3/100
f 122/63/107 123/64/108 115/23/101
f 123/64/108 124/65/109 116/8/102
f 116/8/102 124/65/109 125/66/54
f 125/53/54 126/52/110 118/22/103
f 118/22/103 126/52/110 127/38/111
f 127/38/111 128/67/112 120/17/105
f 120/18/105 128/19/112 121/1/106
f 121/1/106 1/20/65 4/21/3
f 122/63/107 4/17/3 6/15/113
f 6/15/113 8/22/6 124/65/109
f 124/65/109 8/22/6 10/11/8
f 10/10/8 12/8/114 126/52/110
f 126/52/110 12/8/114 14/23/11
f 14/23/11 16/4/13 128/67/112
f 128/19/112 16/24/13 1/20/65
f 129/32/115 130/1/116 131/2/117
f 132/4/118 131/5/117 133/6/119
f 133/6/119 135/7/120 136/8/121
f 136/8/121 135/7/120 137/9/122
f 137/12/122 139/13/123 140/22/124
f 140/22/124 139/13/123 141/14/125
f 141/14/125 143/16/126 144/17/127
f 129/32/115 144/18/127 143/19/126
f 130/1/116 145/20/128 146/21/129
f 146/17/129 147/15/130 133/6/119
f 147/15/130 148/22/131 135/7/120
f 148/22/131 149/11/132 137/9/122
f 137/12/122 149/10/132 150/8/133
f 150/8/133 151/23/134 141/14/125
f 151/23/134 152/4/135 143/16/126
f 143/19/126 152/24/135 145/20/128
f 145/20/128 153/1/136 154/19/137
f 154/25/137 155/26/138 147/23/130
f 155/26/138 156/27/139 148/8/131
f 148/8/131 156/27/139 157/28/140
f 157/29/140 158/7/141 150/22/133
f 150/22/133 158/7/141 159/30/142
f 159/30/142 160/31/143 152/17/135
f 160/2/143 153/1/136 145/20/128
f 153/1/136 161/32/144 162/18/145
f 162/17/145 163/15/146 155/26/138
f 163/15/146 164/22/147 156/27/139
f 156/27/139 164/22/147 165/11/148
f 165/10/148 166/8/149 158/7/141
f 158/7/141 166/8/149 167/23/150
f 159/30/142 167/23/150 168/4/151
f 168/3/151 161/32/144 153/1/136
f 169/1/152 170/19/153 162/24/145
f 170/33/153 171/34/154 163/23/146
f 163/23/146 171/34/154 172/35/155
f 172/35/155 173/36/156 165/10/148
f 165/11/148 173/12/156 174/37/157
f 174/37/157 175/38/158 167/15/150
f 167/15/150 175/38/158 176/39/159
f 168/21/151 176/2/159 169/1/152
f 177/32/160 178/18/161 170/19/153
f 178/17/161 179/15/162 171/34/154
f 171/34/154 179/15/162 180/22/163
f 180/22/163 181/11/164 173/36/156
f 173/12/156 181/10/164 182/8/165
f 182/8/165 183/23/166 175/38/158
f 175/38/158 183/23/166 184/4/167
f 176/2/159 184/3/167 177/32/160
f 177/20/160 185/1/168 186/19/169
f 186/5/169 187/6/170 179/23/162
f 179/23/162 187/6/170 188/40/171
f 180/8/163 188/40/171 189/41/172
f 181/11/164 189/42/172 190/43/173
f 190/43/173 191/44/174 183/15/166
f 183/15/166 191/44/174 192/45/175
f 192/2/175 185/1/168 177/20/160
f 193/32/176 194/18/177 186/19/169
f 186/5/169 194/17/177 195/15/178
f 195/15/178 196/22/179 188/40/171
f 188/40/171 196/22/179 197/11/180
f 197/10/180 198/8/181 190/43/173
f 198/8/181 199/23/182 191/44/174
f 199/23/182 200/4/183 192/45/175
f 200/3/183 193/32/176 185/1/168
f 201/1/122 202/19/184 194/24/177
f 202/46/184 203/47/185 195/23/178
f 195/23/178 203/47/185 204/48/186
f 196/8/179 204/48/186 205/49/116
f 197/11/180 205/29/116 206/7/187
f 198/22/181 206/7/187 207/38/188
f 199/15/182 207/38/188 208/46/189
f 200/21/183 208/2/189 201/1/122
f 209/32/132 210/18/190 202/19/184
f 210/17/190 211/15/191 203/47/185
f 203/47/185 211/15/191 212/22/192
f 212/22/192 213/11/128 205/49/116
f 213/10/128 214/8/193 206/7/187
f 214/8/193 215/23/194 207/38/188
f 207/38/188 215/23/194 216/4/195
f 208/2/189 216/3/195 209/32/132
f 217/1/140 218/2/196 210/3/190
f 210/4/190 218/50/196 219/51/197
f 219/51/197 220/52/198 212/8/192
f 220/52/198 221/53/136 213/10/128
f 221/49/136 222/52/199 214/22/193
f 214/22/193 222/52/199 223/54/200
f 223/54/200 224/55/201 216/17/195
f 224/19/201 217/1/140 209/32/132
f 217/1/140 225/20/148 226/21/202
f 218/50/196 226/17/202 227/15/203
f 227/15/203 228/22/204 220/52/198
f 220/52/198 228/22/204 229/11/144
f 229/10/144 230/8/205 222/52/199
f 222/52/199 230/8/205 231/23/206
f 231/23/206 232/4/207 224/55/201
f 232/24/207 225/20/148 217/1/140
f 233/1/156 234/2/208 226/3/202
f 234/56/208 235/14/209 227/23/203
f 235/14/209 236/57/210 228/8/204
f 228/8/204 236/57/210 237/58/152
f 237/59/152 238/60/211 230/22/205
f 230/22/205 238/60/211 239/61/212
f 239/61/212 240/62/213 232/17/207
f 232/18/207 240/19/213 233/1/156
f 241/20/164 242/21/214 234/2/208
f 242/17/214 243/15/215 235/14/209
f 235/14/209 243/15/215 244/22/216
f 236/57/210 244/22/216 245/11/160
f 245/10/160 246/8/217 238/60/211
f 238/60/211 246/8/217 247/23/218
f 239/61/212 247/23/218 248/4/219
f 240/19/213 248/24/219 241/20/164
f 249/1/172 250/2/220 242/3/214
f 250/63/220 251/64/221 243/23/215
f 243/23/215 251/64/221 252/65/222
f 244/8/216 252/65/222 253/66/223
f 253/53/223 254/52/224 246/22/217
f 254/52/224 255/38/225 247/15/218
f 247/15/218 255/38/225 256/67/226
f 256/19/226 249/1/172 241/32/164
f 129/20/115 132/21/118 250/2/220
f 132/17/118 134/15/227 251/64/221
f 251/64/221 134/15/227 136/22/121
f 252/65/222 136/22/121 138/11/176
f 253/53/223 138/10/176 140/8/124
f 140/8/124 142/23/228 255/38/225
f 255/38/225 142/23/228 144/4/127
f 256/19/226 144/24/127 129/20/115
f 257/32/229 258/1/230 259/2/231
f 260/4/232 259/5/231 261/6/233
f 261/6/233 263/7/234 264/8/235
f 264/8/235 263/7/234 265/9/236
f 265/12/236 267/13/237 268/22/238
f 268/22/238 267/13/237 269/14/239
f 269/14/239 271/16/240 272/17/241
f 272/18/241 271/19/240 258/1/230
f 273/20/242 274/21/243 259/2/231
f 259/5/231 274/17/243 275/15/244
f 261/6/233 275/15/244 276/22/245
f 263/7/234 276/22/245 277/11/246
f 277/10/246 278/8/247 267/13/237
f 267/13/237 278/8/247 279/23/248
f 269/14/239 279/23/248 280/4/249
f 271/19/240 280/24/249 273/20/242
f 281/1/250 282/19/251 274/24/243
f 282/25/251 283/26/252 275/23/244
f 283/26/252 284/27/253 276/8/245
f 276/8/245 284/27/253 285/28/254
f 277/11/246 285/29/254 286/7/255
f 278/22/247 286/7/255 287/30/256
f 287/30/256 288/31/257 280/17/249
f 280/21/249 288/2/257 281/1/250
f 281/1/250 289/32/258 290/18/259
f 290/17/259 291/15/260 283/26/252
f 283/26/252 291/15/260 292/22/261
f 292/22/261 293/11/262 285/28/254
f 293/10/262 294/8/263 286/7/255
f 286/7/255 294/8/263 295/23/264
f 295/23/264 296/4/265 288/31/257
f 288/2/257 296/3/265 289/32/258
f 289/20/258 297/1/266 298/19/267
f 298/33/267 299/34/268 291/23/260
f 291/23/260 299/34/268 300/35/269
f 300/35/269 301/36/270 293/10/262
f 293/11/262 301/12/270 302/37/271
f 302/37/271 303/38/272 295/15/264
f 295/15/264 303/38/272 304/39/273
f 296/21/265 304/2/273 297/1/266
f 305/32/274 306/18/275 298/19/267
f 306/17/275 307/15/276 299/34/268
f 299/34/268 307/15/276 308/22/277
f 300/35/269 308/22/277 309/11/278
f 301/12/270 309/10/278 310/8/279
f 310/8/279 311/23/280 303/38/272
f 303/38/272 311/23/280 312/4/281
f 304/2/273 312/3/281 305/32/274
f 305/20/274 313/1/282 314/19/283
f 314/5/283 315/6/284 307/23/276
f 307/23/276 315/6/284 316/40/285
f 316/40/285 317/41/286 309/10/278
f 317/42/286 318/43/287 310/22/279
f 318/43/287 319/44/288 311/15/280
f 311/15/280 319/44/288 320/45/289
f 320/2/289 313/1/282 305/20/274
f 313/1/282 321/32/290 322/18/291
f 314/5/283 322/17/291 323/15/292
f 323/15/292 324/22/293 316/40/285
f 316/40/285 324/22/293 325/11/294
f 317/42/286 325/10/294 326/8/295
f 326/8/295 327/23/296 319/44/288
f 319/44/288 327/23/296 328/4/297
f 328/3/297 321/32/290 313/1/282
f 329/1/236 330/19/298 322/24/291
f 322/4/291 330/46/298 331/47/299
f 331/47/299 332/48/300 324/8/293
f 324/8/293 332/48/300 333/49/230
f 325/11/294 333/29/230 334/7/301
f 326/22/295 334/7/301 335/38/302
f 335/38/302 336/46/303 328/17/297
f 328/21/297 336/2/303 329/1/236
f 329/1/236 337/32/304 338/18/305
f 330/46/298 338/17/305 339/15/306
f 339/15/306 340/22/307 332/48/300
f 340/22/307 341/11/242 333/49/230
f 341/10/242 342/8/308 334/7/301
f 334/7/301 342/8/308 343/23/309
f 343/23/309 344/4/310 336/46/303
f 344/3/310 337/32/304 329/1/236
f 337/32/304 345/1/254 346/2/311
f 346/50/311 347/51/312 339/23/306
f 347/51/312 348/52/313 340/8/307
f 340/8/307 348/52/313 349/53/250
f 341/11/242 349/49/250 350/52/314
f 342/22/308 350/52/314 351/54/315
f 351/54/315 352/55/316 344/17/310
f 352/19/316 345/1/254 337/32/304
f 345/1/254 353/20/262 354/21/317
f 346/50/311 354/17/317 355/15/318
f 355/15/318 356/22/319 348/52/313
f 348/52/313 356/22/319 357/11/258
f 357/10/258 358/8/320 350/52/314
f 350/52/314 358/8/320 359/23/321
f 359/23/321 360/4/322 352/55/316
f 360/24/322 353/20/262 345/1/254
f 361/1/270 362/2/323 354/3/317
f 354/4/317 362/56/323 363/14/324
f 363/14/324 364/57/325 356/8/319
f 364/57/325 365/58/266 357/10/258
f 357/11/258 365/59/266 366/60/326
f 358/22/320 366/60/326 367/61/327
f 359/15/321 367/61/327 368/62/328
f 368/19/328 361/1/270 353/32/262
f 369/20/329 370/21/330 362/2/323
f 362/56/323 370/17/330 371/15/331
f 363/14/324 371/15/331 372/22/332
f 372/22/332 373/11/274 365/58/266
f 365/59/266 373/10/274 374/8/333
f 374/8/333 375/23/334 367/61/327
f 367/61/327 375/23/334 376/4/335
f 376/24/335 369/20/329 361/1/270
f 369/32/329 377/1/336 378/2/337
f 378/63/337 379/64/338 371/23/331
f 371/23/331 379/64/338 380/65/339
f 372/8/332 380/65/339 381/66/282
f 373/11/274 381/53/282 382/52/340
f 382/52/340 383/38/341 375/15/334
f 375/15/334 383/38/341 384/67/342
f 384/19/342 377/1/336 369/32/329
f 377/1/336 257/20/229 260/21/232
f 260/17/232 262/15/343 379/64/338
f 262/15/343 264/22/235 380/65/339
f 380/65/339 264/22/235 266/11/344
f 266/10/344 268/8/238 382/52/340
f 268/8/238 270/23/345 383/38/341
f 383/38/341 270/23/345 272/4/241
f 384/19/342 272/24/241 257/20/229
f 1/32/65 2/1/1 4/3/3
f 6/23/113 4/4/3 5/6/4
f 6/23/113 5/6/4 8/8/6
f 8/8/6 7/7/5 10/10/8
f 12/22/114 10/11/8 11/13/9
f 12/22/114 11/13/9 14/15/11
f 14/15/11 13/14/10 16/17/13
f 1/32/65 16/18/13 2/1/1
f 3/2/2 2/1/1 18/21/15
f 5/6/4 3/5/2 19/15/16
f 5/6/4 19/15/16 7/7/5
f 7/7/5 20/22/17 9/9/7
f 11/13/9 9/12/7 22/8/19
f 13/14/10 11/13/9 23/23/20
f 13/14/10 23/23/20 15/16/12
f 2/1/1 15/19/12 17/20/14
f 18/24/15 17/20/14 26/19/23
f 19/23/16 18/4/15 27/26/24
f 19/23/16 27/26/24 20/8/17
f 21/10/18 20/8/17 29/28/26
f 21/11/18 29/29/26 22/22/19
f 23/15/20 22/22/19 31/30/28
f 23/15/20 31/30/28 24/17/21
f 17/20/14 24/21/21 25/1/22
f 26/19/23 25/1/22 34/18/31
f 27/26/24 26/25/23 35/15/32
f 27/26/24 35/15/32 28/27/25
f 29/28/26 28/27/25 37/11/34
f 29/29/26 37/10/34 30/7/27
f 31/30/28 30/7/27 39/23/36
f 31/30/28 39/23/36 32/31/29
f 25/1/22 32/2/29 33/32/30
f 34/24/31 33/20/30 42/19/39
f 34/4/31 42/33/39 35/23/32
f 36/8/33 35/23/32 44/35/41
f 36/8/33 44/35/41 37/10/34
f 38/22/35 37/11/34 46/37/43
f 38/22/35 46/37/43 39/15/36
f 40/17/37 39/15/36 48/39/45
f 33/20/30 40/21/37 41/1/38
f 42/19/39 41/1/38 50/18/47
f 42/33/39 50/17/47 43/34/40
f 44/35/41 43/34/40 52/22/49
f 44/35/41 52/22/49 45/36/42
f 46/37/43 45/12/42 54/8/51
f 46/37/43 54/8/51 47/38/44
f 48/39/45 47/38/44 56/4/53
f 41/1/38 48/2/45 49/32/46
f 50/24/47 49/20/46 58/19/55
f 51/23/48 50/4/47 59/6/56
f 52/8/49 51/23/48 60/40/57
f 52/8/49 60/40/57 53/10/50
f 53/11/50 61/42/58 54/22/51
f 55/15/52 54/22/51 63/44/60
f 56/17/53 55/15/52 64/45/61
f 56/21/53 64/2/61 49/20/46
f 58/19/55 57/1/54 66/18/62
f 58/5/55 66/17/62 59/6/56
f 60/40/57 59/6/56 68/22/64
f 60/40/57 68/22/64 61/41/58
f 61/42/58 69/10/65 62/43/59
f 62/43/59 70/8/66 63/44/60
f 64/45/61 63/44/60 72/4/68
f 64/2/61 72/3/68 57/1/54
f 65/20/8 73/1/7 66/24/62
f 66/4/62 74/46/69 67/23/63
f 68/8/64 67/23/63 76/48/71
f 68/8/64 76/48/71 69/10/65
f 70/22/66 69/11/65 78/7/72
f 71/15/67 70/22/66 79/38/73
f 71/15/67 79/38/73 72/17/68
f 65/20/8 72/21/68 73/1/7
f 73/1/7 81/32/18 74/19/69
f 74/46/69 82/17/75 75/47/70
f 76/48/71 75/47/70 84/22/77
f 77/49/1 76/48/71 85/11/14
f 78/7/72 77/29/1 86/8/78
f 78/7/72 86/8/78 79/38/73
f 79/38/73 87/23/79 80/46/74
f 73/1/7 80/2/74 81/32/18
f 82/3/75 81/32/18 90/2/82
f 82/4/75 90/50/82 83/23/76
f 83/23/76 91/51/83 84/8/77
f 84/8/77 92/52/84 85/10/14
f 85/11/14 93/49/22 86/22/78
f 87/15/79 86/22/78 95/54/86
f 87/15/79 95/54/86 88/17/80
f 88/18/80 96/19/87 81/32/18
f 90/2/82 89/1/81 98/21/88
f 91/51/83 90/50/82 99/15/89
f 91/51/83 99/15/89 92/52/84
f 93/53/22 92/52/84 101/11/30
f 93/49/22 101/10/30 94/52/85
f 95/54/86 94/52/85 103/23/92
f 95/54/86 103/23/92 96/55/87
f 96/19/87 104/24/93 89/1/81
f 98/3/88 97/32/34 106/2/94
f 98/4/88 106/56/94 99/23/89
f 100/8/90 99/23/89 108/57/96
f 100/8/90 108/57/96 101/10/30
f 102/22/91 101/11/30 110/60/97
f 103/15/92 102/22/91 111/61/98
f 103/15/92 111/61/98 104/17/93
f 104/18/93 112/19/99 97/32/34
f 105/1/42 113/20/50 106/2/94
f 107/14/95 106/56/94 115/15/101
f 108/57/96 107/14/95 116/22/102
f 108/57/96 116/22/102 109/58/38
f 110/60/97 109/59/38 118/8/103
f 110/60/97 118/8/103 111/61/98
f 111/61/98 119/23/104 112/62/99
f 105/1/42 112/19/99 113/20/50
f 113/32/50 121/1/106 114/3/100
f 114/4/100 122/63/107 115/23/101
f 115/23/101 123/64/108 116/8/102
f 117/10/46 116/8/102 125/66/54
f 117/11/46 125/53/54 118/22/103
f 119/15/104 118/22/103 127/38/111
f 119/15/104 127/38/111 120/17/105
f 113/32/50 120/18/105 121/1/106
f 122/2/107 121/1/106 4/21/3
f 123/64/108 122/63/107 6/15/113
f 123/64/108 6/15/113 124/65/109
f 125/66/54 124/65/109 10/11/8
f 125/53/54 10/10/8 126/52/110
f 127/38/111 126/52/110 14/23/11
f 127/38/111 14/23/11 128/67/112
f 121/1/106 128/19/112 1/20/65
f 132/3/118 129/32/115 131/2/117
f 134/23/227 132/4/118 133/6/119
f 134/23/227 133/6/119 136/8/121
f 138/10/176 136/8/121 137/9/122
f 138/11/176 137/12/122 140/22/124
f 142/15/228 140/22/124 141/14/125
f 142/15/228 141/14/125 144/17/127
f 130/1/116 129/32/115 143/19/126
f 131/2/117 130/1/116 146/21/129
f 131/5/117 146/17/129 133/6/119
f 133/6/119 147/15/130 135/7/120
f 135/7/120 148/22/131 137/9/122
f 139/13/123 137/12/122 150/8/133
f 139/13/123 150/8/133 141/14/125
f 141/14/125 151/23/134 143/16/126
f 130/1/116 143/19/126 145/20/128
f 146/24/129 145/20/128 154/19/137
f 146/4/129 154/25/137 147/23/130
f 147/23/130 155/26/138 148/8/131
f 149/10/132 148/8/131 157/28/140
f 149/11/132 157/29/140 150/22/133
f 151/15/134 150/22/133 159/30/142
f 151/15/134 159/30/142 152/17/135
f 152/21/135 160/2/143 145/20/128
f 154/19/137 153/1/136 162/18/145
f 154/25/137 162/17/145 155/26/138
f 155/26/138 163/15/146 156/27/139
f 157/28/140 156/27/139 165/11/148
f 157/29/140 165/10/148 158/7/141
f 159/30/142 158/7/141 167/23/150
f 160/31/143 159/30/142 168/4/151
f 160/2/143 168/3/151 153/1/136
f 161/20/144 169/1/152 162/24/145
f 162/4/145 170/33/153 163/23/146
f 164/8/147 163/23/146 172/35/155
f 164/8/147 172/35/155 165/10/148
f 166/22/149 165/11/148 174/37/157
f 166/22/149 174/37/157 167/15/150
f 168/17/151 167/15/150 176/39/159
f 161/20/144 168/21/151 169/1/152
f 169/1/152 177/32/160 170/19/153
f 170/33/153 178/17/161 171/34/154
f 172/35/155 171/34/154 180/22/163
f 172/35/155 180/22/163 173/36/156
f 174/37/157 173/12/156 182/8/165
f 174/37/157 182/8/165 175/38/158
f 176/39/159 175/38/158 184/4/167
f 169/1/152 176/2/159 177/32/160
f 178/24/161 177/20/160 186/19/169
f 178/4/161 186/5/169 179/23/162
f 180/8/163 179/23/162 188/40/171
f 181/10/164 180/8/163 189/41/172
f 182/22/165 181/11/164 190/43/173
f 182/22/165 190/43/173 183/15/166
f 184/17/167 183/15/166 192/45/175
f 184/21/167 192/2/175 177/20/160
f 185/1/168 193/32/176 186/19/169
f 187/6/170 186/5/169 195/15/178
f 187/6/170 195/15/178 188/40/171
f 189/41/172 188/40/171 197/11/180
f 189/42/172 197/10/180 190/43/173
f 190/43/173 198/8/181 191/44/174
f 191/44/174 199/23/182 192/45/175
f 192/2/175 200/3/183 185/1/168
f 193/20/176 201/1/122 194/24/177
f 194/4/177 202/46/184 195/23/178
f 196/8/179 195/23/178 204/48/186
f 197/10/180 196/8/179 205/49/116
f 198/22/181 197/11/180 206/7/187
f 199/15/182 198/22/181 207/38/188
f 200/17/183 199/15/182 208/46/189
f 193/20/176 200/21/183 201/1/122
f 201/1/122 209/32/132 202/19/184
f 202/46/184 210/17/190 203/47/185
f 204/48/186 203/47/185 212/22/192
f 204/48/186 212/22/192 205/49/116
f 205/29/116 213/10/128 206/7/187
f 206/7/187 214/8/193 207/38/188
f 208/46/189 207/38/188 216/4/195
f 201/1/122 208/2/189 209/32/132
f 209/32/132 217/1/140 210/3/190
f 211/23/191 210/4/190 219/51/197
f 211/23/191 219/51/197 212/8/192
f 212/8/192 220/52/198 213/10/128
f 213/11/128 221/49/136 214/22/193
f 215/15/194 214/22/193 223/54/200
f 215/15/194 223/54/200 216/17/195
f 216/18/195 224/19/201 209/32/132
f 218/2/196 217/1/140 226/21/202
f 219/51/197 218/50/196 227/15/203
f 219/51/197 227/15/203 220/52/198
f 221/53/136 220/52/198 229/11/144
f 221/49/136 229/10/144 222/52/199
f 223/54/200 222/52/199 231/23/206
f 223/54/200 231/23/206 224/55/201
f 224/19/201 232/24/207 217/1/140
f 225/32/148 233/1/156 226/3/202
f 226/4/202 234/56/208 227/23/203
f 227/23/203 235/14/209 228/8/204
f 229/10/144 228/8/204 237/58/152
f 229/11/144 237/59/152 230/22/205
f 231/15/206 230/22/205 239/61/212
f 231/15/206 239/61/212 232/17/207
f 225/32/148 232/18/207 233/1/156
f 233/1/156 241/20/164 234/2/208
f 234/56/208 242/17/214 235/14/209
f 236/57/210 235/14/209 244/22/216
f 237/58/152 236/57/210 245/11/160
f 237/59/152 245/10/160 238/60/211
f 239/61/212 238/60/211 247/23/218
f 240/62/213 239/61/212 248/4/219
f 233/1/156 240/19/213 241/20/164
f 241/32/164 249/1/172 242/3/214
f 242/4/214 250/63/220 243/23/215
f 244/8/216 243/23/215 252/65/222
f 245/10/160 244/8/216 253/66/223
f 245/11/160 253/53/223 246/22/217
f 246/22/217 254/52/224 247/15/218
f 248/17/219 247/15/218 256/67/226
f 248/18/219 256/19/226 241/32/164
f 249/1/172 129/20/115 250/2/220
f 250/63/220 132/17/118 251/64/221
f 252/65/222 251/64/221 136/22/121
f 253/66/223 252/65/222 138/11/176
f 254/52/224 253/53/223 140/8/124
f 254/52/224 140/8/124 255/38/225
f 256/67/226 255/38/225 144/4/127
f 249/1/172 256/19/226 129/20/115
f 260/3/232 257/32/229 259/2/231
f 262/23/343 260/4/232 261/6/233
f 262/23/343 261/6/233 264/8/235
f 266/10/344 264/8/235 265/9/236
f 266/11/344 265/12/236 268/22/238
f 270/15/345 268/22/238 269/14/239
f 270/15/345 269/14/239 272/17/241
f 257/32/229 272/18/241 258/1/230
f 258/1/230 273/20/242 259/2/231
f 261/6/233 259/5/231 275/15/244
f 263/7/234 261/6/233 276/22/245
f 265/9/236 263/7/234 277/11/246
f 265/12/236 277/10/246 267/13/237
f 269/14/239 267/13/237 279/23/248
f 271/16/240 269/14/239 280/4/249
f 258/1/230 271/19/240 273/20/242
f 273/20/242 281/1/250 274/24/243
f 274/4/243 282/25/251 275/23/244
f 275/23/244 283/26/252 276/8/245
f 277/10/246 276/8/245 285/28/254
f 278/22/247 277/11/246 286/7/255
f 279/15/248 278/22/247 287/30/256
f 279/15/248 287/30/256 280/17/249
f 273/20/242 280/21/249 281/1/250
f 282/19/251 281/1/250 290/18/259
f 282/25/251 290/17/259 283/26/252
f 284/27/253 283/26/252 292/22/261
f 284/27/253 292/22/261 285/28/254
f 285/29/254 293/10/262 286/7/255
f 287/30/256 286/7/255 295/23/264
f 287/30/256 295/23/264 288/31/257
f 281/1/250 288/2/257 289/32/258
f 290/24/259 289/20/258 298/19/267
f 290/4/259 298/33/267 291/23/260
f 292/8/261 291/23/260 300/35/269
f 292/8/261 300/35/269 293/10/262
f 294/22/263 293/11/262 302/37/271
f 294/22/263 302/37/271 295/15/264
f 296/17/265 295/15/264 304/39/273
f 289/20/258 296/21/265 297/1/266
f 297/1/266 305/32/274 298/19/267
f 298/33/267 306/17/275 299/34/268
f 300/35/269 299/34/268 308/22/277
f 301/36/270 300/35/269 309/11/278
f 302/37/271 301/12/270 310/8/279
f 302/37/271 310/8/279 303/38/272
f 304/39/273 303/38/272 312/4/281
f 297/1/266 304/2/273 305/32/274
f 306/24/275 305/20/274 314/19/283
f 306/4/275 314/5/283 307/23/276
f 308/8/277 307/23/276 316/40/285
f 308/8/277 316/40/285 309/10/278
f 309/11/278 317/42/286 310/22/279
f 310/22/279 318/43/287 311/15/280
f 312/17/281 311/15/280 320/45/289
f 312/21/281 320/2/289 305/20/274
f 314/19/283 313/1/282 322/18/291
f 315/6/284 314/5/283 323/15/292
f 315/6/284 323/15/292 316/40/285
f 317/41/286 316/40/285 325/11/294
f 318/43/287 317/42/286 326/8/295
f 318/43/287 326/8/295 319/44/288
f 320/45/289 319/44/288 328/4/297
f 320/2/289 328/3/297 313/1/282
f 321/20/290 329/1/236 322/24/291
f 323/23/292 322/4/291 331/47/299
f 323/23/292 331/47/299 324/8/293
f 325/10/294 324/8/293 333/49/230
f 326/22/295 325/11/294 334/7/301
f 327/15/296 326/22/295 335/38/302
f 327/15/296 335/38/302 328/17/297
f 321/20/290 328/21/297 329/1/236
f 330/19/298 329/1/236 338/18/305
f 331/47/299 330/46/298 339/15/306
f 331/47/299 339/15/306 332/48/300
f 332/48/300 340/22/307 333/49/230
f 333/29/230 341/10/242 334/7/301
f 335/38/302 334/7/301 343/23/309
f 335/38/302 343/23/309 336/46/303
f 336/2/303 344/3/310 329/1/236
f 338/3/305 337/32/304 346/2/311
f 338/4/305 346/50/311 339/23/306
f 339/23/306 347/51/312 340/8/307
f 341/10/242 340/8/307 349/53/250
f 342/22/308 341/11/242 350/52/314
f 343/15/309 342/22/308 351/54/315
f 343/15/309 351/54/315 344/17/310
f 344/18/310 352/19/316 337/32/304
f 346/2/311 345/1/254 354/21/317
f 347/51/312 346/50/311 355/15/318
f 347/51/312 355/15/318 348/52/313
f 349/53/250 348/52/313 357/11/258
f 349/49/250 357/10/258 350/52/314
f 351/54/315 350/52/314 359/23/321
f 351/54/315 359/23/321 352/55/316
f 352/19/316 360/24/322 345/1/254
f 353/32/262 361/1/270 354/3/317
f 355/23/318 354/4/317 363/14/324
f 355/23/318 363/14/324 356/8/319
f 356/8/319 364/57/325 357/10/258
f 358/22/320 357/11/258 366/60/326
f 359/15/321 358/22/320 367/61/327
f 360/17/322 359/15/321 368/62/328
f 360/18/322 368/19/328 353/32/262
f 361/1/270 369/20/329 362/2/323
f 363/14/324 362/56/323 371/15/331
f 364/57/325 363/14/324 372/22/332
f 364/57/325 372/22/332 365/58/266
f 366/60/326 365/59/266 374/8/333
f 366/60/326 374/8/333 367/61/327
f 368/62/328 367/61/327 376/4/335
f 368/19/328 376/24/335 361/1/270
f 370/3/330 369/32/329 378/2/337
f 370/4/330 378/63/337 371/23/331
f 372/8/332 371/23/331 380/65/339
f 373/10/274 372/8/332 381/66/282
f 374/22/333 373/11/274 382/52/340
f 374/22/333 382/52/340 375/15/334
f 376/17/335 375/15/334 384/67/342
f 376/18/335 384/19/342 369/32/329
f 378/2/337 377/1/336 260/21/232
f 378/63/337 260/17/232 379/64/338
f 379/64/338 262/15/343 380/65/339
f 381/66/282 380/65/339 266/11/344
f 381/53/282 266/10/344 382/52/340
f 382/52/340 268/8/238 383/38/341
f 384/67/342 383/38/341 272/4/241
f 377/1/336 384/19/342 257/20/229
