# Blender v2.75 (sub 0) OBJ File: 'bridge.blend'
# www.blender.org
mtllib Knot.mtl
o Torus.003_Torus.012
v -8.715471 7.876771 0.008108
v -8.746472 7.897171 0.010495
v -8.775268 7.873930 0.014187
v -8.762062 7.839165 0.014083
v -8.725106 7.840921 0.010326
v -8.734765 7.869603 -0.045381
v -8.761957 7.891418 -0.032435
v -8.784589 7.870466 -0.011655
v -8.771384 7.835702 -0.011760
v -8.740591 7.835168 -0.032603
v -8.776465 7.853871 -0.081413
v -8.795425 7.878792 -0.061353
v -8.804736 7.862866 -0.029064
v -8.791531 7.828102 -0.029168
v -8.774058 7.822542 -0.061522
v -8.829399 7.833791 -0.090334
v -8.837908 7.862677 -0.068513
v -8.830310 7.853165 -0.033374
v -8.817105 7.818400 -0.033478
v -8.816542 7.806427 -0.068681
v -8.879382 7.814744 -0.069752
v -8.878023 7.847389 -0.051994
v -8.854459 7.843962 -0.023430
v -8.841254 7.809197 -0.023534
v -8.856657 7.791140 -0.052163
v -8.913022 7.801832 -0.025183
v -8.905022 7.837027 -0.016224
v -8.870712 7.837724 -0.001897
v -8.857507 7.802959 -0.002001
v -8.883656 7.780777 -0.016393
v -8.921305 7.798516 0.031430
v -8.911670 7.834365 0.029212
v -8.874714 7.836122 0.025455
v -8.861508 7.801357 0.025351
v -8.890304 7.778116 0.029044
v -8.902011 7.805684 0.084920
v -8.896185 7.840119 0.072142
v -8.865392 7.839585 0.051298
v -8.852187 7.804821 0.051194
v -8.874819 7.783869 0.071973
v -8.860311 7.821416 0.120952
v -8.862718 7.852745 0.101060
v -8.845245 7.847186 0.068707
v -8.832040 7.812421 0.068602
v -8.841351 7.796494 0.100892
v -8.807377 7.841496 0.129872
v -8.820234 7.868860 0.108220
v -8.819671 7.856887 0.073016
v -8.806466 7.822123 0.072912
v -8.798868 7.812610 0.108051
v -8.757394 7.860543 0.109291
v -8.780119 7.884148 0.091701
v -8.795522 7.866089 0.063073
v -8.782317 7.831325 0.062968
v -8.758753 7.827898 0.091533
v -8.723754 7.873455 0.064722
v -8.753120 7.894510 0.055932
v -8.779269 7.872328 0.041540
v -8.766065 7.837563 0.041435
v -8.731754 7.838260 0.055763
v -8.826712 7.942942 0.033926
v -8.853353 7.917106 0.036312
v -8.836913 7.883954 0.040005
v -8.800112 7.889301 0.039901
v -8.793807 7.925757 0.036144
v -8.823900 7.922553 -0.019563
v -8.851097 7.900742 -0.006617
v -8.835555 7.874103 0.014162
v -8.798754 7.879450 0.014058
v -8.791551 7.909394 -0.006786
v -8.817593 7.878432 -0.055596
v -8.846034 7.865332 -0.035536
v -8.832507 7.852787 -0.003246
v -8.795706 7.858134 -0.003350
v -8.786488 7.873983 -0.035704
v -8.809477 7.822403 -0.064516
v -8.839520 7.820364 -0.042695
v -8.828587 7.825717 -0.007556
v -8.791785 7.831064 -0.007660
v -8.779975 7.829016 -0.042864
v -8.801729 7.769477 -0.043935
v -8.833302 7.777887 -0.026177
v -8.824843 7.800147 0.002388
v -8.788042 7.805493 0.002283
v -8.773756 7.786539 -0.026345
v -8.796425 7.733838 0.000634
v -8.829045 7.749284 0.009593
v -8.822280 7.782928 0.023921
v -8.785479 7.788274 0.023816
v -8.769499 7.757935 0.009425
v -8.794985 7.725032 0.057248
v -8.827889 7.742217 0.055030
v -8.821585 7.778674 0.051273
v -8.784783 7.784020 0.051169
v -8.768344 7.750868 0.054861
v -8.797796 7.745422 0.110737
v -8.830146 7.758581 0.097959
v -8.822943 7.788524 0.077116
v -8.786141 7.793871 0.077011
v -8.770599 7.767232 0.097791
v -8.804104 7.789542 0.146769
v -8.835209 7.793991 0.126878
v -8.825991 7.809841 0.094524
v -8.789189 7.815187 0.094420
v -8.775662 7.802642 0.126709
v -8.812220 7.845572 0.155690
v -8.841722 7.838959 0.134037
v -8.829911 7.836911 0.098834
v -8.793110 7.842257 0.098730
v -8.782176 7.847610 0.133869
v -8.819967 7.898497 0.135108
v -8.847940 7.881435 0.117519
v -8.833654 7.862481 0.088890
v -8.796853 7.867828 0.088786
v -8.788394 7.890087 0.117350
v -8.825272 7.934137 0.090540
v -8.852198 7.910039 0.081749
v -8.836218 7.879700 0.067357
v -8.799417 7.885047 0.067253
v -8.792651 7.918691 0.081581
vt 0.328643 0.258312
vt 0.323576 0.213191
vt 0.414454 0.199256
vt 0.246836 0.203974
vt 0.256536 0.257032
vt 0.200386 0.271437
vt 0.776482 0.837495
vt 0.776482 0.929366
vt 0.715324 0.929366
vt 0.289863 0.260956
vt 0.278357 0.312993
vt 0.179683 0.299053
vt 0.413385 0.315515
vt 0.324518 0.301575
vt 0.242017 0.256213
vt 0.244638 0.213099
vt 0.322977 0.204065
vt 0.313149 0.254843
vt 0.837640 0.837495
vt 0.837640 0.929366
vt 0.356366 0.259101
vt 0.366101 0.313412
vt 0.245494 0.301156
vt 0.242017 0.256390
vt 0.139984 0.261630
vt 0.164097 0.216782
vt 0.404343 0.218090
vt 0.366531 0.266493
vt 0.898798 0.837495
vt 0.898798 0.929366
vt 0.423061 0.245364
vt 0.469487 0.301078
vt 0.152383 0.303995
vt 0.136170 0.253748
vt 0.138463 0.254940
vt 0.244650 0.256730
vt 0.249368 0.301735
vt 0.243602 0.204679
vt 0.253975 0.258384
vt 0.194548 0.273125
vt 0.588918 0.838122
vt 0.588918 0.929993
vt 0.527760 0.929993
vt 0.312095 0.255146
vt 0.321094 0.203749
vt 0.403307 0.216853
vt 0.246590 0.213416
vt 0.330465 0.257906
vt 0.328525 0.301219
vt 0.322759 0.204162
vt 0.313429 0.255557
vt 0.650076 0.838122
vt 0.650076 0.929993
vt 0.254743 0.257973
vt 0.244740 0.204264
vt 0.325750 0.212900
vt 0.436650 0.259701
vt 0.413753 0.314325
vt 0.407987 0.217268
vt 0.369572 0.266621
vt 0.711234 0.838122
vt 0.711234 0.929993
vt 0.197415 0.272712
vt 0.155275 0.217973
vt 0.418500 0.199191
vt 0.332990 0.260669
vt 0.328277 0.215663
vt 0.421027 0.201956
vt 0.152838 0.215209
vt 0.242302 0.201502
vt 0.252301 0.255209
vt 0.412396 0.838122
vt 0.412396 0.929993
vt 0.351238 0.929993
vt 0.281474 0.259191
vt 0.271109 0.310586
vt 0.176474 0.297477
vt 0.331045 0.303982
vt 0.439176 0.262467
vt 0.247174 0.259488
vt 0.249119 0.216175
vt 0.318655 0.200990
vt 0.309651 0.252385
vt 0.473554 0.838122
vt 0.473554 0.929993
vt 0.347492 0.256367
vt 0.359003 0.310074
vt 0.251887 0.304494
vt 0.140988 0.257690
vt 0.163889 0.203065
vt 0.400865 0.214099
vt 0.363805 0.263452
vt 0.534712 0.838122
vt 0.534712 0.929993
vt 0.413481 0.241630
vt 0.461988 0.296368
vt 0.159137 0.318201
vt 0.330318 0.261683
vt 0.325605 0.216677
vt 0.418357 0.202970
vt 0.244880 0.200488
vt 0.254880 0.254196
vt 0.197554 0.268933
vt 0.229336 0.838259
vt 0.229336 0.930130
vt 0.168178 0.930130
vt 0.284439 0.258178
vt 0.274075 0.309572
vt 0.179441 0.296462
vt 0.413603 0.318106
vt 0.328374 0.304996
vt 0.244503 0.260503
vt 0.246445 0.217190
vt 0.321234 0.199974
vt 0.312233 0.251372
vt 0.290495 0.838259
vt 0.290495 0.930130
vt 0.350455 0.255354
vt 0.361967 0.309059
vt 0.249217 0.305509
vt 0.138319 0.258709
vt 0.161214 0.204084
vt 0.403445 0.213080
vt 0.366392 0.262437
vt 0.351653 0.838259
vt 0.351653 0.930130
vt 0.416441 0.240616
vt 0.464949 0.295351
vt 0.156470 0.319218
vt 0.433287 0.257982
vt 0.159178 0.217908
vt 0.715324 0.837495
vt 0.225642 0.248546
vt 0.244638 0.220557
vt 0.152383 0.313491
vt 0.156620 0.305622
vt 0.138463 0.255332
vt 0.249368 0.294225
vt 0.150855 0.218392
vt 0.527760 0.838122
vt 0.366253 0.266209
vt 0.166103 0.220522
vt 0.249132 0.223871
vt 0.141006 0.258382
vt 0.194976 0.269946
vt 0.351238 0.838122
vt 0.219135 0.248124
vt 0.416275 0.317092
vt 0.436505 0.263482
vt 0.155414 0.214195
vt 0.168178 0.838259
vt 0.222101 0.247111
vt 0.136170 0.253034
vt 0.160284 0.199075
vt 0.156620 0.315449
vt 0.161357 0.200312
vn 0.755200 0.288600 -0.588400
vn -0.030700 0.973100 -0.228000
vn 0.037600 0.998500 -0.038700
vn -0.807900 0.375000 0.454500
vn -0.942000 0.325100 0.082800
vn -0.354400 -0.819100 0.451000
vn -0.488400 -0.869000 0.079200
vn 0.622700 -0.746900 -0.233200
vn 0.691000 -0.721500 -0.043800
vn 0.378600 0.146500 -0.913800
vn -0.178300 0.917500 -0.355600
vn -0.518100 0.484300 0.704900
vn -0.064500 -0.709800 0.701400
vn 0.475100 -0.802600 -0.360700
vn -0.099400 -0.034800 -0.994400
vn -0.365600 0.846400 -0.387100
vn -0.150300 0.623800 0.766900
vn 0.303300 -0.570300 0.763400
vn 0.287700 -0.873700 -0.392300
vn -0.550900 -0.206800 -0.808500
vn -0.542600 0.779000 -0.314300
vn 0.197100 0.756200 0.623900
vn 0.650700 -0.437900 0.620300
vn 0.110800 -0.941100 -0.319400
vn -0.854700 -0.323400 -0.406000
vn -0.661600 0.733300 -0.156500
vn 0.430900 0.845900 0.314200
vn 0.884500 -0.348200 0.310600
vn -0.008300 -0.986800 -0.161700
vn -0.929500 -0.353400 0.105300
vn -0.691000 0.721500 0.043800
vn 0.488400 0.869000 -0.079300
vn 0.942000 -0.325100 -0.082800
vn -0.037600 -0.998500 0.038700
vn -0.755200 -0.288600 0.588400
vn -0.622700 0.746900 0.233200
vn 0.354400 0.819100 -0.451000
vn 0.807900 -0.375000 -0.454500
vn 0.030700 -0.973100 0.228000
vn -0.378600 -0.146500 0.913800
vn -0.475100 0.802600 0.360700
vn 0.064500 0.709800 -0.701400
vn 0.518100 -0.484300 -0.704900
vn 0.178300 -0.917500 0.355600
vn 0.099400 0.034800 0.994400
vn -0.287700 0.873700 0.392300
vn -0.303300 0.570300 -0.763400
vn 0.150200 -0.623800 -0.767000
vn 0.365600 -0.846400 0.387100
vn 0.550900 0.206800 0.808500
vn -0.110800 0.941100 0.319400
vn -0.650700 0.437900 -0.620300
vn -0.197100 -0.756200 -0.623900
vn 0.542600 -0.779000 0.314300
vn 0.854700 0.323400 0.406000
vn 0.008300 0.986800 0.161700
vn -0.884500 0.348200 -0.310600
vn -0.430900 -0.845900 -0.314200
vn 0.661600 -0.733300 0.156500
vn 0.929500 0.353400 -0.105300
vn -0.117900 0.799900 -0.588400
vn -0.956600 0.181200 -0.228000
vn -0.966600 0.253400 -0.038700
vn -0.541300 -0.707300 0.454500
vn -0.521800 -0.849000 0.082800
vn 0.722700 -0.523700 0.451000
vn 0.742300 -0.665400 0.079200
vn 0.864200 0.445800 -0.233200
vn 0.854300 0.517900 -0.043800
vn -0.060900 0.401400 -0.913800
vn -0.934300 0.025000 -0.355500
vn -0.585200 -0.400700 0.704900
vn 0.678900 -0.217000 0.701400
vn 0.886600 0.289600 -0.360700
vn 0.012400 -0.104600 -0.994400
vn -0.905600 -0.173300 -0.387100
vn -0.641600 -0.011300 0.767000
vn 0.622500 0.172300 0.763400
vn 0.915300 0.091300 -0.392300
vn 0.082300 -0.582600 -0.808500
vn -0.878100 -0.360600 -0.314300
vn -0.695400 0.356500 0.623900
vn 0.568700 0.540100 0.620300
vn 0.942700 -0.096000 -0.319400
vn 0.130300 -0.904500 -0.406000
vn -0.859400 -0.486800 -0.156500
vn -0.732300 0.604100 0.314200
vn 0.531800 0.787800 0.310600
vn 0.961500 -0.222200 -0.161700
vn 0.143300 -0.984000 0.105300
vn -0.854300 -0.517900 0.043800
vn -0.742300 0.665400 -0.079200
vn 0.521800 0.849000 -0.082800
vn 0.966600 -0.253400 0.038700
vn 0.117900 -0.799900 0.588400
vn -0.864200 -0.445800 0.233200
vn -0.722700 0.523600 -0.451000
vn 0.541300 0.707300 -0.454600
vn 0.956600 -0.181200 0.228000
vn 0.060900 -0.401400 0.913800
vn -0.886600 -0.289600 0.360700
vn -0.678900 0.217000 -0.701400
vn 0.585200 0.400700 -0.704900
vn 0.934300 -0.025000 0.355600
vn -0.012400 0.104600 0.994400
vn -0.915300 -0.091300 0.392300
vn -0.622500 -0.172300 -0.763400
vn 0.641600 0.011300 -0.767000
vn 0.905600 0.173300 0.387100
vn -0.082300 0.582600 0.808500
vn -0.942700 0.096000 0.319400
vn -0.568700 -0.540100 -0.620300
vn 0.695400 -0.356500 -0.623900
vn 0.878100 0.360600 0.314300
vn -0.130300 0.904500 0.406000
vn -0.961500 0.222200 0.161700
vn -0.531800 -0.787800 -0.310600
vn 0.732300 -0.604200 -0.314200
vn 0.859400 0.486800 0.156500
vn -0.143300 0.984000 -0.105300
usemtl texture
s 1
f 6/1/1 7/2/2 2/3/3
f 7/4/2 8/5/4 3/6/5
f 8/7/4 9/8/6 4/9/7
f 9/10/6 10/11/8 5/12/9
f 5/13/9 10/14/8 6/1/1
f 6/1/1 11/15/10 12/16/11
f 12/17/11 13/18/12 8/5/4
f 13/19/12 14/20/13 9/8/6
f 9/10/6 14/21/13 15/22/14
f 15/23/14 11/15/10 6/1/1
f 11/24/10 16/25/15 17/26/16
f 17/27/16 18/28/17 13/18/12
f 18/29/17 19/30/18 14/20/13
f 19/31/18 20/32/19 15/22/14
f 20/33/19 16/34/15 11/24/10
f 16/35/15 21/36/20 22/37/21
f 22/38/21 23/39/22 18/40/17
f 23/41/22 24/42/23 19/43/18
f 24/44/23 25/45/24 20/46/19
f 25/47/24 21/36/20 16/35/15
f 26/48/25 27/49/26 22/37/21
f 27/50/26 28/51/27 23/39/22
f 28/52/27 29/53/28 24/42/23
f 24/44/23 29/54/28 30/55/29
f 25/47/24 30/56/29 26/48/25
f 31/57/30 32/58/31 27/49/26
f 32/59/31 33/60/32 28/51/27
f 33/61/32 34/62/33 29/53/28
f 29/54/28 34/63/33 35/64/34
f 30/56/29 35/65/34 31/57/30
f 36/66/35 37/67/36 32/68/31
f 32/69/31 37/70/36 38/71/37
f 38/72/37 39/73/38 34/74/33
f 39/75/38 40/76/39 35/77/34
f 40/78/39 36/66/35 31/79/30
f 36/66/35 41/80/40 42/81/41
f 42/82/41 43/83/42 38/71/37
f 43/84/42 44/85/43 39/73/38
f 44/86/43 45/87/44 40/76/39
f 45/88/44 41/80/40 36/66/35
f 46/89/45 47/90/46 42/81/41
f 47/91/46 48/92/47 43/83/42
f 48/93/47 49/94/48 44/85/43
f 49/95/48 50/96/49 45/87/44
f 45/88/44 50/97/49 46/89/45
f 51/98/50 52/99/51 47/100/46
f 52/101/51 53/102/52 48/103/47
f 53/104/52 54/105/53 49/106/48
f 54/107/53 55/108/54 50/109/49
f 50/110/49 55/111/54 51/98/50
f 56/112/55 57/113/56 52/99/51
f 52/101/51 57/114/56 58/115/57
f 58/116/57 59/117/58 54/105/53
f 59/118/58 60/119/59 55/108/54
f 55/111/54 60/120/59 56/112/55
f 56/112/55 1/121/60 2/122/3
f 2/123/3 3/124/5 58/115/57
f 3/125/5 4/126/7 59/117/58
f 4/127/7 5/128/9 60/119/59
f 5/129/9 1/121/60 56/112/55
f 1/130/60 6/1/1 2/3/3
f 2/131/3 7/4/2 3/6/5
f 3/132/5 8/7/4 4/9/7
f 4/133/7 9/10/6 5/12/9
f 1/130/60 5/13/9 6/1/1
f 7/2/2 6/1/1 12/16/11
f 7/4/2 12/17/11 8/5/4
f 8/7/4 13/19/12 9/8/6
f 10/11/8 9/10/6 15/22/14
f 10/14/8 15/23/14 6/1/1
f 12/134/11 11/24/10 17/26/16
f 12/17/11 17/27/16 13/18/12
f 13/19/12 18/29/17 14/20/13
f 14/21/13 19/31/18 15/22/14
f 15/23/14 20/135/19 11/15/10
f 17/136/16 16/137/15 22/138/21
f 17/139/16 22/38/21 18/40/17
f 18/140/17 23/41/22 19/43/18
f 19/141/18 24/44/23 20/46/19
f 20/142/19 25/143/24 16/144/15
f 21/36/20 26/48/25 22/37/21
f 22/38/21 27/50/26 23/39/22
f 23/41/22 28/52/27 24/42/23
f 25/45/24 24/44/23 30/55/29
f 21/36/20 25/47/24 26/48/25
f 26/48/25 31/57/30 27/49/26
f 27/50/26 32/59/31 28/51/27
f 28/52/27 33/61/32 29/53/28
f 30/55/29 29/54/28 35/64/34
f 26/48/25 30/56/29 31/57/30
f 31/79/30 36/66/35 32/68/31
f 33/145/32 32/69/31 38/71/37
f 33/146/32 38/72/37 34/74/33
f 34/147/33 39/75/38 35/77/34
f 35/148/34 40/78/39 31/79/30
f 37/67/36 36/66/35 42/81/41
f 37/70/36 42/82/41 38/71/37
f 38/72/37 43/84/42 39/73/38
f 39/75/38 44/86/43 40/76/39
f 40/78/39 45/88/44 36/66/35
f 41/80/40 46/89/45 42/81/41
f 42/82/41 47/91/46 43/83/42
f 43/84/42 48/93/47 44/85/43
f 44/86/43 49/95/48 45/87/44
f 41/80/40 45/88/44 46/89/45
f 46/149/45 51/98/50 47/100/46
f 47/150/46 52/101/51 48/103/47
f 48/151/47 53/104/52 49/106/48
f 49/152/48 54/107/53 50/109/49
f 46/149/45 50/110/49 51/98/50
f 51/98/50 56/112/55 52/99/51
f 53/102/52 52/101/51 58/115/57
f 53/104/52 58/116/57 54/105/53
f 54/107/53 59/118/58 55/108/54
f 51/98/50 55/111/54 56/112/55
f 57/113/56 56/112/55 2/122/3
f 57/114/56 2/123/3 58/115/57
f 58/116/57 3/125/5 59/117/58
f 59/118/58 4/127/7 60/119/59
f 60/120/59 5/129/9 56/112/55
f 66/1/61 67/2/62 62/3/63
f 67/4/62 68/5/64 63/6/65
f 68/7/64 69/8/66 64/9/67
f 69/10/66 70/11/68 65/12/69
f 65/13/69 70/14/68 66/1/61
f 66/1/61 71/15/70 72/16/71
f 72/17/71 73/18/72 68/5/64
f 73/19/72 74/20/73 69/8/66
f 69/10/66 74/21/73 75/22/74
f 75/23/74 71/15/70 66/1/61
f 71/15/70 76/153/75 77/154/76
f 77/27/76 78/28/77 73/18/72
f 78/29/77 79/30/78 74/20/73
f 79/31/78 80/32/79 75/22/74
f 80/135/79 76/153/75 71/15/70
f 76/35/75 81/36/80 82/37/81
f 82/38/81 83/39/82 78/40/77
f 83/41/82 84/42/83 79/43/78
f 84/44/83 85/45/84 80/46/79
f 85/47/84 81/36/80 76/35/75
f 86/48/85 87/49/86 82/37/81
f 87/50/86 88/51/87 83/39/82
f 88/52/87 89/53/88 84/42/83
f 84/44/83 89/54/88 90/55/89
f 85/47/84 90/56/89 86/48/85
f 91/57/90 92/58/91 87/49/86
f 92/59/91 93/60/92 88/51/87
f 93/61/92 94/62/93 89/53/88
f 89/54/88 94/63/93 95/64/94
f 90/56/89 95/65/94 91/57/90
f 96/66/95 97/67/96 92/68/91
f 92/69/91 97/70/96 98/71/97
f 98/72/97 99/73/98 94/74/93
f 99/75/98 100/76/99 95/77/94
f 100/78/99 96/66/95 91/79/90
f 96/66/95 101/80/100 102/81/101
f 102/82/101 103/83/102 98/71/97
f 103/84/102 104/85/103 99/73/98
f 104/86/103 105/87/104 100/76/99
f 105/88/104 101/80/100 96/66/95
f 106/89/105 107/90/106 102/81/101
f 107/91/106 108/92/107 103/83/102
f 108/93/107 109/94/108 104/85/103
f 109/95/108 110/96/109 105/87/104
f 105/88/104 110/97/109 106/89/105
f 111/98/110 112/99/111 107/100/106
f 112/101/111 113/102/112 108/103/107
f 113/104/112 114/105/113 109/106/108
f 114/107/113 115/108/114 110/109/109
f 110/110/109 115/111/114 111/98/110
f 116/112/115 117/113/116 112/99/111
f 112/101/111 117/114/116 118/115/117
f 118/116/117 119/117/118 114/105/113
f 119/118/118 120/119/119 115/108/114
f 115/111/114 120/120/119 116/112/115
f 116/112/115 61/121/120 62/122/63
f 62/123/63 63/124/65 118/115/117
f 63/125/65 64/126/67 119/117/118
f 64/127/67 65/128/69 120/119/119
f 65/129/69 61/121/120 116/112/115
f 61/130/120 66/1/61 62/3/63
f 62/131/63 67/4/62 63/6/65
f 63/132/65 68/7/64 64/9/67
f 64/133/67 69/10/66 65/12/69
f 61/130/120 65/13/69 66/1/61
f 67/2/62 66/1/61 72/16/71
f 67/4/62 72/17/71 68/5/64
f 68/7/64 73/19/72 69/8/66
f 70/11/68 69/10/66 75/22/74
f 70/14/68 75/23/74 66/1/61
f 72/16/71 71/15/70 77/154/76
f 72/17/71 77/27/76 73/18/72
f 73/19/72 78/29/77 74/20/73
f 74/21/73 79/31/78 75/22/74
f 75/23/74 80/135/79 71/15/70
f 77/155/76 76/35/75 82/37/81
f 77/139/76 82/38/81 78/40/77
f 78/140/77 83/41/82 79/43/78
f 79/141/78 84/44/83 80/46/79
f 80/156/79 85/47/84 76/35/75
f 81/36/80 86/48/85 82/37/81
f 82/38/81 87/50/86 83/39/82
f 83/41/82 88/52/87 84/42/83
f 85/45/84 84/44/83 90/55/89
f 81/36/80 85/47/84 86/48/85
f 86/48/85 91/57/90 87/49/86
f 87/50/86 92/59/91 88/51/87
f 88/52/87 93/61/92 89/53/88
f 90/55/89 89/54/88 95/64/94
f 86/48/85 90/56/89 91/57/90
f 91/79/90 96/66/95 92/68/91
f 93/145/92 92/69/91 98/71/97
f 93/146/92 98/72/97 94/74/93
f 94/147/93 99/75/98 95/77/94
f 95/148/94 100/78/99 91/79/90
f 97/67/96 96/66/95 102/81/101
f 97/70/96 102/82/101 98/71/97
f 98/72/97 103/84/102 99/73/98
f 99/75/98 104/86/103 100/76/99
f 100/78/99 105/88/104 96/66/95
f 101/80/100 106/89/105 102/81/101
f 102/82/101 107/91/106 103/83/102
f 103/84/102 108/93/107 104/85/103
f 104/86/103 109/95/108 105/87/104
f 101/80/100 105/88/104 106/89/105
f 106/149/105 111/98/110 107/100/106
f 107/150/106 112/101/111 108/103/107
f 108/151/107 113/104/112 109/106/108
f 109/152/108 114/107/113 110/109/109
f 106/149/105 110/110/109 111/98/110
f 111/98/110 116/112/115 112/99/111
f 113/102/112 112/101/111 118/115/117
f 113/104/112 118/116/117 114/105/113
f 114/107/113 119/118/118 115/108/114
f 111/98/110 115/111/114 116/112/115
f 117/113/116 116/112/115 62/122/63
f 117/114/116 62/123/63 118/115/117
f 118/116/117 63/125/65 119/117/118
f 119/118/118 64/127/67 120/119/119
f 120/120/119 65/129/69 116/112/115
