# Blender v2.75 (sub 0) OBJ File: ''
# www.blender.org
mtllib Full_Pot.mtl
o Cylinder
v -0.194576 0.210314 -0.040551
v -0.211345 0.219748 -0.040551
v -0.211345 0.219748 -0.048061
v -0.225172 0.227981 -0.035386
v -0.225175 0.233294 -0.040693
v -0.203845 0.230375 -0.048061
v -0.203845 0.230375 -0.040551
v -0.194576 0.222344 -0.040551
v -0.207595 0.225061 -0.051816
v -0.194576 0.216329 -0.051816
v -0.194576 0.216329 -0.036797
v -0.207595 0.225061 -0.036797
v -0.194576 0.222344 -0.048061
v -0.226780 0.238697 -0.000586
v -0.219271 0.238697 -0.000586
v -0.214558 0.238608 -0.035379
v -0.219868 0.238608 -0.040689
v -0.213393 0.232520 -0.030072
v -0.218700 0.227206 -0.030076
v -0.215516 0.233384 -0.000586
v -0.219271 0.228070 -0.000586
v -0.226780 0.228070 -0.000586
v -0.229244 0.233384 -0.000586
v -0.147765 0.216329 -0.036797
v -0.147765 0.222344 -0.048061
v -0.147765 0.210314 -0.040551
v -0.147765 0.210314 -0.048061
v -0.194576 0.210314 -0.048061
v -0.147765 0.222344 -0.040551
v -0.194576 0.210314 0.046888
v -0.211345 0.219748 0.046888
v -0.211345 0.219748 0.039379
v -0.207595 0.225061 0.050643
v -0.225175 0.233294 0.039520
v -0.194576 0.222344 0.039379
v -0.203845 0.230375 0.039379
v -0.203845 0.230375 0.046888
v -0.194576 0.216329 0.050643
v -0.194576 0.216329 0.035624
v -0.194576 0.210314 0.039379
v -0.194576 0.222344 0.046888
v -0.207595 0.225061 0.035624
v -0.214558 0.238608 0.034206
v -0.219868 0.238608 0.039516
v -0.213393 0.232520 0.028899
v -0.225172 0.227981 0.034213
v -0.218700 0.227206 0.028903
v -0.147765 0.216329 0.035624
v -0.147765 0.222344 0.046888
v -0.147765 0.210314 0.039379
v -0.147765 0.210314 0.046888
v -0.147765 0.216329 0.050643
v -0.147765 0.222344 0.039379
v 0.194576 0.210314 -0.040551
v 0.194576 0.210314 -0.048061
v 0.211345 0.219748 -0.048061
v 0.207595 0.225061 -0.051816
v 0.225175 0.233294 -0.040693
v 0.194576 0.222344 -0.040551
v 0.203845 0.230375 -0.040551
v 0.203845 0.230375 -0.048061
v 0.194576 0.216329 -0.051816
v 0.194576 0.216329 -0.036797
v 0.211345 0.219748 -0.040551
v 0.194576 0.222344 -0.048061
v 0.207595 0.225061 -0.036797
v 0.214558 0.238608 -0.035379
v 0.219271 0.238697 -0.000586
v 0.226780 0.238697 -0.000586
v 0.219868 0.238608 -0.040689
v 0.213393 0.232520 -0.030072
v 0.225172 0.227981 -0.035386
v 0.218700 0.227206 -0.030076
v 0.219271 0.228070 -0.000586
v 0.215516 0.233384 -0.000586
v 0.229244 0.233384 -0.000586
v 0.226780 0.228070 -0.000586
v 0.147765 0.216329 -0.036797
v 0.147765 0.222344 -0.048061
v 0.147765 0.210314 -0.040551
v 0.147765 0.210314 -0.048061
v 0.147765 0.216329 -0.051816
v 0.147765 0.222344 -0.040551
v 0.211345 0.219748 0.039379
v 0.211345 0.219748 0.046888
v 0.194576 0.210314 0.046888
v 0.225172 0.227981 0.034213
v 0.225175 0.233294 0.039520
v 0.203845 0.230375 0.046888
v 0.203845 0.230375 0.039379
v 0.194576 0.222344 0.039379
v 0.207595 0.225061 0.050643
v 0.194576 0.216329 0.050643
v 0.194576 0.216329 0.035624
v 0.207595 0.225061 0.035624
v 0.194576 0.222344 0.046888
v 0.214558 0.238608 0.034206
v 0.219868 0.238608 0.039516
v 0.213393 0.232520 0.028899
v 0.218700 0.227206 0.028903
v 0.147765 0.216329 0.035624
v 0.147765 0.222344 0.046888
v 0.194576 0.210314 0.039379
v 0.147765 0.210314 0.039379
v 0.147765 0.210314 0.046888
v 0.147765 0.222344 0.039379
v 0.000000 0.233619 -0.157905
v 0.056830 0.233619 -0.147282
v 0.056830 0.006974 -0.147282
v 0.105985 0.233619 -0.116846
v 0.105985 0.006974 -0.116846
v 0.140826 0.233619 -0.070709
v 0.140826 0.006974 -0.070709
v 0.156647 0.233619 -0.015102
v 0.156647 0.006974 -0.015102
v 0.151313 0.233619 0.042466
v 0.151313 0.006974 0.042466
v 0.125543 0.233619 0.094219
v 0.125543 0.006974 0.094219
v 0.082818 0.233619 0.133168
v 0.082818 0.006974 0.133168
v 0.028907 0.233619 0.154053
v 0.028907 0.006974 0.154053
v -0.028907 0.233619 0.154053
v -0.028907 0.006974 0.154053
v -0.082818 0.233619 0.133168
v -0.082818 0.006974 0.133168
v -0.125543 0.233619 0.094219
v -0.125543 0.006974 0.094219
v -0.151313 0.233619 0.042466
v -0.151313 0.006974 0.042466
v -0.156647 0.233619 -0.015102
v -0.156647 0.006974 -0.015102
v -0.140826 0.233619 -0.070709
v -0.140826 0.006974 -0.070709
v -0.105985 0.233619 -0.116846
v -0.105985 0.006974 -0.116846
v 0.109173 0.237690 -0.120344
v -0.056830 0.233619 -0.147282
v 0.000000 0.006974 -0.157905
v -0.056830 0.006974 -0.147282
v 0.027641 0.000947 0.147280
v 0.134658 0.000947 -0.067638
v 0.079190 0.000947 0.127310
v -0.101343 0.000947 -0.111754
v 0.054341 0.000947 -0.140856
v -0.149786 0.000947 -0.014466
v 0.120044 0.000947 0.090067
v 0.144686 0.000947 0.040580
v -0.120044 0.000947 0.090067
v -0.079190 0.000947 0.127310
v -0.054341 0.000947 -0.140856
v 0.149786 0.000947 -0.014466
v -0.027641 0.000947 0.147280
v -0.134658 0.000947 -0.067638
v 0.101343 0.000947 -0.111754
v -0.144686 0.000947 0.040580
v 0.000000 0.000947 -0.151014
v -0.129320 0.237690 0.097071
v -0.129320 0.244219 0.097071
v -0.155865 0.244219 0.043761
v 0.085309 0.237690 0.137192
v 0.029777 0.237690 0.158706
v 0.000000 0.237690 -0.162638
v -0.155865 0.237690 0.043761
v 0.155865 0.237690 0.043761
v -0.085309 0.237690 0.137192
v -0.109173 0.237690 -0.120344
v 0.145062 0.237690 -0.072819
v 0.161360 0.237690 -0.015539
v -0.029777 0.237690 0.158706
v -0.161360 0.237690 -0.015539
v 0.058540 0.237690 -0.151695
v 0.129320 0.237690 0.097071
v -0.058540 0.237690 -0.151695
v -0.145062 0.237690 -0.072819
v -0.109173 0.244219 -0.120344
v -0.145062 0.244219 -0.072819
v -0.139338 0.244219 -0.069969
v 0.161360 0.244219 -0.015539
v 0.155865 0.244219 0.043761
v -0.161360 0.244219 -0.015539
v 0.129320 0.244219 0.097071
v 0.085309 0.244219 0.137192
v 0.029777 0.244219 0.158706
v 0.000000 0.244219 -0.162638
v 0.058540 0.244219 -0.151695
v -0.058540 0.244219 -0.151695
v -0.029777 0.244219 0.158706
v 0.109173 0.244219 -0.120344
v -0.085309 0.244219 0.137192
v 0.145062 0.244219 -0.072819
v 0.081943 0.244219 0.131756
v 0.000000 0.244219 -0.156243
v 0.056230 0.244219 -0.145732
v -0.104865 0.244219 -0.115618
v -0.056230 0.244219 -0.145732
v 0.028602 0.244219 0.152420
v -0.028602 0.244219 0.152420
v 0.104865 0.244219 -0.115618
v -0.081943 0.244219 0.131756
v 0.139338 0.244219 -0.069969
v -0.124217 0.244219 0.093218
v 0.154993 0.244219 -0.014949
v -0.149715 0.244219 0.042011
v 0.149715 0.244219 0.042011
v 0.124217 0.244219 0.093218
v -0.154993 0.244219 -0.014949
v -0.144947 0.236650 0.040655
v -0.150057 0.236650 -0.014491
v -0.079333 0.236650 0.127541
v -0.120261 0.236650 0.090231
v 0.054439 0.236650 -0.141110
v 0.054439 0.158946 -0.141110
v 0.101526 0.158946 -0.111955
v -0.101526 0.158946 -0.111955
v -0.150057 0.158946 -0.014491
v 0.134901 0.158946 -0.067759
v -0.054439 0.236650 -0.141110
v -0.054439 0.158946 -0.141110
v 0.000000 0.158946 -0.151286
v -0.027691 0.236650 0.147548
v -0.027691 0.158946 0.147548
v -0.079333 0.158946 0.127541
v 0.101526 0.236650 -0.111955
v -0.120261 0.158946 0.090231
v 0.134901 0.236650 -0.067759
v 0.150057 0.158946 -0.014491
v -0.144947 0.158946 0.040655
v 0.150057 0.236650 -0.014491
v 0.144947 0.158946 0.040655
v 0.144947 0.236650 0.040655
v 0.120261 0.158946 0.090231
v -0.134901 0.158946 -0.067759
v 0.120261 0.236650 0.090231
v 0.079333 0.158946 0.127541
v -0.134901 0.236650 -0.067759
v 0.079333 0.236650 0.127541
v 0.027691 0.158946 0.147548
v 0.000000 0.236650 -0.151286
v -0.101526 0.236650 -0.111955
v 0.027691 0.236650 0.147548
v -0.147765 0.216329 -0.051816
v 0.147765 0.216329 0.050643
vt 0.527714 0.341800
vt 0.582363 0.431556
vt 0.307141 0.405621
vt 0.427867 0.312909
vt 0.334939 0.359965
vt 0.377078 0.327605
vt 0.307141 0.511189
vt 0.297439 0.458405
vt 0.377078 0.589205
vt 0.334939 0.556844
vt 0.563288 0.535326
vt 0.427867 0.603900
vt 0.527714 0.575010
vt 0.480446 0.598946
vt 0.582363 0.485254
vt 0.563288 0.381483
vt 0.480446 0.317864
vt 0.530192 0.703245
vt 0.514204 0.703245
vt 0.514204 0.695963
vt 0.847196 0.000000
vt 0.840010 0.013210
vt 0.834950 0.008095
vt 0.521355 0.695963
vt 0.521355 0.688682
vt 0.530192 0.688682
vt 0.639107 0.237637
vt 0.644709 0.240062
vt 0.639373 0.254256
vt 0.720499 0.267322
vt 0.726980 0.281018
vt 0.721510 0.283894
vt 0.650574 0.242425
vt 0.645091 0.252923
vt 0.726226 0.268156
vt 0.732553 0.278156
vt 0.499487 0.649932
vt 0.506647 0.649932
vt 0.511140 0.683667
vt 0.648999 0.221573
vt 0.655065 0.225438
vt 0.790082 0.298889
vt 0.781735 0.294573
vt 0.787588 0.289383
vt 0.507192 0.713402
vt 0.501021 0.708253
vt 0.506077 0.688815
vt 0.618672 0.310717
vt 0.612773 0.303894
vt 0.618672 0.299768
vt 0.574825 0.689242
vt 0.579707 0.689510
vt 0.580557 0.717999
vt 0.840000 0.046979
vt 0.835057 0.047161
vt 0.829881 0.047014
vt 0.781427 0.261232
vt 0.786665 0.261000
vt 0.506647 0.741995
vt 0.499487 0.741995
vt 0.726825 0.222392
vt 0.655065 0.297163
vt 0.714873 0.266503
vt 0.721200 0.221573
vt 0.643893 0.299768
vt 0.633919 0.255528
vt 0.530192 0.695963
vt 0.574825 0.688682
vt 0.574825 0.703245
vt 0.530192 0.788026
vt 0.514204 0.788026
vt 0.514204 0.780745
vt 0.660296 0.283715
vt 0.665977 0.281298
vt 0.670069 0.299723
vt 0.530192 0.611182
vt 0.521355 0.611182
vt 0.521355 0.603900
vt 0.660606 0.267115
vt 0.738092 0.238157
vt 0.732553 0.238963
vt 0.739185 0.221573
vt 0.666249 0.268417
vt 0.671759 0.278904
vt 0.743899 0.237312
vt 0.744569 0.224463
vt 0.511140 0.616197
vt 0.676129 0.295845
vt 0.790082 0.221573
vt 0.794964 0.225473
vt 0.787588 0.232339
vt 0.501021 0.775736
vt 0.506077 0.611048
vt 0.517780 0.777104
vt 0.507192 0.770587
vt 0.580557 0.660950
vt 0.840010 0.080533
vt 0.834950 0.085684
vt 0.829639 0.085344
vt 0.744414 0.283087
vt 0.676129 0.224155
vt 0.738875 0.283893
vt 0.664945 0.221573
vt 0.670487 0.222852
vt 0.574825 0.611182
vt 0.530192 0.603900
vt 0.574825 0.780745
vt 0.574825 0.788026
vt 0.232809 0.793525
vt 0.232809 0.800806
vt 0.216821 0.800806
vt 0.617961 0.283704
vt 0.623563 0.281279
vt 0.627854 0.299768
vt 0.232809 0.623962
vt 0.223972 0.623962
vt 0.223972 0.616680
vt 0.618227 0.267085
vt 0.702819 0.238145
vt 0.697194 0.238964
vt 0.703831 0.221573
vt 0.623945 0.268418
vt 0.629429 0.278916
vt 0.708547 0.237311
vt 0.709301 0.224450
vt 0.213757 0.628977
vt 0.209264 0.662712
vt 0.202104 0.662712
vt 0.633919 0.295903
vt 0.776545 0.221573
vt 0.781427 0.224938
vt 0.774051 0.231080
vt 0.216821 0.793525
vt 0.203637 0.788516
vt 0.208694 0.623828
vt 0.220396 0.789884
vt 0.209808 0.783367
vt 0.580557 0.603900
vt 0.579707 0.632390
vt 0.574825 0.632658
vt 0.832265 0.290343
vt 0.827205 0.295459
vt 0.827312 0.256392
vt 0.821895 0.295792
vt 0.822136 0.256539
vt 0.773127 0.259463
vt 0.767890 0.259230
vt 0.202104 0.754775
vt 0.709146 0.283075
vt 0.633919 0.224178
vt 0.703521 0.283894
vt 0.622747 0.221573
vt 0.628201 0.222845
vt 0.277441 0.623962
vt 0.232809 0.616680
vt 0.277441 0.793525
vt 0.277441 0.800806
vt 0.216821 0.716025
vt 0.216821 0.708743
vt 0.232809 0.708743
vt 0.839451 0.211709
vt 0.832265 0.223021
vt 0.827205 0.217869
vt 0.223972 0.708743
vt 0.223972 0.701462
vt 0.232809 0.701462
vt 0.681360 0.237581
vt 0.687041 0.239998
vt 0.681671 0.254181
vt 0.755760 0.267310
vt 0.762238 0.281004
vt 0.756854 0.283893
vt 0.692823 0.242392
vt 0.687313 0.252879
vt 0.761567 0.268155
vt 0.767890 0.278153
vt 0.213757 0.696447
vt 0.691134 0.221573
vt 0.697194 0.225451
vt 0.776545 0.298889
vt 0.768198 0.293199
vt 0.774051 0.288123
vt 0.209808 0.726182
vt 0.203637 0.721033
vt 0.208694 0.701595
vt 0.631621 0.310690
vt 0.625782 0.303977
vt 0.631621 0.299768
vt 0.832256 0.256574
vt 0.209264 0.754775
vt 0.762083 0.222379
vt 0.697194 0.297141
vt 0.750221 0.266504
vt 0.756544 0.221573
vt 0.686010 0.299723
vt 0.676129 0.255461
vt 0.277441 0.701462
vt 0.277441 0.716025
vt 0.232809 0.716025
vt 0.101052 0.836278
vt 0.046867 0.836667
vt 0.046867 0.617070
vt 0.000000 0.837782
vt 0.000000 0.618185
vt 0.814822 0.221573
vt 0.768647 0.220059
vt 0.768647 0.000573
vt 0.714714 0.219485
vt 0.714714 0.000000
vt 0.660307 0.219931
vt 0.660307 0.000446
vt 0.612773 0.221335
vt 0.612773 0.001850
vt 0.799260 0.553791
vt 0.798724 0.595217
vt 0.582651 0.595218
vt 0.798436 0.647489
vt 0.582363 0.647489
vt 0.798436 0.703546
vt 0.582363 0.703546
vt 0.798724 0.755817
vt 0.582651 0.755817
vt 0.799260 0.797244
vt 0.583187 0.797244
vt 0.499487 0.825236
vt 0.451954 0.823831
vt 0.451954 0.604346
vt 0.397547 0.823386
vt 0.397547 0.603900
vt 0.343614 0.823959
vt 0.343614 0.604474
vt 0.297439 0.825474
vt 0.297439 0.605988
vt 0.014641 0.211557
vt 0.043660 0.259218
vt 0.040325 0.262309
vt 0.155237 0.836667
vt 0.101052 0.616680
vt 0.202104 0.837782
vt 0.155237 0.617069
vt 0.191045 0.318082
vt 0.240389 0.343068
vt 0.236430 0.348400
vt 0.016255 0.412106
vt 0.189247 0.324508
vt 0.136762 0.610028
vt 0.039148 0.567558
vt 0.010129 0.519897
vt 0.016255 0.517484
vt 0.277526 0.545095
vt 0.240389 0.586521
vt 0.236430 0.581190
vt 0.136156 0.312909
vt 0.136763 0.319562
vt 0.086066 0.334231
vt 0.297439 0.492823
vt 0.290981 0.491596
vt 0.290981 0.437994
vt 0.083137 0.601340
vt 0.086065 0.595359
vt 0.039148 0.362032
vt 0.044003 0.366533
vt 0.277526 0.384495
vt 0.271940 0.388012
vt 0.191045 0.611508
vt 0.189247 0.605082
vt 0.000000 0.464795
vt 0.006570 0.464795
vt 0.271940 0.541578
vt 0.044003 0.563057
vt 0.083137 0.328250
vt 0.297439 0.436767
vt 0.136156 0.616680
vt 0.010129 0.409692
vt 0.279437 0.616680
vt 0.285654 0.616688
vt 0.284175 0.666478
vt 0.087650 0.019910
vt 0.085638 0.015802
vt 0.140252 0.000000
vt 0.087650 0.293000
vt 0.140669 0.308340
vt 0.140253 0.312909
vt 0.301951 0.184483
vt 0.301951 0.128426
vt 0.306387 0.127583
vt 0.043660 0.053692
vt 0.014641 0.101352
vt 0.010434 0.099695
vt 0.244902 0.034728
vt 0.247621 0.031066
vt 0.285875 0.073739
vt 0.195557 0.303168
vt 0.244902 0.278181
vt 0.247621 0.281843
vt 0.010434 0.213215
vt 0.000000 0.156455
vt 0.140669 0.004569
vt 0.196792 0.005328
vt 0.282038 0.236755
vt 0.306387 0.185326
vt 0.085638 0.297107
vt 0.040325 0.050600
vt 0.282038 0.076155
vt 0.196792 0.307582
vt 0.004512 0.156455
vt 0.195557 0.009742
vt 0.285875 0.239170
vt 0.554008 0.031066
vt 0.592261 0.073739
vt 0.587078 0.077003
vt 0.285654 0.721556
vt 0.291872 0.721548
vt 0.292388 0.778541
vt 0.277958 0.666471
vt 0.283659 0.723471
vt 0.286171 0.778548
vt 0.293868 0.828331
vt 0.277441 0.723463
vt 0.284175 0.779967
vt 0.821046 0.250777
vt 0.814822 0.250777
vt 0.815374 0.208104
vt 0.277958 0.779960
vt 0.285654 0.828339
vt 0.821598 0.208104
vt 0.815670 0.154260
vt 0.829639 0.105854
vt 0.823418 0.105854
vt 0.823024 0.049094
vt 0.828115 0.211709
vt 0.821895 0.211709
vt 0.823024 0.162614
vt 0.821895 0.154260
vt 0.815670 0.096517
vt 0.829245 0.049094
vt 0.821895 0.000000
vt 0.829245 0.162614
vt 0.821895 0.096517
vt 0.815374 0.042673
vt 0.287650 0.616688
vt 0.293868 0.616680
vt 0.292388 0.665052
vt 0.821598 0.042673
vt 0.814822 0.000000
vt 0.286171 0.665059
vt 0.446639 0.312909
vt 0.392025 0.297107
vt 0.394743 0.291557
vt 0.446639 0.000000
vt 0.447202 0.006174
vt 0.394743 0.021352
vt 0.550334 0.036014
vt 0.501510 0.011291
vt 0.447202 0.306736
vt 0.501510 0.301618
vt 0.392025 0.015802
vt 0.351218 0.054777
vt 0.503179 0.005328
vt 0.503179 0.307582
vt 0.550334 0.276895
vt 0.346712 0.050600
vt 0.322505 0.101934
vt 0.554008 0.281843
vt 0.587078 0.235907
vt 0.306387 0.156455
vt 0.316820 0.099695
vt 0.612773 0.185326
vt 0.592261 0.239170
vt 0.316820 0.213215
vt 0.312483 0.156455
vt 0.612773 0.127583
vt 0.606780 0.184187
vt 0.322505 0.210975
vt 0.351218 0.258132
vt 0.606780 0.128722
vt 0.346712 0.262309
vt 0.945226 0.784322
vt 0.892439 0.783828
vt 0.891739 0.776257
vt 0.583108 0.512802
vt 0.590471 0.510272
vt 0.591816 0.549955
vt 0.847339 0.561341
vt 0.847339 0.775849
vt 0.802444 0.776257
vt 0.996637 0.778231
vt 0.993996 0.785739
vt 0.951149 0.561341
vt 0.951150 0.775849
vt 0.899244 0.775707
vt 0.589751 0.460199
vt 0.800558 0.460199
vt 0.801279 0.510272
vt 0.996355 0.322391
vt 0.998052 0.536652
vt 0.958195 0.535235
vt 0.802623 0.549955
vt 0.956498 0.320975
vt 0.908518 0.534741
vt 0.992299 1.000000
vt 0.943530 0.998583
vt 0.906821 0.320480
vt 0.855730 0.535236
vt 0.890742 0.998089
vt 0.854033 0.320975
vt 0.806961 0.536652
vt 0.841065 0.998583
vt 0.591816 0.316745
vt 0.802623 0.316745
vt 0.801279 0.356429
vt 0.842762 0.784322
vt 0.801207 1.000000
vt 0.590471 0.356429
vt 0.800558 0.406501
vt 0.899244 0.561198
vt 0.996045 0.561749
vt 0.996045 0.776257
vt 0.589751 0.406501
vt 0.840428 0.776768
vt 0.802904 0.785739
vt 0.799260 0.778231
vt 0.952857 0.553938
vt 0.899244 0.553791
vt 0.845632 0.553938
vt 0.802444 0.561749
vt 0.799260 0.554360
vt 1.000000 0.314884
vt 0.907521 0.312909
vt 0.852997 0.313420
vt 0.805264 0.322391
vt 0.802623 0.314884
vt 0.583108 0.353898
vt 0.582363 0.405618
vt 0.794964 0.295525
vt 0.517780 0.706885
vt 0.702254 0.312485
vt 0.704261 0.283894
vt 0.707314 0.312485
vt 0.829639 0.007762
vt 0.732553 0.223226
vt 0.649347 0.298497
vt 0.574825 0.695963
vt 0.530192 0.780745
vt 0.847196 0.091844
vt 0.655065 0.265835
vt 0.750221 0.227314
vt 0.781735 0.227264
vt 0.632568 0.301780
vt 0.638779 0.310690
vt 0.712374 0.312485
vt 0.710367 0.283894
vt 0.750221 0.282242
vt 0.574825 0.603900
vt 0.839451 0.303553
vt 0.612773 0.265814
vt 0.714873 0.227312
vt 0.768198 0.225889
vt 0.625782 0.299768
vt 0.625782 0.308853
vt 0.618672 0.300631
vt 0.717421 0.312558
vt 0.712374 0.312191
vt 0.717421 0.283894
vt 0.714873 0.282241
vt 0.277441 0.616680
vt 0.781427 0.294990
vt 0.220396 0.719665
vt 0.697194 0.312485
vt 0.699201 0.283894
vt 0.821895 0.218209
vt 0.767890 0.223224
vt 0.691552 0.298444
vt 0.277441 0.708743
vt 0.814822 0.002088
vt 0.583187 0.553791
vt 0.499487 0.605750
vt 0.202104 0.618185
vt 0.287650 0.828339
vt 0.279437 0.828331
vt 0.828115 0.000000
vt 0.821046 0.000000
vt 0.946263 0.776768
vt 0.584496 0.553791
vt 0.999229 0.554360
vt 0.958832 0.313420
vt 0.584496 0.312909
vt 0.582363 0.461083
vn 0.501300 0.668000 0.549900
vn 0.741000 0.668000 0.068700
vn -0.666200 0.668000 0.331700
vn -0.000000 0.668000 0.744200
vn -0.501300 0.668000 0.549900
vn -0.268800 0.668000 0.693900
vn -0.715800 0.668000 -0.203700
vn -0.741000 0.668000 0.068700
vn -0.391800 0.668000 -0.632700
vn -0.593900 0.668000 -0.448500
vn 0.593900 0.668000 -0.448500
vn -0.136700 0.668000 -0.731500
vn 0.391800 0.668000 -0.632700
vn 0.136700 0.668000 -0.731500
vn 0.715800 0.668000 -0.203700
vn 0.666200 0.668000 0.331700
vn 0.268800 0.668000 0.693900
vn -0.218200 -0.866000 0.450000
vn -0.359900 -0.849900 0.385000
vn -0.559200 -0.632200 -0.536300
vn -0.788000 -0.606400 -0.106600
vn -0.831400 0.182000 -0.525100
vn 0.392700 0.759000 -0.519300
vn 0.631200 0.682400 0.368700
vn 0.300700 0.790800 0.533000
vn -0.162900 0.123600 -0.978900
vn -0.042900 -0.089300 -0.995100
vn -0.042900 -0.089300 0.995100
vn 0.335400 -0.232800 0.912900
vn 0.300700 0.790900 -0.533000
vn -0.561300 0.827600 0.000000
vn 0.446300 0.894900 -0.000000
vn 0.467000 0.884200 -0.006600
vn -0.233400 0.848400 -0.475200
vn 0.889700 -0.047600 0.454100
vn 0.153600 -0.934500 0.321100
vn 1.000000 -0.002600 -0.000000
vn 0.458900 -0.888500 -0.000000
vn -0.556600 -0.830800 0.000000
vn -0.999900 0.016000 0.000000
vn 0.000000 -0.000000 1.000000
vn 0.000000 0.874500 -0.485000
vn 0.000000 -0.874500 0.485000
vn 0.000000 -0.874500 -0.485000
vn -0.218200 -0.866000 -0.449900
vn 0.000000 0.874500 0.485100
vn -0.218200 -0.866000 0.449900
vn -0.559200 -0.632200 0.536300
vn -0.359900 -0.849900 -0.384900
vn -0.162900 0.123600 0.978900
vn -0.831400 0.182000 0.525100
vn 0.631200 0.682400 -0.368700
vn 0.392700 0.759000 0.519300
vn 0.300700 0.790900 0.533000
vn 0.335500 -0.232800 -0.912800
vn 0.467000 0.884200 0.006600
vn -0.233400 0.848400 0.475200
vn 0.889700 -0.047500 -0.454100
vn -0.788000 -0.606400 0.106600
vn 0.153600 -0.934500 -0.321100
vn 0.000000 -0.000000 -1.000000
vn 0.000000 0.874500 0.485000
vn 0.218200 -0.866000 0.450000
vn 0.218200 -0.866000 -0.449900
vn 0.559200 -0.632200 -0.536300
vn 0.162900 0.123600 -0.978900
vn 0.831400 0.182000 -0.525100
vn -0.300700 0.790800 0.533000
vn -0.631200 0.682400 0.368700
vn -0.392700 0.759000 -0.519300
vn 0.042900 -0.089300 -0.995100
vn 0.042900 -0.089300 0.995100
vn 0.359900 -0.849900 0.385000
vn -0.300700 0.790900 -0.533000
vn -0.335400 -0.232800 0.912900
vn -0.467000 0.884200 -0.006600
vn -0.446300 0.894900 -0.000000
vn 0.561300 0.827600 0.000000
vn 0.233400 0.848400 -0.475200
vn -0.889700 -0.047600 0.454100
vn 0.788000 -0.606400 -0.106600
vn -0.153600 -0.934500 0.321100
vn -0.458900 -0.888500 -0.000000
vn -1.000000 -0.002600 -0.000000
vn 0.999900 0.016000 0.000000
vn 0.556600 -0.830800 0.000000
vn 0.359900 -0.849900 -0.384900
vn 0.559200 -0.632200 0.536300
vn 0.218200 -0.866000 0.449900
vn 0.788000 -0.606400 0.106600
vn 0.831400 0.182000 0.525100
vn -0.392700 0.759000 0.519300
vn -0.631200 0.682400 -0.368700
vn 0.162900 0.123600 0.978900
vn -0.335500 -0.232800 -0.912800
vn -0.300700 0.790900 0.533000
vn -0.467000 0.884200 0.006600
vn 0.233400 0.848400 0.475200
vn -0.889700 -0.047500 -0.454100
vn -0.153600 -0.934500 -0.321100
vn -0.000000 -0.436800 -0.899600
vn 0.325000 -0.436800 -0.838800
vn 0.331700 -0.396100 -0.856200
vn 0.606000 -0.436800 -0.664800
vn 0.618600 -0.396100 -0.678600
vn 0.805300 -0.436700 -0.401000
vn 0.821900 -0.396100 -0.409300
vn 0.895700 -0.436800 -0.083000
vn 0.914300 -0.396100 -0.084700
vn 0.865200 -0.436800 0.246200
vn 0.883200 -0.396100 0.251300
vn 0.717900 -0.436800 0.542100
vn 0.732700 -0.396100 0.553300
vn 0.473600 -0.436800 0.764800
vn 0.483400 -0.396100 0.780700
vn 0.165300 -0.436800 0.884200
vn 0.168700 -0.396100 0.902600
vn -0.165300 -0.436800 0.884200
vn -0.168700 -0.396100 0.902600
vn -0.473600 -0.436800 0.764800
vn -0.483400 -0.396100 0.780700
vn -0.717900 -0.436800 0.542100
vn -0.732700 -0.396100 0.553300
vn -0.865200 -0.436800 0.246200
vn -0.883200 -0.396100 0.251300
vn -0.895700 -0.436800 -0.083000
vn -0.914300 -0.396100 -0.084700
vn -0.805300 -0.436700 -0.401000
vn -0.821900 -0.396100 -0.409300
vn -0.606000 -0.436800 -0.664800
vn -0.618600 -0.396100 -0.678600
vn 0.617600 -0.399600 -0.677400
vn -0.325000 -0.436800 -0.838800
vn 0.000000 -0.396100 -0.918200
vn -0.331700 -0.396100 -0.856200
vn 0.071100 -0.922200 0.380200
vn 0.346300 -0.922200 -0.172400
vn 0.203600 -0.922200 0.328900
vn -0.260600 -0.922200 -0.285900
vn 0.139700 -0.922200 -0.360700
vn -0.385200 -0.922200 -0.035700
vn 0.308700 -0.922200 0.233100
vn 0.372100 -0.922200 0.105900
vn -0.308700 -0.922200 0.233100
vn -0.203600 -0.922200 0.328900
vn -0.139700 -0.922200 -0.360700
vn 0.385200 -0.922200 -0.035700
vn -0.071100 -0.922200 0.380200
vn -0.346300 -0.922200 -0.172400
vn 0.260600 -0.922200 -0.285900
vn -0.372100 -0.922200 0.105900
vn -0.000000 -0.922200 -0.386800
vn -0.731500 -0.399600 0.552400
vn -0.593900 0.668000 0.448500
vn -0.715800 0.668000 0.203600
vn 0.482600 -0.399600 0.779400
vn 0.168400 -0.399600 0.901100
vn -0.000000 -0.399600 -0.916700
vn -0.881700 -0.399600 0.250900
vn 0.881700 -0.399600 0.250900
vn -0.482600 -0.399600 0.779400
vn -0.617600 -0.399600 -0.677400
vn 0.820600 -0.399600 -0.408600
vn 0.912800 -0.399600 -0.084600
vn -0.168400 -0.399600 0.901100
vn -0.912800 -0.399600 -0.084600
vn 0.331100 -0.399600 -0.854800
vn 0.731500 -0.399600 0.552400
vn -0.331100 -0.399600 -0.854800
vn -0.820600 -0.399600 -0.408600
vn -0.501300 0.668000 -0.549900
vn -0.666200 0.668000 -0.331700
vn 0.384900 0.902900 0.191600
vn 0.741000 0.668000 -0.068700
vn 0.715800 0.668000 0.203700
vn -0.741000 0.668000 -0.068700
vn 0.593900 0.668000 0.448500
vn 0.391800 0.668000 0.632700
vn 0.136700 0.668000 0.731500
vn -0.000000 0.668000 -0.744200
vn 0.268800 0.668000 -0.693900
vn -0.268800 0.668000 -0.693900
vn -0.136700 0.668000 0.731500
vn 0.501300 0.668000 -0.549900
vn -0.391800 0.668000 0.632700
vn 0.666100 0.668000 -0.331700
vn -0.226300 0.902900 -0.365500
vn -0.000000 0.902900 0.430000
vn -0.155300 0.902900 0.400900
vn 0.289700 0.902800 0.317800
vn 0.155300 0.902900 0.400900
vn -0.079000 0.902800 -0.422600
vn 0.079000 0.902800 -0.422700
vn -0.289700 0.902800 0.317800
vn 0.226300 0.902900 -0.365500
vn -0.384900 0.902900 0.191700
vn 0.343100 0.902900 -0.259100
vn -0.428100 0.902900 0.039700
vn 0.413500 0.902900 -0.117700
vn -0.413500 0.902900 -0.117700
vn -0.343100 0.902900 -0.259100
vn 0.428100 0.902900 0.039700
vn 0.918900 0.295500 -0.261400
vn 0.951300 0.295500 0.088100
vn 0.502900 0.295500 -0.812200
vn 0.762400 0.295500 -0.575700
vn -0.345100 0.295500 0.890800
vn 0.345100 0.295500 0.890800
vn 0.175500 0.295400 -0.939100
vn -0.643600 0.295400 0.706000
vn -0.855200 0.295500 0.425800
vn -0.951300 0.295500 0.088100
vn -0.918900 0.295500 -0.261400
vn -0.762400 0.295500 -0.575700
vn 0.855200 0.295500 0.425800
vn -0.502900 0.295500 -0.812300
vn -0.000000 0.295500 0.955400
vn 0.643600 0.295400 0.706000
vn -0.175600 0.295400 -0.939100
usemtl None
s 1
f 216/1/1 217/2/2 218/3/3
f 221/4/4 215/5/5 214/6/6
f 231/7/7 228/8/8 218/3/3
f 236/9/9 233/10/10 231/7/7
f 226/11/11 239/12/12 236/9/9
f 226/11/11 224/13/13 223/14/14
f 217/2/2 229/15/15 226/11/11
f 216/1/1 234/16/16 217/2/2
f 221/4/4 220/17/17 216/1/1
f 218/3/3 215/5/5 221/4/4
f 226/11/11 231/7/7 218/3/3
f 226/11/11 223/14/14 239/12/12
f 218/3/3 217/2/2 226/11/11
f 218/3/3 221/4/4 216/1/1
f 226/11/11 236/9/9 231/7/7
usemtl None_NONE
f 1/18/18 2/19/19 3/20/20
f 3/21/20 4/22/21 5/23/22
f 6/24/23 7/25/24 8/26/25
f 3/27/20 9/28/26 10/29/27
f 11/30/28 12/31/29 2/32/19
f 9/28/26 6/33/23 13/34/30
f 8/35/25 7/36/24 12/31/29
f 14/37/31 15/38/32 16/39/33
f 9/28/26 5/40/22 17/41/34
f 7/42/24 16/43/33 18/44/35
f 2/19/19 19/45/36 4/46/21
f 17/47/34 16/39/33 7/25/24
f 12/48/29 18/49/35 19/50/36
f 20/51/37 21/52/38 19/53/36
f 4/22/21 22/54/39 23/55/40
f 5/23/22 23/55/40 14/56/31
f 15/57/32 20/58/37 18/44/35
f 19/45/36 21/59/38 22/60/39
f 8/35/25 11/30/28 24/61/41
f 10/29/27 13/34/30 25/62/42
f 11/30/28 1/63/18 26/64/43
f 27/65/44 28/66/45 10/29/27
f 13/67/30 8/26/25 29/68/46
f 26/69/43 1/18/18 28/67/45
f 30/70/47 31/71/48 32/72/49
f 31/73/48 33/74/50 34/75/51
f 35/76/30 36/77/52 37/78/53
f 38/79/28 33/74/50 31/73/48
f 39/80/27 40/81/45 32/82/49
f 41/83/54 37/84/53 33/74/50
f 35/85/30 39/80/27 42/86/55
f 43/87/56 15/38/32 14/37/31
f 33/74/50 37/84/53 44/88/57
f 36/89/52 42/90/55 45/91/58
f 32/72/49 31/71/48 46/92/59
f 36/77/52 43/87/56 44/93/57
f 42/94/55 32/72/49 47/95/60
f 47/96/60 21/52/38 20/51/37
f 46/97/59 34/98/51 23/55/40
f 34/98/51 44/99/57 14/56/31
f 45/91/58 20/58/37 15/57/32
f 47/95/60 46/92/59 22/60/39
f 48/100/61 39/80/27 35/85/30
f 49/101/62 41/83/54 38/79/28
f 50/102/44 40/81/45 39/80/27
f 51/103/43 52/104/41 38/79/28
f 53/105/42 35/76/30 41/106/54
f 50/107/44 51/108/43 30/70/47
f 54/109/63 55/110/64 56/111/65
f 56/112/65 57/113/66 58/114/67
f 59/115/68 60/116/69 61/117/70
f 62/118/71 57/113/66 56/112/65
f 63/119/72 54/120/63 64/121/73
f 65/122/74 61/123/70 57/113/66
f 59/124/68 63/119/72 66/125/75
f 67/126/76 68/127/77 69/128/78
f 57/113/66 61/123/70 70/129/79
f 60/130/69 66/131/75 71/132/80
f 64/133/73 56/111/65 72/134/81
f 60/116/69 67/126/76 70/135/79
f 66/136/75 64/133/73 73/137/82
f 73/138/82 74/139/83 75/140/84
f 72/141/81 58/142/67 76/143/85
f 58/142/67 70/144/79 69/145/78
f 71/132/80 75/146/84 68/147/77
f 73/137/82 72/134/81 77/148/86
f 78/149/41 63/119/72 59/124/68
f 79/150/42 65/122/74 62/118/71
f 80/151/43 54/120/63 63/119/72
f 81/152/44 82/153/61 62/118/71
f 83/154/46 59/115/68 65/155/74
f 80/156/43 81/157/44 55/110/64
f 84/158/87 85/159/88 86/160/89
f 85/161/88 87/162/90 88/163/91
f 89/164/92 90/165/93 91/166/74
f 85/167/88 92/168/94 93/169/72
f 94/170/71 95/171/95 84/172/87
f 92/168/94 89/173/92 96/174/96
f 91/175/74 90/176/93 95/171/95
f 69/128/78 68/127/77 97/177/97
f 92/168/94 88/178/91 98/179/98
f 90/180/93 97/181/97 99/182/99
f 84/158/87 100/183/100 87/184/90
f 98/185/98 97/177/97 90/165/93
f 95/186/95 99/187/99 100/188/100
f 75/140/84 74/139/83 100/96/100
f 87/162/90 77/189/86 76/143/85
f 88/163/91 76/143/85 69/145/78
f 68/147/77 75/146/84 99/182/99
f 100/183/100 74/190/83 77/148/86
f 91/175/74 94/170/71 101/191/61
f 93/169/72 96/174/96 102/192/62
f 94/170/71 103/193/64 104/194/44
f 105/195/43 86/196/89 93/169/72
f 96/160/96 91/166/74 106/197/42
f 104/198/44 103/199/64 86/160/89
f 107/200/101 108/201/102 109/202/103
f 108/201/102 110/203/104 111/204/105
f 110/205/104 112/206/106 113/207/107
f 112/206/106 114/208/108 115/209/109
f 114/208/108 116/210/110 117/211/111
f 116/210/110 118/212/112 119/213/113
f 118/214/112 120/215/114 121/216/115
f 120/215/114 122/217/116 123/218/117
f 122/217/116 124/219/118 125/220/119
f 124/219/118 126/221/120 127/222/121
f 126/221/120 128/223/122 129/224/123
f 128/225/122 130/226/124 131/227/125
f 130/226/124 132/228/126 133/229/127
f 132/228/126 134/230/128 135/231/129
f 134/230/128 136/232/130 137/233/131
f 112/234/106 110/235/104 138/236/132
f 139/237/133 107/200/101 140/238/134
f 136/239/130 139/237/133 141/240/135
f 121/241/115 123/242/117 142/243/136
f 143/244/137 144/245/138 145/246/139
f 140/247/134 109/248/103 146/249/140
f 131/250/125 133/251/127 147/252/141
f 119/253/113 148/254/142 149/255/143
f 129/256/123 150/257/144 151/258/145
f 141/259/135 152/260/146 145/246/139
f 115/261/109 153/262/147 143/244/137
f 125/263/119 154/264/148 142/243/136
f 135/265/129 155/266/149 147/252/141
f 111/267/105 156/268/150 146/249/140
f 119/253/113 121/241/115 144/245/138
f 131/250/125 157/269/151 150/257/144
f 140/247/134 158/270/152 152/260/146
f 115/261/109 117/271/111 149/255/143
f 125/263/119 127/272/121 151/258/145
f 137/273/131 145/246/139 155/266/149
f 111/267/105 113/274/107 143/244/137
f 159/275/153 160/276/154 161/277/155
f 120/278/114 162/279/156 163/280/157
f 108/281/102 107/282/101 164/283/158
f 132/284/126 130/285/124 165/286/159
f 118/287/112 116/288/110 166/289/160
f 126/290/120 167/291/161 159/292/153
f 139/293/133 136/294/130 168/295/162
f 112/234/106 169/296/163 170/297/164
f 122/298/116 163/280/157 171/299/165
f 134/300/128 132/284/126 172/301/166
f 108/281/102 173/302/167 138/236/132
f 118/287/112 174/303/168 162/279/156
f 128/304/122 159/292/153 165/286/159
f 139/293/133 175/305/169 164/283/158
f 116/288/110 114/306/108 170/297/164
f 126/290/120 124/307/118 171/299/165
f 134/300/128 176/308/170 168/295/162
f 177/309/171 178/310/172 179/311/173
f 170/312/164 180/313/174 181/314/175
f 165/315/159 161/277/155 182/316/176
f 166/317/160 181/314/175 183/318/177
f 172/319/166 182/316/176 178/320/172
f 174/321/168 183/322/177 184/323/178
f 176/324/170 178/320/172 177/325/171
f 162/326/156 184/323/178 185/327/179
f 164/328/158 186/329/180 187/330/181
f 168/331/162 177/332/171 188/333/182
f 163/334/157 185/327/179 189/335/183
f 173/336/167 187/330/181 190/337/184
f 175/338/169 188/333/182 186/329/180
f 171/339/165 189/335/183 191/340/185
f 138/341/132 190/342/184 192/343/186
f 167/344/161 191/340/185 160/345/154
f 169/346/163 192/343/186 180/313/174
f 185/347/179 184/348/178 193/349/187
f 186/350/180 194/351/188 195/352/189
f 177/309/171 196/353/190 197/354/191
f 185/347/179 198/355/192 199/356/193
f 187/357/181 195/352/189 200/358/194
f 186/350/180 188/359/182 197/354/191
f 189/360/183 199/356/193 201/361/195
f 190/362/184 200/358/194 202/363/196
f 191/364/185 201/361/195 203/365/197
f 180/366/174 192/367/186 202/363/196
f 161/368/155 160/369/154 203/365/197
f 181/370/175 180/366/174 204/371/198
f 182/372/176 161/368/155 205/373/199
f 181/370/175 206/374/200 207/375/201
f 182/372/176 208/376/202 179/311/173
f 183/377/177 207/375/201 193/349/187
f 209/378/203 210/379/204 208/380/202
f 201/381/195 211/382/205 212/383/206
f 213/384/207 214/385/6 215/386/5
f 203/387/197 212/388/206 209/378/203
f 219/389/208 220/390/17 221/391/4
f 222/392/209 223/393/14 224/394/13
f 225/395/210 215/396/5 218/397/3
f 211/382/205 224/394/13 226/398/11
f 227/399/211 218/397/3 228/400/8
f 212/388/206 226/401/11 229/402/15
f 230/403/212 228/400/8 231/404/7
f 209/378/203 229/402/15 217/405/2
f 232/406/213 231/404/7 233/407/10
f 210/379/204 217/405/2 234/408/16
f 235/409/214 233/410/10 236/411/9
f 237/412/215 234/408/16 216/413/1
f 238/414/216 236/411/9 239/415/12
f 240/416/217 221/391/4 214/385/6
f 241/417/218 216/418/1 220/390/17
f 242/419/219 239/415/12 223/393/14
f 210/379/204 237/412/215 179/420/173
f 237/412/215 241/421/218 196/422/190
f 241/417/218 219/389/208 197/423/191
f 219/389/208 240/416/217 194/424/188
f 240/416/217 213/384/207 195/425/189
f 213/384/207 225/426/210 200/427/194
f 200/428/194 225/395/210 227/399/211
f 227/399/211 230/403/212 204/429/198
f 230/403/212 232/406/213 206/430/200
f 232/406/213 235/431/214 207/432/201
f 235/409/214 238/414/216 193/433/187
f 238/414/216 242/419/219 198/434/192
f 198/434/192 242/419/219 222/392/209
f 222/392/209 211/382/205 201/381/195
f 28/67/45 1/18/18 3/20/20
f 9/28/26 3/27/20 5/40/22
f 13/67/30 6/24/23 8/26/25
f 28/66/45 3/27/20 10/29/27
f 1/63/18 11/30/28 2/32/19
f 10/29/27 9/28/26 13/34/30
f 11/30/28 8/35/25 12/31/29
f 17/47/34 14/37/31 16/39/33
f 6/33/23 9/28/26 17/41/34
f 12/435/29 7/42/24 18/44/35
f 3/20/20 2/19/19 4/46/21
f 6/24/23 17/47/34 7/25/24
f 2/19/19 12/436/29 19/45/36
f 18/437/35 20/438/37 19/439/36
f 5/23/22 4/22/21 23/55/40
f 17/440/34 5/23/22 14/56/31
f 16/43/33 15/57/32 18/44/35
f 4/46/21 19/45/36 22/60/39
f 29/441/46 8/35/25 24/61/41
f 243/442/61 10/29/27 25/62/42
f 24/61/41 11/30/28 26/64/43
f 243/442/61 27/65/44 10/29/27
f 25/443/42 13/67/30 29/68/46
f 27/443/44 26/69/43 28/67/45
f 40/444/45 30/70/47 32/72/49
f 46/97/59 31/445/48 34/98/51
f 41/106/54 35/76/30 37/78/53
f 30/446/47 38/79/28 31/73/48
f 42/86/55 39/80/27 32/82/49
f 38/79/28 41/83/54 33/74/50
f 36/447/52 35/85/30 42/86/55
f 44/93/57 43/87/56 14/37/31
f 34/75/51 33/74/50 44/88/57
f 43/448/56 36/89/52 45/91/58
f 47/95/60 32/72/49 46/92/59
f 37/78/53 36/77/52 44/93/57
f 45/186/58 42/449/55 47/450/60
f 45/451/58 47/439/60 20/452/37
f 22/54/39 46/97/59 23/55/40
f 23/55/40 34/98/51 14/56/31
f 43/448/56 45/91/58 15/57/32
f 21/59/38 47/95/60 22/60/39
f 53/453/42 48/100/61 35/85/30
f 52/104/41 49/101/62 38/79/28
f 48/100/61 50/102/44 39/80/27
f 30/446/47 51/103/43 38/79/28
f 49/454/62 53/105/42 41/106/54
f 40/444/45 50/107/44 30/70/47
f 64/133/73 54/109/63 56/111/65
f 72/141/81 56/455/65 58/142/67
f 65/155/74 59/115/68 61/117/70
f 55/456/64 62/118/71 56/112/65
f 66/125/75 63/119/72 64/121/73
f 62/118/71 65/122/74 57/113/66
f 60/457/69 59/124/68 66/125/75
f 70/135/79 67/126/76 69/128/78
f 58/114/67 57/113/66 70/129/79
f 67/458/76 60/130/69 71/132/80
f 73/137/82 64/133/73 72/134/81
f 61/117/70 60/116/69 70/135/79
f 71/459/80 66/460/75 73/461/82
f 71/462/80 73/463/82 75/464/84
f 77/189/86 72/141/81 76/143/85
f 76/143/85 58/142/67 69/145/78
f 67/458/76 71/132/80 68/147/77
f 74/190/83 73/137/82 77/148/86
f 83/465/46 78/149/41 59/124/68
f 82/153/61 79/150/42 62/118/71
f 78/149/41 80/151/43 63/119/72
f 55/456/64 81/152/44 62/118/71
f 79/466/42 83/154/46 65/155/74
f 54/109/63 80/156/43 55/110/64
f 103/199/64 84/158/87 86/160/89
f 92/168/94 85/167/88 88/178/91
f 96/160/96 89/164/92 91/166/74
f 86/196/89 85/167/88 93/169/72
f 103/193/64 94/170/71 84/172/87
f 93/169/72 92/168/94 96/174/96
f 94/170/71 91/175/74 95/171/95
f 98/185/98 69/128/78 97/177/97
f 89/173/92 92/168/94 98/179/98
f 95/467/95 90/180/93 99/182/99
f 85/159/88 84/158/87 87/184/90
f 89/164/92 98/185/98 90/165/93
f 84/158/87 95/468/95 100/183/100
f 99/469/99 75/470/84 100/437/100
f 88/163/91 87/162/90 76/143/85
f 98/471/98 88/163/91 69/145/78
f 97/181/97 68/147/77 99/182/99
f 87/184/90 100/183/100 77/148/86
f 106/472/42 91/175/74 101/191/61
f 244/473/41 93/169/72 102/192/62
f 101/191/61 94/170/71 104/194/44
f 244/473/41 105/195/43 93/169/72
f 102/474/62 96/160/96 106/197/42
f 105/474/43 104/198/44 86/160/89
f 140/238/134 107/200/101 109/202/103
f 109/202/103 108/201/102 111/204/105
f 111/475/105 110/205/104 113/207/107
f 113/207/107 112/206/106 115/209/109
f 115/209/109 114/208/108 117/211/111
f 117/211/111 116/210/110 119/213/113
f 119/476/113 118/214/112 121/216/115
f 121/216/115 120/215/114 123/218/117
f 123/218/117 122/217/116 125/220/119
f 125/220/119 124/219/118 127/222/121
f 127/222/121 126/221/120 129/224/123
f 129/477/123 128/225/122 131/227/125
f 131/227/125 130/226/124 133/229/127
f 133/229/127 132/228/126 135/231/129
f 135/231/129 134/230/128 137/233/131
f 169/296/163 112/234/106 138/236/132
f 141/240/135 139/237/133 140/238/134
f 137/478/131 136/239/130 141/240/135
f 144/245/138 121/241/115 142/243/136
f 145/246/139 152/260/146 158/270/152
f 147/252/141 155/266/149 145/246/139
f 145/246/139 157/269/151 147/252/141
f 154/264/148 151/258/145 150/257/144
f 144/245/138 142/243/136 154/264/148
f 149/255/143 148/254/142 144/245/138
f 144/245/138 153/262/147 149/255/143
f 145/246/139 156/268/150 143/244/137
f 145/246/139 158/270/152 146/249/140
f 144/245/138 157/269/151 145/246/139
f 144/245/138 154/264/148 150/257/144
f 143/244/137 153/262/147 144/245/138
f 145/246/139 146/249/140 156/268/150
f 144/245/138 150/257/144 157/269/151
f 158/270/152 140/247/134 146/249/140
f 157/269/151 131/250/125 147/252/141
f 117/271/111 119/253/113 149/255/143
f 127/272/121 129/256/123 151/258/145
f 137/273/131 141/259/135 145/246/139
f 113/274/107 115/261/109 143/244/137
f 123/242/117 125/263/119 142/243/136
f 133/251/127 135/265/129 147/252/141
f 109/248/103 111/267/105 146/249/140
f 148/254/142 119/253/113 144/245/138
f 129/256/123 131/250/125 150/257/144
f 141/259/135 140/247/134 152/260/146
f 153/262/147 115/261/109 149/255/143
f 154/264/148 125/263/119 151/258/145
f 135/265/129 137/273/131 155/266/149
f 156/268/150 111/267/105 143/244/137
f 165/315/159 159/275/153 161/277/155
f 122/298/116 120/278/114 163/280/157
f 173/302/167 108/281/102 164/283/158
f 172/301/166 132/284/126 165/286/159
f 174/303/168 118/287/112 166/289/160
f 128/304/122 126/290/120 159/292/153
f 175/305/169 139/293/133 168/295/162
f 114/306/108 112/234/106 170/297/164
f 124/307/118 122/298/116 171/299/165
f 176/308/170 134/300/128 172/301/166
f 110/235/104 108/281/102 138/236/132
f 120/278/114 118/287/112 162/279/156
f 130/285/124 128/304/122 165/286/159
f 107/282/101 139/293/133 164/283/158
f 166/289/160 116/288/110 170/297/164
f 167/291/161 126/290/120 171/299/165
f 136/294/130 134/300/128 168/295/162
f 196/353/190 177/309/171 179/311/173
f 166/317/160 170/312/164 181/314/175
f 172/319/166 165/315/159 182/316/176
f 174/479/168 166/317/160 183/318/177
f 176/324/170 172/319/166 178/320/172
f 162/326/156 174/321/168 184/323/178
f 168/480/162 176/324/170 177/325/171
f 163/334/157 162/326/156 185/327/179
f 173/336/167 164/328/158 187/330/181
f 175/338/169 168/331/162 188/333/182
f 171/339/165 163/334/157 189/335/183
f 138/481/132 173/336/167 190/337/184
f 164/328/158 175/338/169 186/329/180
f 167/344/161 171/339/165 191/340/185
f 169/346/163 138/341/132 192/343/186
f 159/482/153 167/344/161 160/345/154
f 170/312/164 169/346/163 180/313/174
f 198/355/192 185/347/179 193/349/187
f 187/357/181 186/350/180 195/352/189
f 188/359/182 177/309/171 197/354/191
f 189/360/183 185/347/179 199/356/193
f 190/362/184 187/357/181 200/358/194
f 194/351/188 186/350/180 197/354/191
f 191/364/185 189/360/183 201/361/195
f 192/367/186 190/362/184 202/363/196
f 160/369/154 191/364/185 203/365/197
f 204/371/198 180/366/174 202/363/196
f 205/373/199 161/368/155 203/365/197
f 206/374/200 181/370/175 204/371/198
f 208/376/202 182/372/176 205/373/199
f 183/377/177 181/370/175 207/375/201
f 178/310/172 182/372/176 179/311/173
f 184/348/178 183/377/177 193/349/187
f 205/483/199 209/378/203 208/380/202
f 203/484/197 201/381/195 212/383/206
f 225/426/210 213/384/207 215/386/5
f 205/483/199 203/387/197 209/378/203
f 240/416/217 219/389/208 221/391/4
f 211/382/205 222/392/209 224/394/13
f 227/399/211 225/395/210 218/397/3
f 212/383/206 211/382/205 226/398/11
f 230/403/212 227/399/211 228/400/8
f 209/378/203 212/388/206 229/402/15
f 232/406/213 230/403/212 231/404/7
f 210/379/204 209/378/203 217/405/2
f 235/431/214 232/406/213 233/407/10
f 237/412/215 210/379/204 234/408/16
f 238/414/216 235/409/214 236/411/9
f 241/421/218 237/412/215 216/413/1
f 242/419/219 238/414/216 239/415/12
f 213/384/207 240/416/217 214/385/6
f 219/389/208 241/417/218 220/390/17
f 222/392/209 242/419/219 223/393/14
f 208/380/202 210/379/204 179/420/173
f 179/420/173 237/412/215 196/422/190
f 196/485/190 241/417/218 197/423/191
f 197/423/191 219/389/208 194/424/188
f 194/424/188 240/416/217 195/425/189
f 195/425/189 213/384/207 200/427/194
f 202/486/196 200/428/194 227/399/211
f 202/486/196 227/399/211 204/429/198
f 204/429/198 230/403/212 206/430/200
f 206/430/200 232/406/213 207/432/201
f 207/487/201 235/409/214 193/433/187
f 193/433/187 238/414/216 198/434/192
f 199/488/193 198/434/192 222/392/209
f 199/488/193 222/392/209 201/381/195
