# Blender v2.79 (sub 0) OBJ File: ''
# www.blender.org
mtllib KhoenSword.mtl
o Plane
v -0.018861 -0.033031 0.004668
v -0.040808 -0.154105 0.017317
v -0.020080 -0.062516 0.004668
v -0.046968 -0.152263 0.011034
v -0.019344 -0.003595 0.004668
v -0.029983 0.131549 0.004668
v 0.016410 -0.175189 0.008580
v -0.043322 -0.150860 0.004668
v -0.025668 -0.106405 0.004668
v -0.021926 0.058770 0.004668
v 0.005652 -0.172588 0.017317
v -0.046968 -0.152263 0.006458
v 0.033224 0.060462 0.006622
v 0.023052 0.060199 0.014668
v 0.024884 -0.107071 0.014668
v 0.035033 -0.107180 0.006623
v 0.005292 -0.169987 0.014668
v 0.015199 -0.172382 0.006622
v 0.025384 0.130762 0.006622
v 0.015169 0.130884 0.014668
v 0.038970 -0.060998 0.006623
v 0.028793 -0.061218 0.014668
v 0.028972 -0.002387 0.014668
v 0.039149 -0.002180 0.006623
v 0.040127 -0.031573 0.006623
v 0.029950 -0.031784 0.014668
v -0.022990 -0.062516 0.004668
v -0.028578 -0.106405 0.004668
v -0.021771 -0.033031 0.004668
v -0.024836 0.058770 0.004668
v -0.032893 0.131549 0.004668
v -0.022254 -0.003595 0.004668
v -0.016134 0.058954 0.014668
v -0.021926 0.058770 0.008882
v -0.025668 -0.106405 0.008882
v -0.019904 -0.106481 0.014668
v -0.043322 -0.150860 0.008882
v -0.037649 -0.152556 0.014668
v -0.024162 0.131463 0.014668
v -0.029983 0.131549 0.008882
v -0.019344 -0.003595 0.008882
v -0.013551 -0.003450 0.014668
v -0.014287 -0.062362 0.014668
v -0.020080 -0.062516 0.008882
v -0.013068 -0.032883 0.014668
v -0.018861 -0.033031 0.008882
v -0.046476 -0.173728 0.016720
v -0.052636 -0.171887 0.010437
v 0.010742 -0.194813 0.007983
v -0.000016 -0.192211 0.016720
v -0.052636 -0.171887 0.005860
v -0.045363 -0.177754 0.013133
v -0.050866 -0.176109 0.007520
v 0.005970 -0.197145 0.005327
v -0.003641 -0.194820 0.013133
v -0.050866 -0.176109 0.003431
v -0.031139 0.139405 0.004668
v 0.024228 0.138618 0.006622
v 0.014013 0.138741 0.014668
v -0.025317 0.139320 0.014668
v -0.031139 0.139405 0.008882
v 0.010097 0.156554 0.005711
v -0.036271 0.156793 0.005925
v -0.047639 0.156901 0.005925
v -0.088534 0.143662 0.011611
v -0.083416 0.139511 0.010992
v 0.052930 0.142599 0.014250
v 0.049808 0.138529 0.010883
v 0.037593 0.138676 0.020504
v 0.039135 0.142765 0.025116
v -0.080672 0.143546 0.025116
v -0.079437 0.139453 0.020506
v -0.083416 0.139511 0.016551
v -0.088534 0.143662 0.017302
v 0.037149 0.152756 0.017697
v 0.040889 0.152643 0.013967
v -0.057425 0.153373 0.012151
v -0.055820 0.153373 0.016066
v -0.052016 0.153294 0.017697
v 0.037183 0.156377 0.017692
v 0.040923 0.156263 0.013962
v -0.057391 0.156994 0.012146
v -0.055786 0.156994 0.016062
v -0.051982 0.156914 0.017692
v -0.083469 0.153491 0.011699
v -0.088534 0.152137 0.011611
v 0.051318 0.152477 0.014212
v 0.052930 0.151074 0.014250
v 0.039135 0.151240 0.025116
v 0.038846 0.152637 0.024036
v -0.076500 0.153383 0.024036
v -0.080672 0.152021 0.025116
v -0.088534 0.152137 0.017302
v -0.083469 0.153492 0.017111
v 0.028047 0.156381 0.005711
v -0.047032 0.241637 0.005950
v 0.028653 0.241117 0.005736
v -0.009416 0.251289 0.005740
v -0.047740 0.251636 0.005954
v 0.029894 0.251117 0.005740
v -0.019099 0.247977 0.005859
v -0.032775 0.230696 0.005947
v -0.042486 0.241594 0.005950
v -0.027304 0.242716 0.005904
v -0.032022 0.237076 0.005936
v 0.011266 0.228965 0.005732
v 0.000411 0.248792 0.005738
v 0.019016 0.241210 0.005736
v 0.010282 0.236714 0.005734
v 0.007472 0.242804 0.005736
v -0.009416 0.261289 0.008243
v -0.049959 0.261636 0.008457
v 0.032045 0.261117 0.008243
v -0.009416 0.264819 0.005740
v -0.045392 0.264685 0.005954
v 0.027024 0.264647 0.001715
v -0.009416 0.496412 0.005740
v 0.026762 0.496240 0.001715
v -0.009416 0.796412 0.005740
v -0.023358 0.796278 0.005954
v 0.031193 0.796450 0.001715
v -0.040036 0.496278 0.005954
v -0.009416 0.668939 0.005740
v 0.027766 0.668263 0.001715
v -0.030614 0.669357 0.005954
v -0.042856 0.398520 0.005954
v -0.020826 0.805211 0.005632
v 0.024987 0.873368 0.000989
v -0.009060 0.810271 0.005294
v -0.002107 0.843875 0.003598
v -0.018861 -0.033031 -0.004668
v -0.040808 -0.154105 -0.017317
v -0.020080 -0.062516 -0.004668
v -0.046968 -0.152263 -0.011034
v -0.019344 -0.003595 -0.004668
v -0.046968 -0.152263 0.000000
v -0.029983 0.131549 -0.004668
v 0.016410 -0.175189 -0.008580
v -0.043322 -0.150860 -0.004668
v -0.025668 -0.106405 -0.004668
v -0.021926 0.058770 -0.004668
v 0.005652 -0.172588 -0.017317
v 0.018101 -0.175189 0.000000
v -0.046968 -0.152263 -0.006458
v 0.034782 0.060462 0.000000
v 0.036591 -0.107180 0.000000
v 0.016756 -0.172382 0.000000
v 0.026941 0.130762 0.000000
v 0.040528 -0.060998 0.000000
v 0.040707 -0.002180 0.000000
v 0.041685 -0.031573 0.000000
v 0.033224 0.060462 -0.006622
v 0.023052 0.060199 -0.014668
v 0.024884 -0.107071 -0.014668
v 0.035033 -0.107180 -0.006623
v 0.005292 -0.169987 -0.014668
v 0.015199 -0.172382 -0.006622
v 0.025384 0.130762 -0.006622
v 0.015169 0.130884 -0.014668
v 0.038970 -0.060998 -0.006623
v 0.028793 -0.061218 -0.014668
v 0.028972 -0.002387 -0.014668
v 0.039149 -0.002180 -0.006623
v 0.040127 -0.031573 -0.006623
v 0.029950 -0.031784 -0.014668
v -0.029983 0.131549 0.000000
v -0.043322 -0.150860 0.000000
v -0.025668 -0.106405 0.000000
v -0.022990 -0.062516 -0.004668
v -0.024783 -0.062516 0.000000
v -0.026629 0.058770 0.000000
v -0.032893 0.131549 0.000000
v -0.023564 -0.033031 0.000000
v -0.024047 -0.003595 0.000000
v -0.028578 -0.106405 -0.004668
v -0.021771 -0.033031 -0.004668
v -0.024836 0.058770 -0.004668
v -0.032893 0.131549 -0.004668
v -0.028578 -0.106405 0.000000
v -0.022254 -0.003595 -0.004668
v -0.016134 0.058954 -0.014668
v -0.021926 0.058770 -0.008882
v -0.025668 -0.106405 -0.008882
v -0.019904 -0.106481 -0.014668
v -0.043322 -0.150860 -0.008882
v -0.037649 -0.152556 -0.014668
v -0.024162 0.131463 -0.014668
v -0.029983 0.131549 -0.008882
v -0.019344 -0.003595 -0.008882
v -0.013551 -0.003450 -0.014668
v -0.014287 -0.062362 -0.014668
v -0.020080 -0.062516 -0.008882
v -0.013068 -0.032883 -0.014668
v -0.018861 -0.033031 -0.008882
v -0.046476 -0.173728 -0.016720
v -0.052636 -0.171887 -0.010437
v -0.052636 -0.171887 0.000000
v 0.010742 -0.194813 -0.007983
v -0.000016 -0.192211 -0.016720
v 0.012433 -0.194813 0.000000
v -0.052636 -0.171887 -0.005860
v -0.045363 -0.177754 -0.013133
v -0.050866 -0.176109 -0.007520
v -0.050866 -0.176109 0.000000
v 0.005970 -0.197145 -0.005327
v -0.003641 -0.194820 -0.013133
v 0.007482 -0.197145 0.000000
v -0.050866 -0.176109 -0.003431
v -0.031139 0.139405 -0.004668
v 0.025786 0.138618 0.000000
v 0.024228 0.138618 -0.006622
v 0.014013 0.138741 -0.014668
v -0.031139 0.139405 0.000000
v -0.025317 0.139320 -0.014668
v -0.031139 0.139405 -0.008882
v 0.010097 0.156554 -0.005711
v -0.036271 0.156793 -0.005925
v -0.047639 0.156901 -0.005925
v -0.047510 0.156901 0.000000
v -0.036271 0.156793 0.000000
v 0.010097 0.156557 0.000000
v 0.028047 0.156386 0.000000
v -0.088534 0.143662 -0.011611
v -0.083416 0.139511 -0.010992
v 0.051415 0.138535 0.000000
v 0.055034 0.142599 0.000000
v 0.052930 0.142599 -0.014250
v 0.049808 0.138529 -0.010883
v 0.037593 0.138676 -0.020504
v 0.039135 0.142765 -0.025116
v -0.088534 0.143662 0.000000
v -0.083416 0.139511 0.000000
v -0.080672 0.143546 -0.025116
v -0.079437 0.139453 -0.020506
v -0.083416 0.139511 -0.016551
v -0.088534 0.143662 -0.017302
v 0.037149 0.152756 -0.017697
v 0.040889 0.152643 -0.013967
v 0.040999 0.152643 0.000000
v -0.057425 0.153373 0.000000
v -0.057425 0.153373 -0.012151
v -0.055820 0.153373 -0.016066
v -0.052016 0.153294 -0.017697
v 0.037183 0.156377 -0.017692
v 0.040923 0.156263 -0.013962
v 0.041033 0.156263 0.000000
v -0.057391 0.156994 0.000000
v -0.057391 0.156994 -0.012146
v -0.055786 0.156994 -0.016062
v -0.051982 0.156914 -0.017692
v -0.083469 0.153491 -0.011699
v -0.088534 0.152137 -0.011611
v 0.055034 0.151074 0.000000
v 0.053416 0.152473 0.000000
v 0.051318 0.152477 -0.014212
v 0.052930 0.151074 -0.014250
v 0.039135 0.151240 -0.025116
v 0.038846 0.152637 -0.024036
v -0.083469 0.153491 0.000000
v -0.088534 0.152137 0.000000
v -0.076500 0.153383 -0.024036
v -0.080672 0.152021 -0.025116
v -0.088534 0.152137 -0.017302
v -0.083469 0.153492 -0.017111
v 0.028047 0.156381 -0.005711
v -0.046904 0.241637 0.000000
v -0.047032 0.241637 -0.005950
v 0.028653 0.241117 -0.005736
v 0.028653 0.241122 0.000000
v -0.047612 0.251636 0.000000
v -0.009416 0.251293 0.000000
v -0.009416 0.251289 -0.005740
v -0.047740 0.251636 -0.005954
v 0.029894 0.251117 -0.005740
v 0.029894 0.251122 0.000000
v -0.019099 0.247977 -0.005859
v -0.032775 0.230696 -0.005947
v -0.042486 0.241594 -0.005950
v -0.027304 0.242716 -0.005904
v -0.032022 0.237076 -0.005936
v -0.032775 0.230696 0.000000
v -0.019099 0.247978 0.000000
v -0.032022 0.237077 0.000000
v -0.027304 0.242716 0.000000
v 0.000411 0.248795 0.000000
v 0.011266 0.228969 0.000000
v 0.007472 0.242807 0.000000
v 0.010282 0.236718 0.000000
v 0.011266 0.228965 -0.005732
v 0.000411 0.248792 -0.005738
v 0.019016 0.241210 -0.005736
v 0.010282 0.236714 -0.005734
v 0.007472 0.242804 -0.005736
v -0.049830 0.261636 0.000000
v -0.009416 0.261289 -0.008243
v -0.049959 0.261636 -0.008457
v 0.032045 0.261117 -0.008243
v 0.032045 0.261122 0.000000
v -0.056952 0.264685 0.000000
v -0.009416 0.264819 -0.005740
v -0.045392 0.264685 -0.005954
v 0.027024 0.264647 -0.001715
v 0.025477 0.264652 0.000000
v -0.009416 0.496412 -0.005740
v 0.026762 0.496240 -0.001715
v 0.025215 0.496245 0.000000
v -0.041128 0.796278 0.000000
v -0.009416 0.796412 -0.005740
v -0.023358 0.796278 -0.005954
v 0.031193 0.796450 -0.001715
v 0.029647 0.796455 0.000000
v 0.035816 0.880915 0.000000
v -0.051434 0.496371 0.000000
v -0.040036 0.496278 -0.005954
v -0.009416 0.668939 -0.005740
v 0.026219 0.668263 0.000000
v 0.027766 0.668263 -0.001715
v -0.043754 0.669145 0.000000
v -0.030614 0.669357 -0.005954
v -0.054462 0.397166 0.000000
v -0.042856 0.398520 -0.005954
v 0.026942 0.264755 0.000000
v -0.045392 0.264685 0.000000
v 0.022376 0.876234 0.000000
v -0.033310 0.819072 0.000000
v -0.010907 0.853581 0.000000
v -0.020826 0.805211 -0.005632
v 0.024987 0.873368 -0.000989
v -0.009060 0.810271 -0.005294
v -0.002107 0.843875 -0.003598
v 0.025215 0.496245 0.000000
v 0.025477 0.264652 0.000000
v 0.025477 0.264652 0.000000
v 0.026219 0.668263 0.000000
v 0.029647 0.796455 0.000000
v 0.035816 0.880915 0.000000
v 0.035816 0.880915 0.000000
v 0.035816 0.880915 0.000000
v 0.035816 0.880915 0.000000
v 0.035816 0.880915 0.000000
v -0.051434 0.496371 0.000000
v -0.043754 0.669145 0.000000
v -0.056952 0.264685 0.000000
v -0.056952 0.264685 0.000000
v -0.054462 0.397166 0.000000
v -0.010907 0.853581 0.000000
v 0.022376 0.876234 0.000000
v -0.033310 0.819072 0.000000
v -0.041128 0.796278 0.000000
v -0.052636 -0.171887 0.005860
v -0.052636 -0.171887 0.000000
v -0.000016 -0.192211 0.016720
v -0.046476 -0.173728 0.016720
v -0.052636 -0.171887 0.010437
v 0.005652 -0.172588 0.017317
v -0.040808 -0.154105 0.017317
v -0.025668 -0.106405 0.004668
v -0.025668 -0.106405 0.004668
v -0.020080 -0.062516 0.004668
v -0.018861 -0.033031 0.004668
v -0.021926 0.058770 0.004668
v -0.029983 0.131549 0.004668
v -0.029983 0.131549 0.004668
v -0.046968 -0.152263 0.006458
v -0.046968 -0.152263 0.000000
v 0.016410 -0.175189 0.008580
v -0.019344 -0.003595 0.004668
v -0.046968 -0.152263 0.011034
v 0.015199 -0.172382 0.006622
v 0.005292 -0.169987 0.014668
v 0.010742 -0.194813 0.007983
v 0.018101 -0.175189 0.000000
v 0.016756 -0.172382 0.000000
v -0.028578 -0.106405 0.004668
v -0.028578 -0.106405 0.004668
v -0.032893 0.131549 0.004668
v -0.032893 0.131549 0.004668
v -0.043322 -0.150860 0.004668
v -0.043322 -0.150860 0.000000
v -0.025668 -0.106405 0.000000
v -0.029983 0.131549 0.000000
v -0.022990 -0.062516 0.004668
v -0.021771 -0.033031 0.004668
v -0.024836 0.058770 0.004668
v -0.022254 -0.003595 0.004668
v -0.028578 -0.106405 0.000000
v -0.032893 0.131549 0.000000
v -0.037649 -0.152556 0.014668
v -0.043322 -0.150860 0.008882
v 0.012433 -0.194813 0.000000
v -0.050866 -0.176109 0.003431
v -0.050866 -0.176109 0.000000
v -0.003641 -0.194820 0.013133
v -0.045363 -0.177754 0.013133
v -0.050866 -0.176109 0.007520
v 0.005970 -0.197145 0.005327
v 0.007482 -0.197145 0.000000
v 0.014013 0.138741 0.014668
v 0.024228 0.138618 0.006622
v 0.025786 0.138618 0.000000
v -0.031139 0.139405 0.000000
v -0.031139 0.139405 0.004668
v -0.031139 0.139405 0.008882
v -0.025317 0.139320 0.014668
v -0.047032 0.241637 0.005950
v -0.047740 0.251636 0.005954
v -0.047510 0.156901 0.000000
v -0.047639 0.156901 0.005925
v -0.047639 0.156901 0.005925
v 0.028047 0.156381 0.005711
v 0.028047 0.156381 0.005711
v 0.028047 0.156386 0.000000
v -0.088534 0.143662 0.000000
v -0.088534 0.143662 0.011611
v -0.036271 0.156793 0.005925
v -0.036271 0.156793 0.005925
v -0.036271 0.156793 0.000000
v 0.010097 0.156554 0.005711
v 0.010097 0.156554 0.005711
v 0.037149 0.152756 0.017697
v 0.040889 0.152643 0.013967
v 0.040999 0.152643 0.000000
v -0.057425 0.153373 0.000000
v -0.057425 0.153373 0.012151
v -0.055820 0.153373 0.016066
v -0.052016 0.153294 0.017697
v 0.010097 0.156557 0.000000
v 0.037183 0.156377 0.017692
v 0.040923 0.156263 0.013962
v 0.041033 0.156263 0.000000
v -0.057391 0.156994 0.000000
v -0.057391 0.156994 0.012146
v -0.055786 0.156994 0.016062
v -0.051982 0.156914 0.017692
v 0.038846 0.152637 0.024036
v 0.052930 0.151074 0.014250
v 0.039135 0.151240 0.025116
v 0.055034 0.151074 0.000000
v -0.088534 0.152137 0.011611
v -0.088534 0.152137 0.000000
v -0.080672 0.152021 0.025116
v -0.088534 0.152137 0.017302
v 0.028653 0.241117 0.005736
v -0.049959 0.261636 0.008457
v -0.049959 0.261636 0.008457
v -0.049959 0.261636 0.008457
v -0.009416 0.261289 0.008243
v 0.029894 0.251117 0.005740
v -0.019099 0.247977 0.005859
v -0.027304 0.242716 0.005904
v -0.032022 0.237076 0.005936
v -0.032775 0.230696 0.005947
v -0.009416 0.251289 0.005740
v 0.011266 0.228965 0.005732
v 0.010282 0.236714 0.005734
v 0.007472 0.242804 0.005736
v 0.000411 0.248792 0.005738
v 0.032045 0.261117 0.008243
v 0.032045 0.261117 0.008243
v 0.032045 0.261122 0.000000
v -0.049830 0.261636 0.000000
v -0.045392 0.264685 0.005954
v -0.045392 0.264685 0.005954
v -0.045392 0.264685 0.005954
v -0.045392 0.264685 0.005954
v -0.009416 0.264819 0.005740
v 0.027024 0.264647 0.001715
v 0.027024 0.264647 0.001715
v 0.027024 0.264647 0.001715
v 0.026942 0.264755 0.000000
v 0.026762 0.496240 0.001715
v 0.027766 0.668263 0.001715
v 0.031193 0.796450 0.001715
v -0.045392 0.264685 0.000000
v -0.042856 0.398520 0.005954
v -0.030614 0.669357 0.005954
v -0.023358 0.796278 0.005954
v -0.040036 0.496278 0.005954
v -0.020826 0.805211 0.005632
v -0.002107 0.843875 0.003598
v 0.024987 0.873368 0.000989
v -0.052636 -0.171887 -0.005860
v -0.000016 -0.192211 -0.016720
v -0.046476 -0.173728 -0.016720
v -0.052636 -0.171887 -0.010437
v 0.005652 -0.172588 -0.017317
v -0.040808 -0.154105 -0.017317
v -0.025668 -0.106405 -0.004668
v -0.025668 -0.106405 -0.004668
v -0.020080 -0.062516 -0.004668
v -0.018861 -0.033031 -0.004668
v -0.021926 0.058770 -0.004668
v -0.029983 0.131549 -0.004668
v -0.029983 0.131549 -0.004668
v -0.046968 -0.152263 -0.006458
v 0.016410 -0.175189 -0.008580
v -0.019344 -0.003595 -0.004668
v -0.046968 -0.152263 -0.011034
v 0.015199 -0.172382 -0.006622
v 0.005292 -0.169987 -0.014668
v 0.010742 -0.194813 -0.007983
v -0.028578 -0.106405 -0.004668
v -0.028578 -0.106405 -0.004668
v -0.032893 0.131549 -0.004668
v -0.032893 0.131549 -0.004668
v -0.043322 -0.150860 -0.004668
v -0.022990 -0.062516 -0.004668
v -0.021771 -0.033031 -0.004668
v -0.024836 0.058770 -0.004668
v -0.022254 -0.003595 -0.004668
v -0.037649 -0.152556 -0.014668
v -0.043322 -0.150860 -0.008882
v -0.050866 -0.176109 -0.003431
v -0.003641 -0.194820 -0.013133
v -0.045363 -0.177754 -0.013133
v -0.050866 -0.176109 -0.007520
v 0.005970 -0.197145 -0.005327
v 0.014013 0.138741 -0.014668
v 0.024228 0.138618 -0.006622
v -0.031139 0.139405 -0.004668
v -0.031139 0.139405 -0.008882
v -0.025317 0.139320 -0.014668
v -0.047032 0.241637 -0.005950
v -0.047740 0.251636 -0.005954
v -0.047639 0.156901 -0.005925
v -0.047639 0.156901 -0.005925
v 0.028047 0.156381 -0.005711
v 0.028047 0.156381 -0.005711
v -0.088534 0.143662 -0.011611
v -0.036271 0.156793 -0.005925
v -0.036271 0.156793 -0.005925
v 0.010097 0.156554 -0.005711
v 0.010097 0.156554 -0.005711
v 0.037149 0.152756 -0.017697
v 0.040889 0.152643 -0.013967
v -0.057425 0.153373 -0.012151
v -0.055820 0.153373 -0.016066
v -0.052016 0.153294 -0.017697
v 0.037183 0.156377 -0.017692
v 0.040923 0.156263 -0.013962
v -0.057391 0.156994 -0.012146
v -0.055786 0.156994 -0.016062
v -0.051982 0.156914 -0.017692
v 0.038846 0.152637 -0.024036
v 0.052930 0.151074 -0.014250
v 0.039135 0.151240 -0.025116
v -0.088534 0.152137 -0.011611
v -0.080672 0.152021 -0.025116
v -0.088534 0.152137 -0.017302
v 0.028653 0.241117 -0.005736
v -0.049959 0.261636 -0.008457
v -0.049959 0.261636 -0.008457
v -0.049959 0.261636 -0.008457
v -0.009416 0.261289 -0.008243
v 0.029894 0.251117 -0.005740
v -0.019099 0.247977 -0.005859
v -0.027304 0.242716 -0.005904
v -0.032022 0.237076 -0.005936
v -0.032775 0.230696 -0.005947
v -0.009416 0.251289 -0.005740
v 0.011266 0.228965 -0.005732
v 0.010282 0.236714 -0.005734
v 0.007472 0.242804 -0.005736
v 0.000411 0.248792 -0.005738
v 0.032045 0.261117 -0.008243
v 0.032045 0.261117 -0.008243
v -0.045392 0.264685 -0.005954
v -0.045392 0.264685 -0.005954
v -0.045392 0.264685 -0.005954
v -0.045392 0.264685 -0.005954
v -0.009416 0.264819 -0.005740
v 0.027024 0.264647 -0.001715
v 0.027024 0.264647 -0.001715
v 0.027024 0.264647 -0.001715
v 0.026762 0.496240 -0.001715
v 0.027766 0.668263 -0.001715
v 0.031193 0.796450 -0.001715
v -0.042856 0.398520 -0.005954
v -0.030614 0.669357 -0.005954
v -0.023358 0.796278 -0.005954
v -0.040036 0.496278 -0.005954
v -0.020826 0.805211 -0.005632
v -0.002107 0.843875 -0.003598
v 0.024987 0.873368 -0.000989
vt 0.926575 0.194661
vt 0.912492 0.194611
vt 0.912492 0.108616
vt 0.926575 0.275592
vt 0.926576 0.339258
vt 0.912492 0.339208
vt 0.926574 0.108666
vt 0.912492 0.012148
vt 0.926575 0.235069
vt 0.912492 0.235019
vt 0.531544 0.236498
vt 0.529874 0.277089
vt 0.438958 0.271528
vt 0.877690 0.064531
vt 0.877690 0.124758
vt 0.868728 0.124758
vt 0.650249 0.560678
vt 0.650249 0.554254
vt 0.658204 0.554254
vt 0.541253 0.339163
vt 0.562368 0.403094
vt 0.469068 0.423051
vt 0.877690 0.165293
vt 0.868728 0.165293
vt 0.877690 0.291693
vt 0.877690 0.392064
vt 0.868728 0.392064
vt 0.926574 0.429611
vt 0.912492 0.429561
vt 0.912492 0.275542
vt 0.446352 0.425332
vt 0.423577 0.334944
vt 0.446476 0.335825
vt 0.444077 0.012057
vt 0.467118 0.012926
vt 0.454915 0.110228
vt 0.420235 0.189414
vt 0.443148 0.190732
vt 0.440752 0.231006
vt 0.416046 0.270193
vt 0.417840 0.229682
vt 0.432021 0.108833
vt 0.877690 0.003873
vt 0.868728 0.064531
vt 0.532899 0.196130
vt 0.537586 0.115567
vt 0.877690 0.205809
vt 0.868728 0.205809
vt 0.977434 0.101795
vt 0.991708 0.001450
vt 0.997873 0.001376
vt 0.974359 0.187675
vt 0.983599 0.101722
vt 0.868728 0.003873
vt 0.858802 0.064531
vt 0.974468 0.228191
vt 0.980633 0.228117
vt 0.984348 0.268659
vt 0.978183 0.268732
vt 0.997873 0.328910
vt 0.782021 0.548995
vt 0.782021 0.542572
vt 0.788192 0.542572
vt 0.966388 0.391953
vt 0.966388 0.432487
vt 0.956462 0.432539
vt 0.966388 0.473003
vt 0.966388 0.558888
vt 0.956462 0.558939
vt 0.966388 0.659258
vt 0.956462 0.659258
vt 0.966388 0.331726
vt 0.956462 0.392004
vt 0.956462 0.473055
vt 0.797901 0.542571
vt 0.797901 0.536148
vt 0.804087 0.536148
vt 0.980524 0.187601
vt 0.623499 0.521446
vt 0.629293 0.587130
vt 0.617714 0.587130
vt 0.889993 0.291780
vt 0.889993 0.391778
vt 0.889993 0.165330
vt 0.889993 0.124803
vt 0.889993 0.064261
vt 0.889993 0.205841
vt 0.868728 0.291693
vt 0.930738 0.433434
vt 0.929468 0.460617
vt 0.912492 0.460562
vt 0.926574 0.429611
vt 0.930738 0.433434
vt 0.912492 0.433379
vt 0.650249 0.566478
vt 0.658204 0.563141
vt 0.469068 0.423051
vt 0.468402 0.426619
vt 0.443734 0.429096
vt 0.658204 0.569440
vt 0.645432 0.578086
vt 0.562368 0.403094
vt 0.569292 0.405544
vt 0.526704 0.486228
vt 0.535759 0.486228
vt 0.535759 0.490950
vt 0.468402 0.426619
vt 0.477453 0.454082
vt 0.452786 0.456559
vt 0.485236 0.501413
vt 0.526704 0.500591
vt 0.530894 0.509238
vt 0.485236 0.495115
vt 0.526704 0.494293
vt 0.485236 0.486228
vt 0.526704 0.486228
vt 0.569292 0.405544
vt 0.578344 0.433006
vt 0.593737 0.518693
vt 0.621666 0.511181
vt 0.601034 0.518693
vt 0.629292 0.449312
vt 0.621666 0.454393
vt 0.605067 0.441253
vt 0.526704 0.500591
vt 0.535759 0.496577
vt 0.539502 0.504302
vt 0.593738 0.432278
vt 0.610713 0.434605
vt 0.526704 0.494293
vt 0.913961 0.531030
vt 0.913961 0.594286
vt 0.906334 0.592899
vt 0.877690 0.402907
vt 0.889993 0.402622
vt 0.447652 0.001376
vt 0.550355 0.015774
vt 0.470692 0.002245
vt 0.926574 0.012199
vt 0.912492 0.001376
vt 0.858802 0.392064
vt 0.868728 0.402907
vt 0.405256 0.490844
vt 0.405256 0.477046
vt 0.417461 0.477053
vt 0.731136 0.023433
vt 0.752027 0.006332
vt 0.752549 0.020629
vt 0.744616 0.025750
vt 0.744616 0.148066
vt 0.792176 0.316829
vt 0.805624 0.388747
vt 0.782250 0.388747
vt 0.745863 0.191212
vt 0.748084 0.153278
vt 0.756410 0.155481
vt 0.731136 0.181659
vt 0.801138 0.316829
vt 0.813442 0.308823
vt 0.825856 0.383275
vt 0.782250 0.238543
vt 0.782250 0.203286
vt 0.805393 0.205496
vt 0.782250 0.003454
vt 0.782250 0.020478
vt 0.817447 0.388747
vt 0.796332 0.240685
vt 0.825853 0.222296
vt 0.813441 0.254734
vt 0.812553 0.201055
vt 0.835661 0.220029
vt 0.680474 0.550034
vt 0.680580 0.530422
vt 0.689388 0.535056
vt 0.782250 0.395640
vt 0.835661 0.384827
vt 0.819044 0.395640
vt 0.806941 0.395640
vt 0.662457 0.550034
vt 0.551522 0.507440
vt 0.543826 0.507433
vt 0.543755 0.502045
vt 0.605808 0.545335
vt 0.605645 0.561313
vt 0.587627 0.561236
vt 0.605565 0.569146
vt 0.587547 0.569069
vt 0.714637 0.596668
vt 0.714716 0.616840
vt 0.696694 0.616758
vt 0.714716 0.432361
vt 0.696616 0.596586
vt 0.606051 0.579902
vt 0.588033 0.579825
vt 0.753863 0.504431
vt 0.728839 0.525981
vt 0.754318 0.440820
vt 0.551451 0.485329
vt 0.551451 0.502052
vt 0.887837 0.532973
vt 0.887999 0.538533
vt 0.880300 0.538545
vt 0.880137 0.532985
vt 0.880300 0.410701
vt 0.887874 0.405660
vt 0.887999 0.410689
vt 0.728869 0.560503
vt 0.736567 0.560499
vt 0.736586 0.579714
vt 0.693735 0.614537
vt 0.693641 0.596300
vt 0.696616 0.596586
vt 0.751947 0.004263
vt 0.782250 0.191212
vt 0.782250 0.198303
vt 0.757559 0.198303
vt 0.745456 0.198303
vt 0.728839 0.187524
vt 0.757372 0.191212
vt 0.693731 0.438110
vt 0.696694 0.432278
vt 0.782250 0.155481
vt 0.275722 0.127027
vt 0.214957 0.131790
vt 0.226246 0.118019
vt 0.570737 0.559793
vt 0.558536 0.559792
vt 0.558532 0.546363
vt 0.452286 0.581726
vt 0.439686 0.581726
vt 0.439686 0.479933
vt 0.317072 0.128335
vt 0.379512 0.131816
vt 0.296211 0.131679
vt 0.405256 0.607448
vt 0.417453 0.490851
vt 0.857899 0.405660
vt 0.870499 0.405664
vt 0.870552 0.522237
vt 0.870560 0.536016
vt 0.875884 0.549839
vt 0.857899 0.549836
vt 0.216611 0.118035
vt 0.246990 0.103115
vt 0.340378 0.101154
vt 0.377037 0.118043
vt 0.356613 0.118079
vt 0.857899 0.536012
vt 0.258408 0.119708
vt 0.248489 0.111903
vt 0.558278 0.532923
vt 0.558183 0.521446
vt 0.570738 0.521446
vt 0.452241 0.463218
vt 0.452310 0.471130
vt 0.439686 0.471130
vt 0.452333 0.479933
vt 0.570738 0.532922
vt 0.570738 0.546363
vt 0.338175 0.111809
vt 0.332127 0.120162
vt 0.570737 0.569293
vt 0.456586 0.463222
vt 0.468784 0.463218
vt 0.468784 0.471677
vt 0.456590 0.471682
vt 0.468784 0.482368
vt 0.468784 0.581967
vt 0.456639 0.581972
vt 0.456594 0.482373
vt 0.377050 0.001425
vt 0.339009 0.001491
vt 0.216623 0.001417
vt 0.240712 0.001376
vt 0.383473 0.145588
vt 0.295613 0.145430
vt 0.405256 0.463218
vt 0.502765 0.521465
vt 0.499119 0.519342
vt 0.502765 0.519443
vt 0.295613 0.145430
vt 0.296005 0.150299
vt 0.219733 0.149770
vt 0.767601 0.555981
vt 0.767601 0.547787
vt 0.777496 0.547787
vt 0.485236 0.569697
vt 0.485236 0.512813
vt 0.499119 0.519342
vt 0.296005 0.150299
vt 0.373941 0.150427
vt 0.369851 0.469142
vt 0.938637 0.849599
vt 0.938637 0.530970
vt 0.942283 0.530927
vt 0.292471 0.469016
vt 0.369354 0.705889
vt 0.938637 0.294265
vt 0.942283 0.117737
vt 0.938637 0.117780
vt 0.938637 0.001376
vt 0.288516 0.900953
vt 0.374661 0.882332
vt 0.360464 0.988131
vt 0.763348 0.536148
vt 0.763348 0.554037
vt 0.752094 0.539901
vt 0.199553 0.332029
vt 0.196298 0.149686
vt 0.219733 0.149770
vt 0.287894 0.881875
vt 0.942283 0.294215
vt 0.204455 0.468583
vt 0.227549 0.468538
vt 0.244874 0.706819
vt 0.289839 0.706447
vt 0.244874 0.706819
vt 0.221718 0.881413
vt 0.258312 0.881556
vt 0.258312 0.881556
vt 0.263599 0.893876
vt 0.263599 0.893876
vt 0.227549 0.468538
vt 0.223066 0.333978
vt 0.223066 0.333978
vt 0.502765 0.512812
vt 0.502765 0.519443
vt 0.303037 0.947272
vt 0.355064 0.992054
vt 0.284883 0.960561
vt 0.303037 0.947272
vt 0.237936 0.912856
vt 0.383473 0.998624
vt 0.360464 0.988131
vt 0.858802 0.003873
vt 0.991708 0.328983
vt 0.788192 0.548995
vt 0.956462 0.331726
vt 0.804087 0.542571
vt 0.889993 0.001376
vt 0.912492 0.433379
vt 0.912492 0.429561
vt 0.446352 0.425332
vt 0.638488 0.574440
vt 0.724569 0.432278
vt 0.724569 0.489768
vt 0.718969 0.489310
vt 0.443734 0.429096
vt 0.489425 0.510060
vt 0.621666 0.454393
vt 0.593738 0.439174
vt 0.605067 0.441253
vt 0.609729 0.518693
vt 0.530894 0.509238
vt 0.593738 0.439174
vt 0.913756 0.463369
vt 0.913756 0.528278
vt 0.906334 0.466609
vt 0.553929 0.005093
vt 0.926574 0.001427
vt 0.858802 0.402907
vt 0.782250 0.316829
vt 0.689296 0.550034
vt 0.662562 0.530422
vt 0.587790 0.545257
vt 0.696694 0.432278
vt 0.736772 0.398543
vt 0.754318 0.416202
vt 0.728839 0.403664
vt 0.740633 0.533395
vt 0.732307 0.531193
vt 0.753863 0.520021
vt 0.766463 0.533395
vt 0.766463 0.519845
vt 0.766463 0.416201
vt 0.766463 0.398392
vt 0.766463 0.504431
vt 0.766463 0.440819
vt 0.543755 0.485329
vt 0.880175 0.405672
vt 0.728887 0.579725
vt 0.696694 0.616758
vt 0.782250 0.001376
vt 0.417400 0.607455
vt 0.857899 0.522233
vt 0.439686 0.463218
vt 0.558539 0.569292
vt 0.422786 0.463225
vt 0.209658 0.145520
vt 0.209658 0.145520
vt 0.777768 0.559427
vt 0.373941 0.150427
vt 0.942283 0.849556
vt 0.383473 0.998624
vt 0.218094 0.706427
vt 0.219733 0.149770
vt 0.898409 0.194661
vt 0.898409 0.275592
vt 0.898408 0.339258
vt 0.898409 0.108666
vt 0.898409 0.235069
vt 0.692443 0.191500
vt 0.601082 0.154967
vt 0.692404 0.150895
vt 0.839914 0.064531
vt 0.848876 0.124758
vt 0.839914 0.124758
vt 0.650249 0.547830
vt 0.701625 0.089906
vt 0.619120 0.004048
vt 0.711802 0.025524
vt 0.848876 0.165293
vt 0.839914 0.165293
vt 0.839914 0.291693
vt 0.848876 0.392064
vt 0.839914 0.392064
vt 0.898410 0.429611
vt 0.598709 0.001376
vt 0.606524 0.091693
vt 0.585802 0.092180
vt 0.604097 0.418790
vt 0.609684 0.323133
vt 0.624960 0.418318
vt 0.580267 0.251558
vt 0.601249 0.195506
vt 0.601021 0.250635
vt 0.580330 0.155908
vt 0.580496 0.196435
vt 0.588947 0.324133
vt 0.839914 0.003873
vt 0.848876 0.064531
vt 0.691168 0.246707
vt 0.692735 0.319148
vt 0.848876 0.205809
vt 0.839914 0.205809
vt 0.949618 0.228563
vt 0.970106 0.328973
vt 0.963926 0.328902
vt 0.946536 0.142686
vt 0.955798 0.228634
vt 0.848876 0.003873
vt 0.946645 0.102171
vt 0.956548 0.061701
vt 0.952824 0.102243
vt 0.950369 0.061630
vt 0.970106 0.001448
vt 0.782021 0.536148
vt 0.946536 0.391953
vt 0.946536 0.432487
vt 0.946536 0.473003
vt 0.946536 0.558888
vt 0.946536 0.659258
vt 0.946536 0.331726
vt 0.804087 0.548995
vt 0.797901 0.548995
vt 0.952716 0.142758
vt 0.714459 0.089711
vt 0.724586 0.027562
vt 0.705604 0.318594
vt 0.708478 0.416832
vt 0.704044 0.246207
vt 0.705319 0.190995
vt 0.705279 0.150382
vt 0.848876 0.291693
vt 0.894246 0.433434
vt 0.895516 0.460617
vt 0.898410 0.429611
vt 0.894246 0.433434
vt 0.650249 0.542031
vt 0.658204 0.545367
vt 0.530168 0.569267
vt 0.539427 0.585113
vt 0.524548 0.568926
vt 0.645432 0.530422
vt 0.658204 0.539069
vt 0.633546 0.515429
vt 0.638042 0.449734
vt 0.639068 0.518468
vt 0.535759 0.481506
vt 0.638042 0.449734
vt 0.677930 0.432278
vt 0.681242 0.446755
vt 0.640568 0.527670
vt 0.682269 0.515489
vt 0.683768 0.524691
vt 0.485236 0.477341
vt 0.526704 0.471864
vt 0.526704 0.478163
vt 0.639068 0.518468
vt 0.586441 0.518693
vt 0.565809 0.511181
vt 0.558183 0.449312
vt 0.582409 0.441253
vt 0.565809 0.454393
vt 0.526704 0.471864
vt 0.539502 0.468153
vt 0.535759 0.475878
vt 0.576762 0.434605
vt 0.526704 0.478163
vt 0.681242 0.446755
vt 0.689388 0.512207
vt 0.682269 0.515489
vt 0.839914 0.402907
vt 0.721434 0.416647
vt 0.711630 0.427568
vt 0.607248 0.429526
vt 0.628112 0.429054
vt 0.898410 0.012199
vt 0.848876 0.402907
vt 0.393050 0.477053
vt 0.833364 0.023433
vt 0.811951 0.020629
vt 0.812473 0.006332
vt 0.819884 0.148066
vt 0.819884 0.025750
vt 0.772324 0.316829
vt 0.758876 0.388747
vt 0.818637 0.191212
vt 0.808090 0.155481
vt 0.816416 0.153278
vt 0.833364 0.181659
vt 0.763362 0.316829
vt 0.738644 0.383275
vt 0.751059 0.308823
vt 0.759107 0.205496
vt 0.747053 0.388747
vt 0.768168 0.240685
vt 0.738647 0.222296
vt 0.751059 0.254734
vt 0.751947 0.201055
vt 0.728839 0.220029
vt 0.689388 0.565011
vt 0.680580 0.569645
vt 0.728839 0.384827
vt 0.745456 0.395640
vt 0.757559 0.395640
vt 0.551522 0.463218
vt 0.543755 0.468612
vt 0.543826 0.463224
vt 0.587953 0.529279
vt 0.605971 0.529356
vt 0.606051 0.521523
vt 0.588033 0.521446
vt 0.829342 0.416639
vt 0.811339 0.398466
vt 0.829360 0.398392
vt 0.829360 0.581333
vt 0.811321 0.416712
vt 0.829124 0.592659
vt 0.811339 0.581407
vt 0.779063 0.504431
vt 0.778608 0.440820
vt 0.804087 0.525981
vt 0.551451 0.468606
vt 0.728887 0.536148
vt 0.736538 0.541284
vt 0.728839 0.541282
vt 0.894382 0.591279
vt 0.901946 0.468721
vt 0.902081 0.591294
vt 0.894382 0.463369
vt 0.894246 0.468707
vt 0.808379 0.400697
vt 0.811321 0.416712
vt 0.808340 0.417193
vt 0.812553 0.004263
vt 0.806941 0.198303
vt 0.835661 0.187524
vt 0.819044 0.198303
vt 0.807128 0.191212
vt 0.808371 0.575756
vt 0.811339 0.581407
vt 0.083321 0.872901
vt 0.033729 0.881871
vt 0.022452 0.868092
vt 0.582943 0.546363
vt 0.582939 0.559793
vt 0.427086 0.581726
vt 0.124738 0.871625
vt 0.103837 0.868265
vt 0.187335 0.868192
vt 0.393059 0.490851
vt 0.845246 0.522237
vt 0.845299 0.405664
vt 0.845238 0.536016
vt 0.839914 0.549839
vt 0.024071 0.881847
vt 0.054481 0.896791
vt 0.148023 0.898824
vt 0.164344 0.881912
vt 0.184816 0.881963
vt 0.065959 0.880206
vt 0.056004 0.888004
vt 0.583198 0.532923
vt 0.583294 0.521446
vt 0.427130 0.463218
vt 0.427062 0.471130
vt 0.427039 0.479933
vt 0.145844 0.888167
vt 0.139806 0.879809
vt 0.480983 0.463222
vt 0.480978 0.471682
vt 0.480974 0.482373
vt 0.480929 0.581972
vt 0.184505 0.998580
vt 0.146375 0.998484
vt 0.047906 0.998523
vt 0.023760 0.998464
vt 0.103978 0.854524
vt 0.192045 0.854434
vt 0.506411 0.519342
vt 0.103978 0.854524
vt 0.027288 0.850115
vt 0.103681 0.849645
vt 0.767601 0.539593
vt 0.520295 0.569697
vt 0.506411 0.519342
vt 0.520295 0.512813
vt 0.103681 0.849645
vt 0.177436 0.530847
vt 0.180671 0.849560
vt 0.938637 0.849599
vt 0.934991 0.530927
vt 0.938637 0.530970
vt 0.101003 0.530930
vt 0.177580 0.294103
vt 0.938637 0.294265
vt 0.934991 0.117737
vt 0.938637 0.001376
vt 0.938637 0.117780
vt 0.098085 0.098994
vt 0.169231 0.011856
vt 0.183378 0.117667
vt 0.740839 0.543653
vt 0.005884 0.667818
vt 0.027288 0.850115
vt 0.002127 0.850156
vt 0.097534 0.118073
vt 0.934991 0.294215
vt 0.011168 0.531270
vt 0.053999 0.293094
vt 0.035987 0.531358
vt 0.053999 0.293094
vt 0.099008 0.293501
vt 0.029591 0.118460
vt 0.067943 0.118370
vt 0.067943 0.118370
vt 0.073185 0.106053
vt 0.073185 0.106053
vt 0.031128 0.665913
vt 0.035987 0.531358
vt 0.031128 0.665913
vt 0.112290 0.052679
vt 0.163551 0.007924
vt 0.112290 0.052679
vt 0.093119 0.039362
vt 0.045932 0.087029
vt 0.192045 0.001376
vt 0.169231 0.011856
vt 0.963926 0.001376
vt 0.788192 0.536148
vt 0.543869 0.584173
vt 0.638488 0.534068
vt 0.543869 0.512812
vt 0.634730 0.435257
vt 0.485236 0.471042
vt 0.565809 0.454393
vt 0.582409 0.441253
vt 0.577746 0.518693
vt 0.530894 0.463218
vt 0.689388 0.450238
vt 0.724586 0.427383
vt 0.898410 0.001427
vt 0.662562 0.569645
vt 0.811102 0.592733
vt 0.796154 0.398543
vt 0.804087 0.403664
vt 0.778608 0.416202
vt 0.800619 0.531193
vt 0.792293 0.533395
vt 0.779063 0.520021
vt 0.736586 0.536150
vt 0.902081 0.463384
vt 0.811339 0.398466
vt 0.393111 0.607455
vt 0.582935 0.569293
vt 0.387726 0.463225
vt 0.017880 0.854368
vt 0.017880 0.854368
vt 0.777768 0.536148
vt 0.180671 0.849560
vt 0.934991 0.849556
vt 0.192045 0.001376
vt 0.025483 0.293440
vt 0.027288 0.850115
vn 0.8441 0.0538 0.5334
vn 0.9980 0.0634 0.0000
vn 0.9947 0.1024 0.0000
vn 0.8441 -0.0523 0.5336
vn 0.8379 -0.1600 0.5217
vn 0.9825 -0.1862 0.0000
vn 0.8406 0.0866 0.5347
vn 0.9918 0.1278 0.0000
vn 0.8460 -0.0024 0.5332
vn 1.0000 -0.0030 0.0000
vn -0.3764 0.0045 0.9264
vn -0.3734 0.0306 0.9271
vn 0.3326 -0.0210 0.9428
vn -0.8921 0.2337 0.3866
vn -0.9195 0.0782 0.3853
vn -0.9965 0.0839 0.0000
vn -0.3593 0.9332 0.0000
vn -0.3533 0.0847 0.9316
vn -0.3577 0.1416 0.9230
vn 0.3170 -0.0987 0.9433
vn -0.9227 0.0117 0.3854
vn -0.9999 0.0125 0.0000
vn -0.9199 -0.0701 0.3858
vn -0.9160 -0.1184 0.3833
vn -0.9910 -0.1337 0.0000
vn 0.8034 -0.2464 0.5420
vn 0.9567 -0.2910 0.0000
vn 0.9981 -0.0619 0.0000
vn 0.3455 -0.0703 0.9358
vn 0.8392 0.1082 0.5329
vn 0.3302 0.0431 0.9429
vn 0.3288 0.0340 0.9438
vn 0.3334 0.0215 0.9425
vn 0.3350 -0.0012 0.9422
vn -0.8600 0.3415 0.3792
vn -0.9570 0.2902 0.0000
vn -0.3795 -0.0110 0.9251
vn -0.3742 -0.0282 0.9269
vn -0.9229 -0.0267 0.3841
vn -0.9996 -0.0289 0.0000
vn 0.0000 0.0000 1.0000
vn -0.9294 0.3691 0.0000
vn 0.0001 1.0000 0.0000
vn -0.9307 0.0776 0.3575
vn -0.9334 0.0115 0.3585
vn -0.9332 -0.0269 0.3584
vn -0.9344 -0.0597 0.3511
vn -0.9980 -0.0639 0.0000
vn -0.9939 -0.1100 0.0000
vn -0.9940 -0.1090 0.0000
vn -0.9957 0.0888 0.0256
vn -0.9965 0.0833 0.0000
vn -0.9996 -0.0290 0.0000
vn -0.0001 -1.0000 0.0000
vn -0.3768 -0.0481 0.9250
vn -0.9971 -0.0757 0.0000
vn 0.8199 -0.2502 0.5149
vn 0.8115 -0.2505 0.5278
vn 0.9595 -0.2817 0.0000
vn 0.7578 0.5547 0.3434
vn 0.7156 0.5801 0.3891
vn 0.8928 0.4504 0.0000
vn -0.2584 0.9489 0.1811
vn 0.4338 0.6717 0.6006
vn 0.4447 0.6673 0.5975
vn -0.2304 0.9463 0.2268
vn 0.0291 0.8473 0.5303
vn 0.1040 0.8005 0.5902
vn -0.9222 -0.3866 0.0000
vn 0.2986 -0.1151 0.9474
vn 0.3151 -0.1197 0.9415
vn -0.8864 0.2441 0.3932
vn -0.8907 0.2456 0.3825
vn -0.3620 0.0763 0.9290
vn -0.9607 0.2775 0.0000
vn -0.3812 0.0821 0.9208
vn -0.3484 -0.9373 0.0000
vn -0.3636 -0.9308 0.0357
vn -0.2864 -0.9581 0.0000
vn -0.0128 -0.8040 0.5944
vn -0.0759 -0.7682 0.6356
vn 0.2927 -0.9109 0.2908
vn -0.7907 -0.5359 0.2959
vn -0.8433 -0.4962 0.2065
vn -0.4577 -0.6574 0.5986
vn 0.4128 -0.9108 0.0000
vn 0.2899 -0.9145 0.2821
vn -0.4983 -0.6495 0.5743
vn -0.9204 -0.1353 0.3668
vn -0.4136 -0.0608 0.9084
vn 0.8275 0.1217 0.5480
vn 0.2973 0.0437 0.9537
vn 0.9893 0.1455 0.0000
vn -0.9893 -0.1455 0.0000
vn 0.9979 -0.0652 0.0000
vn 0.9860 -0.1669 0.0000
vn 0.9854 -0.1699 -0.0001
vn 0.0149 0.9998 0.0116
vn 0.3853 0.8793 0.2798
vn 0.0193 0.9998 0.0030
vn 0.0235 0.9996 0.0125
vn 0.0071 0.9999 0.0137
vn -0.0020 -1.0000 0.0000
vn -0.3351 -0.9422 0.0000
vn -0.1552 0.9832 0.0965
vn 0.0078 0.9998 0.0156
vn 0.0043 1.0000 -0.0009
vn -0.0414 0.8976 0.4389
vn -0.0029 -1.0000 -0.0063
vn -0.0061 -0.9995 -0.0304
vn -0.1787 -0.9082 0.3784
vn -0.0033 -1.0000 0.0000
vn 0.4388 -0.8986 0.0000
vn 0.3944 -0.8976 0.1968
vn 0.3826 0.9239 0.0000
vn 0.0145 0.9999 0.0000
vn -0.3736 -0.9100 0.1796
vn -0.0043 -1.0000 0.0051
vn 0.1271 -0.9138 0.3856
vn -0.0124 -0.9991 0.0388
vn 0.7948 -0.3729 0.4788
vn 0.2984 -0.3914 0.8704
vn 0.9385 -0.3451 0.0000
vn -0.6298 -0.7767 0.0000
vn -0.3489 -0.3824 0.8556
vn -0.8548 -0.3909 0.3413
vn 1.0000 0.0000 0.0000
vn -0.7119 0.0076 0.7022
vn -0.7135 0.0076 0.7006
vn -0.9811 0.0095 0.1933
vn -1.0000 0.0000 0.0000
vn -0.9238 0.0000 0.3828
vn 0.8647 0.0000 0.5023
vn 0.3258 0.0000 0.9454
vn -0.3833 0.0000 0.9236
vn 0.0057 1.0000 -0.0015
vn 0.0116 0.9999 -0.0002
vn 0.0060 1.0000 0.0001
vn -0.9999 0.0094 0.0000
vn -0.9811 0.0095 0.1932
vn 0.3833 -0.0024 0.9236
vn 0.9227 -0.0082 0.3854
vn 0.9214 -0.0082 0.3884
vn 0.3807 -0.0023 0.9246
vn -0.2015 0.0032 0.9795
vn -0.2006 0.0032 0.9796
vn 0.9999 -0.0094 0.0000
vn 0.2684 0.6232 0.7345
vn 0.2560 0.6239 0.7384
vn 0.6219 0.7232 0.3002
vn -0.1280 0.9918 0.0000
vn -0.2582 0.9661 0.0000
vn -0.2540 0.9627 0.0923
vn -0.2068 0.9125 0.3529
vn -0.1280 0.9918 -0.0001
vn 0.0045 1.0000 0.0000
vn 0.0052 0.0159 0.9998
vn 0.0029 -0.1322 0.9912
vn 0.0014 0.0007 1.0000
vn -0.4583 -0.8888 0.0000
vn -0.4583 -0.8888 -0.0005
vn 0.0415 -0.9991 -0.0005
vn 0.9989 -0.0472 0.0000
vn 0.9966 -0.0822 0.0000
vn 0.0000 -0.0006 1.0000
vn -0.0005 -0.1346 0.9909
vn 0.0014 -0.2040 0.9790
vn 1.0000 -0.0071 0.0000
vn -1.0000 0.0071 0.0000
vn -0.9997 0.0071 -0.0216
vn -0.9992 -0.0317 -0.0215
vn -0.9887 -0.1485 -0.0199
vn -0.9769 -0.2130 -0.0148
vn -0.9768 -0.2142 0.0000
vn 0.0000 -0.0003 1.0000
vn 0.0005 0.0002 1.0000
vn -0.9896 -0.1438 0.0000
vn 0.0027 0.0041 1.0000
vn 0.0023 0.0024 1.0000
vn 0.4354 -0.9002 -0.0002
vn 0.6613 -0.7501 -0.0001
vn 0.6610 -0.7504 0.0000
vn 0.9185 -0.3954 0.0000
vn 0.9183 -0.3959 0.0000
vn 0.4349 -0.9004 0.0000
vn 0.0404 -0.9992 0.0000
vn 0.0000 -0.0002 1.0000
vn -0.7961 -0.6052 0.0000
vn -0.7962 -0.6051 -0.0004
vn -0.9612 -0.2757 0.0000
vn -0.9612 -0.2756 -0.0002
vn -0.9985 -0.0551 0.0000
vn -0.9998 0.0161 0.0000
vn -0.9985 -0.0550 -0.0000
vn -0.0010 -0.2427 0.9701
vn 0.0011 -0.2428 0.9701
vn 0.9776 -0.2103 0.0000
vn -0.0699 0.9975 0.0000
vn -0.0697 0.9954 0.0660
vn 0.0429 0.6026 0.7969
vn 0.0485 0.5778 0.8147
vn 0.0091 0.6238 0.7815
vn -0.5613 0.8275 -0.0053
vn -0.5662 0.8242 0.0000
vn -0.5626 0.8267 0.0000
vn 0.2720 0.9184 0.2873
vn 0.3422 0.9053 0.2517
vn 0.0580 0.0000 0.9983
vn 0.1098 0.0001 0.9939
vn 0.1105 -0.0003 0.9939
vn 0.7424 0.0008 -0.6699
vn 0.7424 -0.0017 -0.6699
vn 0.0588 -0.0002 0.9983
vn 0.1069 -0.0003 0.9943
vn 0.7424 -0.0120 -0.6698
vn 0.7420 -0.0372 -0.6693
vn 0.7420 -0.0367 -0.6693
vn 0.7414 -0.0541 -0.6688
vn 0.0489 0.0343 0.9982
vn 0.0963 0.0087 0.9953
vn 0.0805 0.0181 0.9966
vn 0.0000 -1.0000 0.0000
vn -0.4574 0.0111 0.8892
vn -0.4579 0.0086 0.8890
vn -0.4578 0.0086 0.8890
vn 0.0570 0.0148 0.9983
vn 0.7424 -0.0121 -0.6698
vn -0.4613 0.0190 0.8871
vn -0.4628 0.0194 0.8863
vn -0.4097 0.0138 0.9121
vn 0.0590 -0.0001 0.9982
vn 0.0099 -0.0003 0.9999
vn -0.3189 0.0591 0.9460
vn -0.3168 0.0756 0.9455
vn 0.0149 0.0139 0.9998
vn -0.2875 0.1333 0.9484
vn 0.0132 0.0358 0.9993
vn 0.0070 -0.0003 1.0000
vn 0.0064 0.0000 1.0000
vn -0.4577 0.0115 0.8890
vn 0.5756 0.8177 0.0000
vn 0.5800 0.8146 0.0000
vn 0.0493 0.0401 0.9980
vn -0.1180 0.2289 0.9662
vn -0.1884 0.1866 0.9642
vn -0.1973 0.1823 0.9632
vn -0.2667 0.1429 0.9531
vn -0.0879 0.2524 0.9636
vn -0.1119 0.2316 0.9663
vn -0.9963 0.0861 0.0000
vn 0.9607 -0.2775 0.0000
vn 0.9018 0.4321 0.0000
vn -0.3385 -0.9355 -0.1006
vn -0.3258 -0.9454 0.0000
vn -0.2987 -0.9506 -0.0847
vn 0.4260 -0.9047 0.0000
vn 0.0139 0.9998 -0.0074
vn 0.0101 0.9999 -0.0040
vn 0.0138 0.9998 -0.0092
vn 0.0127 0.9999 0.0001
vn 0.0254 0.9996 -0.0104
vn 0.0097 0.9999 0.0014
vn 0.0095 0.9999 0.0000
vn 0.0094 0.9999 0.0000
vn 0.0092 0.9999 0.0000
vn 0.0051 1.0000 0.0000
vn 0.6540 0.7565 0.0000
vn -0.9995 -0.0317 0.0000
vn 0.9776 -0.2103 -0.0001
vn 0.0030 -0.2422 0.9702
vn 0.0095 0.6261 0.7797
vn -0.5585 0.8295 -0.0085
vn 0.0800 0.0158 0.9966
vn -0.4129 0.0136 0.9107
vn 0.0060 -0.0001 1.0000
vn 0.8441 0.0538 -0.5334
vn 0.8441 -0.0523 -0.5336
vn 0.8379 -0.1600 -0.5217
vn 0.8406 0.0866 -0.5347
vn 0.8460 -0.0024 -0.5332
vn -0.3764 0.0045 -0.9264
vn 0.3326 -0.0210 -0.9428
vn -0.3734 0.0306 -0.9271
vn -0.8921 0.2337 -0.3866
vn -0.9195 0.0782 -0.3853
vn -0.3533 0.0847 -0.9316
vn 0.3170 -0.0987 -0.9433
vn -0.3577 0.1416 -0.9230
vn -0.9227 0.0117 -0.3854
vn -0.9199 -0.0701 -0.3858
vn -0.9160 -0.1184 -0.3833
vn 0.8034 -0.2464 -0.5420
vn 0.3455 -0.0703 -0.9358
vn 0.8392 0.1082 -0.5329
vn 0.3288 0.0340 -0.9438
vn 0.3302 0.0431 -0.9429
vn 0.3350 -0.0012 -0.9422
vn 0.3334 0.0215 -0.9425
vn -0.8600 0.3415 -0.3792
vn -0.3795 -0.0110 -0.9251
vn -0.3742 -0.0282 -0.9269
vn -0.9229 -0.0267 -0.3841
vn 0.0000 0.0000 -1.0000
vn -0.9307 0.0776 -0.3575
vn -0.9334 0.0115 -0.3585
vn -0.9332 -0.0269 -0.3584
vn -0.9344 -0.0597 -0.3511
vn -0.9957 0.0888 -0.0256
vn -0.3768 -0.0481 -0.9250
vn 0.8199 -0.2502 -0.5149
vn 0.8115 -0.2505 -0.5278
vn 0.7578 0.5547 -0.3434
vn 0.7156 0.5801 -0.3891
vn -0.2584 0.9489 -0.1811
vn 0.4338 0.6717 -0.6006
vn 0.4447 0.6673 -0.5975
vn 0.0291 0.8473 -0.5303
vn -0.2304 0.9463 -0.2268
vn 0.1040 0.8005 -0.5902
vn 0.2986 -0.1151 -0.9474
vn 0.3151 -0.1197 -0.9415
vn -0.8864 0.2441 -0.3932
vn -0.3620 0.0763 -0.9290
vn -0.8907 0.2456 -0.3825
vn -0.3812 0.0821 -0.9208
vn -0.3636 -0.9308 -0.0357
vn -0.0128 -0.8040 -0.5944
vn 0.2927 -0.9109 -0.2908
vn -0.0759 -0.7682 -0.6356
vn -0.7907 -0.5359 -0.2959
vn -0.4577 -0.6574 -0.5986
vn -0.8433 -0.4962 -0.2065
vn 0.2899 -0.9145 -0.2821
vn -0.4983 -0.6495 -0.5743
vn -0.9204 -0.1353 -0.3668
vn -0.4136 -0.0608 -0.9084
vn 0.8275 0.1217 -0.5480
vn 0.2973 0.0437 -0.9537
vn 0.9854 -0.1699 0.0001
vn 0.0149 0.9998 -0.0116
vn 0.0193 0.9998 -0.0030
vn 0.3853 0.8793 -0.2798
vn 0.0071 0.9999 -0.0137
vn 0.0235 0.9996 -0.0125
vn -0.1552 0.9832 -0.0965
vn 0.0043 1.0000 0.0009
vn 0.0078 0.9998 -0.0156
vn -0.0414 0.8976 -0.4389
vn -0.0029 -1.0000 0.0063
vn -0.1787 -0.9082 -0.3784
vn -0.0061 -0.9995 0.0304
vn 0.3944 -0.8976 -0.1968
vn -0.3736 -0.9100 -0.1796
vn -0.0043 -1.0000 -0.0051
vn 0.1271 -0.9138 -0.3856
vn -0.0124 -0.9991 -0.0388
vn 0.7948 -0.3729 -0.4788
vn 0.2984 -0.3914 -0.8704
vn -0.3489 -0.3824 -0.8556
vn -0.8548 -0.3909 -0.3413
vn -0.7119 0.0076 -0.7022
vn -0.9811 0.0095 -0.1933
vn -0.7135 0.0076 -0.7006
vn -0.9238 0.0000 -0.3828
vn 0.8647 0.0000 -0.5023
vn 0.3258 0.0000 -0.9454
vn -0.3833 0.0000 -0.9236
vn 0.0057 1.0000 0.0015
vn 0.0060 1.0000 -0.0001
vn 0.0116 0.9999 0.0002
vn -0.9811 0.0095 -0.1932
vn 0.3833 -0.0024 -0.9236
vn 0.9214 -0.0082 -0.3884
vn 0.9227 -0.0082 -0.3854
vn -0.2015 0.0032 -0.9795
vn 0.3807 -0.0023 -0.9246
vn -0.2006 0.0032 -0.9796
vn 0.2560 0.6239 -0.7384
vn 0.2684 0.6232 -0.7345
vn 0.6219 0.7232 -0.3002
vn -0.2068 0.9125 -0.3529
vn -0.2540 0.9627 -0.0923
vn -0.1280 0.9918 0.0001
vn 0.0052 0.0159 -0.9998
vn 0.0014 0.0007 -1.0000
vn 0.0029 -0.1322 -0.9912
vn 0.0415 -0.9991 0.0005
vn -0.4583 -0.8888 0.0005
vn 0.0000 -0.0006 -1.0000
vn 0.0014 -0.2040 -0.9790
vn -0.0005 -0.1346 -0.9909
vn -0.9992 -0.0317 0.0215
vn -0.9997 0.0071 0.0216
vn -0.9887 -0.1485 0.0199
vn -0.9769 -0.2130 0.0148
vn 0.0000 -0.0003 -1.0000
vn 0.0005 0.0002 -1.0000
vn 0.0027 0.0041 -1.0000
vn 0.0023 0.0024 -1.0000
vn 0.4354 -0.9002 0.0002
vn 0.6613 -0.7501 0.0001
vn 0.0000 -0.0002 -1.0000
vn -0.7962 -0.6051 0.0004
vn -0.9612 -0.2756 0.0002
vn 0.0011 -0.2428 -0.9701
vn -0.0010 -0.2427 -0.9701
vn -0.0697 0.9954 -0.0660
vn 0.0429 0.6026 -0.7969
vn 0.0091 0.6238 -0.7815
vn 0.0485 0.5778 -0.8147
vn -0.5613 0.8275 0.0053
vn 0.3422 0.9053 -0.2517
vn 0.2720 0.9184 -0.2873
vn 0.0580 0.0000 -0.9983
vn 0.1105 -0.0003 -0.9939
vn 0.1098 0.0001 -0.9939
vn 0.7424 0.0008 0.6699
vn 0.7424 -0.0017 0.6699
vn 0.0588 -0.0002 -0.9983
vn 0.1069 -0.0003 -0.9943
vn 0.7424 -0.0120 0.6698
vn 0.7420 -0.0372 0.6693
vn 0.7414 -0.0541 0.6688
vn 0.7420 -0.0367 0.6693
vn 0.0489 0.0343 -0.9982
vn 0.0805 0.0181 -0.9966
vn 0.0963 0.0087 -0.9953
vn -0.4574 0.0111 -0.8892
vn -0.4578 0.0086 -0.8890
vn -0.4579 0.0086 -0.8890
vn 0.0570 0.0148 -0.9983
vn 0.7424 -0.0121 0.6698
vn -0.4613 0.0190 -0.8871
vn -0.4097 0.0138 -0.9121
vn -0.4628 0.0194 -0.8863
vn 0.0099 -0.0003 -0.9999
vn 0.0590 -0.0001 -0.9982
vn -0.3189 0.0591 -0.9460
vn -0.3168 0.0756 -0.9455
vn 0.0149 0.0139 -0.9998
vn -0.2875 0.1333 -0.9484
vn 0.0132 0.0358 -0.9993
vn 0.0064 0.0000 -1.0000
vn 0.0070 -0.0003 -1.0000
vn -0.4577 0.0115 -0.8890
vn 0.0493 0.0401 -0.9980
vn -0.1180 0.2289 -0.9662
vn -0.1973 0.1823 -0.9632
vn -0.1884 0.1866 -0.9642
vn -0.2667 0.1429 -0.9531
vn -0.0879 0.2524 -0.9636
vn -0.1119 0.2316 -0.9663
vn -0.3385 -0.9355 0.1006
vn -0.2987 -0.9506 0.0847
vn 0.0139 0.9998 0.0074
vn 0.0138 0.9998 0.0092
vn 0.0101 0.9999 0.0040
vn 0.0254 0.9996 0.0104
vn 0.0127 0.9999 -0.0001
vn 0.0097 0.9999 -0.0014
vn 0.9776 -0.2103 0.0001
vn 0.0030 -0.2422 -0.9702
vn 0.0095 0.6261 -0.7797
vn -0.5585 0.8295 0.0085
vn 0.0800 0.0158 -0.9966
vn -0.4129 0.0136 -0.9107
vn 0.0060 -0.0001 -1.0000
usemtl None
s 1
f 24/1/1 150/2/2 145/3/3
f 21/4/4 16/5/5 146/6/6
f 13/7/7 145/3/3 148/8/8
f 25/9/9 151/10/10 150/2/2
f 45/11/11 43/12/12 22/13/13
f 35/14/14 44/15/15 3/16/16
f 8/17/17 167/18/17 136/19/17
f 36/20/18 38/21/19 370/22/20
f 44/15/15 46/23/21 360/24/22
f 34/25/23 40/26/24 6/27/25
f 16/5/5 369/28/26 373/29/27
f 25/9/9 21/4/4 149/30/28
f 369/31/26 16/32/5 15/33/29
f 19/34/30 20/35/31 14/36/32
f 24/37/1 23/38/33 26/39/34
f 21/40/4 25/41/9 26/39/34
f 16/32/5 21/40/4 22/13/13
f 13/42/7 14/36/32 23/38/33
f 37/43/35 35/14/14 357/44/36
f 42/45/37 45/11/11 26/39/34
f 33/46/38 14/36/32 20/35/31
f 46/23/21 41/47/39 5/48/40
f 43/12/12 36/20/18 15/33/29
f 42/45/37 23/38/33 14/36/32
f 361/49/41 362/50/41 376/51/41
f 367/52/41 361/49/41 384/53/41
f 378/54/42 357/44/36 168/55/42
f 1/56/41 383/57/41 382/58/41
f 359/59/41 382/58/41 375/60/41
f 363/61/43 381/62/43 387/63/43
f 27/64/44 29/65/45 173/66/22
f 32/67/46 30/68/47 171/69/48
f 30/68/47 377/70/49 172/71/50
f 28/72/51 27/64/44 170/73/52
f 29/65/45 32/67/46 174/74/53
f 380/75/54 358/76/54 374/77/54
f 1/56/41 367/52/41 385/78/41
f 35/79/14 37/80/35 38/81/19
f 34/25/23 33/82/38 39/83/55
f 41/47/39 46/23/21 45/84/11
f 46/23/21 44/15/15 43/85/12
f 44/15/15 35/14/14 36/86/18
f 41/47/39 42/87/37 33/82/38
f 41/47/39 34/25/23 10/88/56
f 7/89/57 371/90/58 390/91/59
f 18/92/60 366/93/61 372/94/62
f 389/95/63 8/17/17 364/96/17
f 17/97/64 355/98/65 366/99/61
f 389/95/63 368/100/66 356/101/67
f 388/102/68 356/103/67 355/98/65
f 197/104/69 204/105/69 391/106/69
f 11/107/70 50/108/71 371/109/58
f 4/110/72 354/111/73 47/112/74
f 12/113/75 350/114/75 354/111/73
f 365/115/75 351/116/75 350/114/75
f 11/107/70 2/117/76 47/118/74
f 392/119/77 52/120/78 56/121/79
f 352/122/80 55/123/81 396/124/82
f 48/125/83 395/126/84 394/127/85
f 200/128/86 49/129/87 396/124/82
f 51/130/69 391/106/69 395/126/84
f 352/131/80 353/132/88 394/133/85
f 6/27/25 40/26/24 61/134/89
f 40/26/24 39/83/55 60/135/90
f 20/35/31 19/34/30 399/136/91
f 39/137/55 20/35/31 398/138/92
f 19/139/30 148/8/8 400/140/93
f 166/141/94 6/27/25 402/142/94
f 269/143/95 275/144/96 100/145/97
f 90/146/98 87/147/99 76/148/100
f 90/146/98 75/149/101 426/150/102
f 57/151/103 66/152/104 232/153/104
f 94/154/105 425/155/106 77/156/107
f 91/157/108 426/150/102 425/155/106
f 403/158/109 404/159/110 72/160/111
f 210/161/112 225/162/113 68/163/114
f 87/147/99 254/164/115 239/165/116
f 403/158/109 73/166/117 66/152/104
f 58/167/118 68/163/114 69/168/119
f 404/159/110 59/169/120 69/168/119
f 67/170/121 70/171/122 69/168/119
f 226/172/123 67/173/121 68/174/114
f 413/175/124 232/153/104 66/152/104
f 71/176/125 74/177/126 73/166/117
f 65/178/124 66/152/104 73/166/117
f 71/176/125 72/160/111 69/168/119
f 67/173/121 226/172/123 253/179/127
f 78/180/128 83/181/129 432/182/130
f 231/183/131 414/184/131 86/185/131
f 74/186/126 93/187/132 86/185/131
f 70/188/122 67/189/121 88/190/133
f 71/191/125 70/188/122 89/192/134
f 74/186/126 71/193/125 92/194/135
f 63/195/136 434/196/137 62/197/138
f 423/198/139 424/199/140 432/182/130
f 420/200/141 421/201/142 81/202/143
f 420/200/141 80/203/144 84/204/145
f 78/205/128 79/206/146 84/204/145
f 422/207/147 246/208/147 81/209/143
f 87/210/99 435/211/148 437/212/149
f 254/164/115 87/147/99 436/213/150
f 259/214/151 440/215/152 439/216/152
f 94/154/105 442/217/153 441/218/154
f 94/154/105 85/219/155 439/216/152
f 91/220/108 441/221/154 437/212/149
f 85/219/155 77/156/107 240/222/156
f 449/223/157 99/224/158 103/225/159
f 285/226/160 107/227/161 98/228/162
f 415/229/163 220/230/163 281/231/164
f 457/232/165 448/233/166 453/234/167
f 222/235/168 269/143/95 443/236/95
f 219/237/169 408/238/170 405/239/171
f 406/240/172 445/241/173 461/242/174
f 96/243/175 452/244/176 103/225/159
f 454/245/175 97/246/175 108/247/175
f 405/239/171 406/240/172 270/248/177
f 449/223/157 103/225/159 450/249/178
f 450/249/178 103/225/159 451/250/179
f 451/250/179 103/225/159 452/244/176
f 101/251/180 104/252/181 284/253/182
f 104/254/181 105/255/183 283/256/184
f 105/255/183 102/257/164 281/231/164
f 282/258/185 271/259/186 98/228/162
f 454/245/175 108/247/175 455/260/175
f 455/260/175 108/247/175 456/261/187
f 456/261/187 108/247/175 457/232/165
f 107/227/161 285/226/160 287/262/188
f 110/263/189 287/264/188 288/265/190
f 109/266/191 288/265/190 286/267/192
f 221/268/193 419/269/193 106/270/194
f 96/243/175 103/225/159 99/224/158
f 453/234/167 99/224/158 449/223/157
f 448/233/166 108/247/175 97/246/175
f 108/247/175 448/233/166 457/232/165
f 97/246/175 454/245/175 411/271/175
f 418/272/175 411/271/175 454/245/175
f 452/244/176 409/273/175 416/274/175
f 409/273/175 452/244/176 96/243/175
f 448/233/166 458/275/195 447/276/196
f 100/145/97 275/144/96 460/277/197
f 99/224/158 453/234/167 447/276/196
f 333/278/198 468/279/199 470/280/198
f 111/281/200 466/282/201 462/283/202
f 464/284/203 474/285/204 294/286/205
f 111/287/200 113/288/206 469/289/207
f 114/290/208 467/291/209 471/292/210
f 332/293/211 331/294/212 118/295/212
f 117/296/213 471/292/210 472/297/214
f 118/295/212 331/294/212 334/298/215
f 121/299/216 335/300/217 336/301/218
f 129/302/219 473/303/220 481/304/221
f 463/305/222 344/306/222 323/307/222
f 345/308/223 343/309/224 465/310/225
f 472/297/214 473/303/220 119/311/226
f 124/312/227 334/298/215 335/300/217
f 341/313/228 122/314/229 476/315/230
f 117/296/213 123/316/231 125/317/232
f 349/318/233 476/315/230 120/319/234
f 123/316/231 119/311/226 477/320/235
f 349/318/233 120/319/234 127/321/236
f 119/311/226 129/302/219 479/322/237
f 117/296/213 478/323/238 126/324/239
f 475/325/240 341/313/228 345/308/223
f 298/326/241 322/327/242 469/289/207
f 479/322/237 129/302/219 480/328/243
f 480/328/243 129/302/219 481/304/221
f 347/329/244 346/330/245 130/331/246
f 130/331/246 346/330/245 348/332/247
f 337/333/248 347/329/244 128/334/249
f 24/1/1 145/3/3 13/7/7
f 21/4/4 146/6/6 149/30/28
f 13/7/7 148/8/8 19/139/30
f 25/9/9 150/2/2 24/1/1
f 45/11/11 22/13/13 26/39/34
f 35/14/14 3/16/16 357/44/36
f 8/17/17 136/19/17 364/96/17
f 36/20/18 370/22/20 15/33/29
f 44/15/15 360/24/22 3/16/16
f 34/25/23 6/27/25 10/88/56
f 16/5/5 373/29/27 146/6/6
f 25/9/9 149/30/28 151/10/10
f 369/31/26 15/33/29 370/22/20
f 19/34/30 14/36/32 13/42/7
f 24/37/1 26/39/34 25/41/9
f 21/40/4 26/39/34 22/13/13
f 16/32/5 22/13/13 15/33/29
f 13/42/7 23/38/33 24/37/1
f 37/43/35 357/44/36 378/54/42
f 42/45/37 26/39/34 23/38/33
f 33/46/38 20/35/31 39/137/55
f 46/23/21 5/48/40 360/24/22
f 43/12/12 15/33/29 22/13/13
f 42/45/37 14/36/32 33/46/38
f 361/49/41 376/51/41 384/53/41
f 367/52/41 384/53/41 385/78/41
f 378/54/42 168/55/42 379/335/42
f 1/56/41 382/58/41 359/59/41
f 359/59/41 375/60/41 9/336/41
f 363/61/43 387/63/43 31/337/43
f 27/64/44 173/66/22 170/73/52
f 32/67/46 171/69/48 174/74/53
f 30/68/47 172/71/50 171/69/48
f 28/72/51 170/73/52 179/338/250
f 29/65/45 174/74/53 173/66/22
f 380/75/54 374/77/54 386/339/54
f 1/56/41 385/78/41 383/57/41
f 35/14/14 38/340/19 36/86/18
f 34/25/23 39/83/55 40/26/24
f 41/47/39 45/84/11 42/87/37
f 46/23/21 43/85/12 45/84/11
f 44/15/15 36/86/18 43/85/12
f 41/47/39 33/82/38 34/25/23
f 41/47/39 10/88/56 5/48/40
f 7/89/57 390/91/59 143/341/251
f 18/92/60 372/94/62 147/342/252
f 389/95/63 364/96/17 368/100/66
f 17/97/64 366/99/61 18/343/60
f 389/95/63 356/101/67 388/344/68
f 388/345/68 355/346/65 17/347/64
f 197/104/69 391/106/69 51/130/69
f 11/107/70 371/109/58 7/348/57
f 4/110/72 47/112/74 2/349/76
f 12/113/75 354/111/73 4/110/72
f 365/115/75 350/114/75 12/113/75
f 11/107/70 47/118/74 50/108/71
f 393/350/253 397/351/254 54/352/255
f 397/351/254 393/350/253 392/119/77
f 56/121/79 52/120/78 53/353/79
f 52/120/78 392/119/77 393/350/253
f 352/122/80 396/124/82 49/129/87
f 48/125/83 394/127/85 353/354/88
f 200/128/86 396/124/82 207/355/256
f 51/130/69 395/126/84 48/125/83
f 352/356/80 394/357/85 55/358/81
f 6/27/25 61/134/89 402/142/94
f 40/26/24 60/135/90 61/134/89
f 20/35/31 399/136/91 398/138/92
f 39/137/55 398/138/92 60/359/90
f 19/139/30 400/140/93 399/360/91
f 166/141/94 402/142/94 401/361/94
f 269/143/95 100/145/97 443/236/95
f 90/146/98 76/148/100 75/149/101
f 90/146/98 426/150/102 91/157/108
f 57/151/103 232/153/104 213/362/103
f 94/154/105 77/156/107 85/219/155
f 91/157/108 425/155/106 94/154/105
f 403/158/109 72/160/111 73/166/117
f 210/161/112 68/163/114 58/167/118
f 87/147/99 239/165/116 76/148/100
f 403/158/109 66/152/104 57/151/103
f 58/167/118 69/168/119 59/169/120
f 404/159/110 69/168/119 72/160/111
f 67/170/121 69/168/119 68/163/114
f 226/172/123 68/174/114 225/363/113
f 413/175/124 66/152/104 65/178/124
f 71/176/125 73/166/117 72/160/111
f 65/178/124 73/166/117 74/177/126
f 71/176/125 69/168/119 70/171/122
f 67/173/121 253/179/127 88/364/133
f 78/180/128 432/182/130 424/199/140
f 231/183/131 86/185/131 260/365/131
f 74/186/126 86/185/131 414/184/131
f 70/188/122 88/190/133 89/192/134
f 71/191/125 89/192/134 92/366/135
f 74/186/126 92/194/135 93/187/132
f 429/367/257 410/368/258 428/369/259
f 434/196/137 82/370/260 433/371/261
f 82/370/260 64/372/262 431/373/263
f 431/373/263 64/372/262 407/374/264
f 428/369/259 62/197/138 434/196/137
f 412/375/263 410/368/258 430/376/265
f 410/368/258 429/367/257 430/376/265
f 434/196/137 64/372/262 82/370/260
f 63/195/136 62/197/138 417/377/266
f 434/196/137 63/195/136 64/372/262
f 62/197/138 428/369/259 410/368/258
f 417/377/266 62/197/138 427/378/266
f 423/198/139 432/182/130 247/379/139
f 420/200/141 81/202/143 80/203/144
f 420/200/141 84/204/145 79/206/146
f 78/205/128 84/204/145 83/380/129
f 422/207/147 81/209/143 421/381/142
f 87/210/99 437/212/149 436/382/150
f 254/164/115 436/213/150 438/383/267
f 259/214/151 439/216/152 85/219/155
f 94/154/105 441/218/154 91/157/108
f 94/154/105 439/216/152 442/217/153
f 91/220/108 437/212/149 435/211/148
f 85/219/155 240/222/156 259/214/151
f 285/226/160 98/228/162 271/259/186
f 415/229/163 281/231/164 102/257/164
f 222/235/168 443/236/95 95/384/168
f 219/237/169 405/239/171 266/385/268
f 406/240/172 461/242/174 270/248/177
f 405/239/171 270/248/177 266/385/268
f 101/251/180 284/253/182 282/258/185
f 104/254/181 283/256/184 284/386/182
f 105/255/183 281/231/164 283/256/184
f 282/258/185 98/228/162 101/251/180
f 107/227/161 287/262/188 110/387/189
f 110/263/189 288/265/190 109/266/191
f 109/266/191 286/267/192 106/270/194
f 221/268/193 106/270/194 286/267/192
f 448/233/166 447/276/196 453/234/167
f 100/145/97 460/277/197 459/388/269
f 99/224/158 447/276/196 444/389/270
f 111/281/200 462/283/202 446/390/271
f 464/284/203 294/286/205 112/391/272
f 111/281/200 469/392/207 466/282/201
f 114/290/208 471/292/210 117/296/213
f 332/293/211 118/295/212 116/393/211
f 117/296/213 472/297/214 123/316/231
f 118/295/212 334/298/215 124/312/227
f 340/394/273 481/304/221 473/303/220
f 119/311/226 473/303/220 129/302/219
f 117/296/213 126/324/239 114/290/208
f 345/308/223 465/310/225 475/325/240
f 472/297/214 119/311/226 123/316/231
f 124/312/227 335/300/217 121/299/216
f 341/313/228 476/315/230 342/395/274
f 117/296/213 125/317/232 478/323/238
f 123/316/231 477/320/235 125/317/232
f 349/318/233 127/321/236 348/332/247
f 119/311/226 479/322/237 477/320/235
f 115/396/275 114/290/208 126/324/239
f 298/326/241 469/289/207 113/288/206
f 347/329/244 130/331/246 128/334/249
f 130/331/246 348/332/247 127/321/236
f 349/318/233 342/395/274 476/315/230
f 163/397/276 145/3/3 150/2/2
f 160/398/277 146/6/6 155/399/278
f 152/400/279 148/8/8 145/3/3
f 164/401/280 150/2/2 151/10/10
f 193/402/281 161/403/282 191/404/283
f 183/405/284 133/406/16 192/407/285
f 139/408/17 136/19/17 167/18/17
f 184/409/286 500/410/287 186/411/288
f 192/407/285 491/412/22 194/413/289
f 182/414/290 137/415/25 188/416/291
f 155/399/278 373/29/27 499/417/292
f 164/401/280 149/30/28 160/398/277
f 499/418/292 154/419/293 155/420/278
f 158/421/294 153/422/295 159/423/296
f 163/424/276 165/425/297 162/426/298
f 160/427/277 165/425/297 164/428/280
f 155/420/278 161/403/282 160/427/277
f 152/429/279 162/426/298 153/422/295
f 185/430/299 488/431/36 183/405/284
f 190/432/300 165/425/297 193/402/281
f 181/433/301 159/423/296 153/422/295
f 194/413/289 135/434/40 189/435/302
f 191/404/283 154/419/293 184/409/286
f 190/432/300 153/422/295 162/426/298
f 492/436/303 504/437/303 493/438/303
f 497/439/303 509/440/303 492/436/303
f 506/441/42 168/55/42 488/431/36
f 131/442/303 507/443/303 508/444/303
f 490/445/303 503/446/303 507/443/303
f 494/447/43 387/63/43 381/62/43
f 169/448/304 173/66/22 176/449/305
f 180/450/306 171/69/48 177/451/307
f 177/451/307 172/71/50 505/452/49
f 175/453/308 170/73/52 169/448/304
f 176/449/305 174/74/53 180/450/306
f 380/75/54 502/454/54 489/455/54
f 131/442/303 510/456/303 497/439/303
f 183/457/284 186/411/288 185/458/299
f 182/459/290 187/460/309 181/433/301
f 189/461/302 193/402/281 194/462/289
f 194/462/289 191/404/283 192/463/285
f 192/463/285 184/409/286 183/457/284
f 189/461/302 181/433/301 190/432/300
f 189/435/302 141/464/56 182/414/290
f 138/465/310 390/91/59 501/466/311
f 157/467/312 372/94/62 496/468/313
f 512/469/314 495/470/17 139/408/17
f 156/471/315 496/472/313 486/473/316
f 512/469/314 487/474/317 498/475/318
f 511/476/319 486/477/316 487/478/317
f 197/104/69 513/479/69 204/105/69
f 142/480/320 501/481/311 199/482/321
f 134/483/322 195/484/323 485/485/324
f 144/486/75 485/487/324 482/488/75
f 365/115/75 482/488/75 351/116/75
f 142/480/320 195/484/323 132/489/325
f 392/119/77 208/490/79 202/491/326
f 483/492/327 517/493/328 206/494/329
f 196/495/330 515/496/331 516/497/332
f 200/128/86 517/493/328 198/498/333
f 201/499/69 516/497/332 513/479/69
f 483/500/327 515/501/331 484/502/334
f 137/415/25 215/503/335 188/416/291
f 188/504/291 214/505/336 187/460/309
f 159/423/296 519/506/337 158/421/294
f 187/460/309 518/507/338 159/423/296
f 158/508/294 400/140/93 148/8/8
f 166/141/94 520/509/94 137/415/25
f 269/143/95 274/510/339 275/144/96
f 258/511/340 238/512/341 255/513/342
f 258/511/340 538/514/343 237/515/344
f 209/516/103 232/153/104 224/517/104
f 264/518/345 241/519/346 537/520/347
f 261/521/348 537/520/347 538/514/343
f 521/522/349 234/523/350 522/524/351
f 210/161/112 228/525/352 225/162/113
f 255/513/342 239/165/116 254/164/115
f 521/522/349 224/517/104 235/526/353
f 211/527/354 229/528/355 228/525/352
f 522/524/351 229/528/355 212/529/356
f 227/530/357 229/528/355 230/531/358
f 226/172/123 228/532/352 227/533/357
f 413/175/124 224/517/104 232/153/104
f 233/534/359 235/526/353 236/535/360
f 223/536/124 235/526/353 224/517/104
f 233/534/359 229/528/355 234/523/350
f 227/533/357 253/179/127 226/172/123
f 242/537/361 541/538/362 249/539/363
f 231/183/131 252/540/131 529/541/131
f 236/542/360 252/540/131 263/543/364
f 230/544/358 256/545/365 227/546/357
f 233/547/359 257/548/366 230/544/358
f 236/549/360 262/550/367 233/547/359
f 217/551/368 216/552/369 543/553/370
f 423/198/139 541/538/362 536/554/371
f 534/555/372 245/556/373 535/557/374
f 534/558/372 250/559/375 244/560/376
f 242/561/361 250/559/375 243/562/377
f 422/207/147 245/556/373 246/208/147
f 255/563/342 546/564/378 544/565/379
f 254/164/115 545/566/380 255/513/342
f 259/214/151 547/567/152 440/215/152
f 264/518/345 548/568/381 549/569/382
f 264/518/345 547/567/152 251/570/383
f 261/571/348 546/564/378 548/572/381
f 251/570/383 240/222/156 241/519/346
f 556/573/384 278/574/385 273/575/386
f 285/226/160 272/576/387 290/577/388
f 530/578/163 281/231/164 220/230/163
f 564/579/389 560/580/390 555/581/391
f 222/235/168 550/582/95 269/143/95
f 219/237/169 523/583/392 525/584/393
f 524/585/394 461/242/174 552/586/395
f 267/587/396 278/574/385 559/588/397
f 561/589/396 291/590/396 268/591/396
f 523/583/392 270/248/177 524/585/394
f 556/573/384 557/592/398 278/574/385
f 557/592/398 558/593/399 278/574/385
f 558/593/399 559/588/397 278/574/385
f 276/594/400 284/253/182 279/595/401
f 279/596/401 283/256/184 280/597/183
f 280/597/183 281/231/164 277/598/164
f 282/258/185 272/576/387 271/259/186
f 561/589/396 562/599/396 291/590/396
f 562/599/396 563/600/402 291/590/396
f 563/600/402 564/579/389 291/590/396
f 290/577/388 287/262/188 285/226/160
f 293/601/403 288/265/190 287/264/188
f 292/602/404 286/267/192 288/265/190
f 221/268/193 289/603/194 533/604/193
f 267/587/396 273/575/386 278/574/385
f 560/580/390 556/573/384 273/575/386
f 555/581/391 268/591/396 291/590/396
f 291/590/396 564/579/389 555/581/391
f 268/591/396 528/605/396 561/589/396
f 532/606/396 561/589/396 528/605/396
f 559/588/397 531/607/396 526/608/396
f 526/608/396 267/587/396 559/588/397
f 555/581/391 554/609/405 565/610/406
f 274/510/339 460/277/197 275/144/96
f 273/575/386 554/609/405 560/580/390
f 333/278/198 470/280/198 573/611/407
f 295/612/408 567/613/409 571/614/410
f 569/615/411 294/286/205 474/285/204
f 295/616/408 574/617/412 297/618/413
f 300/619/414 575/620/415 572/621/416
f 303/622/417 305/623/418 306/624/418
f 304/625/419 576/626/420 575/620/415
f 305/623/418 316/627/421 306/624/418
f 310/628/422 338/629/423 311/630/424
f 329/631/425 584/632/426 577/633/427
f 568/634/222 323/307/222 344/306/222
f 320/635/428 570/636/429 299/637/430
f 576/626/420 308/638/431 577/633/427
f 317/639/432 311/630/424 316/627/421
f 313/640/433 579/641/434 314/642/435
f 304/625/419 319/643/436 315/644/437
f 307/645/438 309/646/439 579/641/434
f 315/644/437 580/647/440 308/638/431
f 307/645/438 327/648/441 309/646/439
f 308/638/431 582/649/442 329/631/425
f 304/625/419 321/650/443 581/651/444
f 313/640/433 578/652/445 320/635/428
f 298/326/241 574/617/412 322/327/242
f 582/649/442 583/653/446 329/631/425
f 583/653/446 584/632/426 329/631/425
f 324/654/447 330/655/448 326/656/449
f 330/655/448 325/657/450 326/656/449
f 339/658/451 328/659/452 324/654/447
f 163/397/276 152/400/279 145/3/3
f 160/398/277 149/30/28 146/6/6
f 152/400/279 158/508/294 148/8/8
f 164/401/280 163/397/276 150/2/2
f 193/402/281 165/425/297 161/403/282
f 183/405/284 488/431/36 133/406/16
f 139/408/17 495/470/17 136/19/17
f 184/409/286 154/419/293 500/410/287
f 192/407/285 133/406/16 491/412/22
f 182/414/290 141/464/56 137/415/25
f 155/399/278 146/6/6 373/29/27
f 164/401/280 151/10/10 149/30/28
f 499/418/292 500/410/287 154/419/293
f 158/421/294 152/429/279 153/422/295
f 163/424/276 164/428/280 165/425/297
f 160/427/277 161/403/282 165/425/297
f 155/420/278 154/419/293 161/403/282
f 152/429/279 163/424/276 162/426/298
f 185/430/299 506/441/42 488/431/36
f 190/432/300 162/426/298 165/425/297
f 181/433/301 187/460/309 159/423/296
f 194/413/289 491/412/22 135/434/40
f 191/404/283 161/403/282 154/419/293
f 190/432/300 181/433/301 153/422/295
f 492/436/303 509/440/303 504/437/303
f 497/439/303 510/456/303 509/440/303
f 506/441/42 379/335/42 168/55/42
f 131/442/303 490/445/303 507/443/303
f 490/445/303 140/660/303 503/446/303
f 494/447/43 178/661/43 387/63/43
f 169/448/304 170/73/52 173/66/22
f 180/450/306 174/74/53 171/69/48
f 177/451/307 171/69/48 172/71/50
f 175/453/308 179/338/250 170/73/52
f 176/449/305 173/66/22 174/74/53
f 380/75/54 386/339/54 502/454/54
f 131/442/303 508/444/303 510/456/303
f 183/457/284 184/409/286 186/411/288
f 182/459/290 188/504/291 187/460/309
f 189/461/302 190/432/300 193/402/281
f 194/462/289 193/402/281 191/404/283
f 192/463/285 191/404/283 184/409/286
f 189/461/302 182/459/290 181/433/301
f 189/435/302 135/434/40 141/464/56
f 138/465/310 143/341/251 390/91/59
f 157/467/312 147/342/252 372/94/62
f 512/469/314 498/475/318 495/470/17
f 156/471/315 157/662/312 496/472/313
f 512/469/314 511/663/319 487/474/317
f 511/664/319 156/471/315 486/473/316
f 197/104/69 201/499/69 513/479/69
f 142/480/320 138/665/310 501/481/311
f 134/483/322 132/489/325 195/484/323
f 144/486/75 134/666/322 485/487/324
f 365/115/75 144/486/75 482/488/75
f 142/480/320 199/482/321 195/484/323
f 514/667/453 205/668/454 397/351/254
f 397/351/254 392/119/77 514/667/453
f 208/490/79 203/669/79 202/491/326
f 202/491/326 514/667/453 392/119/77
f 483/492/327 198/498/333 517/493/328
f 196/495/330 484/670/334 515/496/331
f 200/128/86 207/355/256 517/493/328
f 201/499/69 196/495/330 516/497/332
f 483/500/327 206/671/329 515/501/331
f 137/415/25 520/509/94 215/503/335
f 188/504/291 215/672/335 214/505/336
f 159/423/296 518/507/338 519/506/337
f 187/460/309 214/505/336 518/507/338
f 158/508/294 519/673/337 400/140/93
f 166/141/94 401/361/94 520/509/94
f 269/143/95 550/582/95 274/510/339
f 258/511/340 237/515/344 238/512/341
f 258/511/340 261/521/348 538/514/343
f 209/516/103 213/362/103 232/153/104
f 264/518/345 251/570/383 241/519/346
f 261/521/348 264/518/345 537/520/347
f 521/522/349 235/526/353 234/523/350
f 210/161/112 211/527/354 228/525/352
f 255/513/342 238/512/341 239/165/116
f 521/522/349 209/516/103 224/517/104
f 211/527/354 212/529/356 229/528/355
f 522/524/351 234/523/350 229/528/355
f 227/530/357 228/525/352 229/528/355
f 226/172/123 225/363/113 228/532/352
f 413/175/124 223/536/124 224/517/104
f 233/534/359 234/523/350 235/526/353
f 223/536/124 236/535/360 235/526/353
f 233/534/359 230/531/358 229/528/355
f 227/533/357 256/674/365 253/179/127
f 242/537/361 536/554/371 541/538/362
f 231/183/131 260/365/131 252/540/131
f 236/542/360 529/541/131 252/540/131
f 230/544/358 257/548/366 256/545/365
f 233/547/359 262/550/367 257/548/366
f 236/549/360 263/675/364 262/550/367
f 540/676/455 539/677/456 527/678/457
f 543/553/370 542/679/458 248/680/459
f 248/680/459 431/373/263 218/681/460
f 431/373/263 407/374/264 218/681/460
f 539/677/456 543/553/370 216/552/369
f 412/375/263 430/376/265 527/678/457
f 527/678/457 430/376/265 540/676/455
f 543/553/370 248/680/459 218/681/460
f 217/551/368 417/377/266 216/552/369
f 543/553/370 218/681/460 217/551/368
f 216/552/369 527/678/457 539/677/456
f 417/377/266 427/378/266 216/552/369
f 423/198/139 247/379/139 541/538/362
f 534/555/372 244/682/376 245/556/373
f 534/558/372 243/562/377 250/559/375
f 242/561/361 249/683/363 250/559/375
f 422/207/147 535/557/374 245/556/373
f 255/563/342 545/684/380 546/564/378
f 254/164/115 438/383/267 545/566/380
f 259/214/151 251/570/383 547/567/152
f 264/518/345 261/521/348 548/568/381
f 264/518/345 549/569/382 547/567/152
f 261/571/348 544/565/379 546/564/378
f 251/570/383 259/214/151 240/222/156
f 285/226/160 271/259/186 272/576/387
f 530/578/163 277/598/164 281/231/164
f 222/235/168 265/685/168 550/582/95
f 219/237/169 266/385/268 523/583/392
f 524/585/394 270/248/177 461/242/174
f 523/583/392 266/385/268 270/248/177
f 276/594/400 282/258/185 284/253/182
f 279/596/401 284/386/182 283/256/184
f 280/597/183 283/256/184 281/231/164
f 282/258/185 276/594/400 272/576/387
f 290/577/388 293/686/403 287/262/188
f 293/601/403 292/602/404 288/265/190
f 292/602/404 289/603/194 286/267/192
f 221/268/193 286/267/192 289/603/194
f 555/581/391 560/580/390 554/609/405
f 274/510/339 566/687/461 460/277/197
f 273/575/386 551/688/462 554/609/405
f 295/612/408 553/689/463 567/613/409
f 569/615/411 296/690/464 294/286/205
f 295/612/408 571/614/410 574/691/412
f 300/619/414 304/625/419 575/620/415
f 303/622/417 302/692/417 305/623/418
f 304/625/419 315/644/437 576/626/420
f 305/623/418 317/639/432 316/627/421
f 312/693/465 577/633/427 584/632/426
f 308/638/431 329/631/425 577/633/427
f 304/625/419 300/619/414 321/650/443
f 320/635/428 578/652/445 570/636/429
f 576/626/420 315/644/437 308/638/431
f 317/639/432 310/628/422 311/630/424
f 313/640/433 318/694/466 579/641/434
f 304/625/419 581/651/444 319/643/436
f 315/644/437 319/643/436 580/647/440
f 307/645/438 325/657/450 327/648/441
f 308/638/431 580/647/440 582/649/442
f 301/695/467 321/650/443 300/619/414
f 298/326/241 297/618/413 574/617/412
f 324/654/447 328/659/452 330/655/448
f 330/655/448 327/648/441 325/657/450
f 307/645/438 579/641/434 318/694/466
f 475/325/240 122/314/229 341/313/228
f 313/640/433 314/642/435 578/652/445
