# Blender v2.75 (sub 0) OBJ File: 'skull.blend'
# www.blender.org
mtllib Cat_Skull_COL.mtl
o Cube.002
v 0.001593 0.070678 0.094253
v -0.049439 0.014096 -0.065376
v 0.069271 0.080379 0.006199
v -0.002377 0.028552 0.066285
v -0.029355 0.000959 -0.015900
v -0.004472 0.055061 0.100343
v -0.019458 0.032986 0.087486
v 0.081744 0.039274 -0.049296
v 0.066291 0.057291 0.024767
v -0.076252 0.088438 -0.052261
v 0.082179 0.056458 -0.045234
v -0.006296 0.032243 0.087377
v 0.056816 0.067713 0.027848
v -0.053459 0.034338 -0.095648
v 0.057282 0.036012 -0.089579
v 0.029225 0.018801 0.062980
v -0.032665 0.016441 0.052971
v 0.062533 0.019925 -0.002349
v 0.077790 0.067283 -0.008778
v 0.037059 0.100236 0.015324
v 0.043199 0.114618 -0.054758
v 0.027941 0.044084 -0.111814
v -0.048393 0.022395 0.022079
v 0.016625 0.121968 -0.071834
v -0.015789 0.114276 -0.084811
v -0.001557 0.014444 -0.104683
v -0.020411 0.125774 -0.052736
v -0.022011 0.002190 -0.081962
v 0.078101 0.078948 -0.064701
v 0.064588 0.076429 -0.084186
v -0.074596 0.076455 0.004594
v 0.011022 0.123696 -0.035399
v -0.030061 0.099939 -0.095024
v 0.061884 0.085479 -0.009046
v 0.019342 0.116487 -0.011003
v -0.021190 0.117168 -0.002756
v 0.023164 0.004155 -0.082265
v 0.035469 0.035378 0.054907
v -0.028341 0.047397 -0.112837
v -0.034402 0.112107 -0.019907
v -0.060455 0.017526 -0.002462
v -0.052059 0.081000 -0.007184
v -0.066086 0.069998 0.018756
v -0.069341 0.038475 0.020548
v -0.050484 0.098628 0.007467
v -0.085546 0.051932 -0.038307
v -0.075368 0.079593 -0.075888
v -0.067215 0.083769 -0.009313
v 0.002510 0.060672 0.092238
v 0.002387 0.040279 0.096850
v -0.022609 0.074055 0.063316
v 0.030929 0.064318 0.059684
v 0.016318 0.067973 0.081195
v 0.021165 0.049352 0.088062
v -0.020876 0.050894 0.091092
v 0.021268 0.074025 0.044539
v -0.051502 0.112416 -0.065312
v -0.081769 0.035849 -0.051424
v -0.070013 0.059773 0.024067
v -0.048501 0.055613 0.000402
v -0.083885 0.064418 -0.058987
v -0.041609 0.053612 0.025907
v -0.027687 0.080884 -0.008311
v -0.036229 0.099843 0.018478
v -0.010415 0.078223 0.006942
v -0.023275 0.089576 0.029640
v -0.005359 0.113984 0.018299
v -0.004330 -0.003770 -0.051285
v -0.040478 0.041435 0.057003
v -0.017947 0.062572 0.025953
v -0.040997 0.069615 0.041077
v 0.021668 0.000480 -0.013757
v -0.024010 0.073958 0.044602
v -0.022182 0.055057 0.005466
v 0.001044 0.089844 0.056883
v 0.038499 0.108469 0.004305
v -0.019833 0.017280 0.030359
v 0.049647 0.014047 -0.058003
v 0.001836 0.089913 -0.108064
v -0.045254 0.013558 0.049471
v 0.013256 0.092557 0.041577
v -0.032552 0.018769 0.062873
v 0.026625 0.020268 0.050938
v -0.022040 0.011077 0.077633
v -0.020097 0.033052 0.066367
v 0.023786 0.092672 0.029194
v 0.052310 0.103034 -0.077928
v 0.041382 0.105013 -0.021119
v 0.061878 0.080669 0.009204
v 0.036242 0.089385 -0.006098
v -0.002545 -0.000821 0.082627
v 0.037228 0.018907 0.022706
v 0.028679 0.074530 0.039483
v 0.019036 0.032190 0.062246
v 0.017181 0.029264 0.081093
v 0.076996 0.083882 -0.044480
v 0.013090 0.059424 0.018333
v 0.009114 0.081658 0.003394
v -0.001326 0.011216 0.083285
v 0.054876 0.057588 0.016146
v 0.050058 0.074815 -0.007074
v 0.027992 0.056927 -0.003713
v 0.068503 0.038398 0.017960
v 0.035647 0.052509 0.024951
v 0.039819 0.011980 0.052494
v 0.001386 0.009195 0.093330
v -0.012710 0.098435 0.041176
v -0.008605 0.070670 0.093384
v -0.005144 0.061152 0.092771
v 0.008442 0.060549 0.096864
v 0.004932 0.013973 0.086421
v -0.001124 0.007890 0.087610
v -0.018698 0.012368 0.071433
v -0.010287 0.009589 0.087901
v -0.014013 0.016050 0.081243
v -0.014151 0.012015 0.078350
v -0.007350 0.014138 0.085968
v -0.001108 0.008538 0.089899
v 0.006190 0.032726 0.092225
v -0.004471 0.039868 0.090326
v -0.026752 0.025396 0.069411
v -0.020921 0.033683 0.085101
v -0.016190 0.033159 0.081781
v -0.017064 0.025794 0.084823
v -0.008414 0.033046 0.091635
v -0.011090 0.027043 0.089743
v -0.013335 0.038481 0.091623
v -0.001108 0.040458 0.093824
v 0.024570 0.025396 0.069411
v 0.018739 0.033683 0.085099
v 0.008686 0.037655 0.088274
v 0.014882 0.025794 0.084822
v 0.009561 0.027421 0.089029
v 0.011152 0.038483 0.091626
v 0.016449 0.012368 0.071433
v 0.008041 0.009590 0.087897
v 0.011901 0.012015 0.078350
v 0.011763 0.016050 0.081243
vt 0.651729 0.070822
vt 0.614984 0.220575
vt 0.597622 0.148029
vt 0.542467 0.073986
vt 0.618896 0.011775
vt 0.063651 0.419800
vt 0.002288 0.323396
vt 0.068631 0.329057
vt 0.121605 0.391029
vt 0.073128 0.849121
vt 0.092926 0.909711
vt 0.026231 0.876694
vt 0.655225 0.744791
vt 0.655630 0.659135
vt 0.736150 0.700466
vt 0.700592 0.782321
vt 0.321836 0.374809
vt 0.338216 0.442710
vt 0.240292 0.407174
vt 0.751163 0.881193
vt 0.674580 0.846021
vt 0.494944 0.146900
vt 0.705347 0.041228
vt 0.730375 0.146041
vt 0.541543 0.227483
vt 0.127848 0.951326
vt 0.043130 0.960291
vt 0.405341 0.364047
vt 0.185458 0.462489
vt 0.283790 0.243990
vt 0.149213 0.218338
vt 0.280232 0.114558
vt 0.205252 0.317390
vt 0.160664 0.899162
vt 0.864304 0.833138
vt 0.846657 0.776903
vt 0.922609 0.713020
vt 0.627502 0.784425
vt 0.593217 0.906837
vt 0.503311 0.796717
vt 0.712211 0.193500
vt 0.160943 0.786270
vt 0.340023 0.891496
vt 0.340023 0.942546
vt 0.304127 0.926425
vt 0.681859 0.580817
vt 0.498308 0.959074
vt 0.609599 0.986480
vt 0.533550 0.900674
vt 0.474292 0.909876
vt 0.853366 0.639092
vt 0.864970 0.560518
vt 0.774923 0.498663
vt 0.765744 0.535545
vt 0.461242 0.117635
vt 0.962542 0.887065
vt 0.962542 0.966686
vt 0.939090 0.955821
vt 0.671188 0.384423
vt 0.660936 0.428560
vt 0.629837 0.380561
vt 0.601435 0.317898
vt 0.515557 0.337906
vt 0.579612 0.271220
vt 0.471949 0.546939
vt 0.482545 0.502683
vt 0.524730 0.527123
vt 0.056784 0.192698
vt 0.125062 0.116760
vt 0.450497 0.291124
vt 0.501225 0.287988
vt 0.487465 0.325849
vt 0.474227 0.766811
vt 0.521373 0.718104
vt 0.574998 0.735845
vt 0.465728 0.820907
vt 0.126637 0.492847
vt 0.142010 0.586774
vt 0.087285 0.581088
vt 0.911192 0.899320
vt 0.926068 0.929564
vt 0.914906 0.949741
vt 0.381268 0.610158
vt 0.410334 0.580993
vt 0.410334 0.616399
vt 0.853428 0.073963
vt 0.818952 0.053020
vt 0.866466 0.019132
vt 0.710916 0.444565
vt 0.285660 0.003213
vt 0.348346 0.075726
vt 0.316205 0.059570
vt 0.047934 0.123314
vt 0.374177 0.218400
vt 0.438684 0.657211
vt 0.464903 0.639577
vt 0.762196 0.345330
vt 0.793623 0.460740
vt 0.731357 0.369255
vt 0.031022 0.555497
vt 0.050942 0.686748
vt 0.856755 0.386962
vt 0.831366 0.452583
vt 0.805860 0.395262
vt 0.873380 0.376405
vt 0.826615 0.333462
vt 0.883178 0.331567
vt 0.609155 0.581749
vt 0.633550 0.613785
vt 0.005268 0.588751
vt 0.533074 0.522226
vt 0.496518 0.610400
vt 0.443367 0.210108
vt 0.568921 0.612134
vt 0.922966 0.203176
vt 0.951552 0.158425
vt 0.987182 0.182903
vt 0.424158 0.705918
vt 0.442640 0.681016
vt 0.665087 0.333118
vt 0.954788 0.446005
vt 0.905399 0.468071
vt 0.914034 0.412889
vt 0.079778 0.496045
vt 0.101029 0.506502
vt 0.878167 0.222271
vt 0.812079 0.227908
vt 0.848530 0.187038
vt 0.975640 0.887065
vt 0.975586 0.947911
vt 0.963734 0.915048
vt 0.969631 0.608300
vt 0.974807 0.679434
vt 0.959664 0.652658
vt 0.175705 0.494940
vt 0.176237 0.569016
vt 0.832479 0.111140
vt 0.866210 0.066976
vt 0.881965 0.119764
vt 0.631080 0.514441
vt 0.800344 0.411007
vt 0.724083 0.948626
vt 0.755889 0.897392
vt 0.779237 0.952557
vt 0.900117 0.416645
vt 0.347792 0.736936
vt 0.325532 0.716342
vt 0.359356 0.714141
vt 0.974478 0.234027
vt 0.926785 0.256842
vt 0.381268 0.616145
vt 0.348959 0.616145
vt 0.362420 0.580993
vt 0.935863 0.350651
vt 0.947037 0.301594
vt 0.981271 0.355460
vt 0.402622 0.804297
vt 0.373321 0.842649
vt 0.349770 0.786378
vt 0.675777 0.000000
vt 0.956352 0.692990
vt 0.928579 0.688427
vt 0.959375 0.624784
vt 0.822933 0.922625
vt 0.807306 0.945448
vt 0.800603 0.910883
vt 0.218533 0.623148
vt 0.204711 0.658781
vt 0.169179 0.633949
vt 0.352565 0.150408
vt 0.960382 0.489080
vt 0.671543 0.914980
vt 0.723297 0.915601
vt 0.707267 0.960832
vt 0.805008 0.304239
vt 0.849990 0.277766
vt 0.649400 0.956719
vt 0.390090 0.658342
vt 0.402622 0.682316
vt 0.376195 0.708970
vt 0.699870 0.255345
vt 0.762319 0.254595
vt 0.166359 0.048659
vt 0.402622 0.830505
vt 0.411019 0.805652
vt 0.411019 0.854563
vt 0.218698 0.679215
vt 0.982178 0.661696
vt 0.975169 0.608300
vt 0.988249 0.624927
vt 0.954468 0.106509
vt 0.908353 0.071313
vt 0.950808 0.043526
vt 0.245037 0.028913
vt 0.249208 0.711589
vt 0.269473 0.715785
vt 0.321451 0.775271
vt 0.791572 0.201795
vt 0.336743 0.604764
vt 0.306217 0.563765
vt 0.324336 0.556045
vt 0.009552 0.529153
vt 0.939201 0.593306
vt 0.952244 0.561680
vt 1.000000 0.598199
vt 0.109298 0.685642
vt 0.402573 0.167400
vt 0.146019 0.745581
vt 0.190772 0.749858
vt 0.859980 0.123851
vt 0.292325 0.925256
vt 0.244208 0.841413
vt 0.258265 0.811585
vt 0.225338 0.923867
vt 0.127776 0.040370
vt 0.898887 0.011956
vt 0.923188 0.000000
vt 0.324682 0.865620
vt 0.369349 0.891496
vt 0.319657 0.822682
vt 0.876218 0.474449
vt 0.942182 0.608300
vt 0.282321 0.759531
vt 0.968933 0.392044
vt 0.400068 0.865139
vt 0.000000 0.741957
vt 0.788150 0.052240
vt 0.799341 0.103703
vt 0.959066 0.749230
vt 0.901656 0.320569
vt 0.987561 0.098589
vt 0.987561 0.148812
vt 0.974928 0.110569
vt 0.775010 0.470457
vt 0.171548 0.620727
vt 0.368360 0.760572
vt 0.734928 0.494973
vt 0.980219 0.049469
vt 0.960702 0.049469
vt 0.968749 0.000000
vt 0.144116 0.473327
vt 0.303960 0.648740
vt 0.850865 0.887065
vt 0.539796 0.332305
vt 0.543140 0.366099
vt 0.262006 0.585356
vt 0.250244 0.569778
vt 0.387443 0.902085
vt 0.367966 0.914517
vt 0.368290 0.896449
vt 0.587452 0.544278
vt 0.555086 0.507948
vt 0.865903 0.932136
vt 0.860771 0.890302
vt 0.893757 0.910764
vt 0.414437 0.473327
vt 0.395656 0.526117
vt 0.370796 0.494701
vt 0.727689 0.460249
vt 0.762362 0.483033
vt 0.939090 0.887960
vt 0.265261 0.930847
vt 0.265261 0.966996
vt 0.245197 0.945580
vt 0.330505 0.512928
vt 0.647914 0.346249
vt 0.668360 0.378256
vt 0.261917 0.550650
vt 0.261573 0.539361
vt 0.675642 0.360732
vt 0.888031 0.168229
vt 0.697841 0.393637
vt 0.602551 0.415576
vt 0.401162 0.571173
vt 0.348959 0.561481
vt 0.574610 0.386270
vt 0.415985 0.188490
vt 0.860979 0.266428
vt 0.899659 0.259654
vt 0.122570 0.477230
vt 0.788484 0.914311
vt 0.934000 0.804048
vt 0.935490 0.758375
vt 0.961043 0.799947
vt 0.488384 0.727247
vt 0.959796 0.148219
vt 0.954315 0.135216
vt 0.959867 0.127014
vt 0.933679 0.866173
vt 0.945562 0.845500
vt 0.950653 0.867496
vt 0.932935 0.837672
vt 0.374588 0.931821
vt 0.388182 0.920424
vt 0.020202 0.440723
vt 0.023026 0.447242
vt 0.008120 0.447900
vt 0.506837 0.389870
vt 0.480827 0.381665
vt 0.468895 0.351731
vt 0.055248 0.482056
vt 0.050557 0.496419
vt 0.027415 0.498697
vt 0.499366 0.400036
vt 0.042141 0.434156
vt 0.026507 0.433270
vt 0.038089 0.417183
vt 0.053415 0.416683
vt 0.514037 0.409750
vt 0.523666 0.405274
vt 0.389547 0.066315
vt 0.415716 0.060865
vt 0.412710 0.075266
vt 0.543906 0.437371
vt 0.535812 0.450491
vt 0.517011 0.442036
vt 0.500832 0.477097
vt 0.453084 0.456796
vt 0.466355 0.437597
vt 0.482240 0.338111
vt 0.517684 0.373012
vt 0.496020 0.378128
vt 0.532890 0.420658
vt 0.518804 0.413759
vt 0.434845 0.445549
vt 0.429494 0.425547
vt 0.444306 0.415756
vt 0.414180 0.421765
vt 0.418839 0.402793
vt 0.535703 0.392364
vt 0.523422 0.392619
vt 0.522409 0.379339
vt 0.490077 0.449290
vt 0.502611 0.443080
vt 0.519979 0.466233
vt 0.431943 0.462321
vt 0.413341 0.476137
vt 0.393035 0.429273
vt 0.538194 0.419174
vt 0.542810 0.397379
vt 0.578326 0.431996
vt 0.514911 0.443255
vt 0.454302 0.483865
vt 0.443008 0.499647
vt 0.425909 0.491953
vt 0.471157 0.510285
vt 0.502633 0.427243
vt 0.472896 0.416214
vt 0.464428 0.390346
vt 0.064406 0.453543
vt 0.041214 0.453274
vt 0.035384 0.439390
vt 0.452933 0.397923
vt 0.051339 0.477383
vt 0.037980 0.460743
vt 0.053311 0.459995
vt 0.066250 0.475007
vt 0.446364 0.374696
vn -0.195900 0.980500 -0.013900
vn 0.232200 0.963600 0.132300
vn 0.140900 0.974700 0.173300
vn 0.186400 0.907900 -0.375400
vn -0.123300 0.812300 -0.570000
vn 0.669500 -0.394200 -0.629500
vn 0.907000 -0.394400 -0.147500
vn 0.524200 -0.835000 -0.167200
vn 0.332400 -0.865400 -0.375000
vn -0.995500 -0.002100 0.094200
vn -0.972400 0.074900 -0.220800
vn -0.848200 -0.496000 -0.185800
vn 0.078500 0.430100 -0.899300
vn -0.348900 0.531800 -0.771600
vn -0.535900 -0.820700 -0.198100
vn -0.617700 -0.380400 -0.688200
vn -0.286100 -0.891000 -0.352400
vn -0.780600 0.293700 -0.551700
vn -0.540900 0.809700 -0.227400
vn 0.501500 0.865100 0.009000
vn -0.419500 0.895800 0.146600
vn 0.552100 0.823800 0.128100
vn 0.008600 -0.623700 -0.781600
vn -0.263500 -0.954800 0.137700
vn 0.205200 -0.964200 0.167800
vn -0.000400 -0.980400 0.197100
vn -0.019000 -0.998500 -0.051100
vn -0.843600 0.535100 0.045500
vn -0.296100 -0.067200 -0.952800
vn 0.673700 -0.709600 0.206400
vn 0.960200 0.251100 0.122100
vn -0.225500 0.970300 0.087500
vn -0.747800 0.661900 0.051400
vn 0.893900 0.312000 -0.321800
vn 0.861100 0.488400 0.140900
vn 0.544300 0.656700 -0.521900
vn 0.996200 0.083300 0.026800
vn 0.336100 -0.135100 -0.932100
vn 0.651400 0.218200 -0.726600
vn 0.609600 0.664400 0.432300
vn 0.581800 0.707700 0.400700
vn 0.644900 0.762700 0.049900
vn 0.578300 0.035500 0.815100
vn 0.769300 0.544200 0.334600
vn 0.488600 0.833600 0.257500
vn 0.677200 0.580700 0.451700
vn 0.324900 0.324400 0.888300
vn 0.725900 -0.005300 0.687700
vn 0.255200 -0.955700 0.146600
vn 0.727400 0.685600 0.029900
vn 0.839500 0.139000 0.525200
vn 0.872600 -0.342900 0.347800
vn -0.714100 0.084300 0.694900
vn -0.626700 0.775700 0.073900
vn -0.812600 0.039600 0.581400
vn 0.346500 -0.916400 0.200200
vn -0.328000 0.046200 0.943500
vn 0.498500 -0.849500 -0.172800
vn -0.032000 -0.956000 0.291600
vn 0.000600 -0.895800 0.444500
vn -0.063500 -0.995900 -0.064700
vn -0.592800 -0.746800 0.301300
vn -0.597400 -0.781300 0.180600
vn 0.712200 0.432900 0.552500
vn -0.418500 0.748200 0.514800
vn -0.337300 0.561200 0.755800
vn 0.180200 0.862600 0.472600
vn -0.861600 -0.349100 0.368400
vn -0.008500 0.903500 -0.428500
vn 0.206000 0.675000 0.708400
vn 0.808800 0.544700 -0.221400
vn -0.106100 0.761800 0.639000
vn 0.159400 0.896800 -0.412600
vn 0.363400 0.746100 0.557900
vn 0.379800 0.145100 0.913600
vn 0.508300 -0.816400 0.273900
vn 0.805700 -0.167300 0.568200
vn 0.886700 -0.278000 0.369400
vn 0.925500 -0.195000 0.324700
vn -0.721600 0.466600 -0.511400
vn -0.459100 -0.538700 0.706400
vn -0.001700 -0.581200 0.813700
vn -0.500600 0.067900 0.863000
vn -0.856300 0.441100 0.268400
vn -0.828700 0.188300 0.527000
vn -0.661700 -0.034000 0.749000
vn -0.716800 0.601500 0.352500
vn 0.303300 -0.815100 0.493600
vn -0.259400 -0.919300 0.295800
vn 0.128900 0.135300 0.982400
vn -0.664000 0.746500 0.043000
vn -0.191200 0.336400 0.922100
vn -0.559300 0.672800 0.484200
vn -0.446300 -0.893600 -0.048100
vn 0.502800 -0.177100 0.846000
vn -0.499100 0.776600 0.384500
vn -0.353900 -0.254000 0.900100
vn 0.000500 0.905700 -0.423800
vn -0.995900 -0.028400 0.085600
vn -0.426600 -0.898300 0.105300
vn -0.942000 -0.202700 0.267200
vn -0.043500 0.923300 0.381600
vn -0.737200 0.107000 0.667100
vn -0.555600 0.383900 0.737500
vn 0.149800 -0.452700 0.879000
vn 0.025900 0.800500 0.598700
vn 0.154800 0.518100 0.841200
vn -0.094700 0.184500 0.978200
vn 0.502500 0.377500 0.777800
vn -0.284700 0.368500 0.884900
vn 0.326600 0.920600 0.213800
vn -0.251500 0.942000 0.222400
vn 0.013900 0.094900 -0.995400
vn -0.369800 0.446900 0.814500
vn -0.385200 0.920000 -0.072200
vn -0.727800 0.679400 0.092700
vn 0.722700 0.383900 -0.574700
vn -0.044200 0.572900 0.818400
vn 0.242100 -0.357000 -0.902200
vn -0.304500 -0.815800 0.491600
vn 0.395600 -0.419400 0.817000
vn 0.339900 -0.877700 0.337800
vn 0.011200 -0.990800 0.134500
vn 0.727200 -0.322600 -0.605900
vn -0.030200 -0.998500 0.044800
vn -0.660000 -0.327200 0.676200
vn -0.315300 -0.208600 0.925800
vn -0.053100 -0.250100 0.966800
vn -0.575000 -0.336600 -0.745600
vn -0.127700 -0.970400 0.204800
vn -0.410500 -0.885900 0.216100
vn 0.648900 -0.333800 0.683700
vn -0.011100 -0.999800 0.018800
vn 0.376400 -0.187400 0.907300
vn 0.727600 0.679700 0.092400
vn 0.371900 0.925400 -0.072700
vn 0.427300 0.396200 0.812600
vn -0.727800 0.387000 -0.566100
usemtl Material
s 1
f 27/1/1 35/2/2 32/3/3
f 24/4/4 27/1/1 32/3/3
f 25/5/5 27/1/1 24/4/4
f 15/6/6 8/7/7 78/8/8
f 78/8/8 37/9/9 15/6/6
f 46/10/10 61/11/11 58/12/12
f 25/13/5 24/14/4 79/15/13
f 79/15/13 33/16/14 25/13/5
f 2/17/15 14/18/16 28/19/17
f 33/16/14 47/20/18 57/21/19
f 21/22/20 24/4/4 32/3/3
f 57/23/19 40/24/21 27/1/1
f 40/24/21 35/2/2 27/1/1
f 21/22/20 32/3/3 88/25/22
f 47/26/18 14/27/16 61/11/11
f 2/17/15 58/28/12 14/18/16
f 26/29/23 15/6/6 37/9/9
f 5/30/24 72/31/25 77/32/26
f 72/31/25 68/33/27 78/8/8
f 10/34/28 47/26/18 61/11/11
f 14/35/16 39/36/29 26/37/23
f 18/38/30 8/39/7 19/40/31
f 2/17/15 28/19/17 68/33/27
f 35/2/2 40/24/21 36/41/32
f 39/36/29 33/16/14 79/15/13
f 26/29/23 37/9/9 28/19/17
f 61/11/11 48/42/33 10/34/28
f 29/43/34 21/44/20 96/45/35
f 28/19/17 37/9/9 68/33/27
f 28/19/17 14/18/16 26/29/23
f 79/15/13 24/14/4 87/46/36
f 47/20/18 39/36/29 14/35/16
f 29/47/34 8/39/7 15/48/6
f 11/49/37 29/47/34 96/50/35
f 8/39/7 29/47/34 11/49/37
f 22/51/38 15/52/6 26/37/23
f 29/53/34 15/52/6 30/54/39
f 22/51/38 79/15/13 87/46/36
f 22/51/38 30/54/39 15/52/6
f 87/46/36 30/54/39 22/51/38
f 61/11/11 14/27/16 58/12/12
f 24/4/4 21/22/20 87/55/36
f 87/56/36 29/57/34 30/58/39
f 56/59/40 52/60/41 93/61/42
f 20/62/43 3/63/44 76/64/45
f 53/65/46 110/66/47 54/67/48
f 72/31/25 18/68/30 92/69/49
f 11/70/37 34/71/50 19/72/31
f 39/36/29 79/15/13 22/51/38
f 3/73/44 9/74/51 103/75/52
f 96/50/35 34/76/50 11/49/37
f 55/77/53 71/78/54 69/79/55
f 85/80/56 82/81/57 17/82/58
f 85/83/56 17/84/58 4/85/59
f 4/86/59 12/87/60 85/88/56
f 56/59/40 53/89/46 52/60/41
f 91/90/61 80/91/62 17/92/58
f 103/93/52 92/69/49 18/68/30
f 77/32/26 72/31/25 92/69/49
f 5/30/24 41/94/63 58/28/12
f 81/95/64 53/65/46 56/96/40
f 61/11/11 46/10/10 48/42/33
f 107/97/65 108/98/66 75/99/67
f 82/100/57 69/79/55 44/101/68
f 104/102/69 102/103/70 97/104/71
f 43/105/72 62/106/73 60/107/74
f 76/64/45 88/25/22 35/2/2
f 16/108/75 105/109/76 103/75/52
f 80/110/62 82/100/57 44/101/68
f 54/111/48 9/74/51 52/112/41
f 96/113/35 21/22/20 34/71/50
f 54/111/48 16/108/75 38/114/77
f 98/115/78 86/116/79 93/117/42
f 20/118/43 81/95/64 86/119/79
f 76/64/45 81/120/64 20/62/43
f 71/121/54 70/122/80 62/123/73
f 69/79/55 7/124/81 55/125/53
f 69/79/55 82/100/57 7/124/81
f 90/126/82 102/127/70 101/128/83
f 3/73/44 103/75/52 19/40/31
f 31/129/84 59/130/85 43/131/72
f 80/132/62 91/133/61 84/134/86
f 55/77/53 108/135/66 51/136/87
f 95/137/88 4/138/59 94/139/89
f 106/140/90 105/109/76 16/108/75
f 76/64/45 75/99/67 81/120/64
f 51/141/87 108/98/66 107/97/65
f 101/142/83 100/143/91 89/144/92
f 58/28/12 2/17/15 5/30/24
f 47/20/18 33/16/14 39/36/29
f 104/102/69 100/145/91 102/103/70
f 73/146/93 107/147/65 71/148/54
f 97/149/71 102/150/70 98/115/78
f 83/151/94 94/152/89 4/153/59
f 42/154/95 43/155/72 60/156/74
f 74/157/96 63/158/97 60/159/74
f 57/23/19 27/1/1 25/5/5
f 57/23/19 25/5/5 33/160/14
f 77/32/26 17/92/58 80/91/62
f 99/161/98 91/162/61 82/163/57
f 16/164/75 94/165/89 83/166/94
f 107/167/65 66/168/99 71/169/54
f 77/32/26 23/170/100 5/30/24
f 72/31/25 78/8/8 18/68/30
f 71/121/54 66/171/99 70/122/80
f 65/172/101 74/173/96 70/174/80
f 70/175/80 74/176/96 62/106/73
f 65/172/101 70/174/80 66/177/99
f 43/178/72 59/179/85 71/180/54
f 67/181/102 64/182/103 107/97/65
f 5/30/24 23/170/100 41/94/63
f 83/183/94 77/32/26 92/69/49
f 83/184/94 105/185/76 91/186/61
f 66/168/99 107/167/65 64/187/103
f 82/188/57 12/189/60 7/190/81
f 97/191/71 93/192/42 104/193/69
f 4/194/59 17/92/58 77/32/26
f 106/195/90 99/196/98 82/197/57
f 72/31/25 5/30/24 68/33/27
f 36/41/32 45/198/104 67/181/102
f 62/106/73 74/176/96 60/107/74
f 95/199/88 50/200/105 12/201/60
f 80/110/62 84/202/86 82/100/57
f 66/203/99 64/204/103 65/205/101
f 59/206/85 69/79/55 71/78/54
f 23/170/100 44/207/68 41/94/63
f 9/74/51 38/114/77 103/75/52
f 44/101/68 31/208/84 46/10/10
f 45/209/104 48/42/33 31/208/84
f 77/32/26 80/91/62 23/170/100
f 44/207/68 23/170/100 80/91/62
f 16/210/75 95/137/88 94/139/89
f 67/181/102 45/198/104 64/182/103
f 105/211/76 106/212/90 91/213/61
f 57/214/19 47/26/18 10/34/28
f 83/183/94 92/69/49 105/215/76
f 13/216/106 100/217/91 104/193/69
f 45/218/104 63/158/97 64/219/103
f 42/220/95 63/158/97 45/218/104
f 83/183/94 4/194/59 77/32/26
f 100/145/91 101/221/83 102/103/70
f 82/163/57 91/162/61 17/222/58
f 103/93/52 105/215/76 92/69/49
f 42/220/95 60/159/74 63/158/97
f 82/197/57 84/223/86 106/195/90
f 103/75/52 38/114/77 16/108/75
f 43/224/72 71/121/54 62/123/73
f 65/225/101 64/219/103 63/158/97
f 19/40/31 8/39/7 11/49/37
f 69/79/55 59/206/85 44/101/68
f 58/12/12 41/226/63 44/101/68
f 10/227/28 48/228/33 57/23/19
f 63/158/97 74/157/96 65/225/101
f 16/229/75 91/162/61 99/161/98
f 59/206/85 31/208/84 44/101/68
f 46/10/10 58/12/12 44/101/68
f 43/155/72 42/154/95 45/230/104
f 43/231/72 45/232/104 31/233/84
f 108/98/66 1/234/107 75/99/67
f 51/136/87 107/167/65 73/235/93
f 73/146/93 71/180/54 51/236/87
f 52/60/41 53/89/46 54/237/48
f 51/238/87 71/239/54 55/240/53
f 55/77/53 6/241/108 108/135/66
f 16/242/75 99/196/98 106/195/90
f 83/166/94 91/243/61 16/164/75
f 68/33/27 37/9/9 78/8/8
f 13/216/106 104/193/69 93/192/42
f 31/208/84 48/42/33 46/10/10
f 89/244/92 13/245/106 3/63/44
f 75/99/67 76/64/45 67/181/102
f 67/181/102 107/97/65 75/99/67
f 67/181/102 35/2/2 36/41/32
f 35/2/2 67/181/102 76/64/45
f 35/2/2 88/25/22 32/3/3
f 50/200/105 54/246/48 110/247/47
f 19/72/31 34/71/50 3/63/44
f 34/71/50 21/22/20 88/25/22
f 57/23/19 48/228/33 40/24/21
f 109/248/109 1/249/107 108/250/66
f 38/114/77 9/74/51 54/111/48
f 95/251/88 54/111/48 50/252/105
f 36/41/32 40/24/21 45/198/104
f 45/253/104 40/254/21 48/255/33
f 89/256/92 20/257/43 90/258/82
f 53/259/46 1/234/107 110/260/47
f 2/17/15 68/33/27 5/30/24
f 4/86/59 95/137/88 12/87/60
f 18/38/30 19/40/31 103/75/52
f 85/80/56 12/261/60 82/81/57
f 34/262/50 88/263/22 76/264/45
f 7/265/81 12/201/60 50/200/105
f 86/266/79 56/267/40 93/61/42
f 50/200/105 110/247/47 6/268/108
f 6/269/108 7/265/81 50/200/105
f 86/266/79 81/270/64 56/267/40
f 101/128/83 89/271/92 90/126/82
f 76/64/45 3/63/44 34/71/50
f 1/234/107 53/259/46 81/272/64
f 3/63/44 20/62/43 89/244/92
f 39/36/29 22/51/38 26/37/23
f 52/60/41 9/273/51 93/61/42
f 86/274/79 98/275/78 20/257/43
f 13/276/106 93/61/42 9/273/51
f 97/149/71 98/115/78 93/117/42
f 21/22/20 29/277/34 87/55/36
f 98/278/78 90/126/82 20/279/43
f 8/7/7 18/68/30 78/8/8
f 75/99/67 1/234/107 81/120/64
f 6/280/108 55/125/53 7/124/81
f 98/278/78 102/127/70 90/126/82
f 89/144/92 100/143/91 13/281/106
f 106/282/90 84/283/86 91/284/61
f 13/285/106 9/74/51 3/73/44
f 54/111/48 95/251/88 16/108/75
f 6/286/108 109/287/109 108/288/66
f 6/289/108 49/290/110 109/291/109
f 6/289/108 110/292/47 49/290/110
f 110/293/47 1/249/107 49/294/110
f 109/248/109 49/294/110 1/249/107
f 117/295/111 111/296/112 112/297/113
f 114/298/114 115/299/115 113/300/116
f 115/301/115 116/302/117 113/303/116
f 117/304/111 115/299/115 114/298/114
f 117/305/111 112/306/113 116/307/117
f 116/307/117 115/308/115 117/305/111
f 111/309/112 117/304/111 114/298/114
f 114/298/114 118/310/118 111/309/112
f 120/311/119 119/312/120 125/313/121
f 126/314/122 124/315/123 123/316/124
f 121/317/125 124/318/123 122/319/126
f 121/320/125 123/321/124 124/322/123
f 125/323/121 126/314/122 120/324/119
f 126/325/122 125/326/121 127/327/127
f 126/325/122 127/327/127 122/319/126
f 122/319/126 124/318/123 126/325/122
f 123/316/124 120/324/119 126/314/122
f 119/328/120 128/329/128 127/327/127
f 127/327/127 125/326/121 119/328/120
f 120/330/119 131/331/129 119/332/120
f 132/333/130 133/334/131 131/335/129
f 130/336/132 132/337/130 129/338/133
f 132/339/130 131/340/129 129/341/133
f 131/335/129 133/334/131 119/342/120
f 134/343/134 119/344/120 133/345/131
f 133/345/131 132/337/130 130/336/132
f 130/336/132 134/343/134 133/345/131
f 134/343/134 128/346/128 119/344/120
f 135/347/135 138/348/136 136/349/137
f 135/350/135 137/351/138 138/352/136
f 136/349/137 138/348/136 111/353/112
f 111/354/112 138/355/136 137/356/138
f 137/356/138 112/357/113 111/354/112
f 111/353/112 118/358/118 136/349/137
