# Blender v2.75 (sub 0) OBJ File: 'untitled.blend'
# www.blender.org
mtllib Rabbit_Bone_Ears_COL.mtl
o Mesh.001_Mesh.001_Cube.008
v 0.072373 0.318311 -0.020394
v 0.037977 0.097514 -0.019922
v 0.022824 0.102754 -0.024054
v -0.043364 0.093352 -0.037002
v -0.040060 0.096216 -0.023167
v 0.028071 0.098225 -0.046031
v 0.041315 0.094286 -0.040785
v -0.071441 0.312639 -0.019803
v -0.047306 0.113785 -0.041555
v -0.043386 0.116888 -0.023873
v -0.022660 0.100126 -0.042613
v -0.022445 0.102753 -0.024040
v -0.027636 0.098237 -0.046049
vt 0.970528 0.717970
vt 0.395748 0.826717
vt 0.963017 0.710091
vt 0.396326 0.822523
vt 0.993151 0.417649
vt 0.988171 0.407568
vt 0.989336 0.751715
vt 0.987227 0.769777
vt 0.975871 0.750602
vt 0.989423 0.754664
vt 0.985457 0.737996
vt 0.974509 0.721548
vt 0.991939 0.386064
vt 0.971428 0.764820
vt 0.987972 0.767914
vn -0.314900 0.172100 -0.933400
vn 0.178700 0.982400 0.053700
vn 0.856900 -0.072300 -0.510400
vn -0.177800 0.982000 0.064500
vn -0.776200 -0.065400 -0.627100
vn -0.615700 -0.096500 0.782100
vn 0.614400 -0.094000 0.783400
vn -0.659600 -0.073800 0.748000
vn 0.713900 0.173500 0.678400
vn 0.639800 0.396600 -0.658300
vn 0.067300 0.354700 -0.932500
vn -0.855100 0.188300 0.483100
vn -0.909900 -0.249400 -0.331500
usemtl Material_Skeleton.000_skeleton_rabbit_f.002
s 1
f 6/1/1 1/2/2 7/3/3
f 8/4/4 9/5/5 10/6/6
f 2/7/7 7/8/3 1/2/2
f 10/9/6 5/10/8 12/11/9
f 11/12/10 13/1/11 9/13/5
f 1/2/2 6/1/1 3/11/12
f 1/2/2 3/11/12 2/7/7
f 9/14/5 4/15/13 5/10/8
f 12/11/9 11/12/10 8/4/4
f 8/4/4 10/9/6 12/11/9
f 9/13/5 8/4/4 11/12/10
f 13/1/11 4/15/13 9/13/5
f 10/9/6 9/14/5 5/10/8
