# This file uses centimeters as units for non-parametric coordinates.

g default
v -39.054092 -1.590165 -6.863136
v -40.615997 -3.849235 -6.862553
v -40.546249 -4.645245 -6.862823
v -40.349510 -4.919400 -6.862976
v -39.054123 -5.038085 -6.862411
v -37.758728 -4.693236 -6.862976
v -37.492256 -3.814553 -6.862553
v -37.917313 -2.545533 -6.862812
v -38.299767 -1.958800 -6.862942
v -39.898186 -1.931934 -6.862919
v -40.150856 -2.334845 -6.862835
v -37.959496 -4.920223 -6.862854
v -39.054092 -1.590165 -0.371590
v -39.898186 -1.931933 -0.371567
v -40.615997 -3.849235 -0.371525
v -40.546249 -4.645244 -0.371555
v -40.349510 -4.919400 -0.371574
v -39.054123 -5.038085 -0.371506
v -37.959496 -4.920223 -0.371555
v -37.758728 -4.693236 -0.371574
v -37.492256 -3.814552 -0.371525
v -37.917313 -2.545533 -0.371552
v -38.299767 -1.958800 -0.371571
v -40.150856 -2.334845 -0.371559
v -39.042526 -1.132844 1.087309
v -40.088070 -1.550751 1.085643
v -41.020641 -3.918340 1.082908
v -40.886940 -5.012396 1.085076
v -40.640450 -5.360982 1.086282
v -39.056213 -5.469174 1.081949
v -37.605373 -5.250580 1.085336
v -37.374596 -4.998996 1.086295
v -37.111126 -3.917838 1.082976
v -37.594704 -2.289857 1.084817
v -38.110207 -1.578813 1.085835
v -40.471355 -2.062973 1.085008
v -39.044109 -1.204816 -7.957105
v -40.183224 -1.631815 -7.956174
v -41.041183 -3.820072 -7.954558
v -40.962944 -4.756325 -7.955701
v -40.552872 -5.240020 -7.956355
v -39.048538 -5.476183 -7.953898
v -37.821014 -5.318188 -7.955857
v -37.409378 -4.909886 -7.956355
v -37.064690 -3.806895 -7.954536
v -37.533321 -2.388697 -7.955687
v -38.009727 -1.664232 -7.956262
v -40.534458 -2.173300 -7.955817
v -39.054092 -1.590165 -2.934910
v -39.898186 -1.931933 -2.934334
v -40.150856 -2.334845 -2.934109
v -40.615997 -3.849235 -2.933342
v -40.546249 -4.645244 -2.934074
v -40.349510 -4.919400 -2.934483
v -39.054123 -5.038085 -2.932964
v -37.959496 -4.920223 -2.934162
v -37.758728 -4.693236 -2.934483
v -37.492256 -3.814552 -2.933342
v -37.917313 -2.545533 -2.934044
v -38.299767 -1.958800 -2.934391
v -39.054092 -1.590165 -1.590237
v -39.898186 -1.931933 -1.589931
v -40.150856 -2.334845 -1.589813
v -40.615997 -3.849235 -1.589413
v -40.546249 -4.645244 -1.589798
v -40.349510 -4.919400 -1.590015
v -39.054123 -5.038085 -1.589214
v -37.959496 -4.920223 -1.589844
v -37.758728 -4.693236 -1.590015
v -37.492256 -3.814552 -1.589413
v -37.917305 -2.545533 -1.589779
v -38.299767 -1.958800 -1.589966
v -39.054092 -1.590165 -4.276409
v -39.898186 -1.931934 -4.277122
v -40.150856 -2.334845 -4.277401
v -40.615997 -3.849235 -4.278370
v -40.546249 -4.645244 -4.277447
v -40.349510 -4.919400 -4.276943
v -39.054123 -5.038085 -4.278824
v -37.959496 -4.920223 -4.277332
v -37.758728 -4.693236 -4.276943
v -37.492256 -3.814552 -4.278370
v -37.917313 -2.545533 -4.277481
v -38.299767 -1.958800 -4.277039
v -39.054092 -1.590165 -5.562069
v -39.898186 -1.931934 -5.562317
v -40.150856 -2.334845 -5.562420
v -40.615997 -3.849235 -5.562767
v -40.546249 -4.645244 -5.562435
v -40.349510 -4.919400 -5.562260
v -39.054123 -5.038085 -5.562923
v -37.959496 -4.920223 -5.562393
v -37.758728 -4.693236 -5.562260
v -37.492256 -3.814552 -5.562767
v -37.917313 -2.545533 -5.562447
v -38.299767 -1.958800 -5.562286
v -38.255272 -1.859519 0.353519
v -39.049553 -1.475657 0.354166
v -39.939369 -1.833521 0.353436
v -40.237049 -2.264116 0.353157
v -40.715420 -3.851434 0.352238
v -40.620823 -4.738702 0.353189
v -40.412178 -5.031718 0.353716
v -39.055664 -5.139541 0.351821
v -37.859440 -4.982955 0.353305
v -37.655773 -4.756845 0.353722
v -37.404533 -3.833785 0.352268
v -37.833496 -2.471035 0.353075
v -38.188690 -1.858226 -7.359652
v -37.773003 -2.493162 -7.359332
v -37.337448 -3.801821 -7.358690
v -37.632614 -4.760531 -7.359712
v -37.921021 -5.061793 -7.359428
v -39.051674 -5.194755 -7.358335
v -40.412148 -5.027382 -7.359712
v -40.697674 -4.667623 -7.359344
v -40.769726 -3.826471 -7.358700
v -40.295746 -2.284607 -7.359401
v -40.005264 -1.829481 -7.359601
v -39.049736 -1.457461 -7.360125
vt 0.426532 0.750121
vt 0.426540 0.779863
vt 0.389139 0.779863
vt 0.389144 0.750121
vt 0.426527 0.667380
vt 0.426519 0.687818
vt 0.389155 0.687818
vt 0.389146 0.667380
vt 0.426532 0.654879
vt 0.389141 0.654879
vt 0.426520 0.619945
vt 0.389164 0.619945
vt 0.426535 0.591467
vt 0.389152 0.591467
vt 0.426528 0.551552
vt 0.426540 0.578657
vt 0.389149 0.578657
vt 0.389164 0.551552
vt 0.426534 0.511293
vt 0.389153 0.511292
vt 0.426537 0.484734
vt 0.426529 0.733865
vt 0.389146 0.733865
vt 0.239928 0.750121
vt 0.239931 0.779863
vt 0.198001 0.779863
vt 0.198041 0.750121
vt 0.239926 0.667380
vt 0.239925 0.687818
vt 0.198109 0.687818
vt 0.198054 0.667380
vt 0.239927 0.654879
vt 0.198023 0.654879
vt 0.239929 0.619945
vt 0.198139 0.619945
vt 0.239933 0.591467
vt 0.198056 0.591467
vt 0.239934 0.551552
vt 0.239934 0.578657
vt 0.198032 0.578657
vt 0.198117 0.551552
vt 0.239933 0.511292
vt 0.198069 0.511293
vt 0.239933 0.484734
vt 0.239927 0.733864
vt 0.198056 0.733865
vt 0.457957 0.750121
vt 0.457986 0.779863
vt 0.457942 0.667380
vt 0.457911 0.687818
vt 0.457961 0.654879
vt 0.457898 0.619945
vt 0.457955 0.591467
vt 0.457921 0.551552
vt 0.457970 0.578657
vt 0.457951 0.511293
vt 0.457966 0.484734
vt 0.457947 0.733865
vt 0.313598 0.750121
vt 0.313618 0.779863
vt 0.274963 0.779863
vt 0.274952 0.750121
vt 0.313592 0.733865
vt 0.274947 0.733865
vt 0.313568 0.687818
vt 0.274935 0.687818
vt 0.313589 0.667380
vt 0.274946 0.667380
vt 0.313602 0.654879
vt 0.274953 0.654879
vt 0.313562 0.619945
vt 0.274934 0.619945
vt 0.313599 0.591467
vt 0.274955 0.591467
vt 0.313609 0.578657
vt 0.274960 0.578657
vt 0.313577 0.551552
vt 0.274944 0.551552
vt 0.313596 0.511292
vt 0.274953 0.511292
vt 0.313605 0.484734
vt 0.352199 0.750121
vt 0.352181 0.779863
vt 0.352206 0.733865
vt 0.352233 0.687818
vt 0.352207 0.667380
vt 0.352193 0.654879
vt 0.352251 0.619945
vt 0.352211 0.591467
vt 0.352200 0.578657
vt 0.352242 0.551552
vt 0.352215 0.511293
vt 0.352201 0.484734
vt 0.389148 0.484734
vt 0.198041 0.484734
vt 0.198001 0.459734
vt 0.426540 0.459734
vt 0.457986 0.459734
vt 0.274957 0.484734
vt 0.274963 0.459734
vt 0.239931 0.459734
vt 0.313618 0.459734
vt 0.389139 0.459734
vt 0.352181 0.459734
vt 0.219089 0.484734
vt 0.219068 0.779863
vt 0.219068 0.459734
vt 0.219087 0.750121
vt 0.219094 0.733864
vt 0.219119 0.687818
vt 0.219092 0.667380
vt 0.219077 0.654879
vt 0.219136 0.619945
vt 0.219096 0.591467
vt 0.219085 0.578657
vt 0.219127 0.551552
vt 0.219103 0.511292
vt 0.440816 0.484734
vt 0.440808 0.511293
vt 0.440791 0.551552
vt 0.440819 0.578657
vt 0.440810 0.591467
vt 0.440776 0.619945
vt 0.440811 0.654879
vt 0.440800 0.667380
vt 0.440781 0.687818
vt 0.440803 0.733865
vt 0.440809 0.750121
vt 0.440827 0.459734
vt 0.440827 0.779863
vn 0.633235 -0.760900 -0.141581
vn -0.033766 -0.989799 -0.138412
vn -0.034915 -0.999390 0.000000
vn 0.642456 -0.766323 0.000000
vn 0.925701 0.351194 -0.140499
vn 0.982971 -0.104107 -0.151426
vn 0.994461 -0.105106 0.000000
vn 0.937672 0.347521 -0.000000
vn 0.489840 0.860630 -0.139187
vn 0.496754 0.867891 -0.000000
vn -0.004992 0.990112 -0.140187
vn -0.007947 0.999968 -0.000000
vn -0.451099 0.880254 -0.147181
vn -0.459060 0.888405 0.000000
vn -0.988501 -0.012997 -0.150653
vn -0.861672 0.488551 -0.137259
vn -0.873079 0.487579 -0.000000
vn -0.999897 -0.014378 -0.000000
vn -0.890321 -0.430690 -0.147765
vn -0.900258 -0.435356 0.000000
vn -0.653061 -0.743982 -0.141428
vn -0.662273 -0.749263 0.000000
vn 0.898873 -0.412547 -0.147760
vn 0.909358 -0.416015 0.000000
vn 0.636048 -0.768121 0.073706
vn -0.034519 -0.996240 0.079464
vn -0.032510 -0.954729 0.295697
vn 0.600717 -0.750180 0.276350
vn 0.934545 0.348203 0.073353
vn 0.992598 -0.101680 0.066412
vn 0.962339 -0.090691 0.256279
vn 0.894901 0.336924 0.292632
vn 0.493928 0.865381 0.084559
vn 0.464068 0.823406 0.326563
vn -0.012525 0.997625 0.067731
vn -0.024417 0.961255 0.274577
vn -0.458959 0.885273 0.075161
vn -0.441141 0.845262 0.301542
vn -0.997466 -0.015801 0.069369
vn -0.871762 0.483782 0.077364
vn -0.838576 0.455885 0.298261
vn -0.964232 -0.020464 0.264270
vn -0.897862 -0.435252 0.066328
vn -0.870545 -0.424894 0.248227
vn -0.657566 -0.749760 0.073947
vn -0.626756 -0.730121 0.272215
vn 0.905052 -0.419720 0.068666
vn 0.871400 -0.418915 0.255288
vn 0.344317 -0.885172 -0.312915
vn 0.344317 -0.885172 -0.312915
vn 0.931814 0.080064 -0.353996
vn 0.928739 -0.099385 -0.357166
vn 0.743379 0.588654 -0.317606
vn 0.743379 0.588654 -0.317606
vn 0.003310 0.939192 -0.343378
vn 0.116466 0.937467 -0.328012
vn -0.109868 0.928669 -0.354263
vn -0.899287 0.277323 -0.338193
vn -0.810698 0.476161 -0.340646
vn -0.844338 -0.408640 -0.346564
vn -0.890103 -0.296364 -0.346246
vn -0.614258 -0.712109 -0.339982
vn -0.400221 -0.860619 -0.314895
vn 0.850736 -0.393789 -0.348107
vn 0.792074 -0.505754 -0.341806
vn -0.683583 0.652552 -0.326940
vn 0.642456 -0.766323 0.000000
vn -0.034916 -0.999390 0.000000
vn -0.034916 -0.999390 0.000000
vn 0.642456 -0.766322 0.000000
vn 0.909358 -0.416015 0.000000
vn 0.909358 -0.416015 0.000000
vn 0.994461 -0.105108 0.000000
vn 0.994461 -0.105106 0.000000
vn 0.937673 0.347520 0.000000
vn 0.937672 0.347521 0.000000
vn 0.496754 0.867891 0.000000
vn 0.496754 0.867891 0.000000
vn -0.007947 0.999968 0.000000
vn -0.007947 0.999968 0.000000
vn -0.459063 0.888404 0.000000
vn -0.459061 0.888405 0.000000
vn -0.873080 0.487577 0.000000
vn -0.873080 0.487578 0.000000
vn -0.999897 -0.014377 0.000001
vn -0.999897 -0.014376 -0.000000
vn -0.900258 -0.435358 0.000001
vn -0.900257 -0.435358 -0.000000
vn -0.662271 -0.749264 0.000001
vn -0.662270 -0.749266 -0.000000
vn 0.642456 -0.766322 0.000000
vn -0.034915 -0.999390 0.000000
vn 0.909358 -0.416015 0.000000
vn 0.994461 -0.105108 0.000000
vn 0.937673 0.347519 0.000000
vn 0.496754 0.867891 0.000000
vn -0.007947 0.999969 0.000000
vn -0.459061 0.888405 0.000000
vn -0.873080 0.487578 0.000000
vn -0.999897 -0.014378 0.000000
vn -0.900258 -0.435357 0.000000
vn -0.662272 -0.749264 0.000000
vn -0.594238 -0.702376 0.391852
vn -0.030500 -0.904467 0.425451
vn 0.565048 -0.721738 0.399768
vn 0.833556 -0.410258 0.369964
vn 0.923058 -0.082146 0.375786
vn 0.843655 0.319392 0.431548
vn 0.428815 0.769159 0.473827
vn -0.031289 0.912286 0.408356
vn -0.415743 0.793735 0.444008
vn -0.793639 0.424746 0.435578
vn -0.922717 -0.023412 0.384766
vn -0.837409 -0.410623 0.360742
vn -0.595306 -0.697590 -0.398722
vn -0.825048 -0.399358 -0.399762
vn -0.870571 -0.288927 -0.398281
vn -0.875434 0.272240 -0.399376
vn -0.783213 0.469563 -0.407540
vn -0.653783 0.644578 -0.396342
vn -0.111846 0.902129 -0.416717
vn 0.008548 0.913163 -0.407505
vn 0.128816 0.910772 -0.392303
vn 0.710239 0.586205 -0.389775
vn 0.710239 0.586205 -0.389775
vn 0.907136 0.077123 -0.413711
vn 0.905121 -0.097683 -0.413781
vn 0.829841 -0.386180 -0.402777
vn 0.771213 -0.496795 -0.398027
vn 0.330234 -0.866400 -0.374561
vn 0.330234 -0.866400 -0.374561
vn -0.382863 -0.844218 -0.375115
s 1
g polySurface136
f 10/1/1 1/2/2 85/3/3 86/4/4
f 3/5/5 2/6/6 88/7/7 89/8/8
f 4/9/9 3/5/5 89/8/8 90/10/10
f 5/11/11 4/9/9 90/10/10 91/12/12
f 12/13/13 5/11/11 91/12/12 92/14/14
f 7/15/15 6/16/16 93/17/17 94/18/18
f 8/19/19 7/15/15 94/18/18 95/20/20
f 9/21/21 8/19/19 95/20/20 96/94/22
f 1/97/2 9/21/21 96/94/22 85/103/3
f 11/22/23 10/1/1 86/4/4 87/23/24
f 2/6/6 11/22/23 87/23/24 88/7/7
f 6/16/16 12/13/13 92/14/14 93/17/17
f 14/24/25 13/25/26 98/106/27 99/108/28
f 16/28/29 15/29/30 101/110/31 102/111/32
f 17/32/33 16/28/29 102/111/32 103/112/34
f 18/34/35 17/32/33 103/112/34 104/113/36
f 19/36/37 18/34/35 104/113/36 105/114/38
f 21/38/39 20/39/40 106/115/41 107/116/42
f 22/42/43 21/38/39 107/116/42 108/117/44
f 23/44/45 22/42/43 108/117/44 97/105/46
f 13/101/26 23/44/45 97/105/46 98/107/27
f 24/45/47 14/24/25 99/108/28 100/109/48
f 15/29/30 24/45/47 100/109/48 101/110/31
f 20/39/40 19/36/37 105/114/38 106/115/41
f 1/2/2 10/1/1 119/128/49 120/130/50
f 2/6/6 3/5/5 116/125/51 117/126/52
f 3/5/5 4/9/9 115/124/53 116/125/54
f 4/9/9 5/11/11 114/123/55 115/124/56
f 5/11/11 12/13/13 113/122/57 114/123/55
f 6/16/16 7/15/15 111/120/58 112/121/59
f 7/15/15 8/19/19 110/119/60 111/120/61
f 8/19/19 9/21/21 109/118/62 110/119/60
f 9/21/21 1/97/2 120/129/63 109/118/62
f 10/1/1 11/22/23 118/127/64 119/128/65
f 11/22/23 2/6/6 117/126/52 118/127/64
f 12/13/13 6/16/16 112/121/59 113/122/66
f 50/59/67 49/60/68 61/61/69 62/62/70
f 51/63/71 50/59/67 62/62/70 63/64/72
f 52/65/73 51/63/71 63/64/72 64/66/74
f 53/67/75 52/65/73 64/66/74 65/68/76
f 54/69/77 53/67/75 65/68/76 66/70/78
f 55/71/79 54/69/77 66/70/78 67/72/80
f 56/73/81 55/71/79 67/72/80 68/74/82
f 57/75/83 56/73/81 68/74/82 69/76/84
f 58/77/85 57/75/83 69/76/84 70/78/86
f 59/79/87 58/77/85 70/78/86 71/80/88
f 60/81/89 59/79/87 71/80/88 72/99/90
f 49/102/68 60/81/89 72/99/90 61/100/69
f 62/62/70 61/61/69 13/25/26 14/24/25
f 63/64/72 62/62/70 14/24/25 24/45/47
f 64/66/74 63/64/72 24/45/47 15/29/30
f 65/68/76 64/66/74 15/29/30 16/28/29
f 66/70/78 65/68/76 16/28/29 17/32/33
f 67/72/80 66/70/78 17/32/33 18/34/35
f 68/74/82 67/72/80 18/34/35 19/36/37
f 69/76/84 68/74/82 19/36/37 20/39/40
f 70/78/86 69/76/84 20/39/40 21/38/39
f 71/80/88 70/78/86 21/38/39 22/42/43
f 72/99/90 71/80/88 22/42/43 23/44/45
f 61/100/69 72/99/90 23/44/45 13/101/26
f 74/82/91 73/83/92 49/60/68 50/59/67
f 75/84/93 74/82/91 50/59/67 51/63/71
f 76/85/94 75/84/93 51/63/71 52/65/73
f 77/86/95 76/85/94 52/65/73 53/67/75
f 78/87/96 77/86/95 53/67/75 54/69/77
f 79/88/97 78/87/96 54/69/77 55/71/79
f 80/89/98 79/88/97 55/71/79 56/73/81
f 81/90/99 80/89/98 56/73/81 57/75/83
f 82/91/100 81/90/99 57/75/83 58/77/85
f 83/92/101 82/91/100 58/77/85 59/79/87
f 84/93/102 83/92/101 59/79/87 60/81/89
f 73/104/92 84/93/102 60/81/89 49/102/68
f 86/4/4 85/3/3 73/83/92 74/82/91
f 87/23/24 86/4/4 74/82/91 75/84/93
f 88/7/7 87/23/24 75/84/93 76/85/94
f 89/8/8 88/7/7 76/85/94 77/86/95
f 90/10/10 89/8/8 77/86/95 78/87/96
f 91/12/12 90/10/10 78/87/96 79/88/97
f 92/14/14 91/12/12 79/88/97 80/89/98
f 93/17/17 92/14/14 80/89/98 81/90/99
f 94/18/18 93/17/17 81/90/99 82/91/100
f 95/20/20 94/18/18 82/91/100 83/92/101
f 96/94/22 95/20/20 83/92/101 84/93/102
f 85/103/3 96/94/22 84/93/102 73/104/92
f 98/107/27 97/105/46 35/95/103 25/96/104
f 99/108/28 98/106/27 25/26/104 26/27/105
f 100/109/48 99/108/28 26/27/105 36/46/106
f 101/110/31 100/109/48 36/46/106 27/30/107
f 102/111/32 101/110/31 27/30/107 28/31/108
f 103/112/34 102/111/32 28/31/108 29/33/109
f 104/113/36 103/112/34 29/33/109 30/35/110
f 105/114/38 104/113/36 30/35/110 31/37/111
f 106/115/41 105/114/38 31/37/111 32/40/112
f 107/116/42 106/115/41 32/40/112 33/41/113
f 108/117/44 107/116/42 33/41/113 34/43/114
f 97/105/46 108/117/44 34/43/114 35/95/103
f 110/119/60 109/118/62 47/57/115 46/56/116
f 111/120/61 110/119/60 46/56/116 45/54/117
f 112/121/59 111/120/58 45/54/118 44/55/119
f 113/122/66 112/121/59 44/55/119 43/53/120
f 114/123/55 113/122/57 43/53/121 42/52/122
f 115/124/56 114/123/55 42/52/122 41/51/123
f 116/125/54 115/124/53 41/51/124 40/49/125
f 117/126/52 116/125/51 40/49/126 39/50/127
f 118/127/64 117/126/52 39/50/127 48/58/128
f 119/128/65 118/127/64 48/58/128 38/47/129
f 120/130/50 119/128/49 38/47/130 37/48/131
f 109/118/62 120/129/63 37/98/132 47/57/115
