# Blender v2.75 (sub 0) OBJ File: 'key.blend'
# www.blender.org
mtllib key_COL.mtl
o Cube.001_Cube
v 0.039220 0.015919 0.033718
v 0.039220 0.015919 -0.033718
v 0.039220 0.001146 0.033718
v 0.039220 0.001146 -0.033718
v 0.113692 0.015919 0.033718
v 0.113692 0.015919 -0.033718
v 0.113692 0.001146 0.033718
v 0.113692 0.001146 -0.033718
v 0.039220 0.015340 0.008167
v 0.039220 0.015340 -0.008167
v 0.039220 0.001726 0.008167
v 0.039220 0.001726 -0.008167
v -0.056082 0.015340 0.008167
v -0.056082 0.015340 -0.008167
v -0.056082 0.001726 0.008167
v -0.056082 0.001726 -0.008167
v -0.056082 0.015340 0.022225
v -0.056082 0.001726 0.022225
v -0.091370 0.015340 0.008167
v -0.091370 0.015340 -0.008167
v -0.091370 0.001726 0.008167
v -0.091370 0.001726 -0.008167
v -0.091370 0.015340 0.022225
v -0.091370 0.001726 0.022225
vn -1.000000 0.000000 0.000000
vn 0.000000 -1.000000 0.000000
vn 1.000000 0.000000 0.000000
vn 0.000000 1.000000 -0.000000
vn 0.000000 0.000000 1.000000
vn 0.000000 0.000000 -1.000000
usemtl None
s off
f 1//1 9//1 11//1
f 8//2 7//2 3//2
f 6//3 5//3 7//3
f 2//4 1//4 5//4
f 3//5 7//5 5//5
f 8//6 4//6 2//6
f 11//2 15//2 16//2
f 4//1 12//1 10//1
f 3//1 11//1 12//1
f 2//1 10//1 9//1
f 17//4 19//4 23//4
f 10//4 14//4 13//4
f 9//5 13//5 15//5
f 12//6 16//6 14//6
f 14//4 20//4 19//4
f 22//1 21//1 19//1
f 19//1 24//1 23//1
f 16//6 22//6 20//6
f 15//2 24//2 21//2
f 18//5 23//5 24//5
f 15//2 21//2 22//2
f 3//1 1//1 11//1
f 4//2 8//2 3//2
f 8//3 6//3 7//3
f 6//4 2//4 5//4
f 1//5 3//5 5//5
f 6//6 8//6 2//6
f 12//2 11//2 16//2
f 2//1 4//1 10//1
f 4//1 3//1 12//1
f 1//1 2//1 9//1
f 13//4 19//4 17//4
f 9//4 10//4 13//4
f 11//5 9//5 15//5
f 10//6 12//6 14//6
f 13//4 14//4 19//4
f 20//1 22//1 19//1
f 21//1 24//1 19//1
f 14//6 16//6 20//6
f 18//2 24//2 15//2
f 17//5 23//5 18//5
f 16//2 15//2 22//2
f 13//3 17//3 18//3 15//3
