# Blender v2.75 (sub 0) OBJ File: 'untitled.blend'
# www.blender.org
mtllib Sleeping_Bag_COL.mtl
o Cube.002_Cube.005
v 0.937451 -0.003734 0.635787
v 0.906294 0.010612 0.576283
v 0.925290 0.048732 -0.640217
v 0.858634 0.074673 -0.643395
v 0.934551 0.012181 0.204062
v 0.901254 0.075944 0.264926
v 0.942024 0.028185 0.263175
v 0.934997 -0.010741 0.448857
v 0.926259 0.013125 0.337005
v 0.937187 0.009195 0.071156
v 0.932870 0.009151 0.557127
v 0.734023 0.025601 0.429031
v 0.846884 0.079333 -0.625293
v 0.859772 0.026226 0.559026
v 0.810084 0.082531 -0.646121
v 0.736577 0.047220 0.284588
v 0.936538 -0.030205 0.476906
v 0.868510 0.001346 0.521770
v 0.754759 0.000105 0.309121
v 0.886161 0.062922 -0.613028
v 0.945328 0.020096 0.154105
v 0.953747 0.014441 -0.044620
v 0.910194 -0.002353 0.183266
v 0.914742 0.018143 0.591424
v 0.759200 -0.002894 -0.123008
v 1.013090 -0.055605 -0.407444
v 0.954624 -0.047484 -0.870462
v 0.984506 0.001452 -0.747793
v 0.959748 0.019570 -0.571546
v 0.984779 -0.076264 -0.551797
v 0.983126 -0.017290 1.312834
v 1.015743 -0.003370 -0.377961
v 0.865327 0.114926 -0.424478
v -0.620811 0.091284 -1.519532
v 0.847532 0.095142 -0.569083
v 0.735145 0.022221 -0.606882
v 0.941564 0.022436 -0.480070
v 0.911198 0.007899 0.433655
v 0.902714 0.030861 -0.649203
v 0.941346 0.022388 -0.123805
v 0.744887 0.050295 -0.454454
v 0.919772 0.020219 0.503738
v 0.944373 0.021733 -0.318506
v 0.798025 0.031891 -0.766577
v 0.985639 -0.059175 -0.733013
v 0.931688 0.024251 -0.599749
v 0.854733 0.067939 -0.603391
v 1.016270 -0.035453 -0.269829
v 0.861292 0.047028 0.542667
v 0.876597 0.102979 1.992460
v 0.750537 0.051443 -0.593800
v 0.935971 -0.006731 -0.839102
v 0.959259 0.061515 1.968569
v 1.004041 -0.039891 1.790237
v 0.658173 0.132283 -0.818832
v 0.958177 0.014974 -0.218185
v 0.766252 0.004529 0.527116
v 0.756662 0.052050 0.551208
v 0.743606 0.045313 0.520228
v 0.781764 0.006595 -0.818774
v -1.000940 0.016818 -1.489084
v -1.032940 -0.006334 -1.504408
v -0.998018 0.017544 -1.450118
v -0.997975 0.017435 -1.443813
v -0.999275 0.016208 -1.412433
v -0.983566 0.017469 -1.369457
v -0.828751 -0.062444 -2.150948
v -0.811844 -0.032488 -2.159710
v -0.684742 -0.090949 -2.231289
v -0.651237 -0.040090 -2.275712
v -0.909081 -0.039826 -2.046272
v -0.543293 -0.016835 -2.287086
v -0.384590 -0.001575 -2.305653
v -0.550648 -0.075673 -2.297435
v -0.235374 -0.032688 -2.381266
v -0.427444 -0.074213 -2.320534
v -0.905575 -0.008898 -2.010731
v -0.905701 -0.077552 -2.032555
v 0.411394 -0.002254 -2.370560
v -0.925918 -0.106322 -1.902546
v -0.987931 -0.064298 -1.866323
v 0.315498 -0.016479 -2.392985
v 0.434590 -0.073278 -2.412048
v 0.509182 -0.031325 -2.395864
v 0.756653 -0.064648 -2.250893
v -0.987900 -0.030018 -1.856607
v 0.565132 -0.101639 -2.343132
v -1.023801 -0.061172 -1.515137
v 0.849895 -0.062866 -2.204441
v 0.411398 -0.121575 -2.355926
v -1.023553 -0.015187 -1.531205
v -0.954225 0.023869 -1.326697
v -0.930054 0.030638 -1.319374
v 0.842731 -0.033112 -2.187603
v -1.008556 -0.070248 -1.329690
v -1.020547 0.043036 -1.484887
v 0.914395 -0.032410 -2.103500
v -0.811856 0.037747 -1.325253
v 0.910136 -0.074958 -2.112429
v -0.973189 0.073663 -1.519210
v -1.055520 0.013476 -1.357796
v -1.005053 0.014982 -1.378692
v -0.871095 0.083059 -1.545678
v -1.008682 0.088032 -1.370040
v -0.330801 0.009060 -1.315084
v 0.939169 -0.072595 1.992582
v 0.893572 -0.130638 -1.853202
v -1.024180 0.034563 -1.249096
v 0.963981 -0.017090 -1.875763
v 0.839340 0.075845 2.130825
v 0.969488 -0.010609 1.993887
v 0.987587 -0.051733 -1.787434
v 0.950102 -0.099012 -1.864260
v 0.847122 -0.098306 2.067692
v -0.535576 0.026220 -1.385690
v -0.491753 0.080651 -1.508074
v -0.948736 0.097383 -1.225652
v 0.980346 -0.011162 -1.663810
v 0.914879 -0.107891 -0.752514
v -0.394600 0.063955 -1.471847
v 0.973312 -0.083772 -1.625971
v -0.279147 0.006258 -1.327711
v 0.864525 0.019427 2.155262
v -0.957321 0.010913 -1.491895
v 0.913823 0.077560 -0.510873
v 0.950281 -0.047736 -1.372550
v 0.859385 -0.062508 2.126968
v 0.447983 0.066180 -1.069027
v 0.975377 -0.042466 -1.510929
v 0.653669 0.085652 2.262835
v 0.646435 0.026327 2.301828
v -0.129349 0.106966 -1.228163
v 0.926524 -0.069007 -1.211190
v -0.985303 0.037831 -1.484429
v 0.852522 -0.022900 2.166758
v 0.959264 -0.010315 0.335352
v -0.910386 -0.060071 -0.112254
v -0.881512 -0.092380 0.067240
v 0.955177 0.022339 -0.390564
v 0.407462 0.104984 -1.075802
v 0.905803 -0.093941 -0.962736
v -0.903601 -0.096101 0.357230
v 0.554214 0.097746 -0.958549
v 0.754505 0.102104 -0.796771
v -0.977506 -0.090835 2.038836
v -0.982961 -0.026566 0.634670
v -0.936863 -0.029651 2.194500
v 0.573799 -0.047483 2.308689
v 0.689360 0.108006 -0.585464
v -0.995975 -0.084044 1.673121
v -1.011446 -0.050890 0.966238
v -1.031857 0.011878 2.005251
v -0.681839 -0.093487 2.291494
v -0.934921 0.044935 2.195347
v -0.746498 -0.051738 2.314842
v -1.009581 0.077714 2.009232
v -1.002234 -0.067795 1.291506
v -0.732788 0.047403 2.336437
v 1.003656 -0.005709 -0.291966
v -0.651234 -0.006952 2.357581
v -0.992752 0.098621 1.976522
v -0.732173 0.097645 2.289291
v 1.014791 -0.007195 -0.178626
v -0.414078 0.027281 2.391631
v -0.994892 0.022205 -1.406866
v -1.023396 0.000929 -1.503307
v -0.998410 0.016887 -1.433685
v 0.917688 0.074670 -0.031263
v -0.362160 0.079938 2.357322
v -0.307731 -0.028963 2.387188
v 0.657669 -0.071256 2.259678
v -0.194018 0.058033 2.385707
v -0.954958 0.100462 -1.503098
v 0.985889 -0.044579 0.030973
v 0.974419 -0.017837 0.146594
v -0.005583 0.068044 2.357706
v 0.626763 -0.095186 2.241110
v -0.574039 0.095993 -1.479212
v -0.348599 0.075621 -1.071672
v 0.839523 0.097528 -0.597696
v 0.787506 0.084492 -0.620243
v 0.838603 0.078717 -0.608379
v -0.439196 0.074555 -1.217941
v 0.674388 0.082842 -0.618487
v 0.573189 0.090263 -0.613007
v 0.581214 0.083040 -0.595486
v 0.483624 0.113739 -0.631597
v 0.402394 0.149199 -0.621441
v 0.346620 0.136650 -0.647635
v -0.468613 0.064628 -1.290208
v 0.463336 0.110372 -0.632651
v 0.394616 0.130964 -0.646806
v -0.480642 0.076203 -1.475192
v -0.446864 0.097540 -1.499241
v 0.300511 0.146383 -0.665846
v -0.456775 0.076242 -1.258316
v 0.167472 0.148346 -0.653189
v 0.053927 0.174463 -0.631839
v 0.094831 0.143684 -0.644744
v -0.003307 0.144154 -0.632348
v -0.091255 0.138205 -0.690393
v -0.217213 0.143488 -0.711291
v -0.031519 0.145533 -0.659236
v -0.101564 0.163805 -0.663456
v -0.140086 0.140105 -0.696774
v -0.345455 0.137601 -0.917157
v -0.310175 0.154100 -0.830739
v -0.244881 0.165287 -0.753046
v -0.150988 0.173587 -0.679287
v -0.077583 0.192005 -0.678545
v 0.035090 0.198085 -0.644818
v 0.180182 0.173445 -0.631130
v 0.253211 0.138884 -0.658752
v 0.310461 0.165708 -0.634419
v -0.309666 0.120202 -0.813741
v -0.490670 0.122745 -1.346918
v 0.342603 0.181484 -0.628127
v -0.508710 0.093179 -1.446598
v 0.455956 0.152150 -0.614048
v -0.515443 0.084078 -1.381656
v 0.579056 0.104499 -0.591527
v 0.887904 0.100120 -0.610905
v 0.880503 0.098419 -0.652331
v 0.811068 0.121021 -0.598074
v -0.503009 0.065874 -1.462415
v 0.896516 0.024772 -0.682249
v 0.866187 0.035578 -0.697781
v 0.914192 0.089137 -0.564712
v -0.478822 0.071980 -1.368109
v -0.046352 0.169672 -0.639768
v -0.365369 0.068135 -0.999579
v -0.319345 0.110338 -0.861447
v -0.480861 0.111944 -1.484167
v -0.218435 0.121912 -0.739889
v 0.094711 0.142355 -0.634148
v 0.236161 0.160491 -0.634486
v 0.695442 0.076013 -0.615777
v 0.933880 0.037505 -0.621315
v -0.384096 0.064416 -1.130937
v -0.392020 0.072720 -1.156251
v -0.350667 0.067746 -1.051546
v -0.286420 0.096209 -0.888188
v -0.316800 0.086186 -0.921187
v -0.282886 0.099346 -0.840043
v -0.312928 0.097850 -0.809469
v -0.239481 0.116914 -0.783833
v -0.328551 0.075702 -0.975347
v -0.263699 0.115206 -0.802660
v -0.273172 0.103817 -0.794350
v 0.014329 -0.013995 -1.155551
v 0.450823 0.032809 -1.040401
v 0.175642 0.011459 -1.120240
v 0.345459 0.060640 -1.122661
v -0.025536 0.037348 -1.195490
v 0.725549 0.011453 -0.718536
v 0.395860 0.022499 -1.119775
v -0.946970 0.016000 -1.327383
v -0.215996 0.015443 -1.299400
v 0.509805 0.050484 -1.116606
v -0.045438 -0.019675 -1.181291
v 0.058870 -0.008198 -1.103945
v 0.210608 0.046751 -1.142439
v -0.287497 0.083587 -1.612001
v -0.040009 -0.001973 -1.175638
v -0.157070 0.006805 -1.245083
v -0.138582 0.045173 -1.258354
v 0.605495 0.061166 -0.950150
v 0.578745 0.038595 -0.942406
v 0.220419 0.004648 -1.140300
v 0.645672 0.035785 -0.900728
v 0.273586 0.010973 -1.082994
v 0.718440 0.024209 -0.697734
v 0.722184 0.035659 -0.762163
v 0.369175 0.031481 -1.103383
v 0.536530 0.062669 -1.010582
v 0.326786 0.095763 -1.116131
v 0.649040 0.003145 -0.889923
v 0.652030 0.016505 -0.854177
v 0.866758 0.045708 -0.732655
v 0.741093 0.043569 -0.823722
v 0.063868 0.104004 -1.152683
vt 0.911270 0.618907
vt 0.893646 0.608247
vt 0.907251 0.607354
vt 0.636151 0.003963
vt 0.571102 0.015228
vt 0.587747 0.010913
vt 0.609778 0.958892
vt 0.642169 0.962681
vt 0.608277 0.961004
vt 0.852602 0.022292
vt 0.854079 0.030250
vt 0.719525 0.010887
vt 0.763650 0.725269
vt 0.796013 0.717297
vt 0.776504 0.713136
vt 0.837653 0.617212
vt 0.819372 0.621006
vt 0.839291 0.613635
vt -0.201889 -0.431525
vt 0.921602 0.644721
vt 0.511757 0.804616
vt 0.519033 0.871031
vt 0.921885 0.485775
vt 0.101970 0.246894
vt 0.118837 0.129974
vt 0.920754 0.831681
vt 0.911697 0.663357
vt 0.914617 0.772235
vt 0.739995 0.621526
vt 0.772345 0.626548
vt 0.754846 0.625413
vt 0.694264 0.742765
vt 0.670684 0.645794
vt 0.704830 0.630588
vt 0.891974 0.057194
vt 0.897114 0.052206
vt 0.918538 0.085143
vt 0.657856 0.004870
vt 0.824716 0.719996
vt 0.853134 0.673730
vt 0.689848 0.630739
vt 0.490196 0.140045
vt 0.830170 0.698357
vt 0.803828 0.711668
vt 0.833780 0.687737
vt 0.870708 0.615961
vt 0.875617 0.517202
vt 0.868749 0.638750
vt 0.896144 0.377999
vt 0.875100 0.379594
vt 0.896455 0.381338
vt 0.922231 0.856913
vt 0.917413 0.874941
vt 0.854998 0.659221
vt 0.900376 0.625238
vt 0.874659 0.654718
vt 0.480715 0.940302
vt 0.104538 0.859770
vt 0.123392 0.591196
vt 0.894665 0.049860
vt 0.529846 0.044025
vt 0.514608 0.082011
vt 0.510062 0.082823
vt 0.646747 0.010966
vt 0.571227 0.024851
vt 0.611353 0.774917
vt 0.554964 0.762581
vt 0.530840 0.761381
vt 0.535836 0.902488
vt 0.554967 0.932894
vt 0.535120 0.909742
vt 0.103261 0.781882
vt 0.101380 0.715495
vt 0.907293 0.921422
vt 0.906424 0.923244
vt 0.894129 0.942024
vt 0.892666 0.938587
vt 0.620297 0.799895
vt 0.542874 0.807570
vt 0.593957 0.802234
vt 0.875098 0.951505
vt 0.809365 0.984397
vt 0.633423 0.965719
vt 0.672624 0.978114
vt 0.785058 0.980506
vt 0.804630 0.975929
vt 0.824589 0.981094
vt 0.711204 0.622673
vt 0.699935 0.627508
vt 0.714231 0.626647
vt 0.391784 0.037439
vt 0.913411 0.557104
vt 0.907176 0.596366
vt 0.907965 0.498477
vt 0.620518 0.767003
vt 0.622520 0.795016
vt 0.616836 0.787348
vt 0.916550 0.608749
vt 0.910822 0.614505
vt 0.899579 0.085434
vt 0.551516 0.931106
vt 0.801206 0.624110
vt 0.815232 0.621221
vt 0.791173 0.721232
vt 0.812098 0.710285
vt 0.911064 0.378386
vt 0.907364 0.371386
vt 0.911999 0.362332
vt 0.912838 0.590079
vt 0.915616 0.571811
vt 0.905640 0.374477
vt 0.897928 0.385603
vt 0.871922 0.660218
vt 0.852446 0.675936
vt 0.525757 0.798880
vt 0.505232 0.769223
vt 0.514792 0.771722
vt 0.512370 0.795163
vt 0.911812 0.394759
vt 0.916451 0.423651
vt 0.911498 0.400484
vt 0.909714 0.423313
vt 0.912932 0.438382
vt 0.904611 0.438025
vt 0.911407 0.450447
vt 0.494544 0.364696
vt 0.650157 0.679289
vt 0.791410 0.624279
vt 0.618000 0.790576
vt 0.622937 0.771328
vt 0.622565 0.793184
vt 0.625020 0.755429
vt 0.906436 0.454692
vt 0.925511 0.551687
vt 0.927978 0.569238
vt 0.927784 0.528554
vt 0.919544 0.462176
vt 0.508811 0.405663
vt 0.514590 0.435125
vt 0.871000 0.434012
vt 0.872435 0.385917
vt 0.870479 0.404531
vt 0.909517 0.622765
vt 0.901530 0.617216
vt 0.901886 0.616782
vt 0.895116 0.615249
vt 0.912794 0.517365
vt 0.784030 0.621582
vt 0.781999 0.627996
vt 0.862604 0.617777
vt 0.858307 0.618330
vt 0.897278 0.578732
vt 0.518043 0.088687
vt 0.719989 0.621159
vt 0.892012 0.614086
vt 0.893514 0.619719
vt 0.886003 0.623970
vt 0.873850 0.613291
vt 0.653148 0.760506
vt 0.525907 0.762876
vt 0.915325 0.501203
vt 0.911945 0.477573
vt 0.649515 0.710825
vt 0.646092 0.696111
vt 0.649093 0.706717
vt 0.891824 0.616267
vt 0.881395 0.618688
vt 0.615462 0.774093
vt 0.757440 0.620910
vt 0.731671 0.621055
vt 0.740019 0.623689
vt 0.877057 0.384512
vt 0.874711 0.429004
vt 0.629459 0.798092
vt 0.640653 0.728088
vt 0.642270 0.722921
vt 0.676082 0.643108
vt 0.676331 0.637271
vt 0.671786 0.652077
vt 0.666843 0.655920
vt 0.664910 0.654224
vt 0.662927 0.663550
vt 0.802793 0.618933
vt 0.813725 0.617424
vt 0.790590 0.620298
vt 0.702039 0.633006
vt 0.483218 0.952401
vt 0.442048 0.979487
vt 0.435740 0.975697
vt 0.627437 0.748919
vt 0.631024 0.740679
vt 0.656796 0.657310
vt 0.656005 0.680111
vt 0.653607 0.691165
vt 0.655486 0.667918
vt 0.662206 0.673376
vt 0.640126 0.792501
vt 0.657461 0.658181
vt 0.733700 0.727360
vt 0.787362 0.719899
vt 0.519563 0.795069
vt 0.525275 0.796593
vt 0.844246 0.686022
vt 0.838787 0.684442
vt 0.904909 0.624599
vt 0.603503 0.794004
vt 0.657358 0.661651
vt 0.872696 0.584851
vt 0.424930 0.989490
vt 0.928086 0.547169
vt 0.712499 0.732045
vt 0.723589 0.727945
vt 0.711391 0.733198
vt 0.168654 0.985981
vt 0.906641 0.403587
vt 0.908390 0.389283
vt 0.895912 0.623414
vt 0.727826 0.623704
vt 0.903644 0.631344
vt 0.897570 0.641632
vt 0.897454 0.634514
vt 0.661986 0.821107
vt 0.765652 0.724832
vt 0.801460 0.720643
vt 0.768865 0.621595
vt 0.527387 0.763016
vt 0.916450 0.090310
vt 0.913607 0.460643
vt 0.853744 0.666434
vt 0.880223 0.659209
vt 0.715453 0.736097
vt 0.692380 0.748927
vt 0.868062 0.647654
vt 0.756513 0.720738
vt 0.732680 0.717412
vt 0.517606 0.779239
vt 0.867298 0.634504
vt 0.423161 0.040050
vt 0.886204 0.614164
vt 0.676580 0.757305
vt 0.663690 0.763083
vt 0.522036 0.802168
vt 0.883542 0.648555
vt 0.915504 0.669758
vt 0.861363 0.611590
vt 0.838850 0.612827
vt 0.587746 0.956570
vt 0.921834 0.641705
vt 0.127900 0.532009
vt 0.122007 0.495374
vt 0.919739 0.800478
vt 0.909769 0.739301
vt 0.681065 0.005172
vt 0.688606 0.746218
vt 0.812678 0.704443
vt 0.501734 0.137788
vt 0.168061 0.062878
vt 0.108308 0.934413
vt 0.492692 0.321790
vt 0.529450 0.044198
vt 0.692073 0.634308
vt 0.916229 0.536628
vt 0.511629 0.747038
vt 0.527027 0.742253
vt 0.499502 0.924972
vt 0.155456 0.990746
vt 0.925590 0.126708
vt 0.921321 0.224146
vn 0.871000 0.005100 -0.491200
vn 0.060600 0.955800 -0.287500
vn 0.502700 0.825900 -0.255400
vn -0.096700 0.199700 0.975100
vn -0.360900 0.309600 0.879700
vn -0.175200 -0.223700 0.958800
vn -0.151300 0.722300 -0.674800
vn -0.160100 0.859300 -0.485700
vn -0.160400 -0.503700 -0.848800
vn 0.345700 0.144000 0.927200
vn 0.222700 0.817900 0.530400
vn 0.079600 0.651700 0.754300
vn 0.176100 -0.291400 -0.940200
vn 0.270800 0.418000 -0.867100
vn -0.079600 0.318300 -0.944600
vn -0.034300 0.223100 0.974200
vn -0.283800 -0.188700 0.940100
vn 0.213400 0.961900 -0.170800
vn 0.820600 -0.571300 -0.009700
vn 0.718900 0.677000 -0.157600
vn 0.733100 0.680000 -0.007400
vn -0.859600 0.473600 -0.192000
vn -0.761000 0.624600 -0.175200
vn -0.892800 -0.390900 -0.223700
vn 0.808300 0.579000 0.106800
vn 0.964200 -0.263400 0.030600
vn 0.750400 -0.652700 0.104500
vn -0.650500 -0.753400 0.095600
vn -0.845300 -0.531000 -0.058800
vn -0.355200 -0.926500 -0.124100
vn 0.753800 0.656900 0.013900
vn 0.425200 0.885600 -0.186700
vn 0.857200 -0.512500 0.050600
vn 0.010500 0.996800 0.079000
vn 0.092700 0.375200 0.922300
vn 0.110000 -0.008000 0.993900
vn 0.268200 0.809600 -0.522100
vn -0.514200 0.788000 0.338700
vn -0.175100 0.942000 0.286100
vn 0.496300 0.743600 0.448000
vn 0.723200 0.260000 0.639800
vn 0.922800 -0.060800 0.380400
vn 0.283500 -0.957500 -0.053400
vn 0.383100 -0.923300 -0.025400
vn 0.886700 -0.444500 -0.126800
vn 0.022500 -0.502400 0.864300
vn 0.146600 -0.443100 0.884400
vn 0.977900 0.128200 0.165000
vn 0.721400 -0.684200 0.106600
vn -0.010000 0.995800 0.090300
vn 0.280100 0.951000 -0.130600
vn -0.386500 0.501500 0.774000
vn -0.613800 -0.677600 -0.405000
vn -0.641500 -0.403400 -0.652500
vn 0.253500 -0.966400 -0.042500
vn 0.632800 -0.069300 -0.771200
vn 0.317200 0.763200 -0.562900
vn 0.373400 0.827300 -0.419600
vn 0.900600 -0.434600 0.007200
vn 0.578500 0.815600 0.007800
vn 0.587100 0.809300 -0.019200
vn 0.166900 0.112600 -0.979500
vn 0.508200 -0.458700 -0.728900
vn -0.275900 -0.894500 -0.351600
vn 0.991900 -0.097000 -0.081600
vn 0.691200 0.700900 -0.176100
vn 0.577200 -0.633900 0.514700
vn 0.606100 -0.771000 0.195600
vn 0.268600 0.886400 -0.377000
vn 0.540800 0.795600 -0.272900
vn 0.493700 0.630300 -0.599100
vn 0.271800 -0.942400 0.195100
vn -0.575200 -0.818000 0.001300
vn -0.402600 -0.915000 -0.025100
vn 0.643600 -0.265900 0.717600
vn -0.670400 0.444300 0.594300
vn -0.784300 0.577400 0.226800
vn -0.985400 -0.035700 0.166600
vn -0.037300 0.876500 0.479900
vn -0.174000 0.898700 0.402400
vn -0.419600 0.293700 -0.858900
vn -0.337600 -0.777800 -0.530100
vn -0.257400 -0.113800 0.959600
vn -0.074400 0.290400 0.954000
vn 0.032700 -0.878900 -0.475800
vn -0.477100 0.844100 -0.244800
vn -0.487100 0.577300 -0.655300
vn -0.828900 0.193900 -0.524600
vn -0.502400 0.863000 0.053700
vn -0.953300 -0.297600 -0.051000
vn -0.685400 -0.728100 0.002100
vn -0.309500 -0.950400 -0.029600
vn 0.722700 0.615700 -0.313900
vn 0.704300 -0.595300 -0.386600
vn 0.605000 -0.300600 -0.737300
vn 0.388800 0.799700 -0.457400
vn -0.293500 -0.077100 -0.952800
vn 0.003700 0.094900 -0.995500
vn 0.064100 0.731500 -0.678800
vn 0.084000 -0.290700 -0.953100
vn 0.332100 -0.731500 -0.595400
vn 0.021000 -0.926800 -0.374800
vn 0.482700 0.080900 -0.872000
vn -0.111500 -0.764400 -0.635000
vn -0.115500 0.171600 -0.978300
vn -0.046100 0.725100 -0.687100
vn 0.049800 0.925400 -0.375500
vn 0.346200 0.413000 -0.842300
vn -0.268200 0.031500 0.962800
vn -0.279300 -0.119800 0.952700
vn -0.322400 0.223500 0.919800
vn -0.895900 -0.441500 -0.048400
vn 0.713800 -0.700300 0.001100
vn 0.799100 0.593900 0.093400
vn 0.721600 0.691600 0.030100
vn -0.534200 0.839700 0.097800
vn -0.446000 0.780400 -0.438300
vn -0.959300 -0.001200 -0.282200
vn 0.854500 -0.507900 -0.108500
vn -0.059500 -0.977600 -0.201700
vn 0.281200 0.951200 0.127000
vn -0.129100 -0.029400 0.991200
vn 0.062000 0.795400 0.602800
vn 0.291800 -0.030100 -0.956000
vn 0.549000 -0.060100 -0.833600
vn 0.634500 0.764500 -0.113800
vn 0.885600 0.462500 -0.041200
vn 0.860000 0.508800 -0.036800
vn 0.651200 -0.758100 -0.034700
vn 0.932800 -0.350600 0.083600
vn 0.497500 0.403000 -0.768200
vn 0.080700 0.965300 -0.248100
vn 0.559000 -0.512500 -0.651800
vn 0.591000 -0.356400 -0.723700
vn -0.308300 0.884200 -0.350800
vn -0.995900 0.046100 0.077900
vn -0.594700 0.803900 0.007400
vn -0.722100 0.409100 -0.557800
vn 0.608700 0.791600 0.052900
vn 0.634500 -0.769300 0.074200
vn 0.992100 0.121600 0.028700
vn 0.788700 0.614100 0.028500
vn 0.627700 -0.765800 0.139800
vn -0.403000 -0.503600 0.764200
vn -0.686600 0.710500 0.154100
vn 0.463200 -0.885700 0.030400
vn 0.075400 0.987200 0.140700
vn 0.037900 0.992500 0.116100
vn -0.948600 -0.260000 0.180300
vn -0.895200 0.444700 -0.028000
vn -0.448300 0.891100 0.069300
vn 0.110400 0.993800 0.007600
vn 0.715000 0.694100 0.083200
vn 0.838500 0.542100 0.054300
vn 0.766900 0.637700 0.072200
vn 0.887400 -0.460600 0.019000
vn 0.937800 -0.266600 -0.222100
vn 0.962200 0.267400 -0.051600
vn 0.953300 0.195000 -0.230600
vn 0.598400 0.665900 0.445500
vn 0.587200 0.598800 0.544500
vn -0.259500 -0.960600 -0.099100
vn 0.597200 -0.795200 0.104800
vn -0.045300 -0.604000 0.795600
vn -0.010100 -0.087500 0.996100
vn 0.016400 0.890800 0.454000
vn 0.107100 -0.031100 0.993700
vn 0.312900 0.948600 -0.046700
vn -0.433400 0.898200 0.072900
vn -0.008900 0.999500 0.028500
vn 0.076900 -0.297600 0.951600
vn -0.097400 0.104800 0.989700
vn 0.110800 -0.993000 0.041500
vn 0.613900 -0.779900 0.122100
vn -0.189200 -0.132700 0.972900
vn 0.720800 -0.626000 -0.297500
vn 0.838400 -0.542200 -0.054700
vn 0.408500 -0.894200 -0.183200
vn -0.925000 0.015800 0.379700
vn -0.010900 0.995800 -0.090200
vn 0.103700 0.945100 0.309900
vn 0.146700 0.978400 -0.145400
vn -0.017900 -0.075200 0.997000
vn -0.939600 -0.337100 0.058900
vn -0.029600 -0.155500 0.987400
vn -0.059300 -0.009400 0.998200
vn -0.026200 0.509500 0.860000
vn 0.441100 0.785000 -0.435100
vn 0.562000 0.826800 0.022700
vn 0.311900 0.432100 -0.846100
vn -0.822400 -0.127800 0.554300
vn -0.343300 0.915700 0.208700
vn -0.793800 0.447700 0.411700
vn -0.548800 -0.207700 0.809700
vn -0.772500 0.037700 0.633900
vn -0.710300 -0.286700 0.642800
vn -0.299000 0.953500 -0.036500
vn -0.879000 0.261800 0.398500
vn -0.207800 -0.430200 0.878500
vn -0.127000 0.062000 0.990000
vn -0.186300 -0.971400 0.147300
vn -0.234000 0.435800 0.869100
vn -0.946100 0.285700 0.152300
vn 0.374300 -0.597300 0.709300
vn 0.119600 -0.925700 0.358700
vn -0.845000 -0.405700 0.348300
vn -0.016800 0.999700 0.017100
vn -0.078400 0.994400 -0.070900
vn -0.956300 0.253500 0.145900
vn -0.726300 0.684300 0.063800
vn -0.483000 -0.838100 0.253300
vn -0.906500 0.023700 0.421500
vn 0.420500 -0.433100 -0.797200
vn -0.730400 -0.400600 0.553100
vn 0.209000 -0.527100 -0.823700
vn 0.177300 0.638100 -0.749200
vn 0.253700 -0.381500 -0.888900
vn 0.054100 0.979700 -0.193100
vn 0.974900 -0.001200 -0.222700
vn 0.786500 0.150500 -0.598900
vn 0.563900 -0.386800 -0.729700
vn -0.063100 -0.997700 0.025000
vn 0.128200 0.991000 -0.039000
vn -0.610300 0.759200 0.226100
vn 0.731700 -0.680500 -0.038000
vn -0.264600 0.904000 0.335600
vn 0.473000 -0.161000 -0.866200
vn 0.088700 0.992900 -0.079200
vn 0.229100 0.868600 -0.439400
vn -0.114900 -0.894300 0.432300
vn -0.675300 -0.398400 0.620700
vn -0.121400 -0.990800 -0.059100
vn 0.992400 -0.106500 0.061200
vn -0.420200 -0.896200 0.142000
vn -0.030100 0.887700 0.459300
vn 0.328800 -0.920200 -0.212200
vn 0.710600 -0.225100 -0.666600
vn -0.258200 -0.955900 0.139800
vn -0.026500 0.999100 0.031400
vn -0.077500 0.995200 0.058700
vn -0.103600 0.991300 0.080400
vn -0.012400 -0.543700 0.839100
vn 0.175700 0.939500 -0.294100
vn 0.776300 0.590700 0.219800
vn 0.992200 -0.109600 0.059500
vn 0.709500 0.116600 -0.695000
vn 0.063200 0.993100 -0.098700
vn 0.424200 -0.333900 -0.841700
vn 0.547500 -0.120700 -0.828000
vn 0.449500 -0.883500 -0.131400
vn -0.065400 0.123300 -0.990200
vn 0.185300 0.290000 -0.938900
vn 0.967100 0.082300 -0.240600
vn 0.983700 -0.125000 -0.128800
vn -0.555800 -0.812100 0.177700
vn 0.197200 0.768800 0.608200
vn 0.588900 0.599000 -0.542600
vn 0.175200 -0.965000 -0.195200
vn -0.497100 0.075500 -0.864400
vn 0.707100 -0.696200 -0.123500
vn 0.168300 -0.973600 -0.153800
vn 0.004800 -0.129200 0.991600
vn -0.133300 -0.356300 0.924800
vn 0.845500 -0.533000 0.031800
vn 0.090800 0.415000 0.905300
vn 0.629900 0.482300 -0.608700
vn 0.486500 0.498000 -0.717800
vn 0.908900 -0.416300 -0.023600
vn -0.351700 0.339600 0.872300
vn 0.802500 -0.588600 -0.097300
vn -0.300300 0.953100 0.036500
vn 0.975700 -0.214300 -0.046100
usemtl Material
s 1
f 238/1/1 35/2/2 228/3/3
f 164/4/4 158/5/5 160/6/6
f 72/7/7 73/8/8 74/9/9
f 131/10/10 130/11/11 176/12/12
f 262/13/13 274/14/14 271/15/15
f 185/16/16 187/17/17 186/18/18
f 26/19/19 28/20/20 32/19/21
f 91/21/22 86/22/23 81/19/24
f 136/19/25 17/19/26 174/23/27
f 95/24/28 88/19/29 80/25/30
f 118/26/31 52/27/32 126/28/33
f 235/29/34 213/30/35 197/31/36
f 132/32/37 208/33/38 210/34/39
f 110/35/40 123/36/41 111/37/42
f 119/19/43 141/19/44 45/19/45
f 176/12/12 170/38/46 148/19/47
f 118/19/31 129/19/48 121/19/49
f 52/27/32 259/39/50 277/40/51
f 210/34/39 208/33/38 209/41/52
f 80/25/30 78/19/53 67/19/54
f 126/19/33 107/42/55 121/19/49
f 275/43/56 140/44/57 143/45/58
f 36/46/59 25/47/60 255/48/61
f 14/49/62 58/50/63 49/51/64
f 126/19/33 121/19/49 129/19/48
f 118/26/31 112/52/65 109/53/66
f 127/19/67 106/19/68 111/19/42
f 55/54/69 223/55/70 144/56/71
f 114/57/72 150/58/73 142/59/74
f 123/36/41 131/10/10 135/60/75
f 154/61/76 156/62/77 152/63/78
f 164/4/4 169/64/79 162/65/80
f 111/37/42 123/36/41 135/60/75
f 70/19/81 74/19/9 69/19/82
f 115/66/83 98/67/84 93/68/85
f 77/69/86 68/70/87 71/71/88
f 150/58/73 157/72/89 151/73/90
f 137/19/91 138/19/92 142/19/74
f 97/74/93 99/75/94 89/76/95
f 94/77/96 97/74/93 89/76/95
f 116/78/97 103/79/98 34/80/99
f 83/19/100 87/19/101 90/19/102
f 89/76/95 85/81/103 94/77/96
f 83/82/100 76/83/104 75/84/105
f 82/85/106 79/86/107 84/87/108
f 230/88/109 204/89/110 203/90/111
f 146/19/112 151/19/90 156/62/77
f 82/85/106 75/84/105 73/8/8
f 76/19/104 90/91/102 69/19/82
f 43/92/113 125/93/114 168/94/115
f 216/95/116 233/96/117 218/97/118
f 238/1/1 29/98/119 46/99/120
f 74/9/9 75/84/105 76/83/104
f 75/84/105 74/9/9 73/8/8
f 130/11/11 50/100/121 176/12/12
f 68/70/87 77/69/86 72/7/7
f 71/71/88 68/70/87 67/101/54
f 69/19/82 67/19/54 68/19/87
f 187/17/17 192/102/122 191/103/123
f 253/104/124 140/44/57 128/105/125
f 11/106/126 24/107/127 1/108/128
f 43/92/113 37/109/129 139/110/130
f 2/111/131 18/112/132 14/49/62
f 29/98/119 37/109/129 46/99/120
f 24/107/127 11/106/126 2/111/131
f 280/113/133 270/114/134 144/56/71
f 34/80/99 103/79/98 173/115/135
f 101/116/136 104/117/137 96/118/138
f 17/119/26 136/120/25 8/121/139
f 9/122/140 7/123/141 6/124/142
f 5/125/143 7/123/141 9/122/140
f 114/57/72 119/126/43 17/19/26
f 154/61/76 155/19/144 158/5/5
f 206/127/145 233/96/117 216/95/116
f 30/19/146 45/19/45 26/19/19
f 191/103/123 192/102/122 189/128/147
f 225/129/148 229/130/149 193/131/150
f 229/130/149 225/129/148 190/132/151
f 23/133/152 159/134/153 32/135/21
f 163/136/154 175/137/155 174/23/27
f 119/126/43 30/138/146 26/139/19
f 16/140/156 59/141/157 12/142/158
f 3/143/159 20/144/160 238/1/1
f 3/143/159 222/145/161 20/144/160
f 49/51/64 47/146/162 40/147/163
f 170/38/46 164/4/4 160/19/6
f 214/148/164 195/149/165 192/102/122
f 237/150/166 184/151/167 186/18/18
f 168/94/115 33/152/168 6/124/142
f 161/153/169 50/100/121 200/154/170
f 193/131/150 233/96/117 116/78/97
f 20/144/160 180/155/171 13/156/172
f 233/96/117 193/131/150 218/97/118
f 15/157/173 47/146/162 51/158/174
f 105/159/175 115/66/83 92/160/176
f 22/161/177 10/162/178 40/147/163
f 179/163/179 231/164/180 241/165/181
f 182/166/182 181/167/183 237/150/166
f 220/168/184 206/127/145 216/95/116
f 212/169/185 198/170/186 199/171/187
f 58/50/63 14/49/62 57/172/188
f 189/128/147 195/149/165 213/30/35
f 25/47/60 16/140/156 19/173/189
f 116/78/97 233/96/117 194/174/190
f 179/163/179 240/175/191 239/176/192
f 234/177/193 202/178/194 246/179/195
f 248/180/196 249/181/197 246/179/195
f 249/181/197 248/180/196 244/182/198
f 188/183/199 219/184/200 217/185/201
f 201/186/202 200/154/170 203/90/111
f 95/19/28 108/19/203 101/19/136
f 127/187/67 171/188/204 177/189/205
f 240/175/191 196/190/206 183/191/207
f 57/172/188 14/49/62 18/112/132
f 209/41/52 202/178/194 204/89/110
f 58/50/63 59/141/157 16/140/156
f 245/192/208 243/193/209 247/194/210
f 232/195/211 243/193/209 242/196/212
f 120/197/213 116/78/97 194/174/190
f 232/195/211 244/182/198 215/198/214
f 146/19/112 142/19/74 151/19/90
f 247/194/210 179/163/179 241/165/181
f 281/199/215 276/200/216 262/13/13
f 132/32/37 194/174/190 233/96/117
f 163/19/154 174/19/27 26/19/19
f 96/118/138 134/201/217 124/202/218
f 27/19/219 45/19/45 141/19/44
f 179/163/179 247/194/210 243/193/209
f 275/43/56 267/203/220 268/204/221
f 220/168/184 193/131/150 229/130/149
f 240/175/191 183/191/207 239/176/192
f 238/1/1 39/205/222 3/143/159
f 116/78/97 178/206/223 225/129/148
f 237/150/166 181/167/183 184/151/167
f 208/33/38 207/207/224 215/198/214
f 49/51/64 58/50/63 41/208/225
f 190/132/151 183/191/207 196/190/206
f 177/189/205 148/209/47 170/19/46
f 159/134/153 163/136/154 48/210/226
f 135/19/75 131/19/10 171/19/204
f 264/211/227 250/212/228 260/213/229
f 120/197/213 194/174/190 132/32/37
f 153/214/230 155/19/144 147/19/231
f 38/215/232 9/122/140 42/216/233
f 161/153/169 154/61/76 162/65/80
f 218/97/118 193/131/150 220/168/184
f 189/128/147 192/102/122 195/149/165
f 47/146/162 15/157/173 4/217/234
f 109/53/66 112/52/65 99/75/94
f 230/88/109 211/218/235 210/34/39
f 3/143/159 226/219/236 279/220/237
f 116/78/97 134/201/217 103/79/98
f 279/220/237 226/219/236 227/221/238
f 263/222/239 269/223/240 256/224/241
f 39/205/222 226/219/236 3/143/159
f 222/145/161 3/143/159 223/55/70
f 214/148/164 217/185/201 236/225/242
f 257/226/243 93/68/85 98/67/84
f 53/227/244 24/107/127 6/124/142
f 109/53/66 94/77/96 79/86/107
f 211/218/235 198/170/186 212/169/185
f 51/158/174 41/208/225 36/46/59
f 10/162/178 168/94/115 21/228/245
f 143/45/58 55/54/69 270/114/134
f 17/119/26 8/121/139 11/106/126
f 227/221/238 226/219/236 4/217/234
f 277/40/51 278/229/246 60/230/247
f 270/114/134 55/54/69 144/56/71
f 254/231/248 266/232/249 281/199/215
f 12/142/158 57/172/188 19/173/189
f 6/124/142 5/125/143 21/228/245
f 255/48/61 278/229/246 273/233/250
f 7/123/141 5/125/143 6/124/142
f 269/223/240 252/234/251 271/15/15
f 252/234/251 269/223/240 261/235/252
f 261/235/252 269/223/240 250/212/228
f 130/11/11 131/10/10 123/36/41
f 257/226/243 165/236/253 92/160/176
f 274/14/14 269/223/240 271/15/15
f 255/48/61 273/233/250 272/237/254
f 87/238/101 89/19/95 107/42/55
f 145/19/255 147/19/231 152/19/78
f 261/235/252 250/212/228 264/211/227
f 256/224/241 269/223/240 274/14/14
f 268/204/221 278/229/246 277/40/51
f 222/145/161 224/239/256 180/155/171
f 71/19/88 67/19/54 78/19/53
f 134/201/217 165/236/253 124/202/218
f 258/240/257 105/159/175 122/241/258
f 143/45/58 270/114/134 267/203/220
f 36/46/59 15/157/173 51/158/174
f 100/242/259 173/115/135 103/79/98
f 278/229/246 280/113/133 273/233/250
f 140/44/57 276/200/216 281/199/215
f 42/216/233 24/107/127 2/111/131
f 57/172/188 12/142/158 59/141/157
f 253/104/124 128/105/125 274/14/14
f 113/19/260 99/19/94 112/19/65
f 279/220/237 227/221/238 44/243/261
f 85/19/103 87/19/101 84/19/108
f 27/244/219 52/27/32 28/20/20
f 44/243/261 273/233/250 280/113/133
f 223/55/70 3/143/159 279/220/237
f 280/113/133 279/220/237 44/243/261
f 253/104/124 274/14/14 262/13/13
f 262/13/13 252/234/251 261/235/252
f 281/199/215 266/232/249 132/32/37
f 15/157/173 36/46/59 272/237/254
f 180/155/171 149/245/262 221/246/263
f 70/247/81 72/7/7 74/9/9
f 252/234/251 262/13/13 271/15/15
f 184/151/167 185/16/16 186/18/18
f 28/20/20 26/19/19 45/248/45
f 26/19/19 32/19/21 48/19/226
f 45/248/45 27/244/219 28/20/20
f 88/19/29 96/118/138 91/21/22
f 91/21/22 81/19/24 88/19/29
f 88/19/29 101/116/136 96/118/138
f 86/22/23 71/71/88 81/19/24
f 175/19/155 136/19/25 174/23/27
f 81/19/24 78/19/53 80/25/30
f 80/25/30 138/249/92 137/250/91
f 80/25/30 88/19/29 81/19/24
f 80/25/30 137/250/91 95/24/28
f 126/28/33 129/251/48 118/26/31
f 52/27/32 133/252/264 126/28/33
f 133/252/264 52/27/32 27/244/219
f 211/218/235 140/44/57 132/32/37
f 224/239/256 223/55/70 55/54/69
f 211/218/235 143/45/58 140/44/57
f 132/32/37 233/96/117 206/127/145
f 132/32/37 207/207/224 208/33/38
f 132/32/37 210/34/39 211/218/235
f 223/55/70 224/239/256 222/145/161
f 211/218/235 55/54/69 143/45/58
f 132/32/37 206/127/145 207/207/224
f 55/54/69 211/218/235 224/239/256
f 53/227/244 110/35/40 111/37/42
f 30/19/146 119/19/43 45/19/45
f 170/38/46 176/12/12 172/253/265
f 176/12/12 148/19/47 131/19/10
f 172/253/265 164/4/4 170/38/46
f 112/19/65 118/19/31 121/19/49
f 23/133/152 136/120/25 175/137/155
f 23/133/152 163/136/154 159/134/153
f 255/48/61 32/135/21 28/20/20
f 175/137/155 163/136/154 23/133/152
f 18/112/132 11/106/126 8/121/139
f 19/173/189 136/120/25 23/133/152
f 60/230/247 28/20/20 52/27/32
f 259/39/50 118/26/31 109/53/66
f 263/222/239 79/86/107 82/85/106
f 263/222/239 72/7/7 77/69/86
f 263/222/239 82/85/106 73/8/8
f 19/173/189 8/121/139 136/120/25
f 263/222/239 109/53/66 79/86/107
f 18/112/132 2/111/131 11/106/126
f 263/222/239 77/69/86 86/22/23
f 25/47/60 23/133/152 32/135/21
f 124/202/218 86/22/23 91/21/22
f 19/173/189 18/112/132 8/121/139
f 263/222/239 86/22/23 124/202/218
f 19/173/189 57/172/188 18/112/132
f 257/226/243 124/202/218 165/236/253
f 25/47/60 19/173/189 23/133/152
f 98/67/84 124/202/218 257/226/243
f 255/48/61 25/47/60 32/135/21
f 263/222/239 124/202/218 98/67/84
f 60/230/247 278/229/246 255/48/61
f 263/222/239 98/67/84 105/159/175
f 60/230/247 255/48/61 28/20/20
f 263/222/239 265/254/266 260/213/229
f 259/39/50 52/27/32 118/26/31
f 258/240/257 265/254/266 263/222/239
f 52/27/32 277/40/51 60/230/247
f 105/159/175 258/240/257 263/222/239
f 259/39/50 251/255/267 277/40/51
f 73/8/8 72/7/7 263/222/239
f 256/224/241 274/14/14 251/255/267
f 109/53/66 263/222/239 259/39/50
f 259/39/50 256/224/241 251/255/267
f 69/19/82 80/25/30 67/19/54
f 107/42/55 126/19/33 133/19/264
f 107/42/55 113/256/260 121/19/49
f 133/19/264 141/19/44 107/42/55
f 267/203/220 275/43/56 143/45/58
f 272/237/254 36/46/59 255/48/61
f 2/111/131 14/49/62 49/51/64
f 111/19/42 135/19/75 127/19/67
f 106/19/68 54/19/268 111/19/42
f 80/25/30 90/91/102 107/42/55
f 90/91/102 80/25/30 69/257/82
f 119/126/43 142/59/74 138/249/92
f 153/214/230 145/258/255 150/58/73
f 150/58/73 177/189/205 153/214/230
f 142/59/74 119/126/43 114/57/72
f 80/25/30 107/42/55 141/259/44
f 141/259/44 138/249/92 80/25/30
f 114/57/72 177/189/205 150/58/73
f 138/249/92 141/259/44 119/126/43
f 147/260/231 154/61/76 152/63/78
f 169/64/79 164/4/4 172/253/265
f 164/4/4 162/65/80 158/5/5
f 68/19/87 70/19/81 69/19/82
f 86/22/23 77/69/86 71/71/88
f 142/59/74 150/58/73 151/73/90
f 146/19/112 137/19/91 142/19/74
f 76/19/104 83/19/100 90/19/102
f 82/85/106 84/87/108 83/82/100
f 83/82/100 75/84/105 82/85/106
f 203/90/111 199/171/187 198/170/186
f 204/89/110 201/186/202 203/90/111
f 202/178/194 234/177/193 205/261/269
f 205/261/269 204/89/110 202/178/194
f 203/90/111 198/170/186 230/88/109
f 204/89/110 205/261/269 201/186/202
f 108/19/203 137/19/91 146/19/112
f 137/19/91 108/19/203 95/19/28
f 157/19/89 152/63/78 156/62/77
f 156/62/77 108/19/203 146/19/112
f 151/19/90 157/19/89 156/62/77
f 74/19/9 76/19/104 69/19/82
f 168/94/115 56/262/270 43/92/113
f 168/94/115 22/161/177 40/147/163
f 22/161/177 168/94/115 10/162/178
f 228/3/3 33/152/168 125/93/114
f 29/98/119 238/1/1 228/3/3
f 125/93/114 139/110/130 37/109/129
f 125/93/114 29/98/119 228/3/3
f 56/262/270 168/94/115 40/147/163
f 37/109/129 29/98/119 125/93/114
f 125/93/114 43/92/113 139/110/130
f 220/168/184 216/95/116 218/97/118
f 39/205/222 238/1/1 46/99/120
f 169/64/79 172/253/265 176/12/12
f 50/100/121 130/11/11 110/35/40
f 176/12/12 50/100/121 169/64/79
f 70/247/81 68/70/87 72/7/7
f 186/18/18 187/17/17 191/103/123
f 140/44/57 275/43/56 128/105/125
f 140/44/57 253/104/124 276/200/216
f 279/220/237 280/113/133 144/56/71
f 104/117/137 101/116/136 108/263/203
f 173/115/135 100/242/259 96/118/138
f 108/263/203 117/264/271 104/117/137
f 104/117/137 173/115/135 96/118/138
f 161/153/169 108/263/203 156/62/77
f 108/263/203 161/153/169 117/264/271
f 54/19/268 106/265/68 114/57/72
f 114/57/72 31/19/272 54/19/268
f 119/126/43 174/19/27 17/19/26
f 174/19/27 119/126/43 26/139/19
f 17/19/26 31/19/272 114/57/72
f 155/19/144 154/61/76 147/19/231
f 155/19/144 160/19/6 158/5/5
f 116/78/97 225/129/148 193/131/150
f 196/190/206 229/130/149 190/132/151
f 38/215/232 2/111/131 49/51/64
f 49/51/64 9/122/140 38/215/232
f 10/162/178 21/228/245 5/125/143
f 43/92/113 56/262/270 40/147/163
f 49/51/64 10/162/178 5/125/143
f 5/125/143 9/122/140 49/51/64
f 39/205/222 47/146/162 4/217/234
f 4/217/234 226/219/236 39/205/222
f 47/146/162 46/99/120 37/109/129
f 47/146/162 43/92/113 40/147/163
f 40/147/163 10/162/178 49/51/64
f 46/99/120 47/146/162 39/205/222
f 47/146/162 37/109/129 43/92/113
f 155/19/144 170/38/46 160/19/6
f 212/169/185 199/171/187 197/31/36
f 213/30/35 214/148/164 236/225/242
f 236/225/242 212/169/185 197/31/36
f 214/148/164 213/30/35 195/149/165
f 180/155/171 184/151/167 181/167/183
f 188/183/199 214/148/164 192/102/122
f 181/167/183 13/156/172 180/155/171
f 188/183/199 192/102/122 187/17/17
f 221/246/263 184/151/167 180/155/171
f 221/246/263 187/17/17 185/16/16
f 213/30/35 236/225/242 197/31/36
f 187/17/17 221/246/263 188/183/199
f 221/246/263 185/16/16 184/151/167
f 50/100/121 110/35/40 53/227/244
f 6/124/142 21/228/245 168/94/115
f 50/100/121 53/227/244 6/124/142
f 6/124/142 33/152/168 50/100/121
f 33/152/168 168/94/115 125/93/114
f 242/196/212 243/193/209 245/192/208
f 234/177/193 246/179/195 249/181/197
f 244/182/198 242/196/212 245/192/208
f 200/154/170 201/186/202 205/261/269
f 249/181/197 244/182/198 245/192/208
f 199/171/187 203/90/111 200/154/170
f 234/177/193 249/181/197 245/192/208
f 235/29/34 199/171/187 200/154/170
f 231/164/180 247/194/210 241/165/181
f 235/29/34 197/31/36 199/171/187
f 245/192/208 247/194/210 231/164/180
f 189/128/147 213/30/35 235/29/34
f 231/164/180 179/163/179 239/176/192
f 33/152/168 189/128/147 235/29/34
f 231/164/180 239/176/192 183/191/207
f 50/100/121 235/29/34 200/154/170
f 117/264/271 231/164/180 183/191/207
f 186/18/18 191/103/123 189/128/147
f 117/264/271 183/191/207 190/132/151
f 33/152/168 237/150/166 186/18/18
f 190/132/151 225/129/148 178/206/223
f 13/156/172 181/167/183 182/166/182
f 117/264/271 190/132/151 178/206/223
f 20/144/160 13/156/172 182/166/182
f 178/206/223 116/78/97 34/80/99
f 35/2/2 238/1/1 20/144/160
f 117/264/271 178/206/223 34/80/99
f 35/2/2 20/144/160 182/166/182
f 104/117/137 117/264/271 173/115/135
f 35/2/2 182/166/182 237/150/166
f 117/264/271 34/80/99 173/115/135
f 33/152/168 186/18/18 189/128/147
f 245/192/208 231/164/180 117/264/271
f 33/152/168 228/3/3 35/2/2
f 161/153/169 245/192/208 117/264/271
f 33/152/168 35/2/2 237/150/166
f 234/177/193 245/192/208 161/153/169
f 50/100/121 33/152/168 235/29/34
f 205/261/269 234/177/193 161/153/169
f 161/153/169 200/154/170 205/261/269
f 161/153/169 169/64/79 50/100/121
f 169/64/79 161/153/169 162/65/80
f 134/201/217 122/241/258 105/159/175
f 92/160/176 165/236/253 134/201/217
f 115/66/83 93/68/85 92/160/176
f 105/159/175 98/67/84 115/66/83
f 92/160/176 134/201/217 105/159/175
f 206/127/145 220/168/184 215/198/214
f 215/198/214 207/207/224 206/127/145
f 41/208/225 25/47/60 36/46/59
f 16/140/156 12/142/158 19/173/189
f 25/47/60 41/208/225 16/140/156
f 214/148/164 188/183/199 217/185/201
f 88/19/29 95/19/28 101/19/136
f 114/57/72 106/265/68 127/187/67
f 127/187/67 177/189/205 114/57/72
f 41/208/225 58/50/63 16/140/156
f 179/163/179 243/193/209 232/195/211
f 232/195/211 240/175/191 179/163/179
f 220/168/184 229/130/149 196/190/206
f 246/179/195 202/178/194 215/198/214
f 215/198/214 220/168/184 196/190/206
f 196/190/206 240/175/191 232/195/211
f 232/195/211 242/196/212 244/182/198
f 248/180/196 246/179/195 215/198/214
f 215/198/214 244/182/198 248/180/196
f 215/198/214 196/190/206 232/195/211
f 262/13/13 254/231/248 281/199/215
f 276/200/216 253/104/124 262/13/13
f 48/19/226 163/19/154 26/19/19
f 91/21/22 96/118/138 124/202/218
f 133/19/264 27/19/219 141/19/44
f 251/255/267 128/105/125 275/43/56
f 128/105/125 251/255/267 274/14/14
f 270/114/134 278/229/246 268/204/221
f 268/204/221 267/203/220 270/114/134
f 270/114/134 280/113/133 278/229/246
f 268/204/221 251/255/267 275/43/56
f 202/178/194 209/41/52 208/33/38
f 208/33/38 215/198/214 202/178/194
f 41/208/225 47/146/162 49/51/64
f 47/146/162 41/208/225 51/158/174
f 170/19/46 153/214/230 177/189/205
f 153/214/230 170/19/46 155/266/144
f 177/189/205 171/188/204 148/209/47
f 32/135/21 159/134/153 48/210/226
f 171/19/204 127/19/67 135/19/75
f 131/19/10 148/19/47 171/19/204
f 265/254/266 264/211/227 260/213/229
f 266/232/249 120/197/213 132/32/37
f 145/19/255 153/214/230 147/19/231
f 154/61/76 161/153/169 156/62/77
f 154/61/76 158/5/5 162/65/80
f 97/74/93 109/53/66 99/75/94
f 210/34/39 204/89/110 230/88/109
f 204/89/110 210/34/39 209/41/52
f 258/240/257 120/197/213 266/232/249
f 254/231/248 262/13/13 261/235/252
f 122/241/258 116/78/97 120/197/213
f 264/211/227 254/231/248 261/235/252
f 266/232/249 265/254/266 258/240/257
f 266/232/249 254/231/248 264/211/227
f 122/241/258 134/201/217 116/78/97
f 134/201/217 96/118/138 100/242/259
f 266/232/249 264/211/227 265/254/266
f 103/79/98 134/201/217 100/242/259
f 120/197/213 258/240/257 122/241/258
f 250/212/228 263/222/239 260/213/229
f 263/222/239 256/224/241 259/39/50
f 263/222/239 250/212/228 269/223/240
f 42/216/233 9/122/140 6/124/142
f 54/267/268 53/227/244 111/37/42
f 53/227/244 54/267/268 31/268/272
f 31/268/272 1/108/128 24/107/127
f 24/107/127 42/216/233 6/124/142
f 24/107/127 53/227/244 31/268/272
f 94/77/96 109/53/66 97/74/93
f 94/77/96 84/87/108 79/86/107
f 219/184/200 188/183/199 221/246/263
f 212/169/185 236/225/242 217/185/201
f 219/184/200 221/246/263 149/245/262
f 211/218/235 212/169/185 217/185/201
f 217/185/201 219/184/200 149/245/262
f 149/245/262 224/239/256 211/218/235
f 211/218/235 230/88/109 198/170/186
f 217/185/201 149/245/262 211/218/235
f 17/119/26 11/106/126 1/19/128
f 1/19/128 31/19/272 17/119/26
f 15/157/173 273/233/250 44/243/261
f 227/221/238 4/217/234 15/157/173
f 15/157/173 44/243/261 227/221/238
f 110/35/40 130/11/11 123/36/41
f 107/42/55 90/91/102 87/238/101
f 99/19/94 113/19/260 107/42/55
f 107/42/55 89/19/95 99/19/94
f 152/19/78 150/19/73 145/19/255
f 150/19/73 152/19/78 157/19/89
f 251/255/267 268/204/221 277/40/51
f 180/155/171 20/144/160 222/145/161
f 224/239/256 149/245/262 180/155/171
f 81/19/24 71/19/88 78/19/53
f 132/32/37 140/44/57 281/199/215
f 38/215/232 42/216/233 2/111/131
f 58/50/63 57/172/188 59/141/157
f 121/19/49 113/19/260 112/19/65
f 84/19/108 94/77/96 85/19/103
f 87/19/101 83/19/100 84/19/108
f 85/19/103 89/19/95 87/19/101
f 144/56/71 223/55/70 279/220/237
f 273/233/250 15/157/173 272/237/254
l 61 166
l 102 66
l 65 167
