# Blender v2.76 (sub 0) OBJ File: 'ImpactExplosionArrow.blend'
# www.blender.org
mtllib ImpactExplosionArrow.mtl
o Cube_Cube.001
v -0.002987 0.260002 -0.002987
v -0.002987 -0.293089 -0.002987
v -0.002987 0.260002 0.002987
v -0.002987 -0.293089 0.002987
v 0.002987 0.260002 -0.002987
v 0.002987 -0.293089 -0.002987
v 0.002987 0.260002 0.002987
v 0.002987 -0.293089 0.002987
v -0.004258 -0.293089 0.000000
v -0.004258 0.260002 0.000000
v 0.004258 -0.293089 0.000000
v 0.004258 0.260002 0.000000
v 0.000000 -0.293089 0.004301
v -0.000000 0.260002 0.004301
v 0.000000 -0.293089 -0.004301
v -0.000000 0.260002 -0.004301
v 0.000000 -0.293089 0.000000
v -0.000000 0.260002 0.000000
v -0.001327 -0.216601 -0.001245
v -0.001327 -0.281686 -0.001245
v -0.001327 -0.216601 0.001245
v -0.001327 -0.281686 0.001245
v 0.001328 -0.216601 -0.001245
v 0.001328 -0.281686 -0.001245
v 0.001328 -0.216601 0.001245
v 0.001328 -0.281686 0.001245
v 0.000000 -0.300593 0.020742
v 0.000000 -0.237868 0.020742
v 0.000000 -0.300593 -0.020742
v 0.000000 -0.237868 -0.020742
v -0.020742 -0.300593 0.000000
v -0.020742 -0.237868 0.000000
v 0.020742 -0.300593 0.000000
v 0.020742 -0.237868 0.000000
v -0.002987 -0.000000 -0.002987
v -0.002987 -0.000000 0.002987
v 0.002987 0.000000 0.002987
v 0.002987 0.000000 -0.002987
v 0.004258 0.000000 0.000000
v -0.004258 -0.000000 0.000000
v -0.000000 0.000000 -0.004301
v -0.000000 0.000000 0.004301
v 0.011006 0.192716 -0.011122
v 0.011006 0.265675 -0.011122
v 0.011006 0.192716 0.011122
v 0.011006 0.265675 0.011122
v -0.011238 0.192716 -0.011122
v -0.011238 0.265675 -0.011122
v -0.011238 0.192716 0.011122
v -0.011238 0.265675 0.011122
v -0.000116 0.265675 0.015570
v -0.000116 0.192716 0.015570
v -0.000116 0.265675 -0.015570
v -0.000116 0.192716 -0.015570
v 0.014898 0.265675 0.000000
v 0.014898 0.192716 0.000000
v -0.015130 0.265675 0.000000
v -0.015130 0.192716 0.000000
v -0.000116 0.294789 0.000000
v 0.011639 0.194960 -0.005002
v -0.006233 0.192716 0.014681
v -0.014491 0.265675 -0.006117
v 0.014259 0.265675 0.006117
v 0.014259 0.265675 -0.006117
v -0.006233 0.265675 -0.014681
v 0.014259 0.192716 0.006117
v 0.006001 0.192716 -0.014681
v -0.014491 0.192716 0.006117
v 0.014259 0.192716 -0.006117
v -0.014491 0.265675 0.006117
v 0.006001 0.265675 -0.014681
v -0.006233 0.265675 0.014681
v -0.014491 0.192716 -0.006117
v -0.006233 0.192716 -0.014681
v 0.006001 0.265675 0.014681
v 0.006001 0.192716 0.014681
v 0.011539 0.261255 -0.011655
v 0.011539 0.261255 0.011655
v -0.011771 0.261255 0.011655
v -0.011771 0.261255 -0.011655
v -0.000116 0.261255 -0.016317
v -0.000116 0.261255 0.016317
v -0.015851 0.261255 -0.000000
v 0.015618 0.261255 -0.000000
v 0.006294 0.261255 -0.015385
v 0.014948 0.261255 0.006410
v -0.015180 0.261255 0.006410
v -0.006527 0.261255 0.015385
v -0.006527 0.261255 -0.015385
v 0.014948 0.261255 -0.006410
v -0.015180 0.261255 -0.006410
v 0.006294 0.261255 0.015385
v 0.011639 0.192716 -0.005002
v 0.008979 0.192716 -0.009095
v 0.004886 0.192716 0.012005
v 0.008979 0.192716 0.009095
v -0.011871 0.192716 0.005002
v -0.009211 0.192716 0.009095
v -0.005118 0.192716 -0.012005
v -0.009211 0.192716 -0.009095
v -0.005118 0.192716 0.012005
v -0.000116 0.192716 0.012733
v 0.004886 0.192716 -0.012005
v -0.000116 0.192716 -0.012733
v 0.011639 0.192716 0.005002
v 0.012162 0.192716 -0.000000
v -0.011871 0.192716 -0.005002
v -0.012394 0.192716 -0.000000
v 0.008979 0.194960 -0.009095
v 0.004886 0.194960 0.012005
v 0.008979 0.194960 0.009095
v -0.011871 0.194960 0.005002
v -0.009211 0.194960 0.009095
v -0.005118 0.194960 -0.012005
v -0.009211 0.194960 -0.009095
v -0.005118 0.194960 0.012005
v -0.000116 0.194960 0.012733
v 0.004886 0.194960 -0.012005
v -0.000116 0.194960 -0.012733
v -0.000116 0.194960 -0.000000
v 0.011639 0.194960 0.005002
v 0.012162 0.194960 -0.000000
v -0.011871 0.194960 -0.005002
v -0.012394 0.194960 -0.000000
vt 0.167963 0.999802
vt 0.147158 0.999803
vt 0.147146 -0.000012
vt 0.167948 -0.000013
vt 0.126244 0.999803
vt 0.105330 0.999803
vt 0.105320 -0.000012
vt 0.126233 -0.000012
vt 0.084526 0.999803
vt 0.063721 0.999804
vt 0.063716 -0.000012
vt 0.084518 -0.000012
vt 0.042807 0.999804
vt 0.021893 0.999804
vt 0.021890 -0.000012
vt 0.042803 -0.000012
vt 0.360569 0.075501
vt 0.385932 0.064706
vt 0.385679 0.085618
vt 0.371256 0.100611
vt 0.360569 0.025097
vt 0.385932 0.035892
vt 0.370686 0.050208
vt 0.349882 0.050208
vt 0.335205 0.014303
vt 0.335459 0.035215
vt 0.335205 0.086296
vt 0.350451 0.100611
vt 0.001088 0.999804
vt 0.001088 -0.000012
vt 0.335459 0.065384
vt 0.349882 0.050391
vt 0.350451 -0.000013
vt 0.371256 -0.000013
vt 0.385679 0.014980
vt 0.370686 0.050391
vt 0.885921 0.519934
vt 0.804046 0.467114
vt 0.804046 0.273608
vt 0.885921 0.333446
vt 0.804046 0.366064
vt 0.721820 0.289804
vt 0.721820 0.027282
vt 0.804046 0.113064
vt 0.804046 0.027282
vt 0.885921 0.080102
vt 0.885921 0.273608
vt 0.804046 0.213770
vt 0.557370 0.366064
vt 0.475145 0.289804
vt 0.475145 0.027282
vt 0.557370 0.113064
vt 0.407387 0.125753
vt 0.407387 0.285162
vt 0.391133 0.284402
vt 0.453071 0.236832
vt 0.437848 0.126712
vt 0.453071 0.125753
vt 0.391133 0.125753
vt 0.391133 0.285162
vt 0.374879 0.284402
vt 0.468295 0.236832
vt 0.453071 0.126712
vt 0.468295 0.125753
vt 0.557370 0.103543
vt 0.639595 0.027282
vt 0.639595 0.280283
vt 0.639595 0.366064
vt 0.639595 0.113064
vt 0.422617 0.250643
vt 0.407387 0.126606
vt 0.422617 0.125753
vt 0.437848 0.250643
vt 0.422617 0.126606
vt 0.437848 0.125753
vt 0.350469 0.125753
vt 0.358606 0.294897
vt 0.342332 0.294897
vt 0.366742 0.125753
vt 0.374879 0.294897
vt 0.967796 0.467114
vt 0.967796 0.273608
vt 0.967796 0.220788
vt 0.885921 0.087120
vt 0.967796 0.027282
vt 0.314217 0.999803
vt 0.293303 0.999803
vt 0.293298 -0.000012
vt 0.314211 -0.000012
vt 0.230779 0.999803
vt 0.209865 0.999803
vt 0.209868 -0.000012
vt 0.230781 -0.000012
vt 0.188951 0.999803
vt 0.168147 0.999803
vt 0.168153 -0.000013
vt 0.188955 -0.000012
vt 0.272389 0.999803
vt 0.251584 0.999803
vt 0.251583 -0.000012
vt 0.272385 -0.000012
vt 0.335022 0.999802
vt 0.335013 -0.000013
vt 0.963232 0.590458
vt 0.993540 0.589011
vt 0.991778 0.802649
vt 0.962857 0.804031
vt 0.743600 0.395667
vt 0.774323 0.394118
vt 0.772121 0.607677
vt 0.742805 0.609155
vt 0.449461 0.371881
vt 0.479770 0.370433
vt 0.478008 0.584072
vt 0.449087 0.585453
vt 0.609828 0.443723
vt 0.640551 0.442174
vt 0.638349 0.655733
vt 0.609033 0.657211
vt 0.859161 0.930434
vt 0.859161 0.898402
vt 0.871817 0.899884
vt 0.871817 0.926078
vt 0.654645 0.380854
vt 0.722373 0.301745
vt 0.678111 0.383091
vt 0.415607 0.360257
vt 0.383787 0.359610
vt 0.426860 0.278492
vt 0.974664 0.970165
vt 0.949796 0.985889
vt 0.945933 0.971426
vt 0.966269 0.958568
vt 0.542222 0.442749
vt 0.575258 0.443723
vt 0.576045 0.657211
vt 0.544521 0.656282
vt 0.651402 0.392348
vt 0.675994 0.394693
vt 0.678293 0.608226
vt 0.654827 0.605988
vt 0.907411 0.827177
vt 0.936132 0.825881
vt 0.934760 0.840580
vt 0.911273 0.841640
vt 0.448404 0.360257
vt 0.575863 0.432076
vt 0.588602 0.349801
vt 0.608850 0.432076
vt 0.963993 0.833802
vt 0.985419 0.854947
vt 0.975064 0.864348
vt 0.957543 0.847057
vt 0.356648 0.369200
vt 0.381744 0.371203
vt 0.384469 0.584806
vt 0.360522 0.582895
vt 0.870419 0.587778
vt 0.895515 0.589780
vt 0.898240 0.803384
vt 0.874292 0.801473
vt 0.873610 0.576276
vt 0.940631 0.497069
vt 0.897558 0.578187
vt 0.771939 0.382542
vt 0.742622 0.384020
vt 0.871787 0.958119
vt 0.882142 0.948718
vt 0.998045 0.882633
vt 0.998045 0.914664
vt 0.985389 0.913182
vt 0.985389 0.886988
vt 0.893214 0.979264
vt 0.899663 0.966009
vt 0.544339 0.431147
vt 0.991096 0.577453
vt 0.962175 0.578834
vt 0.709635 0.384020
vt 0.921075 0.987185
vt 0.922447 0.972486
vt 0.477326 0.358875
vt 0.992130 0.946002
vt 0.980552 0.938809
vt 0.865077 0.867064
vt 0.882542 0.842901
vt 0.890937 0.854498
vt 0.876655 0.874257
vt 0.929378 0.578834
vt 0.359840 0.357699
vt 0.638167 0.430598
vt 0.520873 0.428910
vt 0.928861 0.590458
vt 0.930060 0.804031
vt 0.415091 0.371881
vt 0.416289 0.585453
vt 0.709030 0.395667
vt 0.709817 0.609155
vt 0.517630 0.440404
vt 0.521055 0.654044
vt 0.388579 0.678901
vt 0.389159 0.729495
vt 0.369176 0.729803
vt 0.368595 0.679209
vt 0.366272 0.729495
vt 0.368595 0.774433
vt 0.348612 0.774741
vt 0.346289 0.729803
vt 0.368595 0.594504
vt 0.366272 0.630534
vt 0.346289 0.630842
vt 0.348612 0.594812
vt 0.434308 0.730377
vt 0.436351 0.774719
vt 0.416362 0.774996
vt 0.414319 0.730653
vt 0.413917 0.594504
vt 0.411874 0.631258
vt 0.391884 0.631534
vt 0.393928 0.594780
vt 0.391483 0.774433
vt 0.371499 0.774741
vt 0.391483 0.594504
vt 0.389159 0.630534
vt 0.369176 0.630842
vt 0.371499 0.594812
vt 0.411472 0.680072
vt 0.411874 0.730377
vt 0.391885 0.730653
vt 0.391483 0.680348
vt 0.436351 0.594504
vt 0.434308 0.631258
vt 0.414319 0.631534
vt 0.416362 0.594780
vt 0.365691 0.678901
vt 0.345708 0.679209
vt 0.433906 0.680072
vt 0.413917 0.680348
vt 0.413917 0.774719
vt 0.393928 0.774995
vt 0.429227 0.053882
vt 0.433618 0.006838
vt 0.449869 0.011458
vt 0.416865 0.007594
vt 0.396086 0.083972
vt 0.388722 0.067823
vt 0.469732 0.058624
vt 0.466281 0.076904
vt 0.456094 0.090998
vt 0.441588 0.100170
vt 0.408584 0.096306
vt 0.392172 0.030860
vt 0.402360 0.016766
vt 0.469732 0.039941
vt 0.424835 0.100926
vt 0.462367 0.023792
vt 0.388722 0.049139
vn -0.920100 -0.000000 0.391600
vn 0.402700 0.000000 0.915300
vn 0.920100 0.000000 -0.391600
vn -0.402700 -0.000000 -0.915300
vn -0.000000 1.000000 -0.000000
vn 0.000000 -1.000000 -0.000000
vn 0.920100 0.000000 0.391600
vn -0.920100 -0.000000 -0.391600
vn 0.402700 0.000000 -0.915300
vn -0.402700 -0.000000 0.915300
vn -0.064000 -0.000000 0.998000
vn 0.997700 0.000000 0.067900
vn 0.064000 0.000000 -0.998000
vn -0.997700 -0.000000 -0.067900
vn 0.000000 -0.717900 -0.696100
vn -0.697700 -0.716400 0.000000
vn 0.000000 -0.717900 0.696100
vn 0.697700 -0.716400 0.000000
vn 0.997700 0.000000 -0.067900
vn -0.997700 -0.000000 0.067900
vn -0.738500 0.674200 0.000000
vn 0.738500 0.674200 0.000000
vn 0.000000 0.675800 0.737100
vn 0.000000 0.675800 -0.737100
vn 0.064000 0.000000 0.998000
vn -0.064000 -0.000000 -0.998000
vn 0.838400 -0.010800 0.545000
vn -0.579500 -0.010900 0.814900
vn -0.838400 -0.010800 -0.545000
vn 0.579500 -0.010900 -0.814900
vn 0.511500 0.470200 0.719300
vn -0.885000 0.456400 0.092500
vn -0.143900 -0.010800 -0.989500
vn 0.579500 -0.010900 0.814900
vn -0.885000 0.456400 -0.092500
vn 0.127200 0.467800 -0.874600
vn -0.838400 -0.010800 0.545000
vn 0.838400 -0.010800 -0.545000
vn 0.741300 0.467200 -0.481800
vn -0.511500 0.470200 0.719300
vn -0.127200 0.467800 -0.874600
vn 0.741300 0.467200 0.481800
vn 0.127200 0.467800 0.874600
vn -0.741300 0.467200 -0.481800
vn -0.127200 0.467800 0.874600
vn 0.885000 0.456400 0.092500
vn -0.741300 0.467200 0.481800
vn 0.511500 0.470200 -0.719300
vn 0.885000 0.456400 -0.092500
vn -0.511500 0.470200 -0.719300
vn 0.143900 -0.010800 -0.989500
vn 0.994500 -0.010500 0.104000
vn -0.994500 -0.010500 0.104000
vn -0.143900 -0.010800 0.989500
vn -0.579500 -0.010900 -0.814900
vn 0.994500 -0.010500 -0.104000
vn -0.994500 -0.010500 -0.104000
vn 0.143900 -0.010800 0.989500
vn 0.142000 0.164900 0.976000
vn -0.981800 0.160000 -0.102600
vn 0.981800 0.160000 -0.102600
vn -0.571500 0.166000 -0.803700
vn -0.142000 0.164900 0.976000
vn -0.981800 0.160000 0.102600
vn 0.981800 0.160000 0.102600
vn 0.142000 0.164900 -0.976000
vn 0.827000 0.164700 -0.537500
vn -0.827000 0.164700 0.537500
vn 0.571500 0.166000 0.803700
vn -0.142000 0.164900 -0.976000
vn 0.571500 0.166000 -0.803700
vn -0.827000 0.164700 -0.537500
vn -0.571500 0.166000 0.803700
vn 0.827000 0.164700 0.537500
vn 0.143900 0.000000 -0.989600
vn -0.579500 -0.000000 0.815000
vn 0.579500 0.000000 0.815000
vn -0.838400 0.000000 -0.545000
vn 0.838400 0.000000 -0.545000
vn 0.579500 0.000000 -0.815000
vn -0.579500 -0.000000 -0.815000
vn -0.143900 -0.000000 -0.989600
vn 0.994600 0.000000 0.104000
vn -0.838400 0.000000 0.545000
vn 0.143900 0.000000 0.989600
vn -0.994600 -0.000000 -0.104000
vn 0.838400 0.000000 0.545000
vn -0.994600 -0.000000 0.104000
vn -0.143900 -0.000000 0.989600
vn 0.994600 0.000000 -0.104000
usemtl Material
s off
f 40/1/1 36/2/1 3/3/1 10/4/1
f 42/5/2 37/6/2 7/7/2 14/8/2
f 39/9/3 38/10/3 5/11/3 12/12/3
f 41/13/4 35/14/4 1/15/4 16/16/4
f 18/17/5 14/18/5 7/19/5 12/20/5
f 17/21/6 13/22/6 4/23/6 9/24/6
f 15/25/6 17/21/6 9/24/6 2/26/6
f 16/27/5 18/17/5 12/20/5 5/28/5
f 37/6/7 39/9/7 12/12/7 7/7/7
f 35/14/8 40/29/8 10/30/8 1/15/8
f 1/31/5 10/32/5 18/17/5 16/27/5
f 6/33/6 11/34/6 17/21/6 15/25/6
f 11/34/6 8/35/6 13/22/6 17/21/6
f 10/32/5 3/36/5 14/18/5 18/17/5
f 38/10/9 41/13/9 16/16/9 5/11/9
f 36/2/10 42/5/10 14/8/10 3/3/10
f 31/37/11 22/38/11 21/39/11 32/40/11
f 27/41/12 26/42/12 25/43/12 28/44/12
f 33/45/13 24/46/13 23/47/13 34/48/13
f 29/49/14 20/50/14 19/51/14 30/52/14
f 27/53/15 22/54/15 26/55/15
f 33/56/16 26/57/16 24/58/16
f 29/59/17 24/60/17 20/61/17
f 31/62/18 20/63/18 22/64/18
f 24/65/19 29/66/19 30/67/19 23/49/19
f 22/42/20 27/68/20 28/69/20 21/43/20
f 32/70/21 21/71/21 19/72/21
f 34/73/22 23/74/22 25/75/22
f 28/76/23 25/77/23 21/78/23
f 30/79/24 19/80/24 23/77/24
f 26/81/25 33/37/25 34/40/25 25/82/25
f 20/83/26 31/47/26 32/84/26 19/85/26
f 4/86/10 13/87/10 42/88/10 36/89/10
f 6/90/9 15/91/9 41/92/9 38/93/9
f 2/94/8 9/95/8 40/96/8 35/97/8
f 8/98/7 11/99/7 39/100/7 37/101/7
f 15/91/4 2/94/4 35/97/4 41/92/4
f 11/99/3 6/90/3 38/93/3 39/100/3
f 13/87/2 8/98/2 37/101/2 42/88/2
f 9/102/1 4/86/1 36/89/1 40/103/1
f 86/104/27 78/105/27 45/106/27 66/107/27
f 88/108/28 79/109/28 49/110/28 61/111/28
f 91/112/29 80/113/29 47/114/29 73/115/29
f 85/116/30 77/117/30 43/118/30 67/119/30
f 69/120/6 56/121/6 106/122/6 93/123/6
f 46/124/31 59/125/31 75/126/31
f 57/127/32 70/128/32 59/129/32
f 47/130/6 74/131/6 99/132/6 100/133/6
f 89/134/33 81/135/33 54/136/33 74/137/33
f 78/138/34 92/139/34 76/140/34 45/141/34
f 76/142/6 52/143/6 102/144/6 95/145/6
f 62/146/35 57/127/35 59/129/35
f 53/147/36 59/148/36 71/149/36
f 61/150/6 49/151/6 98/152/6 101/153/6
f 79/154/37 87/155/37 68/156/37 49/157/37
f 77/158/38 90/159/38 69/160/38 43/161/38
f 44/162/39 59/163/39 64/164/39
f 50/165/40 72/166/40 59/125/40
f 43/167/6 69/120/6 93/123/6 94/168/6
f 68/169/6 58/170/6 108/171/6 97/172/6
f 49/151/6 68/169/6 97/172/6 98/152/6
f 67/173/6 43/167/6 94/168/6 103/174/6
f 53/147/41 65/175/41 59/148/41
f 59/163/42 46/176/42 63/177/42
f 59/125/43 51/178/43 75/126/43
f 74/131/6 54/179/6 104/180/6 99/132/6
f 48/181/44 62/146/44 59/129/44
f 58/170/6 73/182/6 107/183/6 108/171/6
f 72/166/45 51/178/45 59/125/45
f 66/184/6 45/185/6 96/186/6 105/187/6
f 54/179/6 67/173/6 103/174/6 104/180/6
f 55/188/46 59/163/46 63/177/46
f 73/182/6 47/130/6 100/133/6 107/183/6
f 70/128/47 50/189/47 59/129/47
f 56/121/6 66/184/6 105/187/6 106/122/6
f 59/148/48 44/190/48 71/149/48
f 59/163/49 55/188/49 64/164/49
f 45/185/6 76/142/6 95/145/6 96/186/6
f 52/143/6 61/150/6 101/153/6 102/144/6
f 65/175/50 48/191/50 59/148/50
f 81/135/51 85/116/51 67/119/51 54/136/51
f 84/192/52 86/104/52 66/107/52 56/193/52
f 87/155/53 83/194/53 58/195/53 68/156/53
f 82/196/54 88/108/54 61/111/54 52/197/54
f 80/198/55 89/134/55 74/137/55 47/199/55
f 90/159/56 84/192/56 56/193/56 69/160/56
f 83/194/57 91/112/57 73/115/57 58/195/57
f 92/139/58 82/196/58 52/197/58 76/140/58
f 75/126/59 51/178/59 82/196/59 92/139/59
f 57/127/60 62/146/60 91/112/60 83/194/60
f 64/164/61 55/188/61 84/192/61 90/159/61
f 48/191/62 65/175/62 89/134/62 80/198/62
f 51/178/63 72/166/63 88/108/63 82/196/63
f 70/128/64 57/127/64 83/194/64 87/155/64
f 55/188/65 63/177/65 86/104/65 84/192/65
f 53/147/66 71/149/66 85/116/66 81/135/66
f 44/162/67 64/164/67 90/159/67 77/158/67
f 50/189/68 70/128/68 87/155/68 79/154/68
f 46/124/69 75/126/69 92/139/69 78/138/69
f 65/175/70 53/147/70 81/135/70 89/134/70
f 71/149/71 44/190/71 77/117/71 85/116/71
f 62/146/72 48/181/72 80/113/72 91/112/72
f 72/166/73 50/165/73 79/109/73 88/108/73
f 63/177/74 46/176/74 78/105/74 86/104/74
f 102/200/75 101/201/75 116/202/75 117/203/75
f 103/204/76 94/205/76 109/206/76 118/207/76
f 100/208/77 99/209/77 114/210/77 115/211/77
f 105/212/78 96/213/78 111/214/78 121/215/78
f 98/216/79 97/217/79 112/218/79 113/219/79
f 101/201/80 98/220/80 113/221/80 116/202/80
f 96/222/81 95/223/81 110/224/81 111/225/81
f 95/223/82 102/200/82 117/203/82 110/224/82
f 108/226/83 107/227/83 123/228/83 124/229/83
f 94/230/84 93/231/84 60/232/84 109/233/84
f 99/209/85 104/234/85 119/235/85 114/210/85
f 106/236/86 105/212/86 121/215/86 122/237/86
f 107/227/87 100/238/87 115/239/87 123/228/87
f 93/231/88 106/236/88 122/237/88 60/232/88
f 104/234/89 103/204/89 118/207/89 119/235/89
f 97/217/90 108/226/90 124/229/90 112/218/90
f 120/240/6 117/241/6 116/242/6
f 110/243/6 117/241/6 120/240/6
f 109/244/6 60/245/6 120/240/6
f 120/240/6 124/246/6 123/247/6
f 120/240/6 115/248/6 114/249/6
f 118/250/6 109/244/6 120/240/6
f 121/251/6 111/252/6 120/240/6
f 124/246/6 120/240/6 112/253/6
f 111/252/6 110/243/6 120/240/6
f 115/248/6 120/240/6 123/247/6
f 119/254/6 118/250/6 120/240/6
f 120/240/6 113/255/6 112/253/6
f 113/255/6 120/240/6 116/242/6
f 60/245/6 122/256/6 120/240/6
f 119/254/6 120/240/6 114/249/6
f 122/256/6 121/251/6 120/240/6
