# Blender v2.77 (sub 0) OBJ File: ''
# www.blender.org
mtllib ImpactExplosionArrowHULL.mtl
o Cube.001
v 0.000000 -0.297587 -0.000000
v 0.000000 -0.297587 0.001255
v -0.022515 -0.297587 0.000205
v -0.022515 -0.297587 -0.000000
v 0.000000 0.306031 0.000000
v -0.022515 0.239144 0.000000
v -0.022515 0.239144 0.000080
v 0.000000 0.306031 0.000490
v 0.022515 0.219882 0.000000
v 0.022515 0.239144 0.000000
v 0.022515 0.239144 0.000080
v 0.022515 0.219882 0.001719
v 0.000000 0.232585 0.010542
v -0.022515 0.219882 0.001719
v -0.022515 0.219882 0.000000
v -0.022515 0.239144 -0.000080
v -0.022515 0.219882 -0.001719
v 0.000000 -0.274317 -0.010542
v 0.000000 -0.297587 -0.001255
v -0.022515 -0.297587 -0.000205
v -0.022515 -0.274317 -0.001719
v 0.022515 -0.274317 -0.001719
v 0.022515 -0.297587 -0.000205
v 0.022515 -0.297587 -0.000000
v 0.022515 -0.297587 0.000205
v 0.022515 0.239144 -0.000080
v 0.000000 0.306031 -0.000490
v 0.022515 0.219882 -0.001719
v 0.022515 -0.274317 -0.000000
v -0.022515 -0.274317 0.001719
v -0.022515 -0.274317 -0.000000
v 0.022515 -0.274317 0.001719
v 0.000000 -0.274317 0.010542
v 0.000000 0.232585 -0.010542
v 0.000000 -0.232378 -0.010542
v 0.007093 -0.232778 0.001719
v -0.007093 -0.232778 -0.000000
v 0.000000 -0.232378 0.010542
v -0.007093 -0.232778 0.001719
v 0.007093 -0.232778 -0.000000
v -0.007093 -0.232778 -0.001719
v 0.007093 -0.232778 -0.001719
v 0.000000 0.196051 -0.010542
v 0.006940 0.184315 -0.001719
v 0.006940 0.184315 0.001719
v -0.006940 0.184315 0.000000
v 0.000000 0.196051 0.010542
v -0.006940 0.184315 0.001719
v 0.006940 0.184315 0.000000
v -0.006940 0.184315 -0.001719
vn 0.0000 -1.0000 0.0000
vn 0.0000 1.0000 0.0000
vn -0.9477 0.3190 0.0000
vn 0.9788 -0.2049 0.0000
vn 1.0000 0.0000 0.0000
vn 0.9776 -0.2106 0.0000
vn -0.3908 0.1152 0.9132
vn -0.9788 -0.2049 0.0000
vn -1.0000 -0.0000 0.0000
vn -0.9776 -0.2106 0.0000
vn -0.2089 -0.2211 -0.9526
vn 0.2089 -0.2211 -0.9526
vn 0.3908 0.1152 0.9132
vn 0.9477 0.3190 0.0000
vn 0.9788 -0.2047 0.0000
vn -0.9788 -0.2047 0.0000
vn 0.6947 -0.0305 0.7186
vn 0.4508 -0.0974 0.8873
vn 0.5409 -0.0750 0.8377
vn 0.3908 0.1152 -0.9132
vn -0.3908 0.1152 -0.9132
vn -0.5409 -0.0750 0.8377
vn -0.4508 -0.0974 0.8873
vn -0.6947 -0.0305 0.7186
vn 0.9842 0.1768 0.0000
vn 0.9836 0.1805 0.0000
vn -0.2089 -0.2211 0.9526
vn -0.9842 0.1768 0.0000
vn -0.9836 0.1805 0.0000
vn 0.2089 -0.2211 0.9526
vn 0.6460 0.0522 -0.7615
vn 0.5106 0.0943 -0.8546
vn 0.6611 0.0470 -0.7488
vn -0.6611 0.0470 -0.7488
vn -0.5106 0.0943 -0.8546
vn -0.6460 0.0522 -0.7615
vn -0.5409 -0.0750 -0.8377
vn -0.6947 -0.0305 -0.7186
vn 0.6947 -0.0305 -0.7186
vn 0.5409 -0.0750 -0.8377
vn 0.9842 0.1770 0.0000
vn -0.5106 0.0943 0.8546
vn -0.6611 0.0470 0.7488
vn -0.6460 0.0522 0.7615
vn -0.9842 0.1770 0.0000
vn 0.5106 0.0943 0.8546
vn 0.6460 0.0522 0.7615
vn 0.6611 0.0470 0.7488
vn 0.4508 -0.0974 -0.8873
vn -0.4508 -0.0974 -0.8873
usemtl Material.001
s 1
f 1//1 2//1 3//1 4//1
f 5//2 6//3 7//3 8//2
f 9//4 10//5 11//5 12//6
f 13//7 8//7 7//7 14//7
f 15//8 6//9 16//9 17//10
f 18//11 19//11 20//11 21//11
f 22//12 23//12 19//12 18//12
f 12//13 11//13 8//13 13//13
f 10//14 5//2 8//2 11//14
f 24//1 25//1 2//1 1//1
f 23//1 24//1 1//1 19//1
f 26//14 27//2 5//2 10//14
f 14//10 7//9 6//9 15//8
f 28//6 26//5 10//5 9//4
f 27//2 16//3 6//3 5//2
f 19//1 1//1 4//1 20//1
f 44//15 28//6 9//4 49//15
f 48//16 14//10 15//8 46//16
f 45//17 12//18 13//18 47//19
f 26//20 28//20 34//20 27//20
f 27//21 34//21 17//21 16//21
f 46//16 15//8 17//10 50//16
f 47//22 13//23 14//23 48//24
f 49//15 9//4 12//6 45//15
f 24//5 29//25 32//26 25//5
f 2//27 33//27 30//27 3//27
f 4//9 31//28 21//29 20//9
f 25//30 32//30 33//30 2//30
f 3//9 30//29 31//28 4//9
f 23//5 22//26 29//25 24//5
f 42//31 22//32 18//32 35//33
f 35//34 18//35 21//35 41//36
f 43//37 35//34 41//36 50//38
f 44//39 42//31 35//33 43//40
f 29//25 40//41 36//41 32//26
f 33//42 38//43 39//44 30//42
f 31//28 37//45 41//45 21//29
f 32//46 36//47 38//48 33//46
f 30//29 39//45 37//45 31//28
f 22//26 42//41 40//41 29//25
f 28//49 44//39 43//40 34//49
f 34//50 43//37 50//38 17//50
f 40//41 49//15 45//15 36//41
f 38//43 47//22 48//24 39//44
f 37//45 46//16 50//16 41//45
f 36//47 45//17 47//19 38//48
f 39//45 48//16 46//16 37//45
f 42//41 44//15 49//15 40//41
