# Blender v2.76 (sub 0) OBJ File: 'TimedExplosiveArrow.blend'
# www.blender.org
mtllib TimedExplosionArrow.mtl
o Cube_Cube.001
v 0.002987 0.260002 0.002987
v 0.002987 -0.293089 0.002987
v 0.002987 0.260002 -0.002987
v 0.002987 -0.293089 -0.002987
v -0.002987 0.260002 0.002987
v -0.002987 -0.293089 0.002987
v -0.002987 0.260002 -0.002987
v -0.002987 -0.293089 -0.002987
v 0.004258 -0.293089 0.000000
v 0.004258 0.260002 0.000000
v -0.004258 -0.293089 0.000000
v -0.004258 0.260002 0.000000
v -0.000000 -0.293089 -0.004301
v 0.000000 0.260002 -0.004301
v -0.000000 -0.293089 0.004301
v 0.000000 0.260002 0.004301
v -0.000000 -0.293089 0.000000
v 0.000000 0.260002 0.000000
v 0.002074 0.296548 0.002083
v 0.020742 0.249562 0.002083
v 0.002074 0.296548 -0.002066
v 0.020742 0.249562 -0.002066
v -0.002074 0.296548 0.002083
v -0.020742 0.249562 0.002083
v -0.002074 0.296548 -0.002066
v -0.020742 0.249562 -0.002066
v 0.000000 0.260290 -0.006746
v 0.000000 0.300411 -0.002066
v 0.000000 0.260290 0.006763
v 0.000000 0.300411 0.002083
v -0.025520 0.249562 0.000009
v 0.000000 0.255361 0.000009
v 0.025520 0.249562 0.000009
v 0.000000 0.303250 0.000009
v 0.004461 0.296548 0.000164
v -0.004461 0.296548 0.000009
v 0.001327 -0.216601 0.001245
v 0.001327 -0.281686 0.001245
v 0.001327 -0.216601 -0.001245
v 0.001327 -0.281686 -0.001245
v -0.001328 -0.216601 0.001245
v -0.001328 -0.281686 0.001245
v -0.001328 -0.216601 -0.001245
v -0.001328 -0.281686 -0.001245
v -0.000000 -0.300593 -0.020742
v -0.000000 -0.237868 -0.020742
v -0.000000 -0.300593 0.020742
v -0.000000 -0.237868 0.020742
v 0.020742 -0.300593 0.000000
v 0.020742 -0.237868 0.000000
v -0.020742 -0.300593 0.000000
v -0.020742 -0.237868 0.000000
v 0.002987 -0.000000 0.002987
v 0.002987 -0.000000 -0.002987
v -0.002987 0.000000 -0.002987
v -0.002987 0.000000 0.002987
v -0.004258 0.000000 0.000000
v 0.004258 -0.000000 0.000000
v 0.000000 0.000000 0.004301
v 0.000000 0.000000 -0.004301
v -0.011006 0.108750 0.011122
v -0.011006 0.221099 0.011122
v -0.011006 0.108750 -0.011122
v -0.011006 0.221099 -0.011122
v 0.011238 0.108750 0.011122
v 0.011238 0.221099 0.011122
v 0.011238 0.108750 -0.011122
v 0.011238 0.221099 -0.011122
v 0.000116 0.221099 -0.015570
v 0.000116 0.108750 -0.015570
v 0.000116 0.221099 0.015570
v 0.000116 0.108750 0.015570
v -0.014898 0.221099 -0.000000
v -0.014898 0.108750 -0.000000
v 0.015130 0.221099 -0.000000
v 0.015130 0.108750 -0.000000
v 0.000116 0.233553 -0.000000
v -0.011639 0.110994 0.005002
v 0.006233 0.108750 -0.014681
v 0.014491 0.221099 0.006117
v -0.014259 0.221099 -0.006117
v -0.014259 0.221099 0.006117
v 0.006233 0.221099 0.014681
v -0.014259 0.108750 -0.006117
v -0.006001 0.108750 0.014681
v 0.014491 0.108750 -0.006117
v -0.014259 0.108750 0.006117
v 0.014491 0.221099 -0.006117
v -0.006001 0.221099 0.014681
v 0.006233 0.221099 -0.014681
v 0.014491 0.108750 0.006117
v 0.006233 0.108750 0.014681
v -0.006001 0.221099 -0.014681
v -0.006001 0.108750 -0.014681
v -0.011539 0.219209 0.011655
v -0.011539 0.219209 -0.011655
v 0.011771 0.219209 -0.011655
v 0.011771 0.219209 0.011655
v 0.000116 0.219209 0.016317
v 0.000116 0.219209 -0.016317
v 0.015851 0.219209 0.000000
v -0.015618 0.219209 0.000000
v -0.006294 0.219209 0.015385
v -0.014948 0.219209 -0.006410
v 0.015180 0.219209 -0.006410
v 0.006527 0.219209 -0.015385
v 0.006527 0.219209 0.015385
v -0.014948 0.219209 0.006410
v 0.015180 0.219209 0.006410
v -0.006294 0.219209 -0.015385
v -0.011639 0.108750 0.005002
v -0.008979 0.108750 0.009095
v -0.004886 0.108750 -0.012005
v -0.008979 0.108750 -0.009095
v 0.011871 0.108750 -0.005002
v 0.009211 0.108750 -0.009095
v 0.005118 0.108750 0.012005
v 0.009211 0.108750 0.009095
v 0.005118 0.108750 -0.012005
v 0.000116 0.108750 -0.012733
v -0.004886 0.108750 0.012005
v 0.000116 0.108750 0.012733
v -0.011639 0.108750 -0.005002
v -0.012162 0.108750 0.000000
v 0.011871 0.108750 0.005002
v 0.012394 0.108750 0.000000
v -0.008979 0.110994 0.009095
v -0.004886 0.110994 -0.012005
v -0.008979 0.110994 -0.009095
v 0.011871 0.110994 -0.005002
v 0.009211 0.110994 -0.009095
v 0.005118 0.110994 0.012005
v 0.009211 0.110994 0.009095
v 0.005118 0.110994 -0.012005
v 0.000116 0.110994 -0.012733
v -0.004886 0.110994 0.012005
v 0.000116 0.110994 0.012733
v 0.000116 0.110994 0.000000
v -0.011639 0.110994 -0.005002
v -0.012162 0.110994 0.000000
v 0.011871 0.110994 0.005002
v 0.012394 0.110994 0.000000
vt 0.167963 0.999802
vt 0.147158 0.999803
vt 0.147146 -0.000012
vt 0.167948 -0.000013
vt 0.126244 0.999803
vt 0.105330 0.999803
vt 0.105320 -0.000012
vt 0.126233 -0.000012
vt 0.084526 0.999803
vt 0.063721 0.999804
vt 0.063716 -0.000012
vt 0.084518 -0.000012
vt 0.042807 0.999804
vt 0.021893 0.999804
vt 0.021890 -0.000012
vt 0.042803 -0.000012
vt 0.360569 0.075501
vt 0.385932 0.064706
vt 0.385679 0.085618
vt 0.371256 0.100611
vt 0.360569 0.025097
vt 0.385932 0.035892
vt 0.370686 0.050208
vt 0.349882 0.050208
vt 0.335205 0.014303
vt 0.335459 0.035215
vt 0.335205 0.086296
vt 0.350451 0.100611
vt 0.001088 0.999804
vt 0.001088 -0.000012
vt 0.335459 0.065384
vt 0.349882 0.050391
vt 0.350451 -0.000013
vt 0.371256 -0.000013
vt 0.385679 0.014980
vt 0.370686 0.050391
vt 0.384364 0.963005
vt 0.350839 0.974030
vt 0.479097 0.698486
vt 0.498058 0.702852
vt 0.722714 0.710658
vt 0.812971 0.623736
vt 0.835650 0.906590
vt 0.833155 0.930507
vt 0.656500 0.982279
vt 0.623624 0.969453
vt 0.523994 0.703558
vt 0.543757 0.699851
vt 0.504948 0.929099
vt 0.511574 0.682971
vt 0.512133 0.661538
vt 0.698829 0.663121
vt 0.599011 0.731207
vt 0.563995 0.735426
vt 0.837275 0.598172
vt 0.812478 0.918218
vt 0.503522 0.982279
vt 0.796452 0.931449
vt 0.842813 0.949683
vt 0.855109 0.901546
vt 0.885921 0.519934
vt 0.804046 0.467114
vt 0.804046 0.273608
vt 0.885921 0.333446
vt 0.804046 0.366064
vt 0.721820 0.289804
vt 0.721820 0.027282
vt 0.804046 0.113064
vt 0.804046 0.027282
vt 0.885921 0.080102
vt 0.885921 0.273608
vt 0.804046 0.213770
vt 0.557370 0.366064
vt 0.475145 0.289804
vt 0.475145 0.027282
vt 0.557370 0.113064
vt 0.407387 0.125753
vt 0.407387 0.285162
vt 0.391133 0.284402
vt 0.453071 0.236832
vt 0.437848 0.126712
vt 0.453071 0.125753
vt 0.391133 0.125753
vt 0.391133 0.285162
vt 0.374879 0.284402
vt 0.468295 0.236832
vt 0.453071 0.126712
vt 0.468295 0.125753
vt 0.557370 0.103543
vt 0.639595 0.027282
vt 0.639595 0.280283
vt 0.639595 0.366064
vt 0.639595 0.113064
vt 0.422617 0.250643
vt 0.407387 0.126606
vt 0.422617 0.125753
vt 0.437848 0.250643
vt 0.422617 0.126606
vt 0.437848 0.125753
vt 0.350469 0.125753
vt 0.358606 0.294897
vt 0.342332 0.294897
vt 0.366742 0.125753
vt 0.374879 0.294897
vt 0.967796 0.467114
vt 0.967796 0.273608
vt 0.967796 0.220788
vt 0.885921 0.087120
vt 0.967796 0.027282
vt 0.314217 0.999803
vt 0.293303 0.999803
vt 0.293298 -0.000012
vt 0.314211 -0.000012
vt 0.230779 0.999803
vt 0.209865 0.999803
vt 0.209868 -0.000012
vt 0.230781 -0.000012
vt 0.188951 0.999803
vt 0.168147 0.999803
vt 0.168153 -0.000013
vt 0.188955 -0.000012
vt 0.272389 0.999803
vt 0.251584 0.999803
vt 0.251583 -0.000012
vt 0.272385 -0.000012
vt 0.335022 0.999802
vt 0.335013 -0.000013
vt 0.963232 0.590458
vt 0.993540 0.589011
vt 0.991778 0.802649
vt 0.962857 0.804031
vt 0.743600 0.395667
vt 0.774323 0.394118
vt 0.772121 0.607677
vt 0.742805 0.609155
vt 0.449461 0.371881
vt 0.479770 0.370433
vt 0.478008 0.584072
vt 0.449087 0.585453
vt 0.609828 0.443723
vt 0.640551 0.442174
vt 0.638349 0.655733
vt 0.609033 0.657211
vt 0.859161 0.930434
vt 0.859161 0.898402
vt 0.871817 0.899884
vt 0.871817 0.926078
vt 0.654645 0.380854
vt 0.722373 0.301745
vt 0.678111 0.383091
vt 0.415607 0.360257
vt 0.383787 0.359610
vt 0.426860 0.278492
vt 0.974664 0.970165
vt 0.949796 0.985889
vt 0.945933 0.971426
vt 0.966269 0.958568
vt 0.542222 0.442749
vt 0.575258 0.443723
vt 0.576045 0.657211
vt 0.544521 0.656282
vt 0.651402 0.392348
vt 0.675994 0.394693
vt 0.678293 0.608226
vt 0.654827 0.605988
vt 0.907411 0.827177
vt 0.936132 0.825881
vt 0.934760 0.840580
vt 0.911273 0.841640
vt 0.448404 0.360257
vt 0.575863 0.432076
vt 0.588602 0.349801
vt 0.608850 0.432076
vt 0.963993 0.833802
vt 0.985419 0.854947
vt 0.975064 0.864348
vt 0.957543 0.847057
vt 0.356648 0.369200
vt 0.381744 0.371203
vt 0.384469 0.584806
vt 0.360522 0.582895
vt 0.870419 0.587778
vt 0.895515 0.589780
vt 0.898240 0.803384
vt 0.874292 0.801473
vt 0.873610 0.576276
vt 0.940631 0.497069
vt 0.897558 0.578187
vt 0.771939 0.382542
vt 0.742622 0.384020
vt 0.871787 0.958119
vt 0.882142 0.948718
vt 0.998045 0.882633
vt 0.998045 0.914664
vt 0.985389 0.913182
vt 0.985389 0.886988
vt 0.893214 0.979264
vt 0.899663 0.966009
vt 0.544339 0.431147
vt 0.991096 0.577453
vt 0.962175 0.578834
vt 0.709635 0.384020
vt 0.921075 0.987185
vt 0.922447 0.972486
vt 0.477326 0.358875
vt 0.992130 0.946002
vt 0.980552 0.938809
vt 0.865077 0.867064
vt 0.882542 0.842901
vt 0.890937 0.854498
vt 0.876655 0.874257
vt 0.929378 0.578834
vt 0.359840 0.357699
vt 0.638167 0.430598
vt 0.520873 0.428910
vt 0.928861 0.590458
vt 0.930060 0.804031
vt 0.415091 0.371881
vt 0.416289 0.585453
vt 0.709030 0.395667
vt 0.709817 0.609155
vt 0.517630 0.440404
vt 0.521055 0.654044
vt 0.388579 0.678901
vt 0.389159 0.729495
vt 0.369176 0.729803
vt 0.368595 0.679209
vt 0.366272 0.729495
vt 0.368595 0.774433
vt 0.348612 0.774741
vt 0.346289 0.729803
vt 0.368595 0.594504
vt 0.366272 0.630534
vt 0.346289 0.630842
vt 0.348612 0.594812
vt 0.434308 0.730377
vt 0.436351 0.774719
vt 0.416362 0.774996
vt 0.414319 0.730653
vt 0.413917 0.594504
vt 0.411874 0.631258
vt 0.391884 0.631534
vt 0.393928 0.594780
vt 0.391483 0.774433
vt 0.371499 0.774741
vt 0.391483 0.594504
vt 0.389159 0.630534
vt 0.369176 0.630842
vt 0.371499 0.594812
vt 0.411472 0.680072
vt 0.411874 0.730377
vt 0.391885 0.730653
vt 0.391483 0.680348
vt 0.436351 0.594504
vt 0.434308 0.631258
vt 0.414319 0.631534
vt 0.416362 0.594780
vt 0.365691 0.678901
vt 0.345708 0.679209
vt 0.433906 0.680072
vt 0.413917 0.680348
vt 0.413917 0.774719
vt 0.393928 0.774995
vt 0.429227 0.053882
vt 0.433618 0.006838
vt 0.449869 0.011458
vt 0.416865 0.007594
vt 0.396086 0.083972
vt 0.388722 0.067823
vt 0.469732 0.058624
vt 0.466281 0.076904
vt 0.456094 0.090998
vt 0.441588 0.100170
vt 0.408584 0.096306
vt 0.392172 0.030860
vt 0.402360 0.016766
vt 0.469732 0.039941
vt 0.424835 0.100926
vt 0.462367 0.023792
vt 0.388722 0.049139
vn 0.920100 -0.000000 -0.391600
vn -0.402700 0.000000 -0.915300
vn -0.920100 0.000000 0.391600
vn 0.402700 -0.000000 0.915300
vn 0.000000 1.000000 0.000000
vn -0.000000 -1.000000 0.000000
vn -0.920100 0.000000 -0.391600
vn 0.920100 -0.000000 0.391600
vn -0.402700 0.000000 0.915300
vn 0.402700 -0.000000 -0.915300
vn 0.477000 0.200200 0.855800
vn -0.265800 0.108400 -0.957900
vn -0.490200 0.207200 0.846600
vn 0.265800 0.108400 0.957900
vn -0.648300 0.401000 0.647300
vn -0.284600 -0.894300 -0.345300
vn 0.284600 -0.894300 -0.345300
vn 0.632400 0.400900 0.662900
vn -0.265800 0.108400 0.957900
vn 0.265800 0.108400 -0.957900
vn -0.284600 -0.894300 0.345300
vn 0.284600 -0.894300 0.345300
vn 0.503000 0.214000 -0.837400
vn 0.663100 0.400900 -0.632100
vn -0.648300 0.401000 -0.647300
vn -0.490200 0.207200 -0.846600
vn 0.064000 -0.000000 -0.998000
vn -0.997700 0.000000 -0.067900
vn -0.064000 0.000000 0.998000
vn 0.997700 -0.000000 0.067900
vn 0.000000 -0.717900 0.696100
vn 0.697700 -0.716400 0.000000
vn 0.000000 -0.717900 -0.696100
vn -0.697700 -0.716400 0.000000
vn -0.997700 0.000000 0.067900
vn 0.997700 -0.000000 -0.067900
vn 0.738500 0.674200 0.000000
vn -0.738500 0.674200 0.000000
vn 0.000000 0.675800 -0.737100
vn 0.000000 0.675800 0.737100
vn -0.064000 0.000000 -0.998000
vn 0.064000 -0.000000 0.998000
vn -0.838400 -0.006700 -0.545000
vn 0.579500 -0.006700 -0.814900
vn 0.838400 -0.006700 0.545000
vn -0.579500 -0.006700 0.814900
vn -0.362900 0.779700 -0.510300
vn 0.637000 0.768000 -0.066600
vn 0.143900 -0.006700 0.989600
vn -0.579500 -0.006700 -0.814900
vn 0.637000 0.768000 0.066600
vn -0.090500 0.777700 0.622100
vn 0.838400 -0.006700 -0.545000
vn -0.838400 -0.006700 0.545000
vn -0.527500 0.777300 0.342900
vn 0.362900 0.779700 -0.510300
vn 0.090500 0.777700 0.622100
vn -0.527500 0.777300 -0.342900
vn -0.090500 0.777700 -0.622100
vn 0.527500 0.777300 0.342900
vn 0.090500 0.777700 -0.622100
vn -0.637000 0.768000 -0.066600
vn 0.527500 0.777300 -0.342900
vn -0.362900 0.779700 0.510300
vn -0.637000 0.768000 0.066600
vn 0.362900 0.779700 0.510300
vn -0.143900 -0.006700 0.989600
vn -0.994600 -0.006500 -0.104000
vn 0.994600 -0.006500 -0.104000
vn 0.143900 -0.006700 -0.989600
vn 0.579500 -0.006700 0.814900
vn -0.994600 -0.006500 0.104000
vn 0.994600 -0.006500 0.104000
vn -0.143900 -0.006700 -0.989600
vn -0.134100 0.364100 -0.921700
vn 0.930100 0.354300 0.097200
vn -0.930100 0.354300 0.097200
vn 0.539300 0.366100 0.758400
vn 0.134100 0.364100 -0.921700
vn 0.930100 0.354300 -0.097200
vn -0.930100 0.354300 -0.097200
vn -0.134100 0.364100 0.921700
vn -0.781000 0.363600 0.507700
vn 0.781000 0.363600 -0.507700
vn -0.539300 0.366100 -0.758400
vn 0.134100 0.364100 0.921700
vn -0.539300 0.366100 0.758400
vn 0.781000 0.363600 0.507700
vn 0.539300 0.366100 -0.758400
vn -0.781000 0.363600 -0.507700
vn -0.143900 0.000000 0.989600
vn 0.579500 -0.000000 -0.815000
vn -0.579500 0.000000 -0.815000
vn 0.838400 0.000000 0.545000
vn -0.838400 0.000000 0.545000
vn -0.579500 0.000000 0.815000
vn 0.579500 -0.000000 0.815000
vn 0.143900 -0.000000 0.989600
vn -0.994600 0.000000 -0.104000
vn 0.838400 0.000000 -0.545000
vn -0.143900 0.000000 -0.989600
vn 0.994600 0.000000 0.104000
vn -0.838400 0.000000 -0.545000
vn 0.994600 0.000000 -0.104000
vn 0.143900 -0.000000 -0.989600
vn -0.994600 0.000000 0.104000
usemtl Material
s off
f 58/1/1 54/2/1 3/3/1 10/4/1
f 60/5/2 55/6/2 7/7/2 14/8/2
f 57/9/3 56/10/3 5/11/3 12/12/3
f 59/13/4 53/14/4 1/15/4 16/16/4
f 18/17/5 14/18/5 7/19/5 12/20/5
f 17/21/6 13/22/6 4/23/6 9/24/6
f 15/25/6 17/21/6 9/24/6 2/26/6
f 16/27/5 18/17/5 12/20/5 5/28/5
f 55/6/7 57/9/7 12/12/7 7/7/7
f 53/14/8 58/29/8 10/30/8 1/15/8
f 1/31/5 10/32/5 18/17/5 16/27/5
f 6/33/6 11/34/6 17/21/6 15/25/6
f 11/34/6 8/35/6 13/22/6 17/21/6
f 10/32/5 3/36/5 14/18/5 18/17/5
f 56/10/9 59/13/9 16/16/9 5/11/9
f 54/2/10 60/5/10 14/8/10 3/3/10
f 20/37/11 33/38/11 35/39/11 19/40/11
f 27/41/12 26/42/12 25/43/12 28/44/12
f 31/45/13 24/46/13 23/47/13 36/48/13
f 29/49/14 20/37/14 19/40/14 30/50/14
f 30/50/15 34/51/15 36/48/15 23/47/15
f 32/52/16 27/41/16 22/53/16 33/54/16
f 31/55/17 26/42/17 27/41/17 32/52/17
f 19/40/18 35/39/18 34/51/18 30/50/18
f 24/46/19 29/49/19 30/50/19 23/47/19
f 22/53/20 27/41/20 28/44/20 21/56/20
f 29/49/21 32/57/21 33/38/21 20/37/21
f 24/46/22 31/45/22 32/57/22 29/49/22
f 33/54/23 22/53/23 21/56/23 35/58/23
f 35/58/24 21/56/24 28/44/24 34/59/24
f 34/59/25 28/44/25 25/43/25 36/60/25
f 26/42/26 31/55/26 36/60/26 25/43/26
f 49/61/27 40/62/27 39/63/27 50/64/27
f 45/65/28 44/66/28 43/67/28 46/68/28
f 51/69/29 42/70/29 41/71/29 52/72/29
f 47/73/30 38/74/30 37/75/30 48/76/30
f 45/77/31 40/78/31 44/79/31
f 51/80/32 44/81/32 42/82/32
f 47/83/33 42/84/33 38/85/33
f 49/86/34 38/87/34 40/88/34
f 42/89/35 47/90/35 48/91/35 41/73/35
f 40/66/36 45/92/36 46/93/36 39/67/36
f 50/94/37 39/95/37 37/96/37
f 52/97/38 41/98/38 43/99/38
f 46/100/39 43/101/39 39/102/39
f 48/103/40 37/104/40 41/101/40
f 44/105/41 51/61/41 52/64/41 43/106/41
f 38/107/42 49/71/42 50/108/42 37/109/42
f 4/110/10 13/111/10 60/112/10 54/113/10
f 6/114/9 15/115/9 59/116/9 56/117/9
f 2/118/8 9/119/8 58/120/8 53/121/8
f 8/122/7 11/123/7 57/124/7 55/125/7
f 15/115/4 2/118/4 53/121/4 59/116/4
f 11/123/3 6/114/3 56/117/3 57/124/3
f 13/111/2 8/122/2 55/125/2 60/112/2
f 9/126/1 4/110/1 54/113/1 58/127/1
f 104/128/43 96/129/43 63/130/43 84/131/43
f 106/132/44 97/133/44 67/134/44 79/135/44
f 109/136/45 98/137/45 65/138/45 91/139/45
f 103/140/46 95/141/46 61/142/46 85/143/46
f 87/144/6 74/145/6 124/146/6 111/147/6
f 64/148/47 77/149/47 93/150/47
f 75/151/48 88/152/48 77/153/48
f 65/154/6 92/155/6 117/156/6 118/157/6
f 107/158/49 99/159/49 72/160/49 92/161/49
f 96/162/50 110/163/50 94/164/50 63/165/50
f 94/166/6 70/167/6 120/168/6 113/169/6
f 80/170/51 75/151/51 77/153/51
f 71/171/52 77/172/52 89/173/52
f 79/174/6 67/175/6 116/176/6 119/177/6
f 97/178/53 105/179/53 86/180/53 67/181/53
f 95/182/54 108/183/54 87/184/54 61/185/54
f 62/186/55 77/187/55 82/188/55
f 68/189/56 90/190/56 77/149/56
f 61/191/6 87/144/6 111/147/6 112/192/6
f 86/193/6 76/194/6 126/195/6 115/196/6
f 67/175/6 86/193/6 115/196/6 116/176/6
f 85/197/6 61/191/6 112/192/6 121/198/6
f 71/171/57 83/199/57 77/172/57
f 77/187/58 64/200/58 81/201/58
f 77/149/59 69/202/59 93/150/59
f 92/155/6 72/203/6 122/204/6 117/156/6
f 66/205/60 80/170/60 77/153/60
f 76/194/6 91/206/6 125/207/6 126/195/6
f 90/190/61 69/202/61 77/149/61
f 84/208/6 63/209/6 114/210/6 123/211/6
f 72/203/6 85/197/6 121/198/6 122/204/6
f 73/212/62 77/187/62 81/201/62
f 91/206/6 65/154/6 118/157/6 125/207/6
f 88/152/63 68/213/63 77/153/63
f 74/145/6 84/208/6 123/211/6 124/146/6
f 77/172/64 62/214/64 89/173/64
f 77/187/65 73/212/65 82/188/65
f 63/209/6 94/166/6 113/169/6 114/210/6
f 70/167/6 79/174/6 119/177/6 120/168/6
f 83/199/66 66/215/66 77/172/66
f 99/159/67 103/140/67 85/143/67 72/160/67
f 102/216/68 104/128/68 84/131/68 74/217/68
f 105/179/69 101/218/69 76/219/69 86/180/69
f 100/220/70 106/132/70 79/135/70 70/221/70
f 98/222/71 107/158/71 92/161/71 65/223/71
f 108/183/72 102/216/72 74/217/72 87/184/72
f 101/218/73 109/136/73 91/139/73 76/219/73
f 110/163/74 100/220/74 70/221/74 94/164/74
f 93/150/75 69/202/75 100/220/75 110/163/75
f 75/151/76 80/170/76 109/136/76 101/218/76
f 82/188/77 73/212/77 102/216/77 108/183/77
f 66/215/78 83/199/78 107/158/78 98/222/78
f 69/202/79 90/190/79 106/132/79 100/220/79
f 88/152/80 75/151/80 101/218/80 105/179/80
f 73/212/81 81/201/81 104/128/81 102/216/81
f 71/171/82 89/173/82 103/140/82 99/159/82
f 62/186/83 82/188/83 108/183/83 95/182/83
f 68/213/84 88/152/84 105/179/84 97/178/84
f 64/148/85 93/150/85 110/163/85 96/162/85
f 83/199/86 71/171/86 99/159/86 107/158/86
f 89/173/87 62/214/87 95/141/87 103/140/87
f 80/170/88 66/205/88 98/137/88 109/136/88
f 90/190/89 68/189/89 97/133/89 106/132/89
f 81/201/90 64/200/90 96/129/90 104/128/90
f 120/224/91 119/225/91 134/226/91 135/227/91
f 121/228/92 112/229/92 127/230/92 136/231/92
f 118/232/93 117/233/93 132/234/93 133/235/93
f 123/236/94 114/237/94 129/238/94 139/239/94
f 116/240/95 115/241/95 130/242/95 131/243/95
f 119/225/96 116/244/96 131/245/96 134/226/96
f 114/246/97 113/247/97 128/248/97 129/249/97
f 113/247/98 120/224/98 135/227/98 128/248/98
f 126/250/99 125/251/99 141/252/99 142/253/99
f 112/254/100 111/255/100 78/256/100 127/257/100
f 117/233/101 122/258/101 137/259/101 132/234/101
f 124/260/102 123/236/102 139/239/102 140/261/102
f 125/251/103 118/262/103 133/263/103 141/252/103
f 111/255/104 124/260/104 140/261/104 78/256/104
f 122/258/105 121/228/105 136/231/105 137/259/105
f 115/241/106 126/250/106 142/253/106 130/242/106
f 138/264/6 135/265/6 134/266/6
f 128/267/6 135/265/6 138/264/6
f 127/268/6 78/269/6 138/264/6
f 138/264/6 142/270/6 141/271/6
f 138/264/6 133/272/6 132/273/6
f 136/274/6 127/268/6 138/264/6
f 139/275/6 129/276/6 138/264/6
f 142/270/6 138/264/6 130/277/6
f 129/276/6 128/267/6 138/264/6
f 133/272/6 138/264/6 141/271/6
f 137/278/6 136/274/6 138/264/6
f 138/264/6 131/279/6 130/277/6
f 131/279/6 138/264/6 134/266/6
f 78/269/6 140/280/6 138/264/6
f 137/278/6 138/264/6 132/273/6
f 140/280/6 139/275/6 138/264/6
