#name "Intro"
#participants 4

say 0 "Ano" "..."
say 0 "Ano" "..."
say 1 "Ano" "Amos must be done laying the bombs."
say 1 "Ano" "What was it I told him? [wait 0.4]That he'd survive?"
say 1 "Ano" "...[wait 0.3]well, [wait 0.5]sorry, [wait 0.2]Amos. [wait 0.3]It has to be like this. [wait 0.5]You wouldn't have done it any other way."
say 0 "Ano" "..."
say 0 "Ano" "..."
say 0 "" "..."
say 2 "???" "What are you doing here?"
say 3 "????" "How'd you get in, [wait 0.2]huh!?"
say 2 "???" "He must've climbed the walls. [wait 0.4]Truiot endral lerrah bru quoi uerta trut kaicalk."
say 4 "Amos" "I'm here to kill you all. [wait 0.3]It's too late to stop me."
say 3 "????" "Hah! [wait 0.3]Uerta bru quoi yelle bereu kaicalk fuiot!"
say 2 "???" "Hehe, [wait 0.5]sorry, [wait 0.2]shorttail."
say 2 "???" "You won't survive this."
