#name "Second"
#participants 4

say 3 "????" "Damnit! [wait 0.5]Another one!"
say 2 "???" "He wasn't joking -- [wait 0.2]we need backup!"
say 3 "????" "They're all in the damn mess hall, [wait 0.3]della buoru fuit kaicalk!"
say 1 "Amos" "Shut up [wait 0.1]and die already!"
