# Blender v2.75 (sub 0) OBJ File: 'Jar.blend'
# www.blender.org
mtllib Jar.mtl
o Cylinder
v -0.009804 0.238992 -0.045922
v -0.040609 0.238700 -0.037668
v -0.034359 0.239883 -0.026843
v -0.009804 0.239883 -0.033423
v -0.009804 0.237185 -0.049089
v -0.063159 0.238700 -0.015117
v -0.052334 0.239883 -0.008868
v 0.021000 0.238992 -0.037668
v 0.014751 0.239883 -0.026843
v -0.026822 0.239883 0.036314
v -0.026822 0.239883 0.031774
v -0.022890 0.239883 0.029505
v -0.018959 0.239883 0.031774
v -0.026593 0.239883 0.009782
v -0.026593 0.239883 0.014322
v -0.030524 0.239883 0.016591
v -0.034455 0.239883 0.014322
v -0.058914 0.239883 0.015687
v -0.052334 0.239883 0.040242
v 0.005396 0.239883 0.001781
v 0.001464 0.239883 0.004050
v -0.002467 0.239883 0.001781
v -0.034455 0.239883 0.009782
v -0.030524 0.239883 0.007513
v 0.005463 0.239883 0.033313
v 0.001532 0.239883 0.031043
v -0.009804 0.239883 0.064797
v 0.014751 0.239883 0.058217
v 0.032726 0.239883 0.040242
v 0.039305 0.239883 0.015687
v 0.032726 0.239883 -0.008868
v 0.005463 0.239883 0.024234
v 0.009394 0.239883 0.026504
v 0.009394 0.239883 0.031043
v -0.022890 0.239883 0.038583
v -0.034359 0.239883 0.058217
v 0.001532 0.239883 0.026504
v -0.002467 0.239883 -0.002758
v 0.001464 0.239883 -0.005028
v 0.005396 0.239883 -0.002758
v -0.018959 0.239883 0.036314
v 0.022584 0.237185 -0.040411
v -0.042193 0.237185 -0.040411
v -0.065902 0.237185 -0.016701
v -0.071413 0.238700 0.015687
v 0.043551 0.238700 -0.015117
v -0.063159 0.238700 0.046492
v -0.040609 0.238700 0.069042
v -0.009804 0.238992 0.077296
v 0.021000 0.238992 0.069042
v 0.043551 0.238700 0.046492
v 0.051805 0.238700 0.015687
v 0.046294 0.237185 -0.016701
v 0.022584 0.232727 -0.040411
v -0.009804 0.232727 -0.049089
v -0.042193 0.232727 -0.040411
v -0.065902 0.232727 -0.016701
v -0.074581 0.237185 0.015687
v -0.065902 0.237185 0.048075
v -0.042192 0.237185 0.071785
v -0.009804 0.237185 0.080463
v 0.022584 0.237185 0.071785
v 0.046294 0.237185 0.048075
v 0.054972 0.237185 0.015687
v 0.046294 0.232727 -0.016701
v 0.021818 0.229963 -0.039083
v -0.009804 0.229963 -0.047557
v -0.041426 0.229963 -0.039083
v -0.064575 0.229963 -0.015935
v -0.074581 0.232727 0.015687
v -0.065902 0.232727 0.048075
v -0.042192 0.232727 0.071785
v -0.009804 0.232727 0.080463
v 0.022584 0.232727 0.071785
v 0.046294 0.232727 0.048075
v 0.054972 0.232727 0.015687
v 0.044966 0.229963 -0.015935
v 0.018675 0.226754 -0.033641
v -0.009804 0.226754 -0.041272
v -0.038284 0.226754 -0.033641
v -0.059133 0.226754 -0.012793
v -0.073048 0.229963 0.015687
v -0.064575 0.229963 0.047309
v -0.041426 0.229963 0.070458
v -0.009804 0.229963 0.078931
v 0.021818 0.229963 0.070458
v 0.044966 0.229963 0.047309
v 0.053439 0.229963 0.015687
v 0.039524 0.226754 -0.012793
v -0.009804 0.224694 -0.039594
v 0.017836 0.224694 -0.032188
v -0.037445 0.224694 -0.032188
v -0.057679 0.224694 -0.011954
v -0.066764 0.226754 0.015687
v -0.059133 0.226754 0.044167
v -0.038284 0.226754 0.065015
v -0.009804 0.226754 0.072647
v 0.018675 0.226754 0.065015
v 0.039524 0.226754 0.044167
v 0.047155 0.226754 0.015687
v 0.038071 0.224694 -0.011954
v 0.019931 0.225111 -0.035817
v -0.009804 0.225111 -0.043784
v -0.039540 0.225111 -0.035817
v -0.061308 0.225111 -0.014049
v -0.065086 0.224694 0.015687
v -0.057679 0.224694 0.043328
v -0.037445 0.224694 0.063562
v 0.017836 0.224694 0.063562
v -0.009804 0.224694 0.070968
v 0.045477 0.224694 0.015687
v 0.038071 0.224694 0.043328
v 0.041700 0.225111 -0.014049
v 0.020483 0.215788 -0.036772
v -0.009804 0.215788 -0.044887
v -0.040091 0.215788 -0.036772
v -0.062263 0.215788 -0.014600
v -0.069276 0.225111 0.015687
v -0.061308 0.225111 0.045423
v -0.039540 0.225111 0.067191
v -0.009804 0.225111 0.075158
v 0.019931 0.225111 0.067191
v 0.041700 0.225111 0.045423
v 0.049667 0.225111 0.015687
v 0.042655 0.215788 -0.014600
v 0.027579 0.205758 -0.049063
v -0.009804 0.205758 -0.059080
v -0.047188 0.205758 -0.049063
v -0.074554 0.205758 -0.021696
v -0.070378 0.215788 0.015687
v -0.062263 0.215788 0.045974
v -0.040091 0.215788 0.068146
v -0.009804 0.215788 0.076261
v 0.020483 0.215788 0.068146
v 0.042655 0.215788 0.045974
v 0.050770 0.215788 0.015687
v 0.054946 0.205758 -0.021696
v 0.033362 0.190712 -0.059079
v -0.009804 0.190712 -0.070645
v -0.052970 0.190712 -0.059079
v -0.084570 0.190712 -0.027479
v -0.084571 0.205758 0.015687
v -0.074554 0.205758 0.053070
v -0.047188 0.205758 0.080437
v -0.009804 0.205758 0.090454
v 0.027579 0.205758 0.080437
v 0.054946 0.205758 0.053070
v 0.064963 0.205758 0.015687
v 0.064962 0.190712 -0.027479
v -0.009804 0.017277 -0.070645
v 0.033362 0.017277 -0.059079
v -0.052970 0.017277 -0.059079
v -0.084570 0.017277 -0.027479
v -0.096136 0.190712 0.015687
v -0.084570 0.190712 0.058853
v -0.052970 0.190712 0.090453
v -0.009804 0.190712 0.102019
v 0.033362 0.190712 0.090453
v 0.064962 0.190712 0.058853
v 0.076528 0.190712 0.015687
v 0.064962 0.017277 -0.027479
v 0.027385 0.004546 -0.048727
v -0.009804 0.004546 -0.058692
v -0.046994 0.004546 -0.048727
v -0.074219 0.004546 -0.021502
v -0.096136 0.017277 0.015687
v -0.084570 0.017277 0.058853
v -0.052970 0.017277 0.090453
v 0.033362 0.017277 0.090453
v -0.009804 0.017277 0.102019
v 0.076528 0.017277 0.015687
v 0.064962 0.017277 0.058853
v 0.054610 0.004546 -0.021503
v 0.000905 -0.000854 -0.002862
v -0.009804 -0.000854 -0.005731
v -0.020513 -0.000854 -0.002862
v -0.084183 0.004546 0.015687
v -0.028353 -0.000854 0.004978
v -0.074219 0.004546 0.052877
v -0.046994 0.004546 0.080101
v -0.009804 0.004546 0.090066
v 0.027385 0.004546 0.080101
v 0.054610 0.004546 0.052877
v 0.064575 0.004546 0.015687
v 0.008745 -0.000854 0.004978
v 0.011614 -0.000854 0.015687
v 0.008745 -0.000854 0.026396
v 0.000905 -0.000854 0.034236
v -0.009804 -0.000854 0.037105
v -0.020513 -0.000854 0.034236
v -0.028353 -0.000854 0.026396
v -0.031223 -0.000854 0.015687
v 0.031373 0.018555 -0.055634
v 0.031344 0.189596 -0.055584
v -0.009804 0.189596 -0.066610
v -0.009804 0.018555 -0.066667
v -0.009804 0.007869 -0.056537
v 0.026308 0.007869 -0.046861
v 0.061517 0.018555 -0.025490
v 0.061467 0.189596 -0.025461
v 0.026034 0.203129 -0.046386
v -0.009804 0.203129 -0.055989
v -0.050953 0.189596 -0.055584
v -0.050982 0.018555 -0.055634
v -0.045916 0.007869 -0.046861
v -0.009804 0.003004 -0.005460
v 0.000769 0.003004 -0.002626
v 0.052743 0.007869 -0.020425
v 0.072550 0.018555 0.015687
v 0.072493 0.189596 0.015687
v 0.052269 0.203129 -0.020151
v 0.018682 0.213781 -0.033652
v -0.009804 0.213781 -0.041285
v -0.045642 0.203129 -0.046386
v -0.081076 0.189596 -0.025461
v -0.081125 0.018555 -0.025490
v -0.072352 0.007869 -0.020425
v -0.020378 0.003004 -0.002626
v -0.028118 0.003004 0.005114
v -0.030951 0.003004 0.015687
v -0.028118 0.003004 0.026260
v -0.020378 0.003004 0.034001
v -0.009804 0.003004 0.036834
v 0.000769 0.003004 0.034001
v 0.008509 0.003004 0.026260
v 0.011342 0.003004 0.015687
v 0.008509 0.003004 0.005114
v 0.062420 0.007869 0.015687
v 0.061517 0.018555 0.056864
v 0.061467 0.189596 0.056836
v 0.061872 0.203129 0.015687
v 0.039535 0.213781 -0.012799
v 0.019968 0.203228 -0.035879
v -0.009804 0.203228 -0.043857
v -0.038290 0.213781 -0.033652
v -0.071877 0.203129 -0.020151
v -0.092101 0.189596 0.015687
v -0.092159 0.018555 0.015687
v -0.082028 0.007869 0.015687
v -0.072352 0.007869 0.051799
v -0.045916 0.007869 0.078235
v -0.009804 0.007869 0.087911
v 0.026308 0.007869 0.078235
v 0.052743 0.007869 0.051799
v 0.031373 0.018555 0.087008
v 0.031344 0.189596 0.086958
v 0.052269 0.203129 0.051525
v 0.047167 0.213781 0.015687
v 0.041762 0.203228 -0.014085
v 0.014282 0.199500 -0.026031
v -0.009804 0.199500 -0.032485
v -0.039576 0.203228 -0.035879
v -0.059143 0.213781 -0.012799
v -0.081480 0.203129 0.015687
v -0.081076 0.189596 0.056836
v -0.081125 0.018555 0.056864
v -0.050981 0.018555 0.087008
v -0.009804 0.018555 0.098041
v -0.009804 0.189596 0.097984
v 0.026034 0.203129 0.077760
v 0.039535 0.213781 0.044173
v 0.049739 0.203228 0.015687
v 0.031914 0.199500 -0.008399
v -0.026822 0.199500 0.036314
v -0.030524 0.199500 0.016591
v -0.026593 0.199500 0.014322
v -0.026593 0.199500 0.009782
v -0.002467 0.199500 0.001781
v 0.001464 0.199500 0.004050
v 0.005396 0.199500 0.001781
v 0.005396 0.199500 -0.002758
v 0.009394 0.199500 0.026504
v 0.005463 0.199500 0.024234
v 0.001532 0.199500 0.026504
v 0.001532 0.199500 0.031043
v -0.018959 0.199500 0.031774
v -0.022890 0.199500 0.029505
v -0.026822 0.199500 0.031774
v -0.034455 0.199500 0.014322
v -0.057977 0.199500 0.015687
v -0.051523 0.199500 -0.008399
v -0.033890 0.199500 -0.026031
v 0.009394 0.199500 0.031043
v 0.001464 0.199500 -0.005028
v -0.002467 0.199500 -0.002758
v -0.030524 0.199500 0.007513
v -0.034455 0.199500 0.009782
v -0.022890 0.199500 0.038583
v -0.018959 0.199500 0.036314
v 0.005463 0.199500 0.033313
v 0.038368 0.199500 0.015687
v 0.031914 0.199500 0.039773
v 0.014282 0.199500 0.057406
v -0.009804 0.199500 0.063859
v -0.033890 0.199500 0.057406
v -0.051523 0.199500 0.039773
v -0.061371 0.203228 -0.014085
v -0.066776 0.213781 0.015687
v -0.071877 0.203129 0.051525
v -0.050953 0.189596 0.086958
v -0.009804 0.203129 0.087363
v 0.018682 0.213781 0.065026
v 0.041762 0.203228 0.045459
v 0.019968 0.203228 0.067253
v -0.009804 0.203228 0.075231
v -0.039576 0.203228 0.067253
v -0.061370 0.203228 0.045459
v -0.069348 0.203228 0.015687
v -0.059143 0.213781 0.044173
v -0.045642 0.203129 0.077760
v -0.009804 0.213781 0.072659
v -0.038290 0.213781 0.065026
vt 0.690513 0.149740
vt 0.687186 0.161636
vt 0.646276 0.150699
vt 0.626331 0.234625
vt 0.524675 0.171147
vt 0.621446 0.157074
vt 0.702637 0.248348
vt 0.757309 0.299844
vt 0.694975 0.334329
vt 0.632092 0.255229
vt 0.696876 0.227744
vt 0.693549 0.239639
vt 0.806974 0.519116
vt 0.863041 0.556475
vt 0.859188 0.570788
vt 0.782073 0.512473
vt 0.655256 0.531287
vt 0.696138 0.460792
vt 0.884090 0.577431
vt 0.887942 0.563118
vt 0.960398 0.612688
vt 0.694975 0.076935
vt 0.702928 0.146552
vt 0.637187 0.141990
vt 0.622998 0.076935
vt 0.696275 0.170344
vt 0.630534 0.165782
vt 0.642949 0.162594
vt 0.624773 0.145178
vt 0.635419 0.243333
vt 0.560664 0.111419
vt 0.524675 0.240116
vt 0.622998 0.334329
vt 0.718378 0.233264
vt 0.709290 0.224556
vt 0.793297 0.171147
vt 0.715052 0.245160
vt 0.793297 0.240116
vt 0.708689 0.167156
vt 0.757309 0.111419
vt 0.613916 0.237813
vt 0.712016 0.155261
vt 0.610590 0.249708
vt 0.560664 0.299844
vt 0.619678 0.258417
vt 0.765737 0.607588
vt 0.823900 0.630253
vt 0.809523 0.634089
vt 0.805671 0.648402
vt 0.816196 0.658880
vt 0.761884 0.621902
vt 0.869713 0.581266
vt 0.755212 0.597110
vt 0.792597 0.522951
vt 0.810826 0.504803
vt 0.877418 0.552640
vt 0.800302 0.494325
vt 0.740835 0.600946
vt 0.736983 0.615259
vt 0.747508 0.625737
vt 0.696138 0.683183
vt 0.655256 0.612688
vt 0.785925 0.498160
vt 0.766946 0.420092
vt 0.834425 0.640732
vt 0.766946 0.723883
vt 0.919517 0.683183
vt 0.848708 0.723883
vt 0.830572 0.655045
vt 0.919517 0.460792
vt 0.960398 0.531287
vt 0.848708 0.420092
vt 0.490490 0.248891
vt 0.474578 0.153630
vt 0.524118 0.065569
vt 0.530738 0.072354
vt 0.535638 0.087437
vt 0.535638 0.323821
vt 0.474578 0.255314
vt 0.483621 0.156108
vt 0.609922 0.014727
vt 0.612346 0.023998
vt 0.613837 0.044176
vt 0.704134 0.044176
vt 0.782333 0.087437
vt 0.827481 0.162368
vt 0.827481 0.248891
vt 0.782333 0.323820
vt 0.704134 0.367081
vt 0.613837 0.367081
vt 0.016289 0.812514
vt 0.022332 0.799698
vt 0.105325 0.830158
vt 0.889653 0.868352
vt 0.883224 0.856936
vt 0.957826 0.823462
vt 0.807724 0.914488
vt 0.801296 0.903072
vt 0.709000 0.014727
vt 0.706579 0.023998
vt 0.530737 0.336576
vt 0.524117 0.343375
vt 0.794804 0.065569
vt 0.788187 0.072354
vt 0.844342 0.153630
vt 0.835304 0.156109
vt 0.844342 0.255314
vt 0.794804 0.343375
vt 0.788188 0.336574
vt 0.709000 0.394217
vt 0.609922 0.394217
vt 0.612346 0.384932
vt 0.099281 0.842974
vt 0.197194 0.873733
vt 0.015290 0.822339
vt 0.965828 0.843866
vt 0.892991 0.876547
vt 0.813002 0.921592
vt 0.740422 0.960925
vt 0.733993 0.949509
vt 0.904837 0.765404
vt 0.897451 0.753313
vt 0.948102 0.738700
vt 0.825494 0.804445
vt 0.818108 0.792354
vt 0.835304 0.252820
vt 0.667763 0.910223
vt 0.660377 0.898131
vt 0.731333 0.845361
vt 0.706579 0.384932
vt 0.267280 0.931562
vt 0.273324 0.918746
vt 0.313315 0.953136
vt 0.191150 0.886549
vt 0.186013 0.894622
vt 0.096318 0.852078
vt 0.626963 0.620585
vt 0.626963 0.521307
vt 0.644898 0.526239
vt 0.675329 0.706562
vt 0.644898 0.615652
vt 0.759103 0.756201
vt 0.688459 0.693087
vt 0.747292 0.966930
vt 0.906882 0.775058
vt 0.955488 0.750791
vt 0.829417 0.813175
vt 0.738719 0.857452
vt 0.675418 0.916449
vt 0.631639 0.948616
vt 0.624253 0.936525
vt 0.260342 0.938569
vt 0.307272 0.965952
vt 0.675330 0.435330
vt 0.688459 0.448805
vt 0.725435 0.914571
vt 0.718808 0.910137
vt 0.782808 0.865978
vt 0.796733 0.890706
vt 0.725791 0.922537
vt 0.874643 0.846833
vt 0.794287 0.883677
vt 0.763909 0.737793
vt 0.851031 0.737793
vt 0.939610 0.706562
vt 0.855836 0.756201
vt 0.926480 0.693087
vt 0.970041 0.615653
vt 0.744695 0.864928
vt 0.939610 0.435330
vt 0.987977 0.521307
vt 0.970041 0.526239
vt 0.640149 0.953935
vt 0.855836 0.385691
vt 0.851031 0.404098
vt 0.763909 0.404098
vt 0.759103 0.385691
vt 0.860718 0.822105
vt 0.863164 0.829133
vt 0.932016 0.798239
vt 0.938643 0.802673
vt 0.849747 0.732877
vt 0.987977 0.620585
vt 0.903507 0.896742
vt 0.901061 0.889714
vt 0.972003 0.857883
vt 0.759151 0.977746
vt 0.823151 0.933587
vt 0.827893 0.939323
vt 0.765192 0.409014
vt 0.931660 0.790273
vt 0.926480 0.448805
vt 0.922974 0.452404
vt 0.142808 0.521594
vt 0.236278 0.521594
vt 0.234259 0.556328
vt 0.067376 0.563403
vt 0.061861 0.528988
vt 0.508531 0.984616
vt 0.499623 0.952165
vt 0.424004 0.952165
vt 0.317225 0.528988
vt 0.015126 0.541796
vt 0.565112 0.915325
vt 0.358515 0.915324
vt 0.334114 0.939079
vt 0.311710 0.563403
vt 0.363960 0.541796
vt 0.189543 0.632290
vt 0.270490 0.639685
vt 0.264975 0.674099
vt 0.602921 0.851514
vt 0.589478 0.939079
vt 0.636213 0.769132
vt 0.602921 0.777833
vt 0.565112 0.714023
vt 0.499623 0.677182
vt 0.589478 0.690260
vt 0.415062 0.644723
vt 0.424004 0.677182
vt 0.358515 0.714023
vt 0.320706 0.777833
vt 0.334115 0.690260
vt 0.287380 0.860206
vt 0.320706 0.851514
vt 0.015126 0.588047
vt 0.062388 0.577231
vt 0.066362 0.611846
vt 0.096073 0.632290
vt 0.187524 0.667024
vt 0.015126 0.639685
vt 0.098092 0.667024
vt 0.236970 0.577231
vt 0.317511 0.588047
vt 0.310466 0.622195
vt 0.143589 0.573272
vt 0.233404 0.611846
vt 0.144056 0.608058
vt 0.447741 0.711179
vt 0.447741 0.918751
vt 0.432690 0.918751
vt 0.432690 0.711179
vt 0.402587 0.918751
vt 0.558788 0.620840
vt 0.612052 0.420218
vt 0.641147 0.427943
vt 0.402587 0.711179
vt 0.387536 0.918751
vt 0.522998 0.918751
vt 0.522998 0.711179
vt 0.538049 0.711179
vt 0.492895 0.918751
vt 0.492895 0.711179
vt 0.867172 0.387224
vt 0.850342 0.180336
vt 0.865344 0.179115
vt 0.882174 0.386004
vt 0.895348 0.176675
vt 0.943128 0.205786
vt 0.809905 0.046608
vt 0.832990 0.027287
vt 0.912177 0.383563
vt 0.910350 0.175454
vt 0.477844 0.918751
vt 0.477844 0.711179
vt 0.044450 0.848210
vt 0.231964 0.937228
vt 0.225510 0.950825
vt 0.037995 0.861807
vt 0.212600 0.978019
vt 0.529693 0.613115
vt 0.582958 0.412494
vt 0.025085 0.889001
vt 0.206145 0.991616
vt 0.706555 0.823226
vt 0.609000 0.640008
vt 0.622286 0.632934
vt 0.679984 0.837374
vt 0.582429 0.654155
vt 0.933512 0.419939
vt 0.933512 0.212368
vt 0.948563 0.212368
vt 0.948563 0.419939
vt 0.978666 0.212368
vt 0.966213 0.186465
vt 0.856074 0.007967
vt 0.978666 0.419939
vt 0.993717 0.212368
vt 0.515145 0.609253
vt 0.568410 0.408631
vt 0.486051 0.601528
vt 0.539315 0.400907
vt 0.490490 0.162368
vt 0.483621 0.252819
vt 0.964255 0.834877
vt 0.956334 0.760791
vt 0.299387 0.972145
vt 0.787550 0.871714
vt 0.869901 0.841097
vt 0.922974 0.689488
vt 0.972359 0.865849
vt 0.765778 0.982181
vt 0.849747 0.409014
vt 0.144827 0.556328
vt 0.415061 0.984616
vt 0.022659 0.575657
vt 0.356426 0.575657
vt 0.636213 0.860207
vt 0.508531 0.644723
vt 0.287380 0.769132
vt 0.021142 0.622195
vt 0.020641 0.674099
vt 0.587882 0.628564
vt 0.387536 0.711179
vt 0.538049 0.918751
vt 0.927179 0.382343
vt 0.018630 0.902598
vt 0.719841 0.816152
vt 0.989297 0.167145
vt 0.993717 0.419939
vt 0.101639 0.962063
vt 0.085321 0.995629
vt 0.004453 0.952606
vt 0.023170 0.920316
vt 0.470244 0.561468
vt 0.471603 0.598766
vt 0.380002 0.598766
vt 0.381361 0.561468
vt 0.182010 0.737983
vt 0.183368 0.775281
vt 0.091768 0.775281
vt 0.093127 0.737983
vt 0.311902 0.690242
vt 0.285396 0.663967
vt 0.352210 0.601304
vt 0.376734 0.629439
vt 0.220806 0.828225
vt 0.183509 0.829584
vt 0.183509 0.737983
vt 0.220806 0.739343
vt 0.093126 0.737843
vt 0.091768 0.700545
vt 0.183368 0.700545
vt 0.182009 0.737843
vt 0.864062 0.985046
vt 0.844548 0.953231
vt 0.924323 0.908213
vt 0.941470 0.941363
vt 0.184868 0.737843
vt 0.183509 0.700545
vt 0.275109 0.700545
vt 0.273750 0.737843
vt 0.381361 0.561328
vt 0.380002 0.524030
vt 0.471603 0.524030
vt 0.470244 0.561328
vt 0.905124 0.040505
vt 0.932603 0.015249
vt 0.992094 0.084902
vt 0.962850 0.108092
vt 0.220947 0.739343
vt 0.258244 0.737983
vt 0.258244 0.829584
vt 0.220947 0.828225
vt 0.054329 0.701904
vt 0.091627 0.700545
vt 0.091627 0.792146
vt 0.054329 0.790787
vt 0.167190 0.472971
vt 0.156332 0.452906
vt 0.159187 0.452090
vt 0.156332 0.429737
vt 0.159187 0.430553
vt 0.167190 0.409672
vt 0.169280 0.411901
vt 0.169280 0.470741
vt 0.186761 0.481509
vt 0.453440 0.050497
vt 0.463017 0.050251
vt 0.463568 0.073260
vt 0.453440 0.023436
vt 0.463017 0.023682
vt 0.454001 0.000000
vt 0.463568 0.000673
vt 0.185996 0.398087
vt 0.186761 0.401133
vt 0.207712 0.398087
vt 0.206947 0.401133
vt 0.226518 0.409672
vt 0.224428 0.411901
vt 0.237376 0.452906
vt 0.234521 0.452090
vt 0.234521 0.430553
vt 0.226518 0.472971
vt 0.207712 0.484555
vt 0.206947 0.481509
vt 0.185996 0.484555
vt 0.448717 0.189791
vt 0.458284 0.190464
vt 0.457734 0.213473
vt 0.260379 0.460559
vt 0.271697 0.457389
vt 0.284639 0.480824
vt 0.260379 0.427157
vt 0.271697 0.430327
vt 0.276354 0.398230
vt 0.284639 0.406892
vt 0.458284 0.287160
vt 0.448707 0.287406
vt 0.448156 0.264397
vt 0.458284 0.314221
vt 0.448707 0.313975
vt 0.237376 0.429737
vt 0.457723 0.337657
vt 0.448156 0.336984
vt 0.224428 0.470741
vt 0.453440 0.097369
vt 0.463017 0.097615
vt 0.463017 0.124183
vt 0.448156 0.240288
vt 0.457734 0.240042
vt 0.458284 0.263051
vt 0.448156 0.213227
vt 0.276354 0.489486
vt 0.307057 0.494355
vt 0.265714 0.174643
vt 0.268526 0.189155
vt 0.237044 0.189791
vt 0.307691 0.174643
vt 0.304879 0.189155
vt 0.344043 0.175378
vt 0.336361 0.189791
vt 0.304025 0.381529
vt 0.307057 0.393361
vt 0.335976 0.381529
vt 0.332943 0.393361
vt 0.453440 0.124430
vt 0.463568 0.147193
vt 0.363646 0.398230
vt 0.355361 0.406892
vt 0.454001 0.073933
vt 0.463568 0.074606
vt 0.379621 0.427157
vt 0.379621 0.460559
vt 0.368304 0.457389
vt 0.335975 0.506186
vt 0.332943 0.494355
vt 0.355361 0.480824
vt 0.304025 0.506186
vt 0.114681 0.175378
vt 0.106999 0.189791
vt 0.075517 0.189155
vt 0.229362 0.175378
vt 0.229362 0.012324
vt 0.265714 0.011589
vt 0.307691 0.011589
vt 0.036352 0.364435
vt 0.039164 0.378946
vt 0.007682 0.379583
vt 0.078329 0.364435
vt 0.075517 0.378946
vt 0.368304 0.430327
vt 0.114681 0.365169
vt 0.106999 0.379583
vt 0.363646 0.489486
vt 0.193010 0.015148
vt 0.151033 0.015148
vt 0.153845 0.000636
vt 0.036352 0.174643
vt 0.039164 0.189155
vt 0.007682 0.189791
vt 0.078329 0.174643
vt 0.078329 0.011589
vt 0.237301 0.000633
vt 0.268620 0.000000
vt 0.304785 0.000000
vt 0.344043 0.012324
vt 0.000000 0.365169
vt 0.000000 0.202115
vt 0.036352 0.201380
vt 0.190198 0.000636
vt 0.221680 0.000000
vt 0.078329 0.201380
vt 0.114681 0.014414
vt 0.122363 0.000000
vt 0.193010 0.178202
vt 0.000000 0.175378
vt 0.000000 0.012324
vt 0.036352 0.011589
vt 0.114681 0.012324
vt 0.075423 0.000000
vt 0.386606 0.460393
vt 0.430943 0.448563
vt 0.435747 0.456850
vt 0.403290 0.489170
vt 0.444069 0.461634
vt 0.007939 0.190424
vt 0.465558 0.505784
vt 0.432189 0.505784
vt 0.039258 0.189791
vt 0.229362 0.014414
vt 0.229362 0.177468
vt 0.075423 0.189791
vt 0.106742 0.190424
vt 0.151033 0.178202
vt 0.190104 0.189791
vt 0.153939 0.189791
vt 0.007939 0.000633
vt 0.039258 0.000000
vt 0.386606 0.427165
vt 0.430943 0.438995
vt 0.444069 0.425924
vt 0.466805 0.448563
vt 0.494457 0.489170
vt 0.453678 0.461634
vt 0.462000 0.456850
vt 0.221423 0.189159
vt 0.511142 0.427165
vt 0.511142 0.460393
vt 0.122620 0.189159
vt 0.494457 0.398388
vt 0.462000 0.430708
vt 0.453678 0.425924
vt 0.432189 0.381774
vt 0.435747 0.430708
vt 0.403290 0.398388
vt 0.465558 0.381774
vt 0.466805 0.438995
vt 0.338721 0.360875
vt 0.304068 0.361575
vt 0.304082 0.200774
vt 0.301619 0.190406
vt 0.332031 0.189791
vt 0.338759 0.200074
vt 0.373451 0.361575
vt 0.338797 0.360875
vt 0.301486 0.373961
vt 0.264053 0.361575
vt 0.264039 0.200774
vt 0.064098 0.430463
vt 0.055194 0.435187
vt 0.021269 0.404016
vt 0.375899 0.190406
vt 0.373437 0.200774
vt 0.413465 0.361575
vt 0.376033 0.373961
vt 0.345852 0.373351
vt 0.152653 0.428138
vt 0.152653 0.453695
vt 0.141117 0.456993
vt 0.266636 0.373961
vt 0.229400 0.360875
vt 0.229362 0.200074
vt 0.266502 0.190406
vt 0.051681 0.387883
vt 0.086797 0.387883
vt 0.088425 0.443368
vt 0.050053 0.452816
vt 0.050053 0.443368
vt 0.003711 0.431959
vt 0.411016 0.190406
vt 0.413479 0.200774
vt 0.448118 0.360875
vt 0.410883 0.373961
vt 0.164630 0.406005
vt 0.141117 0.424840
vt 0.164630 0.475828
vt 0.156185 0.484838
vt 0.236455 0.373351
vt 0.120003 0.202878
vt 0.154656 0.202178
vt 0.154642 0.362978
vt 0.157105 0.373347
vt 0.126693 0.373961
vt 0.119965 0.363679
vt 0.074380 0.430463
vt 0.117209 0.404016
vt 0.083284 0.435187
vt 0.134767 0.431959
vt 0.134767 0.464225
vt 0.088425 0.452816
vt 0.117209 0.492168
vt 0.074380 0.465721
vt 0.083285 0.460997
vt 0.086798 0.508301
vt 0.051681 0.508301
vt 0.055194 0.460997
vt 0.064098 0.465721
vt 0.021269 0.492168
vt 0.003711 0.464225
vt 0.441428 0.189791
vt 0.448156 0.200074
vt 0.418749 0.012386
vt 0.453402 0.013086
vt 0.453440 0.173887
vt 0.156185 0.396995
vt 0.182283 0.380919
vt 0.185374 0.488606
vt 0.182283 0.500915
vt 0.157239 0.189791
vt 0.194671 0.202178
vt 0.194685 0.362978
vt 0.192222 0.373347
vt 0.229362 0.363679
vt 0.381183 0.183555
vt 0.350771 0.184170
vt 0.344043 0.173887
vt 0.378720 0.173187
vt 0.418763 0.173187
vt 0.416300 0.183555
vt 0.378734 0.012386
vt 0.446347 0.000610
vt 0.209327 0.393227
vt 0.185374 0.393227
vt 0.209327 0.488606
vt 0.212419 0.500915
vt 0.192089 0.189791
vt 0.229324 0.202878
vt 0.344081 0.013086
vt 0.381316 0.000000
vt 0.416167 0.000000
vt 0.212419 0.380919
vt 0.238517 0.396995
vt 0.230072 0.475828
vt 0.238517 0.484838
vt 0.222269 0.190401
vt 0.230072 0.406005
vt 0.253585 0.424840
vt 0.242048 0.453695
vt 0.253585 0.456993
vt 0.242048 0.428138
vt 0.457723 0.263724
vt 0.448717 0.263724
vt 0.454001 0.147866
vt 0.336104 0.000633
vt 0.114681 0.202115
vt 0.106742 0.000633
vt 0.114681 0.177468
vt 0.331667 0.373351
vt 0.345488 0.189791
vt 0.236091 0.189791
vt 0.441064 0.373351
vt 0.127057 0.190401
vt 0.222633 0.373961
vt 0.446711 0.184170
vt 0.351135 0.000610
vn 0.000000 1.000000 0.000000
vn 0.000000 -1.000000 0.000000
vn -0.028900 0.998500 -0.045100
vn 0.000000 0.999100 -0.041500
vn -0.003200 0.945900 -0.324500
vn -0.001600 0.470300 -0.882500
vn -0.433900 0.496800 -0.751500
vn -0.149100 0.955500 -0.254600
vn -0.254300 0.955900 -0.146800
vn -0.047600 0.998500 -0.027500
vn 0.165000 0.945900 -0.279400
vn 0.442700 0.470300 -0.763400
vn -0.751500 0.496800 -0.433900
vn -0.293700 0.955900 0.000000
vn -0.055000 0.998500 0.000000
vn 0.020800 0.999100 -0.036000
vn 0.047600 0.998500 -0.024500
vn -0.254300 0.955900 0.146800
vn -0.047600 0.998500 0.027500
vn -0.149100 0.955500 0.254600
vn -0.028900 0.998500 0.045100
vn -0.003200 0.945900 0.324500
vn 0.165000 0.945900 0.279400
vn 0.020800 0.999100 0.036000
vn 0.256400 0.955500 0.146000
vn 0.047600 0.998500 0.024500
vn 0.293700 0.955900 0.000000
vn 0.055000 0.998500 0.000000
vn 0.256400 0.955500 -0.146000
vn 0.000000 -0.241000 -0.970500
vn -0.485200 -0.241000 -0.840500
vn -0.840500 -0.241000 -0.485200
vn -0.867800 0.496800 0.000000
vn 0.751500 0.496800 -0.433900
vn -0.751500 0.496800 0.433900
vn -0.433900 0.496800 0.751500
vn -0.001600 0.470300 0.882500
vn 0.442700 0.470300 0.763400
vn 0.751500 0.496800 0.433900
vn 0.867800 0.496800 0.000000
vn 0.485200 -0.241000 -0.840500
vn 0.000000 -0.695700 -0.718300
vn -0.359100 -0.695700 -0.622100
vn -0.622100 -0.695700 -0.359100
vn -0.970500 -0.241000 0.000000
vn -0.840500 -0.241000 0.485200
vn -0.485200 -0.241000 0.840500
vn 0.485200 -0.241000 0.840500
vn 0.970500 -0.241000 0.000000
vn 0.840500 -0.241000 -0.485200
vn 0.622100 -0.695700 -0.359100
vn 0.359100 -0.695700 -0.622100
vn 0.303400 -0.794700 -0.525600
vn 0.000000 -0.794700 -0.606900
vn -0.303400 -0.794700 -0.525600
vn -0.718300 -0.695700 0.000000
vn -0.622100 -0.695700 0.359100
vn -0.359100 -0.695700 0.622100
vn 0.000000 -0.241000 0.970500
vn 0.359100 -0.695700 0.622100
vn 0.840500 -0.241000 0.485200
vn 0.718300 -0.695700 0.000000
vn 0.525600 -0.794700 -0.303400
vn 0.000000 0.346200 -0.938100
vn -0.525600 -0.794700 -0.303400
vn -0.469100 0.346200 -0.812400
vn -0.606900 -0.794700 0.000000
vn -0.525600 -0.794700 0.303400
vn -0.303400 -0.794700 0.525600
vn 0.000000 -0.695700 0.718300
vn 0.000000 -0.794700 0.607000
vn 0.622100 -0.695700 0.359100
vn 0.525600 -0.794700 0.303400
vn 0.606900 -0.794700 0.000000
vn 0.812400 0.346200 -0.469100
vn -0.938100 0.346200 0.000000
vn -0.469100 0.346200 0.812400
vn 0.303400 -0.794700 0.525600
vn 0.000000 0.346200 0.938100
vn 0.938100 0.346200 0.000000
vn 0.469100 0.346200 0.812400
vn 0.448000 -0.443800 -0.776000
vn 0.000000 -0.443800 -0.896100
vn 0.000000 -0.387200 -0.922000
vn 0.798500 -0.387200 -0.461000
vn 0.776000 -0.443800 -0.448000
vn 0.091600 -0.983100 -0.158600
vn 0.000000 -0.983100 -0.183100
vn -0.448000 -0.443800 -0.776000
vn 0.896100 -0.443800 0.000000
vn 0.158600 -0.983100 -0.091600
vn -0.091600 -0.983100 -0.158600
vn -0.461000 -0.387200 -0.798500
vn -0.776000 -0.443800 -0.448000
vn 0.776000 -0.443800 0.448000
vn 0.922000 -0.387200 0.000000
vn 0.183100 -0.983100 0.000000
vn 0.158600 -0.983100 0.091600
vn 0.091600 -0.983100 0.158600
vn 0.000000 -0.983100 0.183100
vn 0.448000 -0.443800 0.776000
vn -0.448000 -0.443800 0.776000
vn -0.091600 -0.983100 0.158600
vn -0.158600 -0.983100 0.091600
vn -0.183100 -0.983100 0.000000
vn -0.776000 -0.443800 0.448000
vn -0.158600 -0.983100 -0.091600
vn -0.896100 -0.443800 0.000000
vn -0.922000 -0.387200 0.000000
vn 0.798500 -0.387200 0.461000
vn 0.000000 -0.443800 0.896100
vn 0.461000 -0.387200 0.798500
vn 0.000000 -0.387200 0.922000
vn -0.461000 -0.387200 0.798500
vn -0.798500 -0.387200 0.461000
vn -0.471700 -0.838600 0.272300
vn -0.471700 0.838600 0.272300
vn 0.000000 0.838600 0.544700
vn 0.000000 -0.838600 0.544700
vn 0.471700 0.838600 0.272300
vn -0.471700 -0.838600 -0.272300
vn -0.471700 0.838600 -0.272300
vn 0.471700 -0.838600 0.272300
vn 0.471700 0.838600 -0.272300
vn 0.000000 -0.838600 -0.544700
vn 0.000000 0.838600 -0.544700
vn 0.471700 -0.838600 -0.272300
vn 0.000000 0.999100 0.041500
vn 0.469100 0.346200 -0.812400
vn -0.812400 0.346200 -0.469100
vn -0.812400 0.346200 0.469100
vn 0.812400 0.346200 0.469100
vn 0.461000 -0.387200 -0.798500
vn -0.798500 -0.387200 -0.461000
vn 0.343900 0.725900 -0.595600
vn 0.000000 0.725900 -0.687700
vn -0.343900 0.725900 -0.595600
vn -0.595600 0.725900 -0.343900
vn 0.000000 0.543100 -0.839600
vn -0.419800 0.543100 -0.727100
vn -0.727100 0.543100 -0.419800
vn -0.687700 0.725900 0.000000
vn -0.595600 0.725900 0.343900
vn -0.343900 0.725900 0.595600
vn 0.343900 0.725900 0.595600
vn 0.595600 0.725900 0.343900
vn 0.687700 0.725900 0.000000
vn 0.595600 0.725900 -0.343900
vn 0.419800 0.543100 -0.727100
vn 0.000000 0.708900 -0.705200
vn -0.352600 0.708900 -0.610700
vn -0.610700 0.708900 -0.352600
vn -0.839600 0.543100 0.000000
vn -0.727100 0.543100 0.419800
vn 0.000000 0.725900 0.687700
vn -0.419800 0.543100 0.727100
vn 0.419800 0.543100 0.727100
vn 0.839600 0.543100 0.000000
vn 0.727100 0.543100 -0.419800
vn 0.352600 0.708900 -0.610700
vn 0.000000 0.306700 -0.951800
vn -0.475900 0.306700 -0.824300
vn -0.824300 0.306700 -0.475900
vn -0.705200 0.708900 0.000000
vn -0.610700 0.708900 0.352600
vn 0.000000 0.543100 0.839600
vn -0.352600 0.708900 0.610700
vn 0.727100 0.543100 0.419800
vn 0.000000 0.708900 0.705200
vn 0.352600 0.708900 0.610700
vn 0.705200 0.708900 0.000000
vn 0.610700 0.708900 -0.352600
vn 0.475900 0.306700 -0.824300
vn 0.468600 -0.348800 -0.811600
vn 0.000000 -0.348800 -0.937200
vn -0.468600 -0.348800 -0.811600
vn -0.951800 0.306700 0.000000
vn -0.824300 0.306700 0.475900
vn -0.475900 0.306700 0.824300
vn 0.610700 0.708900 0.352600
vn 0.000000 0.306700 0.951800
vn 0.475900 0.306700 0.824300
vn 0.951800 0.306700 0.000000
vn 0.824300 0.306700 -0.475900
vn 0.811600 -0.348800 -0.468600
vn 0.243800 -0.873000 -0.422300
vn 0.000000 -0.873000 -0.487700
vn -0.243800 -0.873000 -0.422300
vn -0.811600 -0.348800 -0.468600
vn -0.937200 -0.348800 0.000000
vn -0.811600 -0.348800 0.468600
vn 0.824300 0.306700 0.475900
vn 0.000000 -0.348800 0.937200
vn 0.811600 -0.348800 0.468600
vn 0.937200 -0.348800 0.000000
vn 0.422300 -0.873000 -0.243800
vn 0.029600 -0.998200 -0.051300
vn 0.000000 -0.998200 -0.059200
vn -0.029600 -0.998200 -0.051300
vn -0.422300 -0.873000 -0.243800
vn -0.487700 -0.873000 0.000000
vn -0.468600 -0.348800 0.811600
vn -0.422300 -0.873000 0.243800
vn -0.243800 -0.873000 0.422300
vn 0.468600 -0.348800 0.811600
vn 0.000000 -0.873000 0.487700
vn 0.243800 -0.873000 0.422300
vn 0.422300 -0.873000 0.243800
vn 0.487700 -0.873000 0.000000
vn 0.051300 -0.998200 -0.029600
vn 0.051300 -0.998200 0.029600
vn -0.051300 -0.998200 0.029600
vn -0.051300 -0.998200 -0.029600
vn -0.059200 -0.998200 0.000000
vn 0.000000 -0.998200 0.059200
vn 0.029600 -0.998200 0.051300
vn 0.059200 -0.998200 0.000000
vn -0.029600 -0.998200 0.051300
vn -0.475100 -0.311200 0.823000
vn 0.000000 -0.311200 0.950300
vn 0.000000 0.350700 0.936500
vn 0.000000 0.875700 0.482900
vn -0.241400 0.875700 0.418200
vn -0.468200 0.350700 0.811000
vn -0.823000 -0.311200 0.475100
vn 0.000000 -0.709300 0.704900
vn 0.475100 -0.311200 0.823000
vn 0.468200 0.350700 0.811000
vn 0.000000 0.998400 0.055300
vn -0.027600 0.998400 0.047900
vn -0.418200 0.875700 0.241400
vn -0.811000 0.350700 0.468200
vn -0.950300 -0.311200 0.000000
vn -0.610500 -0.709300 0.352500
vn -0.352500 -0.709300 0.610500
vn 0.352500 -0.709300 0.610500
vn 0.823000 -0.311200 0.475100
vn 0.811000 0.350700 0.468200
vn 0.241400 0.875700 0.418200
vn 0.055300 0.998400 0.000000
vn -0.055300 0.998400 0.000000
vn -0.047900 0.998400 0.027600
vn -0.482900 0.875700 0.000000
vn -0.936500 0.350700 0.000000
vn -0.823000 -0.311200 -0.475100
vn -0.704900 -0.709300 0.000000
vn 0.610500 -0.709300 0.352500
vn 0.950300 -0.311200 0.000000
vn 0.936500 0.350700 0.000000
vn 0.482900 0.875700 0.000000
vn 0.418200 0.875700 0.241400
vn 0.027600 0.998400 0.047900
vn 0.047900 0.998400 0.027600
vn 0.418200 0.875700 -0.241400
vn 0.047900 0.998400 -0.027600
vn 0.241400 0.875700 -0.418200
vn 0.000000 0.998400 -0.055300
vn 0.027600 0.998400 -0.047900
vn 0.000000 0.875700 -0.482900
vn -0.241400 0.875700 -0.418200
vn -0.047900 0.998400 -0.027600
vn -0.027600 0.998400 -0.047900
vn -0.418200 0.875700 -0.241400
vn -0.811000 0.350700 -0.468200
vn -0.475100 -0.311200 -0.823000
vn 0.704900 -0.709300 0.000000
vn 0.823000 -0.311200 -0.475100
vn 0.811000 0.350700 -0.468200
vn 0.468200 0.350700 -0.811000
vn 0.000000 0.350700 -0.936500
vn -0.468200 0.350700 -0.811000
vn 0.000000 -0.311200 -0.950300
vn -0.610500 -0.709300 -0.352500
vn 0.610500 -0.709300 -0.352500
vn 0.475100 -0.311200 -0.823000
vn 0.000000 -0.709300 -0.704900
vn -0.352500 -0.709300 -0.610500
vn 0.352500 -0.709300 -0.610500
usemtl Material.001
s off
f 11/1/1 12/2/1 16/3/1
f 22/4/1 3/5/1 24/6/1
f 33/7/1 29/8/1 30/9/1
f 20/10/1 37/11/1 32/12/1
f 269/13/2 273/14/2 274/15/2
f 285/16/2 282/17/2 251/18/2
f 290/19/2 283/20/2 293/21/2
f 11/1/1 19/22/1 10/23/1
f 19/22/1 17/24/1 18/25/1
f 13/26/1 14/27/1 15/28/1
f 11/1/1 17/24/1 19/22/1
f 12/2/1 15/28/1 16/3/1
f 16/3/1 17/24/1 11/1/1
f 12/2/1 13/26/1 15/28/1
f 18/25/1 17/24/1 23/29/1
f 13/26/1 20/10/1 21/30/1
f 7/31/1 23/29/1 24/6/1
f 22/4/1 13/26/1 21/30/1
f 7/31/1 18/25/1 23/29/1
f 22/4/1 14/27/1 13/26/1
f 22/4/1 4/32/1 3/5/1
f 24/6/1 14/27/1 22/4/1
f 3/5/1 7/31/1 24/6/1
f 31/33/1 32/12/1 33/7/1
f 25/34/1 26/35/1 27/36/1
f 29/8/1 33/7/1 34/37/1
f 28/38/1 25/34/1 27/36/1
f 34/37/1 28/38/1 29/8/1
f 33/7/1 30/9/1 31/33/1
f 28/38/1 34/37/1 25/34/1
f 26/35/1 13/26/1 41/39/1
f 36/40/1 10/23/1 19/22/1
f 4/32/1 22/4/1 38/41/1
f 35/42/1 10/23/1 36/40/1
f 4/32/1 38/41/1 39/43/1
f 27/36/1 35/42/1 36/40/1
f 9/44/1 39/43/1 40/45/1
f 27/36/1 41/39/1 35/42/1
f 9/44/1 4/32/1 39/43/1
f 26/35/1 41/39/1 27/36/1
f 31/33/1 40/45/1 20/10/1
f 40/45/1 31/33/1 9/44/1
f 13/26/1 26/35/1 37/11/1
f 20/10/1 32/12/1 31/33/1
f 37/11/1 20/10/1 13/26/1
f 266/46/2 276/47/2 277/48/2
f 278/49/2 264/50/2 265/51/2
f 274/15/2 275/52/2 276/47/2
f 277/48/2 278/49/2 265/51/2
f 266/46/2 267/53/2 268/54/2
f 277/48/2 265/51/2 266/46/2
f 266/46/2 274/15/2 276/47/2
f 270/55/2 272/56/2 273/14/2
f 274/15/2 268/54/2 269/13/2
f 270/55/2 271/57/2 272/56/2
f 274/15/2 266/46/2 268/54/2
f 269/13/2 270/55/2 273/14/2
f 285/16/2 267/53/2 286/58/2
f 287/59/2 279/60/2 280/61/2
f 285/16/2 268/54/2 267/53/2
f 281/62/2 287/59/2 280/61/2
f 286/58/2 281/62/2 282/17/2
f 284/63/2 251/18/2 250/64/2
f 250/64/2 283/20/2 272/56/2
f 282/17/2 285/16/2 286/58/2
f 250/64/2 272/56/2 271/57/2
f 281/62/2 286/58/2 287/59/2
f 250/64/2 271/57/2 284/63/2
f 284/63/2 285/16/2 251/18/2
f 279/60/2 265/51/2 264/50/2
f 289/65/2 276/47/2 275/52/2
f 296/66/2 279/60/2 264/50/2
f 290/19/2 294/67/2 275/52/2
f 296/66/2 280/61/2 279/60/2
f 294/67/2 289/65/2 275/52/2
f 295/68/2 264/50/2 288/69/2
f 264/50/2 295/68/2 296/66/2
f 290/19/2 293/21/2 294/67/2
f 283/20/2 291/70/2 292/71/2
f 283/20/2 250/64/2 263/72/2
f 294/67/2 295/68/2 288/69/2
f 283/20/2 263/72/2 291/70/2
f 294/67/2 288/69/2 289/65/2
f 293/21/2 283/20/2 292/71/2
s 1
f 3/5/3 4/32/4 1/73/5
f 5/74/6 43/75/7 2/76/8
f 6/77/9 7/31/10 3/5/3
f 8/78/11 1/73/5 4/32/4
f 42/79/12 5/74/6 1/80/5
f 44/81/13 6/82/9 2/76/8
f 45/83/14 18/25/15 7/31/10
f 8/78/11 9/44/16 31/33/17
f 47/84/18 19/22/19 18/25/15
f 47/84/18 48/85/20 36/40/21
f 36/40/21 48/85/20 49/86/22
f 49/86/22 50/87/23 28/38/24
f 50/87/23 51/88/25 29/8/26
f 51/88/25 52/89/27 30/9/28
f 52/89/27 46/90/29 31/33/17
f 55/91/30 5/92/6 42/93/12
f 56/94/31 43/95/7 5/96/6
f 57/97/32 44/98/13 43/95/7
f 58/99/33 45/100/14 6/82/9
f 46/101/29 53/102/34 42/79/12
f 59/103/35 47/104/18 45/100/14
f 60/105/36 48/106/20 47/104/18
f 61/107/37 62/108/38 50/109/23
f 63/110/39 64/111/40 52/112/27
f 64/111/40 53/102/34 46/101/29
f 54/113/41 42/93/12 53/114/34
f 67/115/42 55/91/30 54/113/41
f 67/116/42 68/117/43 56/94/31
f 69/118/44 57/97/32 56/94/31
f 70/119/45 58/120/33 44/98/13
f 71/121/46 59/122/35 58/123/33
f 72/124/47 60/125/36 59/122/35
f 61/107/37 49/126/22 48/106/20
f 74/127/48 62/128/38 61/129/37
f 51/130/25 50/109/23 62/108/38
f 76/131/49 64/132/40 63/133/39
f 65/134/50 53/114/34 64/132/40
f 77/135/51 66/136/52 54/113/41
f 67/137/42 66/138/52 78/139/53
f 68/140/43 67/137/42 79/141/54
f 69/142/44 68/140/43 80/143/55
f 82/144/56 70/119/45 57/97/32
f 83/145/57 71/121/46 70/146/45
f 84/147/58 72/124/47 71/121/46
f 73/148/59 61/129/37 60/125/36
f 86/149/60 74/127/48 73/148/59
f 75/150/61 63/151/39 62/128/38
f 88/152/62 76/131/49 75/153/61
f 77/135/51 65/134/50 76/131/49
f 77/154/51 89/155/63 78/139/53
f 90/156/64 79/157/54 78/158/53
f 80/159/55 79/160/54 90/156/64
f 81/161/65 80/159/55 92/162/66
f 69/142/44 81/163/65 94/164/67
f 83/165/57 82/166/56 94/164/67
f 83/165/57 95/167/68 96/168/69
f 84/147/58 85/169/70 73/148/59
f 86/170/60 85/171/70 97/172/71
f 87/173/72 75/150/61 74/127/48
f 87/174/72 99/175/73 100/176/74
f 88/177/62 100/176/74 89/155/63
f 78/158/53 89/178/63 101/179/75
f 106/180/76 94/181/67 81/161/65
f 95/167/68 94/164/67 106/182/76
f 97/172/71 85/171/70 84/183/58
f 108/184/77 96/185/69 95/186/68
f 99/175/73 87/174/72 86/170/60
f 98/187/78 97/188/71 110/189/79
f 111/190/80 100/176/74 99/175/73
f 89/178/63 100/191/74 111/180/80
f 110/189/79 97/188/71 96/185/69
f 99/175/73 98/192/78 109/193/81
f 233/194/82 234/195/83 213/196/84
f 232/197/85 249/198/86 233/194/82
f 233/199/82 250/200/87 251/201/88
f 213/196/84 234/195/83 252/202/89
f 262/203/90 249/198/86 232/197/85
f 263/204/91 250/200/87 233/199/82
f 251/201/88 282/205/92 252/206/89
f 235/207/93 252/202/89 297/208/94
f 303/209/95 262/210/90 248/211/96
f 291/212/97 263/204/91 249/213/86
f 303/214/95 292/215/98 291/212/97
f 293/216/99 292/215/98 303/214/95
f 294/217/100 293/216/99 304/218/101
f 306/219/102 295/220/103 294/217/100
f 296/221/104 295/220/103 306/219/102
f 280/222/105 296/221/104 307/223/106
f 297/224/94 281/225/107 280/222/105
f 282/205/92 281/225/107 297/224/94
f 297/226/94 308/227/108 298/228/109
f 304/229/101 303/209/95 261/230/110
f 305/231/111 304/229/101 302/232/112
f 306/233/102 305/234/111 311/235/113
f 307/236/106 306/233/102 312/237/114
f 308/227/108 307/236/106 309/238/115
f 271/239/116 40/240/117 39/241/118
f 284/242/119 39/241/118 38/243/120
f 270/244/121 20/245/122 40/246/117
f 285/247/123 38/243/120 22/248/124
f 269/249/125 21/250/126 20/251/122
f 268/252/127 22/253/124 21/250/126
f 272/254/116 33/255/117 32/256/118
f 273/257/119 32/256/118 37/258/120
f 283/259/121 34/260/122 33/261/117
f 274/262/123 37/258/120 26/263/124
f 290/264/125 25/265/126 34/253/122
f 275/240/127 26/239/124 25/265/126
f 267/266/116 14/267/117 24/268/118
f 286/269/119 24/268/118 23/270/120
f 266/271/121 15/272/122 14/245/117
f 287/273/123 23/270/120 17/274/124
f 265/275/125 16/276/126 15/277/122
f 279/278/127 17/279/124 16/276/126
f 276/280/116 13/281/117 12/282/118
f 277/283/119 12/282/118 11/284/120
f 289/285/121 41/261/122 13/286/117
f 278/287/123 11/284/120 10/288/124
f 288/289/125 35/290/126 41/272/122
f 264/291/127 10/292/124 35/290/126
f 2/293/8 3/5/3 1/73/5
f 1/80/5 5/74/6 2/76/8
f 2/293/8 6/77/9 3/5/3
f 9/44/16 8/78/11 4/32/4
f 8/294/11 42/79/12 1/80/5
f 43/75/7 44/81/13 2/76/8
f 6/77/9 45/83/14 7/31/10
f 46/90/29 8/78/11 31/33/17
f 45/83/14 47/84/18 18/25/15
f 19/22/19 47/84/18 36/40/21
f 27/36/128 36/40/21 49/86/22
f 27/36/128 49/86/22 28/38/24
f 28/38/24 50/87/23 29/8/26
f 29/8/26 51/88/25 30/9/28
f 30/9/28 52/89/27 31/33/17
f 54/113/41 55/91/30 42/93/12
f 55/295/30 56/94/31 5/96/6
f 56/94/31 57/97/32 43/95/7
f 44/81/13 58/99/33 6/82/9
f 8/294/11 46/101/29 42/79/12
f 58/99/33 59/103/35 45/100/14
f 59/103/35 60/105/36 47/104/18
f 49/126/22 61/107/37 50/109/23
f 51/130/25 63/110/39 52/112/27
f 52/112/27 64/111/40 46/101/29
f 65/134/50 54/113/41 53/114/34
f 66/136/52 67/115/42 54/113/41
f 55/295/30 67/116/42 56/94/31
f 68/117/43 69/118/44 56/94/31
f 57/97/32 70/119/45 44/98/13
f 70/146/45 71/121/46 58/123/33
f 71/121/46 72/124/47 59/122/35
f 60/105/36 61/107/37 48/106/20
f 73/148/59 74/127/48 61/129/37
f 63/110/39 51/130/25 62/108/38
f 75/153/61 76/131/49 63/133/39
f 76/131/49 65/134/50 64/132/40
f 65/134/50 77/135/51 54/113/41
f 79/141/54 67/137/42 78/139/53
f 80/143/55 68/140/43 79/141/54
f 81/163/65 69/142/44 80/143/55
f 69/118/44 82/144/56 57/97/32
f 82/296/56 83/145/57 70/146/45
f 83/145/57 84/147/58 71/121/46
f 72/124/47 73/148/59 60/125/36
f 85/169/70 86/149/60 73/148/59
f 74/127/48 75/150/61 62/128/38
f 87/297/72 88/152/62 75/153/61
f 88/152/62 77/135/51 76/131/49
f 66/138/52 77/154/51 78/139/53
f 91/298/129 90/156/64 78/158/53
f 92/162/66 80/159/55 90/156/64
f 93/299/130 81/161/65 92/162/66
f 82/166/56 69/142/44 94/164/67
f 95/167/68 83/165/57 94/164/67
f 84/183/58 83/165/57 96/168/69
f 72/124/47 84/147/58 73/148/59
f 98/192/78 86/170/60 97/172/71
f 86/149/60 87/173/72 74/127/48
f 88/177/62 87/174/72 100/176/74
f 77/154/51 88/177/62 89/155/63
f 91/298/129 78/158/53 101/179/75
f 93/299/130 106/180/76 81/161/65
f 107/300/131 95/167/68 106/182/76
f 96/168/69 97/172/71 84/183/58
f 107/301/131 108/184/77 95/186/68
f 98/192/78 99/175/73 86/170/60
f 109/302/81 98/187/78 110/189/79
f 112/303/132 111/190/80 99/175/73
f 101/179/75 89/178/63 111/180/80
f 108/184/77 110/189/79 96/185/69
f 112/303/132 99/175/73 109/193/81
f 212/304/133 233/194/82 213/196/84
f 212/304/133 232/197/85 233/194/82
f 234/305/83 233/199/82 251/201/88
f 235/207/93 213/196/84 252/202/89
f 248/306/96 262/203/90 232/197/85
f 249/213/86 263/204/91 233/199/82
f 234/305/83 251/201/88 252/206/89
f 253/307/134 235/207/93 297/208/94
f 261/230/110 303/209/95 248/211/96
f 262/308/90 291/212/97 249/213/86
f 262/308/90 303/214/95 291/212/97
f 304/218/101 293/216/99 303/214/95
f 305/309/111 294/217/100 304/218/101
f 305/309/111 306/219/102 294/217/100
f 307/223/106 296/221/104 306/219/102
f 308/310/108 280/222/105 307/223/106
f 308/310/108 297/224/94 280/222/105
f 252/206/89 282/205/92 297/224/94
f 253/311/134 297/226/94 298/228/109
f 302/232/112 304/229/101 261/230/110
f 311/312/113 305/231/111 302/232/112
f 312/237/114 306/233/102 311/235/113
f 309/238/115 307/236/106 312/237/114
f 298/228/109 308/227/108 309/238/115
f 284/242/119 271/239/116 39/241/118
f 285/247/123 284/242/119 38/243/120
f 271/313/116 270/244/121 40/246/117
f 268/314/127 285/247/123 22/248/124
f 270/315/121 269/249/125 20/251/122
f 269/249/125 268/252/127 21/250/126
f 273/257/119 272/254/116 32/256/118
f 274/262/123 273/257/119 37/258/120
f 272/285/116 283/259/121 33/261/117
f 275/316/127 274/262/123 26/263/124
f 283/252/121 290/264/125 34/253/122
f 290/264/125 275/240/127 25/265/126
f 286/269/119 267/266/116 24/268/118
f 287/273/123 286/269/119 23/270/120
f 267/244/116 266/271/121 14/245/117
f 279/317/127 287/273/123 17/274/124
f 266/318/121 265/275/125 15/277/122
f 265/275/125 279/278/127 16/276/126
f 277/283/119 276/280/116 12/282/118
f 278/287/123 277/283/119 11/284/120
f 276/319/116 289/285/121 13/286/117
f 264/320/127 278/287/123 10/288/124
f 289/271/121 288/289/125 41/272/122
f 288/289/125 264/291/127 35/290/126
f 90/321/64 213/322/84 235/323/93 92/324/66
f 92/325/66 235/326/93 253/327/134 93/328/130
f 93/329/130 253/330/134 298/331/109 106/332/76
f 106/333/76 298/334/109 309/335/115 107/336/131
f 107/337/131 309/338/115 312/339/114 108/340/77
f 108/341/77 312/342/114 311/343/113 110/344/79
f 110/345/79 311/346/113 302/347/112 109/348/81
f 109/349/81 302/350/112 261/351/110 112/352/132
f 112/353/132 261/354/110 248/355/96 111/356/80
f 111/357/80 248/358/96 232/359/85 101/360/75
f 101/361/75 232/362/85 212/363/133 91/364/129
f 91/365/129 212/366/133 213/367/84 90/368/64
usemtl Material.002
f 102/369/135 103/370/136 90/371/64
f 104/372/137 92/373/66 90/371/64
f 105/374/138 93/375/130 92/373/66
f 102/369/135 91/376/129 101/377/75
f 115/378/139 103/379/136 102/380/135
f 116/381/140 104/382/137 103/379/136
f 117/383/141 105/384/138 104/382/137
f 105/374/138 118/385/142 106/386/76
f 119/387/143 107/388/131 106/386/76
f 120/389/144 108/390/77 107/388/131
f 122/391/145 109/392/81 110/393/79
f 123/394/146 124/395/147 111/396/80
f 113/397/148 101/377/75 111/396/80
f 114/398/149 102/399/135 113/400/148
f 127/401/150 115/402/139 114/403/149
f 128/404/151 116/405/140 115/402/139
f 129/406/152 117/407/141 116/405/140
f 130/408/153 118/409/142 105/410/138
f 131/411/154 119/412/143 118/409/142
f 120/389/144 121/413/155 110/393/79
f 132/414/156 120/415/144 119/412/143
f 123/394/146 112/416/132 109/392/81
f 134/417/157 122/418/145 121/419/155
f 136/420/158 124/421/147 123/422/146
f 125/423/159 113/400/148 124/421/147
f 126/424/160 114/403/149 125/425/159
f 139/426/161 127/427/150 126/428/160
f 140/429/162 128/430/151 127/427/150
f 141/431/163 129/432/152 128/430/151
f 142/433/164 130/434/153 117/407/141
f 142/433/164 143/435/165 131/436/154
f 133/437/166 121/419/155 120/438/144
f 143/435/165 144/439/167 132/440/156
f 135/441/168 123/442/146 122/418/145
f 145/443/169 146/444/170 134/445/157
f 148/446/171 136/447/158 135/448/168
f 148/446/171 137/449/172 125/425/159
f 138/450/173 126/451/160 137/452/172
f 139/426/161 138/453/173 151/454/174
f 140/429/162 139/426/161 150/455/175
f 141/431/163 140/429/162 152/456/176
f 154/457/177 142/458/164 129/459/152
f 155/460/178 143/461/165 142/458/164
f 144/439/167 145/443/169 133/462/166
f 156/463/179 144/464/167 143/461/165
f 146/444/170 147/465/180 135/448/168
f 157/466/181 158/467/182 146/468/170
f 160/469/183 148/470/171 147/471/180
f 160/469/183 149/472/184 137/452/172
f 138/450/173 149/472/184 161/473/185
f 150/455/175 151/454/174 162/474/186
f 150/455/175 163/475/187 164/476/188
f 153/477/189 152/456/176 164/476/188
f 154/457/177 141/478/163 153/479/189
f 155/460/178 154/457/177 166/480/190
f 157/466/181 145/481/169 144/482/167
f 156/463/179 155/460/178 167/483/191
f 159/484/192 147/485/180 146/468/170
f 158/467/182 157/466/181 170/486/193
f 160/469/183 159/487/192 172/488/194
f 149/472/184 160/469/183 171/489/195
f 151/490/174 161/473/185 173/491/196
f 162/492/186 174/493/197 175/494/198
f 163/495/187 175/494/198 176/496/199
f 166/480/190 153/479/189 165/497/200
f 165/498/200 164/499/188 176/496/199
f 167/483/191 166/480/190 177/500/201
f 157/466/181 156/501/179 168/502/202
f 167/483/191 179/503/203 180/504/204
f 159/484/192 158/467/182 169/505/205
f 170/486/193 181/506/206 182/507/207
f 172/488/194 183/508/208 184/509/209
f 171/489/195 184/509/209 173/491/196
f 173/510/196 185/511/210 174/493/197
f 175/494/198 187/512/211 191/513/212
f 177/514/201 165/498/200 178/515/213
f 177/514/201 192/516/214 191/513/212
f 170/486/193 168/502/202 180/517/204
f 180/518/204 179/519/203 191/513/212
f 169/505/205 182/507/207 183/520/208
f 181/521/206 189/522/215 188/523/216
f 183/524/208 187/512/211 186/525/217
f 184/526/209 186/525/217 185/511/210
f 182/527/207 188/523/216 187/512/211
f 180/518/204 190/528/218 189/522/215
f 194/529/219 195/530/220 196/531/221
f 197/532/222 198/533/223 193/534/224
f 200/535/225 194/536/219 193/534/224
f 202/537/226 195/530/220 194/529/219
f 195/530/220 203/538/227 204/539/228
f 197/532/222 196/531/221 204/539/228
f 206/540/229 207/541/230 198/542/223
f 208/543/231 199/544/232 193/534/224
f 210/545/233 200/535/225 199/544/232
f 211/546/234 201/547/235 194/536/219
f 212/548/133 213/549/84 202/550/226
f 202/537/226 214/551/236 203/538/227
f 203/538/227 215/552/237 216/553/238
f 205/554/239 204/539/228 216/553/238
f 206/540/229 197/555/222 205/556/239
f 206/540/229 220/557/240 226/558/241
f 227/559/242 208/560/231 198/542/223
f 228/561/243 209/562/244 199/544/232
f 230/563/245 210/545/233 209/562/244
f 231/564/246 211/546/234 200/535/225
f 232/565/85 212/548/133 201/566/235
f 235/567/93 214/568/236 202/550/226
f 236/569/247 215/552/237 203/538/227
f 215/570/237 237/571/248 238/572/249
f 239/573/250 217/574/251 216/575/238
f 218/576/252 205/556/239 217/577/251
f 220/557/240 219/578/253 217/577/251
f 220/557/240 239/579/250 240/580/254
f 221/581/255 240/580/254 241/582/256
f 223/583/257 222/584/258 241/582/256
f 223/583/257 242/585/259 243/586/260
f 225/587/261 224/588/262 243/586/260
f 226/558/241 225/587/261 244/589/263
f 226/558/241 228/590/243 208/560/231
f 228/561/243 244/591/263 229/592/264
f 246/593/265 230/594/245 229/595/264
f 231/564/246 210/545/233 230/563/245
f 232/565/85 211/596/234 231/597/246
f 235/567/93 253/598/134 236/599/247
f 254/600/266 237/571/248 215/570/237
f 237/571/248 255/601/267 256/602/268
f 239/573/250 238/572/249 256/602/268
f 240/603/254 256/602/268 257/604/269
f 242/605/259 241/606/256 257/607/269
f 242/605/259 258/608/270 245/609/271
f 243/610/260 245/609/271 229/595/264
f 259/611/272 246/593/265 245/609/271
f 247/612/273 230/594/245 246/593/265
f 261/613/110 248/614/96 231/597/246
f 253/598/134 298/615/109 254/616/266
f 254/600/266 299/617/274 255/601/267
f 255/601/267 300/618/275 257/604/269
f 300/619/275 259/611/272 258/608/270
f 301/620/276 260/621/277 246/593/265
f 261/613/110 247/622/273 260/623/277
f 309/624/115 299/625/274 254/616/266
f 299/617/274 310/626/278 300/618/275
f 301/620/276 259/611/272 300/619/275
f 302/627/112 260/623/277 301/628/276
f 312/629/114 310/630/278 299/625/274
f 312/629/114 311/631/113 301/628/276
f 91/376/129 102/369/135 90/371/64
f 103/370/136 104/372/137 90/371/64
f 104/372/137 105/374/138 92/373/66
f 113/397/148 102/369/135 101/377/75
f 114/441/149 115/378/139 102/380/135
f 115/378/139 116/381/140 103/379/136
f 116/381/140 117/383/141 104/382/137
f 93/375/130 105/374/138 106/386/76
f 118/385/142 119/387/143 106/386/76
f 119/387/143 120/389/144 107/388/131
f 121/413/155 122/391/145 110/393/79
f 112/416/132 123/394/146 111/396/80
f 124/395/147 113/397/148 111/396/80
f 125/423/159 114/398/149 113/400/148
f 126/424/160 127/401/150 114/403/149
f 127/401/150 128/404/151 115/402/139
f 128/404/151 129/406/152 116/405/140
f 117/632/141 130/408/153 105/410/138
f 130/408/153 131/411/154 118/409/142
f 108/390/77 120/389/144 110/393/79
f 131/411/154 132/414/156 119/412/143
f 122/391/145 123/394/146 109/392/81
f 133/437/166 134/417/157 121/419/155
f 135/633/168 136/420/158 123/422/146
f 136/420/158 125/423/159 124/421/147
f 137/449/172 126/424/160 125/425/159
f 138/453/173 139/426/161 126/428/160
f 139/426/161 140/429/162 127/427/150
f 140/429/162 141/431/163 128/430/151
f 129/406/152 142/433/164 117/407/141
f 130/434/153 142/433/164 131/436/154
f 132/634/156 133/437/166 120/438/144
f 131/436/154 143/435/165 132/440/156
f 134/417/157 135/441/168 122/418/145
f 133/462/166 145/443/169 134/445/157
f 147/465/180 148/446/171 135/448/168
f 136/447/158 148/446/171 125/425/159
f 149/472/184 138/450/173 137/452/172
f 150/455/175 139/426/161 151/454/174
f 152/456/176 140/429/162 150/455/175
f 153/477/189 141/431/163 152/456/176
f 141/478/163 154/457/177 129/459/152
f 154/457/177 155/460/178 142/458/164
f 132/440/156 144/439/167 133/462/166
f 155/460/178 156/463/179 143/461/165
f 134/445/157 146/444/170 135/448/168
f 145/481/169 157/466/181 146/468/170
f 159/487/192 160/469/183 147/471/180
f 148/470/171 160/469/183 137/452/172
f 151/490/174 138/450/173 161/473/185
f 163/475/187 150/455/175 162/474/186
f 152/456/176 150/455/175 164/476/188
f 165/635/200 153/477/189 164/476/188
f 166/480/190 154/457/177 153/479/189
f 167/483/191 155/460/178 166/480/190
f 156/501/179 157/466/181 144/482/167
f 168/636/202 156/463/179 167/483/191
f 158/467/182 159/484/192 146/468/170
f 169/505/205 158/467/182 170/486/193
f 171/489/195 160/469/183 172/488/194
f 161/473/185 149/472/184 171/489/195
f 162/637/186 151/490/174 173/491/196
f 163/495/187 162/492/186 175/494/198
f 164/499/188 163/495/187 176/496/199
f 177/500/201 166/480/190 165/497/200
f 178/515/213 165/498/200 176/496/199
f 179/503/203 167/483/191 177/500/201
f 170/486/193 157/466/181 168/502/202
f 168/636/202 167/483/191 180/504/204
f 172/638/194 159/484/192 169/505/205
f 169/505/205 170/486/193 182/507/207
f 171/489/195 172/488/194 184/509/209
f 161/473/185 171/489/195 173/491/196
f 162/492/186 173/510/196 174/493/197
f 178/515/213 176/496/199 175/494/198
f 175/494/198 192/516/214 178/515/213
f 189/522/215 190/528/218 191/513/212
f 191/513/212 188/523/216 189/522/215
f 175/494/198 186/525/217 187/512/211
f 175/494/198 174/493/197 185/511/210
f 191/513/212 192/516/214 175/494/198
f 187/512/211 188/523/216 191/513/212
f 175/494/198 185/511/210 186/525/217
f 192/516/214 177/514/201 178/515/213
f 179/519/203 177/514/201 191/513/212
f 181/506/206 170/486/193 180/517/204
f 190/528/218 180/518/204 191/513/212
f 172/638/194 169/505/205 183/520/208
f 182/527/207 181/521/206 188/523/216
f 184/526/209 183/524/208 186/525/217
f 173/510/196 184/526/209 185/511/210
f 183/524/208 182/527/207 187/512/211
f 181/521/206 180/518/204 189/522/215
f 193/534/224 194/529/219 196/531/221
f 196/531/221 197/532/222 193/534/224
f 199/544/232 200/535/225 193/534/224
f 201/639/235 202/537/226 194/529/219
f 196/531/221 195/530/220 204/539/228
f 205/554/239 197/532/222 204/539/228
f 197/555/222 206/540/229 198/542/223
f 198/640/223 208/543/231 193/534/224
f 209/562/244 210/545/233 199/544/232
f 200/535/225 211/546/234 194/536/219
f 201/566/235 212/548/133 202/550/226
f 195/530/220 202/537/226 203/538/227
f 204/539/228 203/538/227 216/553/238
f 217/641/251 205/554/239 216/553/238
f 218/576/252 206/540/229 205/556/239
f 220/557/240 206/540/229 218/576/252
f 226/558/241 227/559/242 207/541/230
f 224/588/262 225/587/261 226/558/241
f 226/558/241 223/583/257 224/588/262
f 220/557/240 221/581/255 222/584/258
f 218/576/252 219/578/253 220/557/240
f 226/558/241 207/541/230 206/540/229
f 220/557/240 223/583/257 226/558/241
f 223/583/257 220/557/240 222/584/258
f 207/541/230 227/559/242 198/542/223
f 208/543/231 228/561/243 199/544/232
f 229/592/264 230/563/245 209/562/244
f 210/545/233 231/564/246 200/535/225
f 211/596/234 232/565/85 201/566/235
f 213/549/84 235/567/93 202/550/226
f 214/551/236 236/569/247 203/538/227
f 216/575/238 215/570/237 238/572/249
f 238/572/249 239/573/250 216/575/238
f 219/578/253 218/576/252 217/577/251
f 239/579/250 220/557/240 217/577/251
f 221/581/255 220/557/240 240/580/254
f 222/584/258 221/581/255 241/582/256
f 242/585/259 223/583/257 241/582/256
f 224/588/262 223/583/257 243/586/260
f 244/589/263 225/587/261 243/586/260
f 228/590/243 226/558/241 244/589/263
f 227/559/242 226/558/241 208/560/231
f 209/562/244 228/561/243 229/592/264
f 245/609/271 246/593/265 229/595/264
f 247/642/273 231/564/246 230/563/245
f 248/614/96 232/565/85 231/597/246
f 214/568/236 235/567/93 236/599/247
f 236/643/247 254/600/266 215/570/237
f 238/572/249 237/571/248 256/602/268
f 240/603/254 239/573/250 256/602/268
f 241/644/256 240/603/254 257/604/269
f 258/608/270 242/605/259 257/607/269
f 243/610/260 242/605/259 245/609/271
f 244/645/263 243/610/260 229/595/264
f 258/608/270 259/611/272 245/609/271
f 260/621/277 247/612/273 246/593/265
f 247/622/273 261/613/110 231/597/246
f 236/599/247 253/598/134 254/616/266
f 237/571/248 254/600/266 255/601/267
f 256/602/268 255/601/267 257/604/269
f 257/607/269 300/619/275 258/608/270
f 259/611/272 301/620/276 246/593/265
f 302/627/112 261/613/110 260/623/277
f 298/615/109 309/624/115 254/616/266
f 255/601/267 299/617/274 300/618/275
f 310/646/278 301/620/276 300/619/275
f 311/631/113 302/627/112 301/628/276
f 309/624/115 312/629/114 299/625/274
f 310/630/278 312/629/114 301/628/276
