# Blender v2.75 (sub 0) OBJ File: ''
# www.blender.org
mtllib Handheld_Lantern_COL.mtl
o Cube_Cube.005
v -0.316046 0.809659 -0.273917
v -0.316046 -0.003543 -0.273917
v -0.316046 -0.003543 0.358176
v 0.316046 0.809659 -0.273917
v 0.316046 -0.003543 -0.273917
v 0.316046 0.809659 0.358176
v 0.316046 -0.003543 0.358176
v -0.316046 0.809659 0.358176
v -0.403843 0.809659 -0.361714
v 0.403843 0.809659 -0.361714
v 0.403843 0.809659 0.445972
v 0.403843 0.845171 0.445972
v -0.403843 0.845171 0.445972
v -0.403843 0.809659 0.445972
v 0.403843 0.845171 -0.361714
v 0.191767 0.997872 -0.149638
v 0.191767 0.997872 0.233896
v -0.403843 0.845171 -0.361714
v -0.191767 0.997872 0.233896
v -0.191767 1.218044 0.233896
v -0.191767 1.218044 -0.149638
v -0.191767 0.997872 -0.149638
v 0.191767 1.218044 -0.149638
v 0.191767 1.218044 0.233896
v 0.239911 1.411087 0.017605
v 0.239911 0.876665 0.017605
v 0.239911 0.876665 0.063742
v 0.286047 1.411087 0.017605
v 0.286047 0.876665 0.017605
v 0.286047 1.411087 0.063742
v 0.286047 0.876665 0.063742
v 0.239911 1.411087 0.063742
v 0.215332 1.578903 0.017605
v 0.215332 1.578903 0.063742
v -0.285367 1.411087 0.017605
v -0.285367 0.876665 0.017605
v -0.285367 0.876665 0.063742
v -0.239231 1.411087 0.017605
v -0.239231 0.876665 0.017605
v -0.239231 1.411087 0.063742
v -0.239231 0.876665 0.063742
v -0.285367 1.411087 0.063742
v -0.208020 1.589178 0.017605
v -0.173544 1.558520 0.063742
v 0.006281 1.636246 0.063742
v 0.007301 1.682354 0.063742
v -0.173544 1.558520 0.017605
v -0.208020 1.589178 0.063742
v 0.007301 1.682354 0.017605
v 0.006281 1.636246 0.017605
v 0.182390 1.546601 0.063742
v 0.182390 1.546601 0.017605
vt 0.640346 0.828035
vn -0.301500 -0.904500 -0.301500
vn -0.577400 -0.577400 -0.577400
vn -0.577400 -0.577400 0.577400
vn 0.301500 -0.904500 -0.301500
vn 0.577400 -0.577400 -0.577400
vn 0.301500 -0.904500 0.301500
vn 0.577400 -0.577400 0.577400
vn -0.301500 -0.904500 0.301500
vn -0.577400 -0.577300 -0.577400
vn 0.577400 -0.577300 -0.577400
vn 0.577300 -0.577400 0.577300
vn 0.635400 0.438700 0.635400
vn -0.635400 0.438700 0.635400
vn -0.577400 -0.577400 0.577300
vn 0.635400 0.438700 -0.635400
vn 0.526800 0.667100 -0.526800
vn 0.526800 0.667100 0.526800
vn -0.635400 0.438700 -0.635400
vn -0.526800 0.667100 0.526800
vn -0.577400 0.577400 0.577400
vn -0.577400 0.577400 -0.577400
vn -0.526800 0.667100 -0.526800
vn 0.577400 0.577400 -0.577400
vn 0.577400 0.577400 0.577400
vn -0.642700 -0.130800 -0.754900
vn 0.731900 0.147900 -0.665100
vn 0.731900 0.147900 0.665100
vn -0.642700 -0.130800 0.754900
vn 0.562200 0.528000 -0.636600
vn 0.562200 0.528000 0.636600
vn -0.732000 0.152100 -0.664100
vn 0.639000 -0.135900 -0.757100
vn 0.639000 -0.135900 0.757100
vn -0.732000 0.152100 0.664100
vn -0.547100 0.547800 -0.633000
vn 0.423100 -0.427800 0.798700
vn -0.018100 -0.577100 0.816500
vn 0.020700 0.781600 0.623400
vn 0.423100 -0.427800 -0.798700
vn -0.547100 0.547800 0.633000
vn 0.020700 0.781600 -0.623400
vn -0.018100 -0.577100 -0.816500
vn -0.445600 -0.415700 0.792800
vn -0.445600 -0.415700 -0.792800
usemtl None
s 1
f 1/1/1 2/1/2 3/1/3
f 4/1/4 5/1/5 2/1/2
f 6/1/6 7/1/7 5/1/5
f 8/1/8 3/1/3 7/1/7
f 2/1/2 5/1/5 7/1/7
f 1/1/1 9/1/9 10/1/10
f 11/1/11 12/1/12 13/1/13
f 4/1/4 10/1/10 11/1/11
f 8/1/8 14/1/14 9/1/9
f 6/1/6 11/1/11 14/1/14
f 15/1/15 16/1/16 17/1/17
f 9/1/9 18/1/18 15/1/15
f 10/1/10 15/1/15 12/1/12
f 14/1/14 13/1/13 18/1/18
f 19/1/19 20/1/20 21/1/21
f 18/1/18 13/1/13 19/1/19
f 12/1/12 17/1/17 19/1/19
f 18/1/18 22/1/22 16/1/16
f 23/1/23 21/1/21 20/1/20
f 17/1/17 24/1/24 20/1/20
f 22/1/22 21/1/21 23/1/23
f 16/1/16 23/1/23 24/1/24
f 25/1/25 26/1/2 27/1/3
f 28/1/26 29/1/5 26/1/2
f 30/1/27 31/1/7 29/1/5
f 32/1/28 27/1/3 31/1/7
f 26/1/2 29/1/5 31/1/7
f 28/1/26 33/1/29 34/1/30
f 35/1/31 36/1/2 37/1/3
f 38/1/32 39/1/5 36/1/2
f 40/1/33 41/1/7 39/1/5
f 42/1/34 37/1/3 41/1/7
f 36/1/2 39/1/5 41/1/7
f 38/1/32 35/1/31 43/1/35
f 44/1/36 45/1/37 46/1/38
f 40/1/33 38/1/32 47/1/39
f 42/1/34 48/1/40 43/1/35
f 40/1/33 44/1/36 48/1/40
f 47/1/39 43/1/35 49/1/41
f 44/1/36 47/1/39 50/1/42
f 43/1/35 48/1/40 46/1/38
f 32/1/28 51/1/43 52/1/44
f 32/1/28 30/1/27 34/1/30
f 25/1/25 52/1/44 33/1/29
f 33/1/29 49/1/41 46/1/38
f 52/1/44 51/1/43 45/1/37
f 34/1/30 46/1/38 45/1/37
f 33/1/29 52/1/44 50/1/42
f 8/1/8 1/1/1 3/1/3
f 1/1/1 4/1/4 2/1/2
f 4/1/4 6/1/6 5/1/5
f 6/1/6 8/1/8 7/1/7
f 3/1/3 2/1/2 7/1/7
f 4/1/4 1/1/1 10/1/10
f 14/1/14 11/1/11 13/1/13
f 6/1/6 4/1/4 11/1/11
f 1/1/1 8/1/8 9/1/9
f 8/1/8 6/1/6 14/1/14
f 12/1/12 15/1/15 17/1/17
f 10/1/10 9/1/9 15/1/15
f 11/1/11 10/1/10 12/1/12
f 9/1/9 14/1/14 18/1/18
f 22/1/22 19/1/19 21/1/21
f 22/1/22 18/1/18 19/1/19
f 13/1/13 12/1/12 19/1/19
f 15/1/15 18/1/18 16/1/16
f 24/1/24 23/1/23 20/1/20
f 19/1/19 17/1/17 20/1/20
f 16/1/16 22/1/22 23/1/23
f 17/1/17 16/1/16 24/1/24
f 32/1/28 25/1/25 27/1/3
f 25/1/25 28/1/26 26/1/2
f 28/1/26 30/1/27 29/1/5
f 30/1/27 32/1/28 31/1/7
f 27/1/3 26/1/2 31/1/7
f 30/1/27 28/1/26 34/1/30
f 42/1/34 35/1/31 37/1/3
f 35/1/31 38/1/32 36/1/2
f 38/1/32 40/1/33 39/1/5
f 40/1/33 42/1/34 41/1/7
f 37/1/3 36/1/2 41/1/7
f 47/1/39 38/1/32 43/1/35
f 48/1/40 44/1/36 46/1/38
f 44/1/36 40/1/33 47/1/39
f 35/1/31 42/1/34 43/1/35
f 42/1/34 40/1/33 48/1/40
f 50/1/42 47/1/39 49/1/41
f 45/1/37 44/1/36 50/1/42
f 49/1/41 43/1/35 46/1/38
f 25/1/25 32/1/28 52/1/44
f 51/1/43 32/1/28 34/1/30
f 28/1/26 25/1/25 33/1/29
f 34/1/30 33/1/29 46/1/38
f 50/1/42 52/1/44 45/1/37
f 51/1/43 34/1/30 45/1/37
f 49/1/41 33/1/29 50/1/42
