#name "NLG-G"
#participants 1
set_dialogue_color 1 0 0.52 0.95
set_dialogue_voice 1 8
set_character_pos 1 203.27 80.1018 -84.787 60
send_character_message 1 "set_eye_dir 203.887 81.2853 -85.9128 1"
send_character_message 1 "set_head_target 203.913 81.8488 -85.954 1"
set_cam 203.973 80.6746 -79.3264 0 2.29 0 61.3958
say 1 "Ghost" "..."
set_character_pos 1 203.27 80.0642 -84.787 60
send_character_message 1 "set_animation \"Data\Custom\timbles\therium-2\Animations\lanterntouch.anm\""
send_character_message 1 "set_head_target 203.913 81.8488 -85.954 0"
say 1 "Ghost" "..."
send_character_message 1 "set_animation \"Data\Animations\r_actionidle.anm\""
say 1 "Ghost" "There's lanterns all around me. [wait 0.3]I can't help but feel like I'm being watched..."
send_level_message "loadlevel Data/Levels/t2/hub.xml"
