# Blender v2.75 (sub 0) OBJ File: 'chain_necklase.blend'
# www.blender.org
mtllib chain_necklase.mtl
o Cube
v -0.064022 -0.000001 0.829218
v -0.300059 -0.000001 0.843101
v -0.300059 0.029130 0.843101
v -0.294821 0.029130 0.750985
v -0.294821 -0.000001 0.750985
v -0.064022 0.029130 0.829218
v -0.098011 0.029130 0.743442
v -0.098011 -0.000001 0.743442
v 0.383200 -0.000001 0.228730
v 0.383200 0.029130 0.228730
v 0.316786 0.029130 0.167877
v 0.316786 -0.000001 0.167877
v 1.237262 -0.000001 -0.829431
v 1.237262 0.029130 -0.829431
v 1.155069 0.029130 -0.866287
v 1.155070 -0.000001 -0.866287
v 1.475125 -0.000001 -2.531621
v 1.475125 0.029130 -2.531621
v 1.389307 0.029130 -2.504248
v 1.389307 -0.000001 -2.504248
v 0.614639 -0.000001 -3.387451
v 0.614639 0.029130 -3.387451
v 0.581027 0.029130 -3.303879
v 0.581027 -0.000001 -3.303880
v -0.086448 -0.000001 -3.304543
v -0.086448 0.029130 -3.304543
v -0.057405 0.029130 -3.219276
v -0.057406 -0.000001 -3.219276
v -0.808353 -0.000001 -2.692703
v -0.808353 0.029130 -2.692703
v -0.724774 0.029130 -2.659111
v -0.724774 -0.000001 -2.659110
v -0.882946 -0.000001 -2.188721
v -0.882946 0.029130 -2.188721
v -0.807917 0.029130 -2.138875
v -0.807917 -0.000001 -2.138875
v -1.108556 -0.000001 -1.684541
v -1.108556 0.029130 -1.684541
v -1.018605 0.029130 -1.689303
v -1.018605 -0.000001 -1.689303
v -0.850530 -0.000001 -0.789567
v -0.850530 0.029130 -0.789567
v -0.767595 0.029130 -0.824721
v -0.767594 -0.000001 -0.824720
v -0.431427 -0.000001 -0.452767
v -0.431427 0.029130 -0.452767
v -0.394364 0.029130 -0.534866
v -0.394363 -0.000001 -0.534865
v 0.286296 -0.000001 -0.766323
v 0.286296 0.029130 -0.766323
v 0.218228 0.029130 -0.825320
v 0.218228 -0.000001 -0.825321
v 0.295018 -0.000001 -1.894447
v 0.295018 0.029130 -1.894447
v 0.212548 0.029130 -1.858215
v 0.212548 -0.000001 -1.858216
v -0.363878 -0.000001 -2.509816
v -0.363878 0.029130 -2.509816
v -0.441130 0.029130 -2.463490
v -0.441131 -0.000001 -2.463491
v -0.336670 -0.000001 -2.833128
v -0.336670 0.029130 -2.833128
v -0.397724 0.029130 -2.899358
v -0.397723 -0.000001 -2.899358
v 0.024846 -0.000001 -2.717055
v 0.024846 0.029130 -2.717055
v 0.076998 0.029130 -2.790500
v 0.076998 -0.000001 -2.790499
v 0.068532 -0.000001 -2.460491
v 0.068532 0.029130 -2.460491
v 0.158321 0.029130 -2.467697
v 0.158321 -0.000001 -2.467697
v 0.218547 -0.000001 -2.212962
v 0.218547 0.029130 -2.212962
v 0.253770 0.029130 -2.295868
v 0.253770 -0.000001 -2.295867
v 0.524397 -0.000001 -2.318728
v 0.524397 0.029130 -2.318728
v 0.447024 0.029130 -2.364852
v 0.447025 -0.000001 -2.364853
v 0.351358 -0.000001 -2.753463
v 0.351358 0.029130 -2.753463
v 0.260776 0.029130 -2.743122
v 0.260776 -0.000001 -2.743123
v 0.436110 -0.000001 -2.549592
v 0.436110 0.029130 -2.549591
v 0.518302 0.029130 -2.586449
v 0.518302 -0.000001 -2.586449
v -0.495317 -0.000001 0.601657
v -0.495317 0.029130 0.601657
v -0.404587 0.029130 0.584899
v -0.404587 -0.000001 0.584899
v -0.360863 -0.000001 0.328908
v -0.360863 0.029130 0.328908
v -0.302942 0.029130 0.400727
v -0.302942 -0.000001 0.400727
v 0.944094 -0.000001 -0.984910
v 0.944094 0.029130 -0.984910
v 1.026358 0.029130 -0.943129
v 1.026358 -0.000001 -0.943129
v 1.268837 -0.000001 -2.355444
v 1.268837 0.029130 -2.355444
v 1.353282 0.029130 -2.392618
v 1.353282 -0.000001 -2.392618
v 0.784507 -0.000001 -3.003284
v 0.784507 0.029130 -3.003284
v 0.843756 0.029130 -3.074011
v 0.843756 -0.000001 -3.074011
v 0.381400 -0.000001 -3.129993
v 0.381400 0.029130 -3.129993
v 0.414656 0.029130 -3.043930
v 0.414656 -0.000001 -3.043930
v 0.406745 -0.000001 -2.207194
v 0.406745 0.029130 -2.207194
v 0.385671 -0.000001 -2.271709
v 0.385670 0.029130 -2.271709
v -0.160636 -0.000001 -2.869000
v -0.160636 0.029130 -2.869000
v -0.165087 -0.000001 -2.938837
v -0.165088 0.029130 -2.938837
v -0.050071 -0.000001 -2.265511
v -0.050071 0.029130 -2.265511
v -0.122930 -0.000001 -2.212546
v -0.122929 0.029130 -2.212545
v 0.371487 -0.000001 -1.325486
v 0.371487 0.029130 -1.325486
v 0.296218 -0.000001 -1.336869
v 0.296218 0.029130 -1.336869
v -0.043173 -0.000001 -0.543411
v -0.043173 0.029130 -0.543411
v -0.058675 -0.000001 -0.613959
v -0.058675 0.029130 -0.613959
v -0.670371 -0.000001 -0.586875
v -0.670371 0.029130 -0.586875
v -0.610372 -0.000001 -0.645501
v -0.610372 0.029130 -0.645502
v -1.023632 -0.000001 -1.215010
v -1.023632 0.029130 -1.215010
v -0.937189 -0.000001 -1.234967
v -0.937189 0.029130 -1.234967
v -1.015346 -0.000001 -1.951327
v -1.015346 0.029130 -1.951327
v -0.932856 -0.000001 -1.928785
v -0.932856 0.029130 -1.928786
v -0.515440 -0.000001 -3.042848
v -0.515440 0.029130 -3.042848
v -0.459129 -0.000001 -2.983418
v -0.459128 0.029130 -2.983419
v 1.119725 -0.000001 -3.032678
v 1.119725 0.029130 -3.032678
v 1.060010 -0.000001 -2.977206
v 1.060010 0.029130 -2.977206
v 1.491401 -0.000001 -1.677587
v 1.491401 0.029130 -1.677587
v 1.407396 -0.000001 -1.682328
v 1.407395 0.029130 -1.682328
v 1.206402 -0.000001 -1.678995
v 1.289755 -0.000001 -1.676692
v 1.289755 0.029130 -1.676692
v 1.206401 0.029130 -1.678995
v 0.109866 -0.000001 0.505950
v 0.059665 -0.000001 0.432635
v 0.059665 0.029130 0.432635
v 0.109866 0.029130 0.505950
v -0.147585 -0.000001 0.211197
v -0.082841 -0.000001 0.274597
v -0.082841 0.029130 0.274597
v -0.147585 0.029130 0.211197
v 0.510949 -0.000001 -0.314671
v 0.437445 -0.000001 -0.367261
v 0.510949 0.029130 -0.314671
v 0.437445 0.029130 -0.367261
v -0.448738 -0.000001 0.781094
v -0.379791 -0.000001 0.710605
v -0.379791 0.029130 0.710605
v -0.448738 0.029130 0.781094
v -0.433388 -0.000001 -2.684161
v -0.433388 0.029130 -2.684161
v -0.526142 -0.000001 -2.696700
v -0.526142 0.029130 -2.696699
v 0.337080 0.029130 -2.915706
v 0.337080 -0.000001 -2.915706
v 0.275162 0.029130 -2.953567
v 0.275162 -0.000001 -2.953568
vt 0.188761 0.579528
vt 0.244506 0.564616
vt 0.244506 0.686643
vt 0.061204 0.246200
vt 0.061204 0.447112
vt 0.003494 0.447112
vt 0.310973 0.561643
vt 0.368671 0.561643
vt 0.368671 0.741529
vt 0.066009 0.035228
vt 0.123203 0.038140
vt 0.121424 0.725186
vt 0.188412 0.140566
vt 0.246123 0.140566
vt 0.246123 0.249135
vt 0.002589 0.720906
vt 0.002589 0.019110
vt 0.060299 0.019110
vt 0.184852 0.035228
vt 0.184852 0.737019
vt 0.129435 0.725179
vt 0.374909 0.035228
vt 0.431729 0.041273
vt 0.426969 0.482081
vt 0.245735 0.631063
vt 0.248296 0.732688
vt 0.189990 0.738178
vt 0.318394 0.482082
vt 0.313634 0.041274
vt 0.370454 0.035228
vt 0.121863 0.152829
vt 0.121863 0.565100
vt 0.064158 0.565100
vt 0.491665 0.483948
vt 0.433968 0.483948
vt 0.433968 0.184748
vt 0.250206 0.476050
vt 0.250206 0.019110
vt 0.307934 0.019110
vt 0.496135 0.503290
vt 0.496135 0.184748
vt 0.553863 0.184748
vt 0.188009 0.363170
vt 0.188009 0.044622
vt 0.243806 0.055218
vt 0.616030 0.517118
vt 0.558273 0.517118
vt 0.558273 0.184748
vt 0.003845 0.458275
vt 0.003845 0.141239
vt 0.058452 0.155340
vt 0.738253 0.200861
vt 0.738253 0.565207
vt 0.687965 0.542915
vt 0.058071 0.717986
vt 0.000362 0.717986
vt 0.000362 0.353682
vt 0.672006 0.542915
vt 0.621718 0.565207
vt 0.621717 0.200861
vt 0.246615 0.401098
vt 0.188918 0.401098
vt 0.188918 0.184748
vt 0.127770 0.697488
vt 0.127770 0.461888
vt 0.182265 0.476268
vt 0.244231 0.168565
vt 0.186519 0.168565
vt 0.186519 0.037290
vt 0.122273 0.044622
vt 0.122273 0.303964
vt 0.066341 0.293843
vt 0.368671 0.558066
vt 0.310973 0.558066
vt 0.310973 0.286150
vt 0.246522 0.406575
vt 0.190643 0.416887
vt 0.194383 0.153972
vt 0.000551 0.619161
vt 0.000551 0.383574
vt 0.058261 0.383574
vt 0.427211 0.320768
vt 0.427211 0.583702
vt 0.371483 0.572868
vt 0.488118 0.547814
vt 0.430421 0.547814
vt 0.430421 0.284869
vt 0.129078 0.199253
vt 0.130465 0.053409
vt 0.183320 0.071373
vt 0.060979 0.639099
vt 0.003845 0.635493
vt 0.008161 0.509392
vt 0.616567 0.391054
vt 0.558869 0.391054
vt 0.558869 0.152829
vt 0.431336 0.375089
vt 0.374484 0.380932
vt 0.374485 0.134680
vt 0.368671 0.690985
vt 0.310973 0.690985
vt 0.310973 0.567961
vt 0.062139 0.289935
vt 0.004431 0.289935
vt 0.004431 0.144097
vt 0.431336 0.384546
vt 0.431336 0.630799
vt 0.374484 0.624954
vt 0.610546 0.284869
vt 0.610546 0.531125
vt 0.552849 0.531125
vt 0.182521 0.674449
vt 0.124657 0.686643
vt 0.124657 0.545231
vt 0.183551 0.589191
vt 0.183551 0.729147
vt 0.129257 0.714272
vt 0.118942 0.670540
vt 0.061237 0.670540
vt 0.061237 0.490743
vt 0.310735 0.080454
vt 0.368432 0.080454
vt 0.368432 0.286209
vt 0.063525 0.713038
vt 0.063525 0.571597
vt 0.121237 0.571597
vt 0.010528 0.229121
vt 0.056030 0.200861
vt 0.056030 0.406624
vt 0.193953 0.302335
vt 0.194470 0.096572
vt 0.239901 0.124908
vt 0.433461 0.152829
vt 0.491188 0.152829
vt 0.491188 0.419903
vt 0.256479 0.298526
vt 0.304942 0.273716
vt 0.304942 0.565625
vt 0.493830 0.592898
vt 0.493830 0.300989
vt 0.542292 0.325799
vt 0.127227 0.414091
vt 0.184924 0.414091
vt 0.184924 0.623214
vt 0.312702 0.152829
vt 0.370429 0.152829
vt 0.370429 0.449109
vt 0.311063 0.118564
vt 0.368760 0.118564
vt 0.368760 0.380087
vt 0.429319 0.305717
vt 0.374158 0.318315
vt 0.375744 0.113073
vt 0.183554 0.050625
vt 0.180674 0.312133
vt 0.126728 0.296449
vt 0.126139 0.293571
vt 0.183851 0.293571
vt 0.183851 0.421661
vt 0.192973 0.579752
vt 0.189413 0.482929
vt 0.245681 0.474122
vt 0.196543 0.620576
vt 0.252811 0.629385
vt 0.249251 0.726207
vt 0.122772 0.618505
vt 0.065060 0.618505
vt 0.065060 0.471968
vt 0.251607 0.481743
vt 0.309334 0.481743
vt 0.309334 0.578630
vt 0.301794 0.683653
vt 0.244097 0.683653
vt 0.244097 0.559914
vt 0.066853 0.751585
vt 0.066409 0.628993
vt 0.123583 0.625848
vt 0.123368 0.209096
vt 0.065656 0.209096
vt 0.065656 0.037290
vt 0.305521 0.447235
vt 0.254044 0.472582
vt 0.254044 0.350804
vt 0.119748 0.403941
vt 0.066915 0.434122
vt 0.066915 0.262321
vt 0.190826 0.738788
vt 0.133128 0.738788
vt 0.133128 0.604439
vt 0.307761 0.577775
vt 0.307761 0.749576
vt 0.254272 0.719396
vt 0.309156 0.475067
vt 0.251429 0.475067
vt 0.251429 0.373650
vt 0.068776 0.306062
vt 0.068776 0.156685
vt 0.120639 0.183855
vt 0.241870 0.607724
vt 0.190643 0.586887
vt 0.195370 0.485516
vt 0.183882 0.691104
vt 0.126169 0.691104
vt 0.126169 0.621903
vt 0.306527 0.570662
vt 0.253121 0.587521
vt 0.253121 0.490348
vt 0.370935 0.648487
vt 0.370935 0.499088
vt 0.428633 0.499088
vt 0.306285 0.508791
vt 0.306284 0.605964
vt 0.252880 0.589105
vt 0.002589 0.736761
vt 0.002589 0.639605
vt 0.060299 0.639605
vt 0.070961 0.604439
vt 0.128673 0.604439
vt 0.128673 0.761378
vt 0.006798 0.338137
vt 0.058942 0.309676
vt 0.058942 0.466613
vt 0.184661 0.455677
vt 0.126697 0.463184
vt 0.129186 0.337478
vt 0.731601 0.197412
vt 0.737795 0.305860
vt 0.684542 0.325888
vt 0.188054 0.019110
vt 0.245766 0.019110
vt 0.245766 0.706184
vt 0.250489 0.640082
vt 0.250489 0.538456
vt 0.308202 0.538456
vt 0.312216 0.336800
vt 0.370454 0.342747
vt 0.362620 0.725632
vt 0.617341 0.358868
vt 0.559644 0.358868
vt 0.559644 0.227946
vt 0.186370 0.667798
vt 0.186370 0.284869
vt 0.244083 0.284869
vt 0.184505 0.480242
vt 0.184505 0.605964
vt 0.126697 0.597703
vt 0.684316 0.035228
vt 0.741503 0.045962
vt 0.741449 0.463413
vt 0.132773 0.689821
vt 0.124939 0.306936
vt 0.183177 0.300989
vt 0.246198 0.152829
vt 0.246198 0.523794
vt 0.188486 0.523794
vt 0.059702 0.152829
vt 0.059702 0.570285
vt 0.001992 0.570285
vt 0.317321 0.272837
vt 0.314709 0.080822
vt 0.366522 0.058445
vt 0.559227 0.019110
vt 0.616983 0.019110
vt 0.616983 0.458228
vt 0.248568 0.272471
vt 0.248568 0.080454
vt 0.306295 0.080454
vt 0.679861 0.035228
vt 0.679861 0.474333
vt 0.622728 0.463413
vt 0.307708 0.144957
vt 0.252065 0.162272
vt 0.252065 0.053409
vt 0.301533 0.415253
vt 0.252333 0.441222
vt 0.252333 0.200861
vt 0.060630 0.268865
vt 0.002921 0.268865
vt 0.002921 0.028505
vt 0.299267 0.474122
vt 0.300158 0.580405
vt 0.253545 0.551465
vt 0.184096 0.181392
vt 0.183833 0.276837
vt 0.131023 0.294888
vt 0.056640 0.497657
vt 0.056640 0.619519
vt -0.001066 0.619519
vt 0.307815 0.670540
vt 0.250102 0.670540
vt 0.250102 0.574994
vt 0.314221 0.246200
vt 0.371919 0.246200
vt 0.371919 0.329334
vt 0.801639 0.152829
vt 0.801639 0.291037
vt 0.743882 0.291037
vt 0.134059 0.486903
vt 0.182602 0.462196
vt 0.182602 0.600400
vt 0.126038 0.231184
vt 0.134189 0.096572
vt 0.179597 0.125847
vt 0.497088 0.019110
vt 0.554816 0.019110
vt 0.554816 0.459927
vt 0.127882 0.276704
vt 0.182376 0.262321
vt 0.184251 0.384046
vt 0.126184 0.458020
vt 0.183882 0.457990
vt 0.183882 0.592756
vt 0.187697 0.467825
vt 0.245408 0.467825
vt 0.245408 0.589836
vt 0.235991 0.726807
vt 0.178293 0.726807
vt 0.178293 0.649440
vt 0.190643 0.609888
vt 0.196255 0.420502
vt 0.240227 0.452044
vt 0.251002 0.444346
vt 0.253904 0.395851
vt 0.309274 0.380047
vt 0.009173 0.492565
vt 0.054067 0.461889
vt 0.054067 0.651329
vt 0.250169 0.646009
vt 0.309053 0.661814
vt 0.308441 0.710309
vt 0.250237 0.582206
vt 0.307934 0.582206
vt 0.307934 0.630784
vt 0.434623 0.199574
vt 0.492320 0.199574
vt 0.492320 0.308442
vt 0.187517 0.593650
vt 0.187517 0.509995
vt 0.245230 0.509995
vt 0.435791 0.627413
vt 0.435791 0.543746
vt 0.491753 0.558759
vt 0.059217 0.706933
vt 0.004073 0.721947
vt 0.004073 0.638279
vt 0.312702 0.286299
vt 0.370429 0.286299
vt 0.370429 0.343877
vt 0.059333 0.706407
vt 0.005696 0.729147
vt 0.003669 0.582955
vt 0.059420 0.121919
vt 0.055658 0.214585
vt 0.011381 0.218350
vt 0.741379 0.405061
vt 0.683682 0.405061
vt 0.683682 0.312346
vt 0.245572 0.447053
vt 0.187860 0.447053
vt 0.187860 0.325281
vt 0.437663 0.649537
vt 0.437663 0.444291
vt 0.492725 0.457169
vt 0.253749 0.149972
vt 0.307866 0.134680
vt 0.307866 0.396198
vt 0.184463 0.184748
vt 0.184463 0.389981
vt 0.126750 0.389981
vt 0.497953 0.152829
vt 0.555651 0.152829
vt 0.555651 0.404674
vt 0.184924 0.118564
vt 0.184924 0.410485
vt 0.127227 0.410485
vt 0.311959 0.300989
vt 0.358453 0.311986
vt 0.367028 0.584402
vt 0.371472 0.452364
vt 0.380048 0.179948
vt 0.426541 0.168951
vt 0.065060 0.195834
vt 0.122772 0.195834
vt 0.122772 0.468332
vt 0.058039 0.481346
vt 0.058039 0.686643
vt 0.003043 0.672867
vt 0.059352 0.592188
vt 0.004726 0.605964
vt 0.004726 0.400667
vt 0.003494 0.037290
vt 0.061204 0.037290
vt 0.061204 0.242594
vt 0.120984 0.589836
vt 0.063279 0.589836
vt 0.063279 0.411856
vt 0.682609 0.404763
vt 0.682609 0.264811
vt 0.740306 0.264811
vt 0.244950 0.514790
vt 0.244950 0.656202
vt 0.189583 0.644008
vt 0.244916 0.387402
vt 0.190622 0.402277
vt 0.190622 0.262321
vt 0.245781 0.607002
vt 0.188068 0.607002
vt 0.188068 0.481743
vt 0.121944 0.426161
vt 0.121944 0.663209
vt 0.064240 0.663209
vt 0.246607 0.447142
vt 0.246597 0.684188
vt 0.190873 0.676913
vt 0.368045 0.629585
vt 0.312321 0.636858
vt 0.312321 0.399812
vt 0.742034 0.261206
vt 0.684278 0.261206
vt 0.684278 0.032100
vt 0.740961 0.405091
vt 0.683264 0.405091
vt 0.683264 0.264811
vt 0.121275 0.455523
vt 0.067002 0.458582
vt 0.068250 0.327307
vt 0.067834 0.602479
vt 0.067834 0.462196
vt 0.120652 0.472773
vt 0.188918 0.330317
vt 0.246630 0.330317
vt 0.246630 0.456470
vt 0.371800 0.444073
vt 0.371800 0.184748
vt 0.429527 0.184748
vt 0.305472 0.641003
vt 0.253735 0.636124
vt 0.250977 0.419782
vt 0.364532 0.450081
vt 0.308601 0.460202
vt 0.308601 0.200861
vt 0.558333 0.510621
vt 0.616030 0.510621
vt 0.616030 0.751066
vt 0.304060 0.363170
vt 0.253345 0.354406
vt 0.248262 0.055218
vt 0.127658 0.155339
vt 0.182265 0.141238
vt 0.182265 0.458274
vt 0.188054 0.110376
vt 0.245766 0.110376
vt 0.245766 0.427413
vt 0.064240 0.125128
vt 0.121944 0.125128
vt 0.121944 0.422555
vt 0.744717 0.019110
vt 0.802414 0.019110
vt 0.802414 0.443387
vt 0.434921 0.019110
vt 0.492648 0.019110
vt 0.492648 0.459957
vt 0.808122 0.462786
vt 0.809663 0.038501
vt 0.863039 0.035228
vt 0.867495 0.035228
vt 0.920871 0.038501
vt 0.922412 0.462787
vt 0.184031 0.152829
vt 0.184031 0.555086
vt 0.126318 0.555086
vt 0.251471 0.687393
vt 0.251470 0.336800
vt 0.304409 0.339570
vt 0.248537 0.635493
vt 0.248537 0.284869
vt 0.306234 0.284869
vt 0.251903 0.171569
vt 0.304854 0.168951
vt 0.303325 0.519541
vt 0.437570 0.347965
vt 0.493059 0.339213
vt 0.493059 0.540132
vt 0.435791 0.335599
vt 0.435791 0.134680
vt 0.491281 0.143432
vt 0.064583 0.184748
vt 0.122295 0.184748
vt 0.122295 0.375199
vt 0.678019 0.152829
vt 0.678019 0.342268
vt 0.620321 0.342268
vt 0.312370 0.794386
vt 0.312370 0.369785
vt 0.370011 0.370540
vt 0.186847 0.353682
vt 0.244559 0.353682
vt 0.244559 0.785398
vt 0.250273 0.370454
vt 0.307915 0.369785
vt 0.306960 0.794383
vt 0.062619 0.080454
vt 0.120328 0.080454
vt 0.120328 0.206175
vt 0.001282 0.304058
vt 0.058656 0.300989
vt 0.058603 0.713276
vt 0.062526 0.353682
vt 0.120231 0.353682
vt 0.120231 0.773120
vt 0.063111 0.713274
vt 0.063111 0.300989
vt 0.120484 0.304063
vt 0.182391 0.353682
vt 0.182391 0.778246
vt 0.124686 0.778246
vt 0.063584 0.516313
vt 0.121289 0.516313
vt 0.121289 0.582445
vt 0.189465 0.405351
vt 0.189465 0.309676
vt 0.248088 0.335946
vt 0.188241 0.630285
vt 0.246956 0.604014
vt 0.246956 0.699689
vt 0.308112 0.466961
vt 0.308112 0.562656
vt 0.250401 0.562656
vt 0.616209 0.507015
vt 0.558512 0.507015
vt 0.558512 0.415343
vt 0.129608 0.727835
vt 0.129608 0.604014
vt 0.183722 0.624170
vt 0.253762 0.282477
vt 0.307876 0.262321
vt 0.307876 0.386142
vt 0.245111 0.640082
vt 0.187413 0.640082
vt 0.187413 0.516254
vt 0.187681 0.606763
vt 0.245379 0.606763
vt 0.245379 0.713038
vt 0.308380 0.236961
vt 0.250669 0.236961
vt 0.250669 0.152904
vt 0.245858 0.462196
vt 0.245858 0.571058
vt 0.191047 0.553743
vt 0.300012 0.697920
vt 0.253568 0.727038
vt 0.253840 0.620753
vt 0.186200 0.681154
vt 0.003494 0.246200
vt 0.310973 0.741529
vt 0.066009 0.737026
vt 0.188412 0.249135
vt 0.060299 0.720906
vt 0.127658 0.038139
vt 0.374909 0.492180
vt 0.189990 0.616150
vt 0.370454 0.492182
vt 0.064158 0.152829
vt 0.491665 0.184748
vt 0.307934 0.476050
vt 0.553863 0.503290
vt 0.238723 0.354406
vt 0.616030 0.184748
vt 0.055249 0.452753
vt 0.682213 0.210578
vt 0.058071 0.353682
vt 0.677758 0.210578
vt 0.246615 0.184748
vt 0.179507 0.692610
vt 0.244231 0.037290
vt 0.071340 0.053459
vt 0.368671 0.286150
vt 0.246522 0.134680
vt 0.058261 0.619161
vt 0.375350 0.300989
vt 0.488118 0.284869
vt 0.183320 0.202651
vt 0.060979 0.498816
vt 0.616567 0.152829
vt 0.430860 0.136875
vt 0.368671 0.567961
vt 0.062139 0.144097
vt 0.374960 0.386742
vt 0.552849 0.284869
vt 0.181744 0.549289
vt 0.130243 0.591235
vt 0.118942 0.490743
vt 0.310735 0.286209
vt 0.121237 0.713038
vt 0.010081 0.407110
vt 0.239901 0.302898
vt 0.433461 0.419903
vt 0.256513 0.565582
vt 0.542259 0.592855
vt 0.127227 0.623214
vt 0.312702 0.449109
vt 0.311063 0.380087
vt 0.429319 0.096572
vt 0.126728 0.044622
vt 0.126139 0.421661
vt 0.245681 0.602226
vt 0.196543 0.748681
vt 0.122772 0.471968
vt 0.251607 0.578630
vt 0.301794 0.559914
vt 0.123583 0.772375
vt 0.123368 0.037290
vt 0.305683 0.354569
vt 0.123427 0.270035
vt 0.190826 0.604439
vt 0.251249 0.585489
vt 0.309156 0.373650
vt 0.120004 0.285225
vt 0.241870 0.458347
vt 0.183882 0.621903
vt 0.307049 0.502240
vt 0.428633 0.648487
vt 0.254207 0.520683
vt 0.060299 0.736761
vt 0.070961 0.761378
vt 0.005688 0.446585
vt 0.184661 0.324755
vt 0.684542 0.168951
vt 0.188054 0.706184
vt 0.308202 0.640082
vt 0.312216 0.739051
vt 0.617341 0.227946
vt 0.244083 0.667798
vt 0.129289 0.466798
vt 0.684316 0.474334
vt 0.183177 0.703240
vt 0.188486 0.152829
vt 0.001993 0.152829
vt 0.366522 0.298805
vt 0.559227 0.458228
vt 0.306295 0.272471
vt 0.622674 0.045962
vt 0.309109 0.061922
vt 0.304145 0.223238
vt 0.060630 0.028505
vt 0.253095 0.474122
vt 0.131023 0.156685
vt -0.001066 0.497657
vt 0.307815 0.574994
vt 0.314221 0.329334
vt 0.743882 0.152829
vt 0.129793 0.582348
vt 0.179597 0.247719
vt 0.497088 0.459927
vt 0.127882 0.411478
vt 0.126184 0.592756
vt 0.187697 0.589836
vt 0.235991 0.649440
vt 0.240227 0.631909
vt 0.309274 0.463184
vt 0.003845 0.672378
vt 0.250169 0.729147
vt 0.250237 0.630784
vt 0.434623 0.308442
vt 0.245230 0.593650
vt 0.490952 0.614812
vt 0.059233 0.650881
vt 0.312702 0.343877
vt 0.060975 0.582955
vt 0.011381 0.096572
vt 0.741379 0.312346
vt 0.245572 0.325281
vt 0.491109 0.666309
vt 0.250977 0.401788
vt 0.126750 0.184748
vt 0.497953 0.404674
vt 0.127227 0.118564
vt 0.311959 0.597265
vt 0.426541 0.465226
vt 0.065060 0.468332
vt 0.002686 0.493379
vt 0.060079 0.412700
vt 0.003494 0.242594
vt 0.120984 0.411856
vt 0.740306 0.404763
vt 0.187863 0.518846
vt 0.243930 0.264364
vt 0.245781 0.481743
vt 0.064240 0.426161
vt 0.189307 0.447814
vt 0.369621 0.400486
vt 0.742034 0.032100
vt 0.740961 0.264811
vt 0.121275 0.309676
vt 0.124968 0.598873
vt 0.188918 0.456470
vt 0.429527 0.444073
vt 0.305472 0.405402
vt 0.359534 0.209698
vt 0.558333 0.751066
vt 0.304059 0.044622
vt 0.130862 0.452753
vt 0.188054 0.427413
vt 0.064240 0.422555
vt 0.744717 0.443387
vt 0.434921 0.459957
vt 0.863039 0.476066
vt 0.867495 0.476068
vt 0.126318 0.152829
vt 0.302793 0.710502
vt 0.306234 0.635493
vt 0.251903 0.542504
vt 0.435791 0.538430
vt 0.493059 0.333897
vt 0.064583 0.375199
vt 0.620321 0.152829
vt 0.369040 0.802278
vt 0.186847 0.785398
vt 0.250273 0.802191
vt 0.062619 0.206175
vt 0.001282 0.723526
vt 0.062526 0.773120
vt 0.120432 0.723529
vt 0.124686 0.353682
vt 0.063584 0.582445
vt 0.248013 0.401957
vt 0.188408 0.696295
vt 0.250401 0.466961
vt 0.616209 0.415343
vt 0.184970 0.715828
vt 0.252514 0.374135
vt 0.245111 0.516254
vt 0.187681 0.713038
vt 0.308380 0.152904
vt 0.188814 0.470708
vt 0.300012 0.620576
vn -0.292100 -0.840700 -0.455900
vn 0.425400 -0.612100 0.666600
vn -0.125800 -0.659800 0.740800
vn 0.540700 -0.740500 0.399200
vn 0.535600 -0.696100 0.478100
vn 0.535600 0.696100 0.478100
vn -0.292100 0.840700 -0.455900
vn -0.600500 0.674800 -0.428800
vn -0.521000 -0.717300 -0.462500
vn -0.581100 -0.752300 -0.310300
vn 0.602100 0.792900 0.093900
vn 0.602100 -0.792900 0.093900
vn 0.452000 -0.773100 0.444800
vn 0.659700 0.666200 0.347700
vn -0.581100 0.752300 -0.310300
vn 0.659700 -0.666200 0.347700
vn -0.660600 -0.745000 -0.092400
vn 0.129600 0.764900 -0.630900
vn -0.125800 0.659800 0.740800
vn -0.660600 0.745000 -0.092400
vn -0.513700 0.719000 -0.468100
vn -0.577000 0.745500 -0.333600
vn -0.577000 -0.745500 -0.333600
vn -0.465300 -0.750200 0.469800
vn -0.465300 0.750200 0.469800
vn -0.139700 0.797000 0.587600
vn 0.732000 0.673900 0.100200
vn 0.523200 -0.670800 -0.525600
vn 0.189100 -0.634900 -0.749100
vn 0.189100 0.634900 -0.749100
vn 0.523200 0.670800 -0.525600
vn -0.139700 -0.797000 0.587600
vn 0.213400 0.754500 0.620500
vn 0.724700 -0.646400 -0.238500
vn -0.597000 -0.778300 0.194600
vn -0.244800 -0.662100 -0.708300
vn -0.244800 0.662100 -0.708300
vn 0.430800 -0.748900 0.503500
vn 0.430800 0.748900 0.503500
vn 0.581100 0.770800 0.261100
vn -0.483100 0.672300 -0.560900
vn -0.692700 0.650800 -0.310800
vn 0.618900 -0.729400 0.291500
vn 0.618900 0.729400 0.291500
vn 0.635900 0.770000 0.053000
vn -0.483100 -0.672300 -0.560900
vn 0.213400 -0.754600 0.620500
vn 0.581100 -0.770800 0.261100
vn 0.700400 0.667100 0.253700
vn -0.626300 0.749900 -0.213000
vn -0.692700 -0.650800 -0.310800
vn -0.626300 -0.749900 -0.213000
vn -0.661700 0.688200 -0.297400
vn -0.754100 0.654000 -0.059400
vn 0.700400 -0.667100 0.253700
vn 0.635900 -0.769900 0.053000
vn 0.653800 0.732000 -0.191300
vn -0.700000 0.684500 0.203300
vn 0.565800 -0.745800 -0.351600
vn 0.565800 0.745800 -0.351600
vn 0.405300 0.751900 -0.520000
vn -0.661700 -0.688200 -0.297400
vn -0.754100 -0.654000 -0.059400
vn -0.700000 -0.684500 0.203300
vn -0.464600 0.671700 0.577100
vn -0.108700 0.634000 0.765600
vn -0.464600 -0.671700 0.577100
vn -0.629600 -0.670900 0.391700
vn -0.279200 -0.757200 -0.590400
vn -0.279200 0.757200 -0.590400
vn -0.514000 0.801800 -0.304700
vn -0.108700 -0.634000 0.765600
vn 0.297900 -0.668400 0.681500
vn 0.073400 0.793600 -0.603900
vn 0.297900 0.668400 0.681500
vn 0.073400 -0.793600 -0.603900
vn -0.514000 -0.801800 -0.304700
vn -0.668600 0.743600 0.002600
vn 0.658500 0.627000 0.416100
vn 0.736400 0.676500 0.006500
vn 0.736400 -0.676500 0.006500
vn 0.658500 -0.627000 0.416100
vn -0.465400 -0.723800 0.509400
vn -0.465400 0.723700 0.509400
vn -0.615400 0.650400 0.445200
vn 0.691000 -0.644800 -0.326500
vn 0.691000 0.644800 -0.326500
vn 0.489200 -0.689500 -0.534000
vn 0.489200 0.689500 -0.534000
vn 0.509100 0.771100 -0.382500
vn -0.561200 -0.779900 0.277100
vn -0.615400 -0.650500 0.445200
vn -0.780100 0.619900 -0.084300
vn 0.560200 -0.826500 0.055200
vn 0.509100 -0.771100 -0.382500
vn 0.560200 0.826500 0.055200
vn 0.146400 -0.635900 -0.757700
vn 0.146400 0.635900 -0.757700
vn 0.624900 0.631200 -0.459400
vn -0.138300 0.817600 0.558900
vn -0.138300 -0.817600 0.558900
vn -0.524300 -0.795100 0.304800
vn -0.524300 0.795100 0.304800
vn 0.624900 -0.631200 -0.459400
vn 0.627900 0.737500 -0.248500
vn 0.333800 -0.805300 0.490000
vn -0.431900 -0.626000 -0.649300
vn 0.627900 -0.737500 -0.248500
vn -0.697800 -0.667300 0.260100
vn 0.336200 0.816900 -0.468500
vn -0.697800 0.667300 0.260100
vn -0.397900 0.613800 0.681800
vn 0.336200 -0.816900 -0.468500
vn -0.203900 0.854600 -0.477600
vn 0.276500 0.629900 0.725700
vn -0.397900 -0.613800 0.681800
vn 0.276500 -0.629900 0.725700
vn -0.767300 -0.636400 -0.078500
vn -0.767300 0.636400 -0.078500
vn -0.552400 0.645500 -0.527400
vn -0.552400 -0.645500 -0.527400
vn -0.403200 -0.739300 -0.539200
vn 0.452000 0.773100 0.444800
vn -0.521000 0.717300 -0.462500
vn 0.645200 -0.670700 0.365800
vn -0.656900 -0.738600 -0.151500
vn 0.444900 -0.678900 0.584000
vn -0.403200 0.739300 -0.539200
vn 0.743200 -0.634800 -0.211100
vn -0.580700 -0.797400 0.163800
vn -0.291800 -0.808600 0.510800
vn -0.656900 0.738600 -0.151500
vn 0.645200 0.670700 0.365800
vn 0.716600 -0.679400 0.157700
vn 0.743200 0.634800 -0.211100
vn -0.580700 0.797400 0.163800
vn -0.291800 0.808600 0.510800
vn 0.233000 -0.850200 0.471900
vn -0.350000 -0.602800 -0.717000
vn 0.389600 -0.628400 -0.673300
vn 0.233000 0.850200 0.471900
vn 0.389600 0.628400 -0.673300
vn 0.604400 0.784100 0.140400
vn -0.718300 0.657900 -0.226200
vn -0.734700 0.628700 0.254900
vn -0.350000 0.602800 -0.717000
vn -0.718300 -0.657900 -0.226200
vn -0.597900 -0.785400 -0.160100
vn -0.565200 -0.790000 0.237300
vn 0.712500 -0.632200 -0.304500
vn 0.552500 -0.792700 -0.257700
vn 0.552500 0.792700 -0.257700
vn -0.597900 0.785400 -0.160200
vn -0.565200 0.790000 0.237300
vn -0.592900 0.619400 0.514600
vn 0.719700 -0.626200 0.299800
vn 0.712500 0.632200 -0.304500
vn 0.719700 0.626200 0.299800
vn -0.734700 -0.628700 0.254900
vn 0.425400 0.612100 0.666600
vn 0.447800 -0.823500 -0.348200
vn 0.129600 -0.764900 -0.630900
vn 0.540700 0.740500 0.399200
vn 0.447800 0.823500 -0.348200
vn -0.203900 -0.854600 -0.477600
vn 0.333800 0.805300 0.490000
vn -0.431900 0.626000 -0.649300
vn -0.561200 0.779900 0.277000
vn -0.668600 -0.743600 0.002600
vn 0.405300 -0.751900 -0.520000
vn -0.629600 0.670900 0.391700
vn 0.653800 -0.732000 -0.191300
vn -0.597000 0.778300 0.194600
vn 0.724700 0.646400 -0.238500
vn 0.732000 -0.673900 0.100200
vn 0.716600 0.679400 0.157700
vn -0.600500 -0.674800 -0.428800
vn 0.444900 0.678900 0.584000
vn 0.531300 -0.695800 0.483300
vn -0.513700 -0.719000 -0.468100
vn 0.531300 0.695800 0.483300
vn -0.592900 -0.619400 0.514600
vn -0.780100 -0.619900 -0.084300
vn 0.604400 -0.784100 0.140400
usemtl Material
s 1
f 8/1/1 1/2/2 2/3/3
f 161/4/4 9/5/5 10/6/6
f 8/7/1 7/8/7 163/9/8
f 9/10/5 12/11/9 16/12/10
f 91/13/11 92/14/12 96/15/13
f 14/16/14 10/17/6 9/18/5
f 10/19/6 14/20/14 15/21/15
f 13/22/16 16/23/10 155/24/17
f 7/25/7 4/26/18 3/27/19
f 156/28/20 15/29/15 14/30/14
f 172/31/21 98/32/22 97/33/23
f 151/34/24 152/35/25 23/36/26
f 154/37/27 14/38/14 13/39/16
f 149/40/28 21/41/29 22/42/30
f 150/43/31 22/44/30 23/45/26
f 24/46/32 23/47/26 27/48/33
f 149/49/28 17/50/34 20/51/35
f 25/52/36 21/53/29 24/54/32
f 22/55/30 21/56/29 25/57/36
f 23/58/26 22/59/30 26/60/37
f 147/61/38 148/62/39 31/63/40
f 146/64/41 30/65/42 31/66/40
f 143/67/43 144/68/44 39/69/45
f 145/70/46 25/71/36 28/72/47
f 32/73/48 31/74/40 35/75/49
f 31/76/40 30/77/42 34/78/50
f 145/79/46 29/80/51 30/81/42
f 33/82/52 29/83/51 32/84/48
f 30/85/42 29/86/51 33/87/52
f 142/88/53 38/89/54 39/90/45
f 33/91/52 36/92/55 143/93/43
f 40/94/56 39/95/45 140/96/57
f 39/97/45 38/98/54 138/99/58
f 44/100/59 43/101/60 136/102/61
f 142/103/53 141/104/62 37/105/63
f 137/106/64 37/107/63 40/108/56
f 138/109/58 38/110/54 37/111/63
f 136/112/61 134/113/65 46/114/66
f 133/115/67 41/116/68 44/117/59
f 131/118/69 132/119/70 51/120/71
f 46/121/66 45/122/72 129/123/73
f 133/124/67 45/125/72 46/126/66
f 47/127/74 46/128/66 130/129/75
f 129/130/73 45/131/72 48/132/76
f 52/133/77 51/134/71 128/135/78
f 51/136/71 50/137/79 126/138/80
f 125/139/81 49/140/82 52/141/77
f 123/142/83 124/143/84 59/144/85
f 126/145/80 125/146/81 53/147/86
f 54/148/87 53/149/86 121/150/88
f 124/151/84 122/152/89 58/153/90
f 121/154/88 53/155/86 56/156/91
f 60/157/92 59/158/85 180/159/93
f 177/160/94 57/161/95 60/162/92
f 59/163/85 58/164/90 178/165/96
f 119/166/97 120/167/98 67/168/99
f 58/169/90 57/170/95 177/171/94
f 118/172/100 117/173/101 65/174/102
f 118/175/100 66/176/103 67/177/99
f 68/178/104 67/179/99 71/180/105
f 61/181/106 64/182/107 119/183/97
f 65/184/102 68/185/104 72/186/108
f 66/187/103 65/188/102 69/189/109
f 71/190/105 67/191/99 66/192/103
f 72/193/108 71/194/105 75/195/110
f 70/196/111 74/197/112 75/198/110
f 69/199/109 72/200/108 76/201/113
f 76/202/113 75/203/110 116/204/114
f 75/205/110 74/206/112 114/207/115
f 69/208/109 73/209/116 74/210/112
f 113/211/117 73/212/116 76/213/113
f 114/214/115 74/215/112 73/216/116
f 89/217/118 90/218/119 94/219/120
f 92/220/12 89/221/118 93/222/121
f 96/223/13 93/224/121 165/225/122
f 91/226/11 95/227/123 94/228/120
f 12/229/9 11/230/124 15/231/15
f 4/232/18 7/233/7 8/234/1
f 100/235/125 97/236/23 157/237/126
f 95/238/123 96/239/13 166/240/127
f 157/241/126 97/242/23 98/243/22
f 168/244/128 94/245/120 95/246/123
f 104/247/129 101/248/130 105/249/131
f 160/250/132 98/251/22 99/252/133
f 158/253/134 104/254/129 103/255/135
f 102/256/136 106/257/137 105/258/131
f 105/259/131 112/260/138 109/261/139
f 103/262/135 104/263/129 108/264/140
f 106/265/137 111/266/141 112/267/138
f 103/268/135 107/269/142 106/270/137
f 181/271/143 183/272/144 83/273/145
f 106/274/137 107/275/142 110/276/146
f 107/277/142 108/278/140 109/279/139
f 184/280/147 109/281/139 112/282/138
f 80/283/148 85/284/149 88/285/150
f 88/286/150 81/287/151 82/288/152
f 80/289/148 79/290/153 86/291/154
f 2/292/3 3/293/19 176/294/155
f 77/295/156 88/296/150 87/297/157
f 79/298/153 78/299/158 87/300/157
f 85/301/149 84/302/159 81/303/151
f 16/304/10 15/305/15 156/306/20
f 86/307/154 87/308/157 82/309/152
f 85/310/149 86/311/154 83/312/145
f 1/313/2 6/314/160 3/315/19
f 112/316/138 111/317/141 181/318/143
f 161/319/4 1/320/2 8/321/1
f 174/322/161 5/323/162 2/324/3
f 7/325/7 6/326/160 164/327/163
f 3/328/19 4/329/18 175/330/164
f 4/331/18 5/332/162 174/333/161
f 183/334/144 184/335/147 84/336/159
f 78/337/158 114/338/115 113/339/117
f 77/340/156 113/341/117 115/342/165
f 116/343/114 114/344/115 78/345/158
f 115/346/165 116/347/114 79/348/153
f 117/349/101 119/350/97 68/351/104
f 62/352/166 118/353/100 120/354/98
f 62/355/166 61/356/106 117/357/101
f 64/358/107 63/359/167 120/360/98
f 57/361/95 121/362/88 123/363/83
f 55/364/168 54/365/87 122/366/89
f 58/367/90 122/368/89 121/369/88
f 56/370/91 55/371/168 124/372/84
f 49/373/82 125/374/81 126/375/80
f 125/376/81 127/377/169 56/378/91
f 55/379/168 128/380/78 126/381/80
f 127/382/169 128/383/78 55/384/168
f 49/385/82 129/386/73 131/387/69
f 132/388/70 130/389/75 50/390/79
f 130/391/75 129/392/73 49/393/82
f 48/394/76 47/395/74 132/396/70
f 41/397/68 133/398/67 134/399/65
f 45/400/72 133/401/67 135/402/170
f 43/403/60 42/404/171 134/405/65
f 135/406/170 136/407/61 47/408/74
f 42/409/171 138/410/58 137/411/64
f 41/412/68 137/413/64 139/414/172
f 140/415/57 138/416/58 42/417/171
f 139/418/172 140/419/57 43/420/60
f 34/421/50 33/422/52 141/423/62
f 141/424/62 143/425/43 40/426/56
f 34/427/50 142/428/53 144/429/44
f 36/430/55 35/431/49 144/432/44
f 25/433/36 145/434/46 146/435/41
f 145/436/46 147/437/38 32/438/48
f 27/439/33 26/440/37 146/441/41
f 28/442/47 27/443/33 148/444/39
f 149/445/28 151/446/24 24/447/32
f 19/448/173 18/449/174 150/450/31
f 18/451/174 17/452/34 149/453/28
f 20/454/35 19/455/173 152/456/25
f 155/457/17 156/458/20 19/459/173
f 154/460/27 153/461/175 17/462/34
f 19/463/173 156/464/20 154/465/27
f 153/466/175 155/467/17 20/468/35
f 100/469/125 158/470/134 159/471/176
f 102/472/136 160/473/132 159/474/176
f 101/475/130 157/476/126 160/477/132
f 158/478/134 157/479/126 101/480/130
f 163/481/8 164/482/163 10/483/6
f 9/484/5 161/485/4 162/486/177
f 162/487/177 163/488/8 11/489/124
f 1/490/2 161/491/4 164/492/163
f 172/493/21 168/494/128 167/495/178
f 167/496/178 166/497/127 169/498/179
f 166/499/127 165/500/122 170/501/180
f 93/502/121 94/503/120 168/504/128
f 169/505/179 170/506/180 97/507/23
f 171/508/181 169/509/179 100/510/125
f 98/511/22 172/512/21 171/513/181
f 168/514/128 172/515/21 170/516/180
f 175/517/164 174/518/161 92/519/12
f 90/520/119 176/521/155 175/522/164
f 174/523/161 173/524/182 89/525/118
f 89/526/118 173/527/182 176/528/155
f 178/529/96 177/530/94 61/531/106
f 63/532/167 180/533/93 178/534/96
f 177/535/94 179/536/183 64/537/107
f 179/538/183 180/539/93 63/540/167
f 110/541/146 109/542/139 184/543/147
f 182/544/184 181/545/143 82/546/152
f 84/547/159 184/548/147 182/549/184
f 111/550/141 110/551/146 183/552/144
f 5/553/162 8/1/1 2/3/3
f 164/554/163 161/4/4 10/6/6
f 162/555/177 8/7/1 163/9/8
f 13/556/16 9/10/5 16/12/10
f 95/557/123 91/13/11 96/15/13
f 13/558/16 14/16/14 9/18/5
f 11/559/124 10/19/6 15/21/15
f 153/560/175 13/22/16 155/24/17
f 6/561/160 7/25/7 3/27/19
f 154/562/27 156/28/20 14/30/14
f 170/563/180 172/31/21 97/33/23
f 24/564/32 151/34/24 23/36/26
f 153/565/175 154/37/27 13/39/16
f 150/566/31 149/40/28 22/42/30
f 152/567/25 150/43/31 23/45/26
f 28/568/47 24/46/32 27/48/33
f 151/569/24 149/49/28 20/51/35
f 28/570/47 25/52/36 24/54/32
f 26/571/37 22/55/30 25/57/36
f 27/572/33 23/58/26 26/60/37
f 32/573/48 147/61/38 31/63/40
f 148/574/39 146/64/41 31/66/40
f 40/575/56 143/67/43 39/69/45
f 147/576/38 145/70/46 28/72/47
f 36/577/55 32/73/48 35/75/49
f 35/578/49 31/76/40 34/78/50
f 146/579/41 145/79/46 30/81/42
f 36/580/55 33/82/52 32/84/48
f 34/581/50 30/85/42 33/87/52
f 144/582/44 142/88/53 39/90/45
f 141/583/62 33/91/52 143/93/43
f 139/584/172 40/94/56 140/96/57
f 140/585/57 39/97/45 138/99/58
f 135/586/170 44/100/59 136/102/61
f 38/587/54 142/103/53 37/105/63
f 139/588/172 137/106/64 40/108/56
f 137/589/64 138/109/58 37/111/63
f 47/590/74 136/112/61 46/114/66
f 135/591/170 133/115/67 44/117/59
f 52/592/77 131/118/69 51/120/71
f 130/593/75 46/121/66 129/123/73
f 134/594/65 133/124/67 46/126/66
f 132/595/70 47/127/74 130/129/75
f 131/596/69 129/130/73 48/132/76
f 127/597/169 52/133/77 128/135/78
f 128/598/78 51/136/71 126/138/80
f 127/599/169 125/139/81 52/141/77
f 60/600/92 123/142/83 59/144/85
f 54/601/87 126/145/80 53/147/86
f 122/602/89 54/148/87 121/150/88
f 59/603/85 124/151/84 58/153/90
f 123/604/83 121/154/88 56/156/91
f 179/605/183 60/157/92 180/159/93
f 179/606/183 177/160/94 60/162/92
f 180/607/93 59/163/85 178/165/96
f 68/608/104 119/166/97 67/168/99
f 178/609/96 58/169/90 177/171/94
f 66/610/103 118/172/100 65/174/102
f 120/611/98 118/175/100 67/177/99
f 72/612/108 68/178/104 71/180/105
f 117/613/101 61/181/106 119/183/97
f 69/614/109 65/184/102 72/186/108
f 70/615/111 66/187/103 69/189/109
f 70/616/111 71/190/105 66/192/103
f 76/617/113 72/193/108 75/195/110
f 71/618/105 70/196/111 75/198/110
f 73/619/116 69/199/109 76/201/113
f 115/620/165 76/202/113 116/204/114
f 116/621/114 75/205/110 114/207/115
f 70/622/111 69/208/109 74/210/112
f 115/623/165 113/211/117 76/213/113
f 113/624/117 114/214/115 73/216/116
f 93/625/121 89/217/118 94/219/120
f 96/626/13 92/220/12 93/222/121
f 166/627/127 96/223/13 165/225/122
f 90/628/119 91/226/11 94/228/120
f 16/629/10 12/229/9 15/231/15
f 5/630/162 4/232/18 8/234/1
f 158/631/134 100/235/125 157/237/126
f 167/632/178 95/238/123 166/240/127
f 160/633/132 157/241/126 98/243/22
f 167/634/178 168/244/128 95/246/123
f 108/635/140 104/247/129 105/249/131
f 159/636/176 160/250/132 99/252/133
f 159/637/176 158/253/134 103/255/135
f 101/638/130 102/256/136 105/258/131
f 108/639/140 105/259/131 109/261/139
f 107/640/142 103/262/135 108/264/140
f 105/641/131 106/265/137 112/267/138
f 102/642/136 103/268/135 106/270/137
f 82/643/152 181/271/143 83/273/145
f 111/644/141 106/274/137 110/276/146
f 110/645/146 107/277/142 109/279/139
f 182/646/184 184/280/147 112/282/138
f 77/647/156 80/283/148 88/285/150
f 87/648/157 88/286/150 82/288/152
f 85/649/149 80/289/148 86/291/154
f 173/650/182 2/292/3 176/294/155
f 78/651/158 77/295/156 87/297/157
f 86/652/154 79/298/153 87/300/157
f 88/653/150 85/301/149 81/303/151
f 155/654/17 16/304/10 156/306/20
f 83/655/145 86/307/154 82/309/152
f 84/656/159 85/310/149 83/312/145
f 2/657/3 1/313/2 3/315/19
f 182/658/184 112/316/138 181/318/143
f 162/659/177 161/319/4 8/321/1
f 173/660/182 174/322/161 2/324/3
f 163/661/8 7/325/7 164/327/163
f 176/662/155 3/328/19 175/330/164
f 175/663/164 4/331/18 174/333/161
f 83/664/145 183/334/144 84/336/159
f 77/665/156 78/337/158 113/339/117
f 80/666/148 77/340/156 115/342/165
f 79/667/153 116/343/114 78/345/158
f 80/668/148 115/346/165 79/348/153
f 65/669/102 117/349/101 68/351/104
f 63/670/167 62/352/166 120/354/98
f 118/671/100 62/355/166 117/357/101
f 119/672/97 64/358/107 120/360/98
f 60/673/92 57/361/95 123/363/83
f 124/674/84 55/364/168 122/366/89
f 57/675/95 58/367/90 121/369/88
f 123/676/83 56/370/91 124/372/84
f 50/677/79 49/373/82 126/375/80
f 53/678/86 125/376/81 56/378/91
f 54/679/87 55/379/168 126/381/80
f 56/680/91 127/382/169 55/384/168
f 52/681/77 49/385/82 131/387/69
f 51/682/71 132/388/70 50/390/79
f 50/683/79 130/391/75 49/393/82
f 131/684/69 48/394/76 132/396/70
f 42/685/171 41/397/68 134/399/65
f 48/686/76 45/400/72 135/402/170
f 136/687/61 43/403/60 134/405/65
f 48/688/76 135/406/170 47/408/74
f 41/689/68 42/409/171 137/411/64
f 44/690/59 41/412/68 139/414/172
f 43/691/60 140/415/57 42/417/171
f 44/692/59 139/418/172 43/420/60
f 142/693/53 34/421/50 141/423/62
f 37/694/63 141/424/62 40/426/56
f 35/695/49 34/427/50 144/429/44
f 143/696/43 36/430/55 144/432/44
f 26/697/37 25/433/36 146/435/41
f 29/698/51 145/436/46 32/438/48
f 148/699/39 27/439/33 146/441/41
f 147/700/38 28/442/47 148/444/39
f 21/701/29 149/445/28 24/447/32
f 152/702/25 19/448/173 150/450/31
f 150/703/31 18/451/174 149/453/28
f 151/704/24 20/454/35 152/456/25
f 20/705/35 155/457/17 19/459/173
f 18/706/174 154/460/27 17/462/34
f 18/707/174 19/463/173 154/465/27
f 17/708/34 153/466/175 20/468/35
f 99/709/133 100/469/125 159/471/176
f 103/710/135 102/472/136 159/474/176
f 102/711/136 101/475/130 160/477/132
f 104/712/129 158/478/134 101/480/130
f 11/713/124 163/481/8 10/483/6
f 12/714/9 9/484/5 162/486/177
f 12/715/9 162/487/177 11/489/124
f 6/716/160 1/490/2 164/492/163
f 171/717/181 172/493/21 167/495/178
f 171/718/181 167/496/178 169/498/179
f 169/719/179 166/499/127 170/501/180
f 165/720/122 93/502/121 168/504/128
f 100/721/125 169/505/179 97/507/23
f 99/722/133 171/508/181 100/510/125
f 99/723/133 98/511/22 171/513/181
f 165/724/122 168/514/128 170/516/180
f 91/725/11 175/517/164 92/519/12
f 91/726/11 90/520/119 175/522/164
f 92/727/12 174/523/161 89/525/118
f 90/728/119 89/526/118 176/528/155
f 62/729/166 178/529/96 61/531/106
f 62/730/166 63/532/167 178/534/96
f 61/731/106 177/535/94 64/537/107
f 64/732/107 179/538/183 63/540/167
f 183/733/144 110/541/146 184/543/147
f 81/734/151 182/544/184 82/546/152
f 81/735/151 84/547/159 182/549/184
f 181/736/143 111/550/141 183/552/144
