#name "Gateway"
#participants 2

say 0 "You" "..."
say 0 "You" "..."
say 0 "You" "..."
say 0 "You" "..."
say 0 "You" "..."
say 1 "You" "What the hell do I do here?"
say 2 "Jairo" "You've already started it."
say 2 "Jairo" "Just wait for a little bit."
say 0 "You" "..."
say 0 "You" "..."
say 0 "" "You've completed the first level."
say 0 "" "Load t2/begin2.xml"
