# Blender v2.75 (sub 0) OBJ File: 'untitled.blend'
# www.blender.org
mtllib Bar.mtl
o Cylinder
v -0.000000 0.216248 -0.810351
v 0.001004 0.216943 0.982519
v 0.046923 0.196812 -0.810351
v 0.048507 0.189889 0.967103
v 0.066359 0.149889 -0.810351
v 0.070232 0.145962 0.992933
v 0.046923 0.102966 -0.810351
v 0.043213 0.107829 0.945605
v -0.000000 0.083529 -0.810351
v 0.010346 0.093246 0.926819
v -0.046923 0.102966 -0.810351
v -0.051049 0.100838 0.976031
v -0.066359 0.149889 -0.810351
v -0.061980 0.166793 0.914813
v -0.046923 0.196812 -0.810351
v -0.047622 0.197385 0.954639
v -0.000000 0.219253 -0.824132
v 0.049048 0.198936 -0.824132
v 0.069364 0.149889 -0.824132
v 0.049048 0.100841 -0.824132
v -0.000000 0.080525 -0.824132
v -0.049048 0.100841 -0.824132
v -0.069364 0.149889 -0.824132
v -0.049048 0.198936 -0.824132
v -0.000000 0.227015 -0.838898
v 0.054537 0.204425 -0.838898
v 0.077126 0.149889 -0.838898
v 0.054537 0.095352 -0.838898
v -0.000000 0.072762 -0.838898
v -0.054537 0.095352 -0.838898
v -0.077127 0.149889 -0.838898
v -0.054537 0.204425 -0.838898
v -0.000000 0.236648 -0.843820
v 0.061348 0.211237 -0.843820
v 0.086760 0.149889 -0.843820
v 0.061348 0.088540 -0.843820
v -0.000000 0.063129 -0.843820
v -0.061348 0.088540 -0.843820
v -0.086760 0.149889 -0.843820
v -0.061348 0.211237 -0.843820
v -0.000000 0.240501 -0.853663
v 0.064073 0.213961 -0.853663
v 0.090612 0.149889 -0.853663
v 0.064073 0.085816 -0.853663
v -0.000000 0.059276 -0.853663
v -0.064073 0.085816 -0.853663
v -0.090613 0.149889 -0.853663
v -0.064073 0.213961 -0.853663
v -0.000000 0.240501 -0.863507
v 0.064073 0.213961 -0.863507
v 0.090612 0.149889 -0.863507
v 0.064073 0.085816 -0.863507
v -0.000000 0.059276 -0.863507
v -0.064073 0.085816 -0.863507
v -0.090613 0.149889 -0.863507
v -0.064073 0.213961 -0.863507
v -0.000000 0.237647 -0.873350
v 0.062054 0.211943 -0.873350
v 0.087758 0.149889 -0.873350
v 0.062054 0.087834 -0.873350
v -0.000000 0.062131 -0.873350
v -0.062054 0.087834 -0.873350
v -0.087758 0.149889 -0.873350
v -0.062054 0.211943 -0.873350
v -0.000000 0.221181 -0.885163
v 0.050411 0.200300 -0.885163
v 0.071292 0.149889 -0.885163
v 0.050411 0.099478 -0.885163
v -0.000000 0.078597 -0.885163
v -0.050411 0.099478 -0.885163
v -0.071292 0.149889 -0.885163
v -0.050411 0.200300 -0.885163
v -0.000000 0.184347 -0.895991
v 0.024366 0.174255 -0.895991
v 0.034459 0.149889 -0.895991
v 0.024366 0.125523 -0.895991
v -0.000000 0.115430 -0.895991
v -0.024366 0.125523 -0.895991
v -0.034459 0.149889 -0.895991
v -0.024366 0.174255 -0.895991
vt 0.375809 0.784424
vt 0.375809 0.889674
vt 0.027738 0.882925
vt 0.569045 0.437836
vt 0.686573 0.428777
vt 0.686573 0.781789
vt 0.750701 0.882648
vt 0.397973 0.888838
vt 0.407101 0.792956
vt 0.434294 0.772366
vt 0.437920 0.428777
vt 0.524432 0.432460
vt 0.957651 0.727770
vt 0.828587 0.727770
vt 0.867371 0.380203
vt 0.988354 0.372378
vt 0.828587 0.372378
vt 0.842770 0.032812
vt 0.070833 0.428777
vt 0.188405 0.437707
vt 0.009959 0.521912
vt 0.694521 0.434229
vt 0.820638 0.428777
vt 0.817765 0.779538
vt 0.353629 0.436863
vt 0.426345 0.428777
vt 0.426345 0.774085
vt 0.559422 0.080470
vt 0.556706 0.074032
vt 0.681720 0.074032
vt 0.556706 0.371195
vt 0.549702 0.387821
vt 0.451411 0.291044
vt 0.559422 0.364760
vt 0.468308 0.284158
vt 0.763590 0.163736
vt 0.770119 0.161069
vt 0.770119 0.284158
vt 0.474853 0.163737
vt 0.468308 0.161069
vt 0.679021 0.364760
vt 0.681720 0.371195
vt 0.763590 0.281493
vt 0.679021 0.080470
vt 0.474853 0.281494
vt 0.430450 0.299591
vt 0.430450 0.145632
vt 0.451411 0.154180
vt 0.688707 0.057402
vt 0.786998 0.291043
vt 0.688707 0.387821
vt 0.549702 0.057402
vt 0.786998 0.154179
vt 0.807952 0.299590
vt 0.816328 0.303007
vt 0.700850 0.416707
vt 0.541018 0.036767
vt 0.807952 0.145631
vt 0.541018 0.408456
vt 0.697384 0.036766
vt 0.697384 0.408455
vt 0.557458 0.292589
vt 0.545340 0.292589
vt 0.545286 0.223635
vt 0.537540 0.416707
vt 0.422062 0.303008
vt 0.422062 0.142213
vt 0.537540 0.028513
vt 0.700850 0.028512
vt 0.816328 0.142212
vt 0.012454 0.142713
vt 0.018625 0.145230
vt 0.018625 0.299990
vt 0.662812 0.332367
vt 0.651946 0.332366
vt 0.649451 0.281958
vt 0.660317 0.209865
vt 0.649451 0.209865
vt 0.651946 0.158318
vt 0.602212 0.228176
vt 0.614877 0.228177
vt 0.615274 0.280544
vt 0.691929 0.154518
vt 0.704689 0.154518
vt 0.704689 0.227925
vt 0.557404 0.223635
vt 0.545340 0.153272
vt 0.660317 0.281958
vt 0.602608 0.155321
vt 0.615274 0.155321
vt 0.129769 0.409422
vt 0.144515 0.374370
vt 0.272205 0.374370
vt 0.289507 0.415498
vt 0.286951 0.409422
vt 0.398095 0.299990
vt 0.404266 0.142713
vt 0.398095 0.145230
vt 0.286951 0.035798
vt 0.127213 0.029721
vt 0.129769 0.035798
vt 0.012454 0.302507
vt 0.127213 0.415498
vt 0.404266 0.302507
vt 0.289507 0.029722
vt 0.144515 0.070850
vt 0.177501 0.149257
vt 0.133860 0.192226
vt 0.362494 0.285471
vt 0.272205 0.070849
vt 0.054225 0.159749
vt 0.362494 0.159749
vt 0.054225 0.285471
vt 0.177501 0.295962
vt 0.133860 0.252993
vt 0.239219 0.149257
vt 0.282860 0.252993
vt 0.239219 0.295962
vt 0.282860 0.192226
vt 0.291462 0.518192
vt 0.291462 0.642386
vt 0.079002 0.735269
vt 0.006916 0.607059
vt 0.236053 0.701019
vt 0.025205 0.795128
vt 0.564448 0.785941
vt 0.750701 0.795269
vt 0.556500 0.772366
vt 0.952584 0.386437
vt 0.956459 0.024269
vt 0.695551 0.779538
vt 0.314611 0.774537
vt 0.662812 0.158318
vt 0.602608 0.280544
vt 0.691930 0.227925
vt 0.557458 0.153272
vn -0.033100 0.484100 0.874400
vn 0.503000 0.488800 0.712700
vn 0.702900 0.702700 0.110000
vn 0.366000 -0.118000 0.923100
vn 0.993800 -0.000300 0.111000
vn 0.275400 -0.775100 0.568600
vn 0.702700 -0.702700 0.111600
vn 0.068500 -0.862800 0.500700
vn -0.276800 -0.264200 0.923900
vn -0.701600 -0.703800 0.111300
vn -0.946000 0.053700 0.319800
vn -0.994000 0.000200 0.109000
vn -0.727700 0.289700 0.621700
vn 0.000000 0.994000 0.109700
vn -0.702700 0.702900 0.109500
vn -0.000700 -0.993600 0.112800
vn 0.000000 -0.935500 0.353300
vn 0.661500 -0.661500 0.353300
vn -0.661500 0.661500 0.353300
vn -0.467400 0.467400 0.750400
vn -0.661000 0.000000 0.750400
vn -0.935500 0.000000 0.353300
vn 0.935500 0.000000 0.353300
vn 0.661500 0.661500 0.353300
vn -0.661500 -0.661500 0.353300
vn 0.000000 0.935500 0.353300
vn -0.776100 0.000000 0.630600
vn -0.548800 -0.548800 0.630600
vn -0.467400 -0.467400 0.750400
vn 0.467400 -0.467400 0.750400
vn 0.467400 0.467400 0.750400
vn 0.000000 0.661000 0.750400
vn 0.000000 -0.661000 0.750400
vn 0.661000 0.000000 0.750400
vn 0.548800 0.548800 0.630600
vn 0.695800 0.695800 0.177700
vn 0.000000 0.984100 0.177700
vn 0.000000 -0.776100 0.630600
vn 0.776100 0.000000 0.630600
vn -0.548800 0.548800 0.630600
vn 0.548800 -0.548800 0.630600
vn 0.000000 0.776100 0.630600
vn -0.695800 0.695800 0.177700
vn -0.700500 0.700500 -0.136100
vn -0.990700 0.000000 -0.136100
vn -0.984100 0.000000 0.177700
vn -0.695800 -0.695800 0.177700
vn 0.000000 -0.984100 0.177700
vn 0.695800 -0.695800 0.177700
vn 0.984100 0.000000 0.177700
vn 0.990700 0.000000 -0.136100
vn 0.840200 0.000000 -0.542300
vn 0.594100 0.594100 -0.542300
vn -0.700500 -0.700500 -0.136100
vn 0.000000 -0.990700 -0.136100
vn 0.700500 -0.700500 -0.136100
vn 0.700500 0.700500 -0.136100
vn 0.000000 0.990700 -0.136100
vn 0.000000 0.840200 -0.542300
vn 0.000000 0.471000 -0.882100
vn -0.333100 0.333100 -0.882100
vn -0.594100 0.594100 -0.542300
vn -0.840200 0.000000 -0.542300
vn -0.594100 -0.594100 -0.542300
vn 0.000000 -0.840200 -0.542300
vn 0.594100 -0.594100 -0.542300
vn 0.333100 -0.333100 -0.882100
vn 0.125100 -0.125100 -0.984200
vn 0.176900 0.000000 -0.984200
vn -0.471000 0.000000 -0.882100
vn 0.000000 -0.471000 -0.882100
vn 0.471000 0.000000 -0.882100
vn -0.333100 -0.333100 -0.882100
vn 0.333100 0.333100 -0.882100
vn 0.000000 0.176900 -0.984200
vn 0.125100 0.125100 -0.984200
vn 0.000000 -0.176900 -0.984200
vn -0.176900 0.000000 -0.984200
vn -0.125100 0.125100 -0.984200
vn -0.125100 -0.125100 -0.984200
usemtl Material
s 1
f 2/1/1 4/2/2 3/3/3
f 4/4/2 6/5/4 5/6/5
f 5/7/5 6/8/4 8/9/6
f 7/10/7 8/11/6 10/12/8
f 10/13/8 12/14/9 11/15/10
f 12/16/9 14/17/11 13/18/12
f 6/19/4 4/20/2 8/21/6
f 16/22/13 2/23/1 1/24/14
f 14/25/11 16/26/13 15/27/15
f 9/28/16 21/29/17 20/30/18
f 24/31/19 32/32/20 31/33/21
f 15/34/15 24/31/19 23/35/22
f 5/36/5 19/37/23 18/38/24
f 11/39/10 22/40/25 21/29/17
f 15/34/15 1/41/14 17/42/26
f 3/43/3 18/38/24 17/42/26
f 7/44/7 20/30/18 19/37/23
f 11/39/10 13/45/12 23/35/22
f 31/33/21 39/46/27 38/47/28
f 21/29/17 22/40/25 30/48/29
f 19/37/23 20/30/18 28/49/30
f 18/38/24 26/50/31 25/51/32
f 17/42/26 25/51/32 32/32/20
f 22/40/25 23/35/22 31/33/21
f 21/29/17 29/52/33 28/49/30
f 18/38/24 19/37/23 27/53/34
f 34/54/35 42/55/36 41/56/37
f 28/49/30 29/52/33 37/57/38
f 27/53/34 35/58/39 34/54/35
f 32/32/20 40/59/40 39/46/27
f 30/48/29 38/47/28 37/57/38
f 27/53/34 28/49/30 36/60/41
f 25/51/32 26/50/31 34/54/35
f 25/51/32 33/61/42 40/59/40
f 48/62/43 56/63/44 55/64/45
f 33/61/42 41/56/37 48/65/43
f 39/46/27 47/66/46 46/67/47
f 37/57/38 45/68/48 44/69/49
f 34/54/35 35/58/39 43/70/50
f 39/46/27 40/59/40 48/65/43
f 38/47/28 46/67/47 45/68/48
f 36/60/41 44/69/49 43/70/50
f 51/71/51 59/72/52 58/73/53
f 46/74/47 54/75/54 53/76/55
f 44/77/49 52/78/56 51/79/51
f 42/80/36 50/81/57 49/82/58
f 41/83/37 49/84/58 56/85/44
f 47/86/46 55/64/45 54/87/54
f 45/88/48 53/76/55 52/78/56
f 43/89/50 51/90/51 50/81/57
f 57/91/59 65/92/60 72/93/61
f 56/94/44 64/95/62 63/96/63
f 54/97/54 62/98/64 61/99/65
f 51/71/51 52/100/56 60/101/66
f 50/102/57 58/73/53 57/91/59
f 49/103/58 57/91/59 64/95/62
f 55/104/45 63/96/63 62/98/64
f 53/105/55 61/99/65 60/101/66
f 68/106/67 76/107/68 75/108/69
f 62/98/64 63/96/63 71/109/70
f 61/99/65 69/110/71 68/106/67
f 58/73/53 59/72/52 67/111/72
f 64/95/62 72/93/61 71/109/70
f 62/98/64 70/112/73 69/110/71
f 60/101/66 68/106/67 67/111/72
f 58/73/53 66/113/74 65/92/60
f 73/114/75 74/115/76 77/116/77
f 66/113/74 74/115/76 73/114/75
f 72/93/61 65/92/60 73/114/75
f 70/112/73 71/109/70 79/117/78
f 68/106/67 69/110/71 77/116/77
f 66/113/74 67/111/72 75/108/69
f 72/93/61 80/118/79 79/117/78
f 70/112/73 78/119/80 77/116/77
f 2/120/1 16/121/13 4/20/2
f 8/21/6 4/20/2 16/121/13
f 12/122/9 10/123/8 14/124/11
f 8/21/6 14/124/11 10/123/8
f 16/121/13 14/124/11 8/21/6
f 1/125/14 2/1/1 3/3/3
f 3/126/3 4/4/2 5/6/5
f 7/127/7 5/7/5 8/9/6
f 9/128/16 7/10/7 10/12/8
f 9/129/16 10/13/8 11/15/10
f 11/130/10 12/16/9 13/18/12
f 15/131/15 16/22/13 1/24/14
f 13/132/12 14/25/11 15/27/15
f 7/44/7 9/28/16 20/30/18
f 23/35/22 24/31/19 31/33/21
f 13/45/12 15/34/15 23/35/22
f 3/43/3 5/36/5 18/38/24
f 9/28/16 11/39/10 21/29/17
f 24/31/19 15/34/15 17/42/26
f 1/41/14 3/43/3 17/42/26
f 5/36/5 7/44/7 19/37/23
f 22/40/25 11/39/10 23/35/22
f 30/48/29 31/33/21 38/47/28
f 29/52/33 21/29/17 30/48/29
f 27/53/34 19/37/23 28/49/30
f 17/42/26 18/38/24 25/51/32
f 24/31/19 17/42/26 32/32/20
f 30/48/29 22/40/25 31/33/21
f 20/30/18 21/29/17 28/49/30
f 26/50/31 18/38/24 27/53/34
f 33/61/42 34/54/35 41/56/37
f 36/60/41 28/49/30 37/57/38
f 26/50/31 27/53/34 34/54/35
f 31/33/21 32/32/20 39/46/27
f 29/52/33 30/48/29 37/57/38
f 35/58/39 27/53/34 36/60/41
f 33/61/42 25/51/32 34/54/35
f 32/32/20 25/51/32 40/59/40
f 47/86/46 48/62/43 55/64/45
f 40/59/40 33/61/42 48/65/43
f 38/47/28 39/46/27 46/67/47
f 36/60/41 37/57/38 44/69/49
f 42/55/36 34/54/35 43/70/50
f 47/66/46 39/46/27 48/65/43
f 37/57/38 38/47/28 45/68/48
f 35/58/39 36/60/41 43/70/50
f 50/102/57 51/71/51 58/73/53
f 45/88/48 46/74/47 53/76/55
f 43/133/50 44/77/49 51/79/51
f 41/134/37 42/80/36 49/82/58
f 48/135/43 41/83/37 56/85/44
f 46/136/47 47/86/46 54/87/54
f 44/77/49 45/88/48 52/78/56
f 42/80/36 43/89/50 50/81/57
f 64/95/62 57/91/59 72/93/61
f 55/104/45 56/94/44 63/96/63
f 53/105/55 54/97/54 61/99/65
f 59/72/52 51/71/51 60/101/66
f 49/103/58 50/102/57 57/91/59
f 56/94/44 49/103/58 64/95/62
f 54/97/54 55/104/45 62/98/64
f 52/100/56 53/105/55 60/101/66
f 67/111/72 68/106/67 75/108/69
f 70/112/73 62/98/64 71/109/70
f 60/101/66 61/99/65 68/106/67
f 66/113/74 58/73/53 67/111/72
f 63/96/63 64/95/62 71/109/70
f 61/99/65 62/98/64 69/110/71
f 59/72/52 60/101/66 67/111/72
f 57/91/59 58/73/53 65/92/60
f 79/117/78 80/118/79 73/114/75
f 73/114/75 78/119/80 79/117/78
f 75/108/69 76/107/68 77/116/77
f 77/116/77 74/115/76 75/108/69
f 77/116/77 78/119/80 73/114/75
f 65/92/60 66/113/74 73/114/75
f 80/118/79 72/93/61 73/114/75
f 78/119/80 70/112/73 79/117/78
f 76/107/68 68/106/67 77/116/77
f 74/115/76 66/113/74 75/108/69
f 71/109/70 72/93/61 79/117/78
f 69/110/71 70/112/73 77/116/77
