# Blender v2.75 (sub 0) OBJ File: 'Ash_2.blend'
# www.blender.org
mtllib Ash_2.mtl
o Cylinder
v -0.323328 0.515022 0.512274
v -0.323328 -0.000481 -0.171116
v 0.001148 0.095025 -0.012381
v 0.177855 0.134150 0.047216
v 0.299305 0.121880 0.228979
v 0.289562 0.045121 0.416863
v 0.304272 -0.000481 0.786345
v 0.082884 -0.000481 1.173579
v -0.065737 -0.000481 1.189899
v -0.323331 -0.000481 1.195673
v -0.584850 -0.000481 1.143644
v -0.812323 -0.000481 0.995536
v -1.035700 -0.000481 0.774251
v -1.087720 -0.000481 0.512729
v -1.035705 -0.000481 0.251185
v -0.824881 -0.000481 -0.027664
v -0.585594 -0.000481 -0.122457
v -0.058011 0.284966 0.512274
v -0.078207 0.313381 0.410742
v -0.568449 0.338948 0.613807
v -0.510936 0.345508 0.699882
v -0.078207 0.332196 0.613807
v -0.588645 0.332605 0.512274
v -0.568449 0.292869 0.410742
v -0.135721 0.338534 0.699882
v -0.510936 0.355517 0.324667
v -0.221796 0.327800 0.757395
v -0.221796 0.323536 0.267153
v -0.323328 0.325906 0.246957
v -0.424860 0.282698 0.267153
v -0.323328 0.329704 0.777591
v -0.135721 0.339178 0.324667
v -0.424861 0.306154 0.757395
v -0.131064 0.383023 0.512274
v -0.202036 0.404826 0.512274
v -0.258948 0.476859 0.512274
v -0.500957 0.391310 0.585850
v -0.435388 0.396319 0.558691
v -0.382808 0.478705 0.536911
v -0.145699 0.380103 0.585850
v -0.211269 0.408307 0.558691
v -0.263849 0.469413 0.536911
v -0.515592 0.394210 0.512274
v -0.444620 0.438279 0.512274
v -0.387708 0.419899 0.512274
v -0.500957 0.386976 0.438698
v -0.435388 0.419981 0.465857
v -0.382808 0.458263 0.487637
v -0.187377 0.354210 0.648225
v -0.237562 0.454334 0.598041
v -0.277805 0.438585 0.557798
v -0.459279 0.372042 0.376323
v -0.409095 0.420398 0.426507
v -0.368852 0.424741 0.466750
v -0.249752 0.336350 0.689903
v -0.276912 0.382022 0.624334
v -0.298691 0.458871 0.571754
v -0.249752 0.390347 0.334645
v -0.276912 0.449199 0.400215
v -0.298691 0.489022 0.452795
v -0.396904 0.379810 0.334645
v -0.369745 0.399178 0.400215
v -0.347965 0.461305 0.452795
v -0.323328 0.395171 0.704538
v -0.323328 0.456515 0.633566
v -0.323328 0.464175 0.576654
v -0.187377 0.375899 0.376323
v -0.237562 0.406076 0.426508
v -0.277805 0.423795 0.466751
v -0.396904 0.348861 0.689903
v -0.369745 0.420805 0.624334
v -0.347965 0.466328 0.571754
v -0.263849 0.495653 0.487637
v -0.211269 0.414021 0.465858
v -0.145699 0.359786 0.438698
v -0.368852 0.446173 0.557798
v -0.409095 0.451185 0.598041
v -0.459279 0.388253 0.648225
v -0.323328 0.471051 0.447894
v -0.323328 0.399958 0.390982
v -0.323328 0.364984 0.320010
v 0.002654 0.257778 0.377248
v 0.094228 0.212494 0.339317
v 0.194289 0.086802 0.297870
v -0.572824 0.235600 0.761770
v -0.642912 0.238429 0.831858
v -0.720475 0.123301 0.908447
v -0.323328 0.228558 0.159434
v -0.323328 0.203418 0.060314
v -0.323328 0.171153 -0.047991
v 0.236937 0.116293 0.512274
v 0.128632 0.211583 0.512274
v 0.029512 0.245865 0.512274
v -0.875952 0.122132 0.726875
v -0.740919 0.212980 0.685232
v -0.649310 0.232273 0.647300
v 0.191946 0.126887 0.734309
v 0.094074 0.199943 0.685734
v 0.002654 0.270270 0.647300
v -0.919257 0.119657 0.512474
v -0.777642 0.167803 0.512287
v -0.676168 0.270975 0.512274
v -0.872785 0.133989 0.297817
v -0.740885 0.240013 0.339316
v -0.649310 0.249596 0.377248
v 0.065936 0.171411 0.945127
v -0.008856 0.188044 0.848600
v -0.073832 0.326859 0.761770
v -0.722926 0.165500 0.100612
v -0.642912 0.212922 0.192689
v -0.572824 0.274183 0.262778
v -0.115342 0.122783 1.061642
v -0.153178 0.202265 0.938973
v -0.188302 0.276928 0.838256
v -0.108924 0.150739 -0.005343
v -0.150371 0.186320 0.094718
v -0.188302 0.284117 0.186292
v -0.537878 0.110938 -0.006005
v -0.496285 0.170506 0.094718
v -0.458354 0.249731 0.186292
v -0.323328 0.130925 1.072539
v -0.323328 0.187174 0.964234
v -0.323328 0.272880 0.865114
v 0.072839 0.143027 0.116107
v -0.003744 0.201672 0.192690
v -0.073832 0.234140 0.262778
v -0.537732 0.162550 1.029891
v -0.496286 0.170302 0.929831
v -0.458354 0.259861 0.838256
v 0.695473 0.425806 -0.167188
v 0.683569 -0.000481 -0.796939
v 1.021859 -0.000481 -0.851632
v 1.283809 -0.000481 -0.752244
v 1.391707 -0.000481 -0.481784
v 1.418548 -0.000481 -0.124261
v 1.411175 -0.000481 0.185553
v 1.263034 -0.000481 0.407261
v 0.996680 -0.000481 0.507109
v 0.879137 -0.000481 0.574066
v 0.433951 0.000171 0.464182
v 0.012083 0.089007 -0.167188
v 0.075196 0.003886 -0.473804
v 0.212243 -0.000481 -0.650418
v 0.422047 -0.000481 -0.744919
v 0.960800 0.239619 -0.167177
v 0.940594 0.257984 -0.268720
v 0.450351 0.292047 -0.065655
v 0.507865 0.310574 0.020420
v 0.940594 0.297233 -0.065655
v 0.430156 0.292143 -0.167188
v 0.450352 0.251988 -0.268720
v 0.883080 0.311831 0.020420
v 0.507865 0.310335 -0.354796
v 0.797005 0.302702 0.077933
v 0.797005 0.283778 -0.412309
v 0.695473 0.278517 -0.432505
v 0.593940 0.245907 -0.412309
v 0.695473 0.292977 0.098129
v 0.883080 0.301586 -0.354795
v 0.593940 0.278832 0.077933
v 0.887736 0.338775 -0.167188
v 0.816765 0.362761 -0.167188
v 0.759853 0.414025 -0.167188
v 0.517844 0.353055 -0.093612
v 0.583413 0.357393 -0.120771
v 0.635993 0.404065 -0.142551
v 0.873101 0.343212 -0.093612
v 0.807532 0.368122 -0.120771
v 0.754952 0.401314 -0.142551
v 0.503209 0.356115 -0.167188
v 0.574180 0.378317 -0.167188
v 0.631092 0.370604 -0.167188
v 0.517844 0.349325 -0.240764
v 0.583413 0.363367 -0.213605
v 0.635993 0.387699 -0.191825
v 0.831424 0.326000 -0.031237
v 0.781239 0.387499 -0.081421
v 0.740996 0.387716 -0.121664
v 0.559522 0.337489 -0.303139
v 0.609706 0.369276 -0.252955
v 0.649949 0.397966 -0.212712
v 0.769049 0.316251 0.010441
v 0.741889 0.344185 -0.055128
v 0.720110 0.389979 -0.107708
v 0.769049 0.338655 -0.344817
v 0.741889 0.389548 -0.279247
v 0.720110 0.418044 -0.226667
v 0.621897 0.340391 -0.344817
v 0.649056 0.348473 -0.279247
v 0.670835 0.408731 -0.226667
v 0.695473 0.345958 0.025076
v 0.695473 0.387943 -0.045896
v 0.695473 0.401529 -0.102808
v 0.831424 0.333213 -0.303139
v 0.781239 0.358646 -0.252954
v 0.740996 0.366214 -0.212712
v 0.621897 0.318562 0.010441
v 0.649056 0.370384 -0.055128
v 0.670835 0.396512 -0.107708
v 0.754952 0.425000 -0.191825
v 0.807532 0.365568 -0.213605
v 0.873101 0.324081 -0.240764
v 0.649949 0.381755 -0.121664
v 0.609706 0.389298 -0.081421
v 0.559522 0.337365 -0.031237
v 0.695473 0.409546 -0.231568
v 0.695473 0.351426 -0.288480
v 0.695473 0.319819 -0.359452
v 1.021454 0.189830 -0.302214
v 1.113102 0.140711 -0.340067
v 1.213419 0.070237 -0.381236
v 0.445977 0.205597 0.082308
v 0.375889 0.218712 0.152396
v 0.695473 0.203728 -0.520028
v 0.695473 0.201017 -0.619148
v 0.695473 0.168989 -0.727453
v 1.288601 0.115001 -0.131641
v 1.163845 0.186313 -0.149435
v 1.053964 0.201304 -0.161076
v 0.277916 0.196479 0.005770
v 0.369491 0.196980 -0.032162
v 1.274454 0.125357 0.113592
v 1.145610 0.183690 0.041011
v 1.031294 0.231634 -0.021518
v 0.135208 0.146212 -0.167188
v 0.243513 0.158335 -0.167188
v 0.342632 0.235318 -0.167188
v 0.177855 0.132732 -0.381592
v 0.277916 0.221620 -0.340146
v 0.369491 0.215365 -0.302214
v 1.145221 0.169328 0.286937
v 1.046593 0.190597 0.186508
v 0.949537 0.290991 0.087250
v 0.299306 0.163580 -0.563355
v 0.375889 0.209388 -0.486772
v 0.445977 0.242870 -0.416684
v 0.937089 0.166714 0.379864
v 0.874623 0.286963 0.257067
v 0.831180 0.299974 0.159531
v 0.909877 0.116991 -0.684805
v 0.868430 0.167785 -0.584744
v 0.830499 0.243854 -0.493170
v 0.481069 0.152445 -0.684805
v 0.522515 0.242001 -0.584745
v 0.560447 0.259953 -0.493170
v 0.723117 0.129575 0.403573
v 0.695473 0.190112 0.284772
v 0.695473 0.246192 0.185652
v 1.091640 0.119979 -0.563355
v 1.015056 0.175771 -0.486772
v 0.944968 0.195842 -0.416684
v 0.481069 0.159782 0.350429
v 0.522515 0.157765 0.250369
v 0.560447 0.229192 0.158794
v 0.215961 0.043641 1.085910
v 0.206937 -0.000481 1.197204
v 0.447719 0.153233 0.793293
v 0.447742 -0.000440 0.388782
v 0.658830 -0.000481 0.440886
v 0.858369 -0.000481 0.653103
v 0.845268 -0.000481 0.787361
v 0.795727 -0.000481 0.926236
v 0.723757 -0.000481 1.062238
v 0.595849 -0.000481 1.128408
v 0.453747 -0.000481 1.194751
v 0.303618 -0.000481 1.204373
v 0.604760 0.086096 0.793220
v 0.592807 0.092718 0.733132
v 0.298282 0.105001 0.875643
v 0.333907 0.111681 0.927463
v 0.592807 0.106871 0.853308
v 0.286576 0.105035 0.807584
v 0.301192 0.090556 0.737966
v 0.558770 0.112135 0.904248
v 0.336714 0.111595 0.682192
v 0.507335 0.108843 0.940467
v 0.507830 0.102019 0.648154
v 0.447742 0.100122 0.636202
v 0.387654 0.088363 0.648154
v 0.446875 0.105336 0.959763
v 0.558770 0.108441 0.682191
v 0.386299 0.100235 0.956846
v 0.561526 0.121850 0.793220
v 0.519524 0.130500 0.793220
v 0.485843 0.148985 0.793220
v 0.339143 0.126999 0.850237
v 0.379291 0.128564 0.827710
v 0.411835 0.145393 0.810101
v 0.552865 0.123450 0.836763
v 0.514060 0.132432 0.820690
v 0.482943 0.144401 0.807800
v 0.331318 0.128103 0.801833
v 0.374640 0.136109 0.797517
v 0.409048 0.133328 0.795152
v 0.341711 0.125654 0.752634
v 0.380857 0.130718 0.767596
v 0.412282 0.139492 0.779485
v 0.528199 0.117244 0.873677
v 0.498496 0.139420 0.843988
v 0.474655 0.139498 0.820254
v 0.367256 0.121387 0.712856
v 0.396930 0.132848 0.742639
v 0.420753 0.143194 0.766434
v 0.490650 0.113728 0.900462
v 0.474773 0.123801 0.860966
v 0.462132 0.140314 0.829041
v 0.491285 0.121807 0.688097
v 0.475212 0.140159 0.726902
v 0.462323 0.150434 0.758019
v 0.404199 0.122433 0.688097
v 0.420272 0.125347 0.726902
v 0.433161 0.147076 0.758019
v 0.446314 0.124440 0.913585
v 0.446694 0.139580 0.868432
v 0.447319 0.144479 0.832697
v 0.528199 0.119845 0.712762
v 0.498500 0.129016 0.742462
v 0.474683 0.131745 0.766278
v 0.401994 0.114562 0.910622
v 0.418511 0.133248 0.865683
v 0.432474 0.142669 0.830659
v 0.482943 0.152942 0.778639
v 0.514060 0.131511 0.765750
v 0.552865 0.116552 0.749676
v 0.419933 0.137348 0.822986
v 0.394928 0.140068 0.851004
v 0.364258 0.121342 0.888543
v 0.447742 0.147370 0.755119
v 0.447742 0.126412 0.721438
v 0.447742 0.115015 0.679436
v 0.642289 0.068143 0.713926
v 0.714899 0.050431 0.698449
v 0.794986 0.025019 0.681820
v 0.298918 0.073828 0.976407
v 0.259420 0.078557 1.028065
v 0.447742 0.073154 0.584405
v 0.447742 0.072176 0.525745
v 0.447742 0.060628 0.461649
v 0.773515 0.041160 0.788305
v 0.713308 0.066874 0.791602
v 0.656552 0.072280 0.793216
v 0.195945 0.070540 0.938963
v 0.250166 0.070721 0.906906
v 0.735941 0.044895 0.904737
v 0.687124 0.065929 0.889024
v 0.639780 0.083217 0.872383
v 0.173591 0.055855 0.818980
v 0.233436 0.084545 0.813592
v 0.199349 0.079606 0.695024
v 0.253197 0.077350 0.718604
v 0.675481 0.060750 1.015825
v 0.634480 0.068419 0.978030
v 0.595396 0.104620 0.940874
v 0.210684 0.075195 0.579153
v 0.300088 0.087268 0.645565
v 0.570555 0.059807 1.074476
v 0.549065 0.103168 1.033445
v 0.527502 0.107859 0.987179
v 0.627818 0.041878 0.507022
v 0.576427 0.060193 0.556071
v 0.529391 0.087623 0.600958
v 0.320855 0.072189 0.486888
v 0.345384 0.086955 0.546105
v 0.367832 0.093428 0.600300
v 0.451643 0.046416 1.127829
v 0.450224 0.068244 1.070407
v 0.448460 0.088466 1.013719
v 0.811198 0.042955 0.607596
v 0.701991 0.063073 0.628736
v 0.611729 0.070311 0.651748
v 0.328434 0.057308 1.135695
v 0.349749 0.056580 1.072953
v 0.368757 0.082336 1.011827
v -0.429479 0.033974 -0.351643
v -0.042048 0.003886 -0.609237
v -0.768638 -0.000481 -0.285381
v -0.586242 -0.000481 -0.519107
v -0.314178 0.002213 -0.790413
v -0.476123 0.001059 -0.753773
v -0.643036 0.000086 -0.575918
v -0.589699 0.000625 -0.702897
v -0.781921 -0.000481 -0.429653
v -0.747432 -0.000481 -0.480285
v -0.678789 -0.006822 -0.121261
v -0.728751 -0.006822 -0.174634
v -0.078391 0.003187 -0.722139
v -0.193399 0.002912 -0.824721
v -0.178113 0.048622 -0.699825
v -0.513793 0.045928 -0.644230
v -0.639415 0.000355 -0.644869
v -0.122871 0.003049 -0.780063
v -0.271545 0.050453 -0.584396
v -0.358625 0.001702 -0.747016
v -0.310509 0.047559 -0.677898
v -0.063308 0.026504 -0.343998
v -0.235764 0.025265 -0.480440
v -0.450194 0.026406 -0.541640
v -0.382529 0.001507 -0.719715
v -0.429873 0.016677 -0.658128
v 0.038093 0.078113 -0.297949
v -0.226470 0.046855 -0.235515
v -0.332621 0.023728 -0.416042
v -0.518218 0.045637 -0.530374
v -0.406312 0.001320 -0.739118
v -0.471833 0.046265 -0.651179
v -0.016008 0.003886 -0.564952
v -0.400391 0.033974 -0.302175
v -0.117150 0.043093 -0.433752
v -0.298115 0.054058 -0.357359
v -0.074033 0.066031 -0.168196
v 0.031391 0.036321 -0.406961
v -0.213901 0.041206 -0.525963
v -0.356027 0.027512 -0.599924
v -0.373745 0.001577 -0.721170
v -0.367499 0.027996 -0.668459
v -0.029833 0.063776 -0.281919
v -0.074252 0.027274 -0.507263
v -0.349866 0.033974 -0.216248
v -0.507536 0.050244 -0.237050
v -0.677440 0.050244 -0.402244
v -0.764676 -0.000481 -0.454969
v 0.037565 0.003886 -0.473842
v -0.090229 0.020323 -0.388875
v -0.253008 0.063603 -0.280646
v 0.014931 0.036828 -0.444724
v -0.507861 0.016746 -0.435375
v -0.677116 0.044614 -0.203919
v -0.703770 -0.006822 -0.147947
v -0.342979 0.014054 -0.511040
v -0.425420 0.034683 -0.473208
v -0.305326 0.030428 -0.520160
v -0.592488 0.050244 -0.319647
v -0.468508 0.056605 -0.294347
v -0.631841 0.038530 -0.460676
v -0.756054 -0.000481 -0.467627
v 0.024296 0.003886 -0.496408
v -0.103689 0.031708 -0.411313
v -0.266277 0.044053 -0.303212
v -0.021719 0.054279 -0.487840
v -0.363135 0.033974 -0.238814
v -0.550174 0.019425 -0.377511
v 0.091004 -0.076972 1.262326
v -0.068534 -0.076972 1.279844
v -0.345047 -0.076972 1.286042
v -0.625774 -0.076972 1.230192
v -0.869954 -0.076972 1.071206
v -1.109738 -0.076972 0.833668
v -1.165578 -0.076972 0.552937
v -1.109743 -0.076972 0.272184
v -0.883434 -0.076972 -0.027147
v -0.626572 -0.076972 -0.128901
v 0.735808 -0.076972 -0.852923
v 1.098944 -0.076972 -0.911633
v 1.380134 -0.076972 -0.804945
v 1.495956 -0.076972 -0.514620
v 1.524770 -0.076972 -0.130838
v 1.516854 -0.076972 0.201731
v 1.357833 -0.076972 0.439723
v 1.071916 -0.076972 0.546904
v 0.945739 -0.076972 0.618779
v 0.082750 -0.072285 -0.506054
v 0.229864 -0.076972 -0.695640
v 0.455078 -0.076972 -0.797082
v 0.224168 -0.076972 1.287685
v 0.923446 -0.076972 0.703622
v 0.909383 -0.076972 0.847741
v 0.856204 -0.076972 0.996815
v 0.778947 -0.076972 1.142807
v 0.641644 -0.076972 1.213837
v 0.489106 -0.076972 1.285052
v 0.327950 -0.076972 1.295381
v -0.043105 -0.072285 -0.651435
v -0.823061 -0.076972 -0.303792
v -0.627269 -0.076972 -0.554685
v -0.335222 -0.074081 -0.845918
v -0.509061 -0.075319 -0.806586
v -0.688234 -0.076363 -0.615669
v -0.630979 -0.075785 -0.751973
v -0.837319 -0.076972 -0.458661
v -0.800297 -0.076972 -0.513012
v -0.726613 -0.083779 -0.127618
v -0.780245 -0.083779 -0.184911
v -0.082117 -0.073035 -0.772629
v -0.205572 -0.073330 -0.882745
v -0.684346 -0.076074 -0.689684
v -0.129864 -0.073183 -0.834807
v -0.382933 -0.074628 -0.799333
v -0.408593 -0.074838 -0.770027
v -0.434123 -0.075039 -0.790855
v -0.015152 -0.072285 -0.603897
v -0.399164 -0.074763 -0.771589
v -0.818808 -0.076972 -0.485836
v 0.042356 -0.072285 -0.506095
v -0.753429 -0.083779 -0.156264
v -0.809553 -0.076972 -0.499424
v 0.028112 -0.072285 -0.530318
vt 0.620035 0.333679
vt 0.616737 0.367567
vt 0.572837 0.349260
vt 0.659262 0.581275
vt 0.629151 0.580764
vt 0.619555 0.551159
vt 0.567953 0.753715
vt 0.591707 0.733538
vt 0.618614 0.746596
vt 0.548095 0.596798
vt 0.576653 0.615503
vt 0.559055 0.644373
vt 0.575030 0.565118
vt 0.603042 0.593771
vt 0.605109 0.397987
vt 0.600077 0.425790
vt 0.565351 0.432806
vt 0.563610 0.679625
vt 0.573818 0.710507
vt 0.548982 0.724727
vt 0.909041 0.227953
vt 0.894218 0.255195
vt 0.870742 0.221190
vt 0.855945 0.263312
vt 0.846996 0.298747
vt 0.807281 0.278437
vt 0.528831 0.681418
vt 0.940643 0.194482
vt 0.942752 0.231022
vt 0.626054 0.284796
vt 0.644481 0.313978
vt 0.640053 0.351739
vt 0.641052 0.377709
vt 0.668697 0.373118
vt 0.670698 0.390072
vt 0.862848 0.987211
vt 0.854681 0.980714
vt 0.862848 0.964843
vt 0.873224 0.308671
vt 0.872408 0.333409
vt 0.838462 0.325362
vt 0.898147 0.317744
vt 0.904059 0.339878
vt 0.925979 0.332989
vt 0.927350 0.342943
vt 0.607132 0.715198
vt 0.635109 0.727548
vt 0.627691 0.699278
vt 0.650662 0.708882
vt 0.649669 0.688383
vt 0.656873 0.691782
vt 0.601217 0.631364
vt 0.594862 0.654464
vt 0.626480 0.647249
vt 0.618968 0.660629
vt 0.651581 0.661637
vt 0.645748 0.668110
vt 0.620012 0.615504
vt 0.635677 0.636338
vt 0.429511 0.960270
vt 0.445155 0.941688
vt 0.445155 0.970289
vt 0.634910 0.400705
vt 0.633455 0.421766
vt 0.813686 0.982500
vt 0.792731 0.982500
vt 0.802036 0.955457
vt 0.880632 0.414444
vt 0.898839 0.439883
vt 0.878584 0.435647
vt 0.592786 0.678178
vt 0.595699 0.699029
vt 0.618439 0.675855
vt 0.629292 0.692080
vt 0.687952 0.911688
vt 0.677348 0.904234
vt 0.688699 0.889634
vt 0.927230 0.266554
vt 0.904660 0.274283
vt 0.933415 0.292390
vt 0.921125 0.299246
vt 0.688699 0.834346
vt 0.688271 0.857929
vt 0.676778 0.851019
vt 0.588663 0.923514
vt 0.588663 0.965117
vt 0.570249 0.942035
vt 0.642074 0.681686
vt 0.888772 0.292196
vt 0.905939 0.305304
vt 0.927155 0.311978
vt 0.928365 0.324608
vt 0.644168 0.675749
vt 0.947459 0.264512
vt 0.948832 0.293800
vt 0.370208 0.919171
vt 0.383621 0.911406
vt 0.384363 0.935098
vt 0.666529 0.341114
vt 0.686998 0.367081
vt 0.664397 0.691979
vt 0.894983 0.397111
vt 0.903298 0.423276
vt 0.942025 0.455662
vt 0.942025 0.472883
vt 0.931293 0.471616
vt 0.642688 0.607358
vt 0.654857 0.632858
vt 0.663067 0.652780
vt 0.647008 0.652625
vt 0.594569 0.480232
vt 0.533643 0.505726
vt 0.508656 0.476981
vt 0.602992 0.515691
vt 0.556680 0.537223
vt 0.467772 0.306844
vt 0.516822 0.326132
vt 0.490079 0.397765
vt 0.561063 0.344344
vt 0.537758 0.394714
vt 0.633041 0.863291
vt 0.661778 0.871461
vt 0.662698 0.914464
vt 0.587327 0.217698
vt 0.558590 0.268839
vt 0.506823 0.230886
vt 0.583634 0.797701
vt 0.632124 0.797616
vt 0.634848 0.831134
vt 0.602585 0.250664
vt 0.599098 0.313311
vt 0.944002 0.102312
vt 0.891219 0.116083
vt 0.876999 0.048280
vt 0.947232 0.830855
vt 0.987398 0.862601
vt 0.947608 0.901206
vt 0.979558 0.904418
vt 0.974746 0.948930
vt 0.947232 0.952230
vt 0.453792 0.617021
vt 0.450443 0.689553
vt 0.398455 0.692652
vt 0.496405 0.628414
vt 0.491005 0.684146
vt 0.528537 0.636501
vt 0.775074 0.199259
vt 0.749193 0.266901
vt 0.690304 0.235264
vt 0.803671 0.221604
vt 0.779902 0.273309
vt 0.689870 0.567326
vt 0.651600 0.549114
vt 0.655949 0.517128
vt 0.786263 0.102784
vt 0.832553 0.160517
vt 0.852182 0.190831
vt 0.834256 0.246622
vt 0.429879 0.827723
vt 0.474930 0.765443
vt 0.509837 0.811449
vt 0.505384 0.741068
vt 0.540322 0.779323
vt 0.903092 0.170483
vt 0.979558 0.989191
vt 0.429668 0.400168
vt 0.482587 0.457944
vt 0.777138 0.397111
vt 0.777138 0.450209
vt 0.731004 0.440442
vt 0.636818 0.917031
vt 0.673608 0.958164
vt 0.478405 0.551783
vt 0.519508 0.576893
vt 0.437223 0.580679
vt 0.621346 0.183488
vt 0.552100 0.172766
vt 0.602816 0.770767
vt 0.728523 0.320413
vt 0.660114 0.481978
vt 0.806738 0.324807
vt 0.763116 0.316363
vt 0.568169 0.287237
vt 0.673608 0.834346
vt 0.669084 0.674203
vt 0.817553 0.956673
vt 0.834046 0.982019
vt 0.816856 0.969975
vt 0.834046 0.955457
vt 0.827840 0.958106
vt 0.384363 0.882924
vt 0.949278 0.341922
vt 0.640455 0.961376
vt 0.640455 0.996456
vt 0.633041 0.974338
vt 0.688699 0.886422
vt 0.688699 0.933688
vt 0.903298 0.463079
vt 0.431960 0.925671
vt 0.559013 0.390398
vt 0.902207 0.196896
vt 0.687135 0.388372
vt 0.521640 0.945534
vt 0.503715 0.940750
vt 0.521640 0.921416
vt 0.614731 0.975208
vt 0.612306 0.958275
vt 0.628513 0.963038
vt 0.596635 0.972025
vt 0.591832 0.958275
vt 0.609137 0.961115
vt 0.572068 0.975675
vt 0.609137 0.983293
vt 0.628513 0.983075
vt 0.513388 0.967783
vt 0.703202 0.339567
vt 0.701745 0.393898
vt 0.567828 0.828886
vt 0.943835 0.035877
vt 0.985457 0.206311
vt 0.952448 0.213420
vt 0.962629 0.140825
vt 0.987398 0.808601
vt 0.734404 0.165846
vt 0.596880 0.129603
vt 0.622759 0.107908
vt 0.421469 0.473769
vt 0.985457 0.276448
vt 0.948059 0.783231
vt 0.459199 0.525007
vt 0.636233 0.229118
vt 0.689870 0.803604
vt 0.890986 0.578740
vt 0.895800 0.545857
vt 0.935297 0.560134
vt 0.301400 0.170972
vt 0.272674 0.175534
vt 0.259899 0.148097
vt 0.249456 0.358090
vt 0.261796 0.332737
vt 0.288801 0.340991
vt 0.192921 0.204131
vt 0.224340 0.218008
vt 0.213286 0.249658
vt 0.218653 0.169183
vt 0.249039 0.192622
vt 0.909037 0.516013
vt 0.910844 0.487308
vt 0.940663 0.476981
vt 0.224134 0.283842
vt 0.240133 0.312844
vt 0.216533 0.332418
vt 0.622961 0.923514
vt 0.622961 0.955063
vt 0.591832 0.941673
vt 0.257339 0.792405
vt 0.285054 0.772384
vt 0.297414 0.807838
vt 0.330216 0.818114
vt 0.317938 0.852624
vt 0.188132 0.294653
vt 0.227177 0.723621
vt 0.260247 0.723014
vt 0.259327 0.756613
vt 0.884602 0.626892
vt 0.870672 0.600749
vt 0.894814 0.976573
vt 0.913325 0.960532
vt 0.926288 0.974990
vt 0.855177 0.546996
vt 0.856189 0.531534
vt 0.879256 0.539873
vt 0.417229 0.993320
vt 0.409821 0.988525
vt 0.417229 0.971830
vt 0.336874 0.793278
vt 0.359684 0.794785
vt 0.358170 0.824088
vt 0.341894 0.770751
vt 0.360744 0.766771
vt 0.351490 0.746528
vt 0.359501 0.746621
vt 0.273460 0.312020
vt 0.298061 0.318842
vt 0.286813 0.292231
vt 0.305758 0.297107
vt 0.300724 0.276897
vt 0.309181 0.279218
vt 0.251825 0.229801
vt 0.247650 0.253374
vt 0.275416 0.240738
vt 0.271129 0.255333
vt 0.297915 0.250107
vt 0.294341 0.257637
vt 0.266648 0.210891
vt 0.283031 0.228518
vt 0.732023 0.982502
vt 0.747987 0.970929
vt 0.747987 0.993617
vt 0.880988 0.515407
vt 0.881490 0.494314
vt 0.557293 0.990021
vt 0.546243 0.978700
vt 0.557293 0.961033
vt 0.459358 0.941780
vt 0.470982 0.960981
vt 0.457810 0.962459
vt 0.250401 0.277295
vt 0.258190 0.297676
vt 0.273215 0.270483
vt 0.282268 0.284032
vt 0.454560 0.946859
vt 0.448325 0.942825
vt 0.454560 0.925671
vt 0.293785 0.739554
vt 0.303231 0.761152
vt 0.712101 0.972670
vt 0.728853 0.981889
vt 0.722209 0.994340
vt 0.943382 0.957206
vt 0.937963 0.938334
vt 0.943382 0.934756
vt 0.426341 0.925671
vt 0.426341 0.954631
vt 0.409821 0.945277
vt 0.294855 0.271967
vt 0.320616 0.777525
vt 0.321810 0.749225
vt 0.328930 0.763807
vt 0.337252 0.739059
vt 0.344737 0.742701
vt 0.840738 0.438359
vt 0.828456 0.417175
vt 0.842476 0.397111
vt 0.820557 0.447275
vt 0.814129 0.435707
vt 0.293319 0.265322
vt 0.290661 0.719398
vt 0.940668 0.990245
vt 0.929458 0.969780
vt 0.940668 0.960418
vt 0.929458 0.941001
vt 0.855284 0.577569
vt 0.874633 0.563293
vt 0.842895 0.555976
vt 0.315640 0.278025
vt 0.924725 0.938800
vt 0.468689 0.921416
vt 0.476350 0.944210
vt 0.775247 0.473522
vt 0.766680 0.457738
vt 0.775247 0.453422
vt 0.286287 0.198927
vt 0.299181 0.221599
vt 0.307834 0.239498
vt 0.294413 0.242360
vt 0.225210 0.082336
vt 0.170562 0.117630
vt 0.104579 0.050653
vt 0.241208 0.116319
vt 0.197887 0.144918
vt 0.944063 0.909043
vt 0.894814 0.911525
vt 0.932443 0.852435
vt 0.524857 0.863831
vt 0.554880 0.871481
vt 0.556214 0.914158
vt 0.914748 0.697009
vt 0.945842 0.637074
vt 0.998415 0.672145
vt 0.953664 0.386515
vt 0.952448 0.339447
vt 0.985914 0.335057
vt 0.901214 0.656801
vt 0.911128 0.597446
vt 0.697979 0.858474
vt 0.735805 0.814326
vt 0.792578 0.831604
vt 0.365656 0.961621
vt 0.331291 0.926126
vt 0.365656 0.897618
vt 0.328122 0.897618
vt 0.323316 0.942034
vt 0.293718 0.944548
vt 0.101974 0.251658
vt 0.100679 0.330597
vt 0.042572 0.348013
vt 0.147724 0.250077
vt 0.147322 0.311281
vt 0.181363 0.248881
vt 0.760259 0.682458
vt 0.746591 0.615034
vt 0.802340 0.610681
vt 0.349799 0.124890
vt 0.295918 0.109514
vt 0.294509 0.074147
vt 0.338947 0.153831
vt 0.293566 0.141273
vt 0.813945 0.766258
vt 0.750480 0.752055
vt 0.719382 0.741152
vt 0.716829 0.684337
vt 0.693040 0.731311
vt 0.693150 0.687091
vt 0.078634 0.421855
vt 0.138710 0.389603
vt 0.195023 0.423395
vt 0.172446 0.359934
vt 0.232633 0.388119
vt 0.698226 0.790787
vt 0.328122 0.982145
vt 0.958213 0.279661
vt 0.527954 0.917789
vt 0.567079 0.957821
vt 0.124096 0.172311
vt 0.161158 0.189082
vt 0.048985 0.248794
vt 0.868976 0.726336
vt 0.926583 0.780019
vt 0.845021 0.673006
vt 0.847247 0.639811
vt 0.735079 0.561561
vt 0.360744 0.854344
vt 0.358416 0.894406
vt 0.567079 0.834346
vt 0.314273 0.259185
vt 0.731035 0.458638
vt 0.746822 0.473187
vt 0.731004 0.469304
vt 0.746822 0.453422
vt 0.739908 0.456117
vt 0.933902 0.914737
vt 0.521586 0.970995
vt 0.521586 0.990967
vt 0.514534 0.971258
vt 0.353935 0.728426
vt 0.476350 0.982020
vt 0.734646 0.955457
vt 0.948575 0.518882
vt 0.231638 0.762019
vt 0.367080 0.180174
vt 0.325272 0.178702
vt 0.899940 0.997168
vt 0.749992 0.462958
vt 0.763510 0.453422
vt 0.763510 0.471917
vt 0.905721 0.932893
vt 0.926288 0.914737
vt 0.529954 0.975914
vt 0.524857 0.961033
vt 0.543074 0.964488
vt 0.313577 0.738113
vt 0.412193 0.968618
vt 0.842476 0.460197
vt 0.728853 0.955457
vt 0.543074 0.984357
vt 0.843740 0.535432
vt 0.181848 0.024075
vt 0.938045 0.620114
vt 0.944390 0.563428
vt 0.984337 0.577869
vt 0.985914 0.411398
vt 0.745865 0.867395
vt 0.904986 0.842311
vt 0.944063 0.783231
vt 0.331867 0.980504
vt 0.813946 0.692596
vt 0.384365 0.158387
vt 0.151683 0.459077
vt 0.964422 0.511680
vt 0.727835 0.410270
vt 0.697097 0.444320
vt 0.690304 0.397111
vt 0.066446 0.134997
vt 0.183290 0.482825
vt 0.785104 0.506616
vt 0.387535 0.583894
vt 0.727835 0.468172
vt 0.722125 0.894277
vt 0.694167 0.920588
vt 0.998415 0.509836
vt 0.810960 0.397111
vt 0.805341 0.414822
vt 0.788867 0.404948
vt 0.318109 0.513568
vt 0.300943 0.516239
vt 0.294133 0.500389
vt 0.286830 0.624396
vt 0.293987 0.609882
vt 0.310181 0.617174
vt 0.256237 0.533825
vt 0.273154 0.541512
vt 0.267196 0.560339
vt 0.266939 0.514599
vt 0.286391 0.526259
vt 0.654226 0.987284
vt 0.643624 0.967894
vt 0.654226 0.961376
vt 0.271790 0.580266
vt 0.280796 0.597353
vt 0.268339 0.608166
vt 0.964231 0.032710
vt 0.968771 0.051024
vt 0.952448 0.051295
vt 0.967728 0.071738
vt 0.979273 0.087768
vt 0.966691 0.100081
vt 0.254662 0.584892
vt 0.960233 0.001606
vt 0.973418 0.014162
vt 0.305938 0.634010
vt 0.326799 0.617328
vt 0.797916 0.433208
vt 0.325564 0.602562
vt 0.337837 0.596406
vt 0.344082 0.609235
vt 0.324657 0.588291
vt 0.332705 0.584221
vt 0.858635 0.471507
vt 0.854957 0.469011
vt 0.858635 0.457765
vt 0.851511 0.986744
vt 0.842895 0.977055
vt 0.851511 0.964843
vt 0.757874 0.976584
vt 0.767505 0.977591
vt 0.766400 0.991983
vt 0.763237 0.965549
vt 0.767505 0.966740
vt 0.300502 0.597532
vt 0.314224 0.602855
vt 0.307484 0.585448
vt 0.317429 0.588754
vt 0.314219 0.575868
vt 0.318903 0.577427
vt 0.287328 0.548142
vt 0.284393 0.562016
vt 0.299976 0.554395
vt 0.297528 0.563048
vt 0.311410 0.559626
vt 0.309643 0.564140
vt 0.295812 0.536903
vt 0.304702 0.547200
vt 0.503715 0.984796
vt 0.511364 0.981805
vt 0.511364 0.993464
vt 0.810960 0.434571
vt 0.810320 0.448019
vt 0.336219 0.576820
vt 0.339405 0.567429
vt 0.350518 0.569487
vt 0.974483 0.429783
vt 0.979520 0.441422
vt 0.973812 0.443356
vt 0.285880 0.576149
vt 0.291035 0.588301
vt 0.298593 0.571985
vt 0.303338 0.579905
vt 0.309440 0.568756
vt 0.310785 0.572790
vt 0.348577 0.553492
vt 0.341817 0.540166
vt 0.350010 0.530743
vt 0.337720 0.557614
vt 0.334124 0.549363
vt 0.790243 0.473105
vt 0.786198 0.465266
vt 0.790243 0.463324
vt 0.665487 0.985665
vt 0.657396 0.973168
vt 0.665487 0.970507
vt 0.332128 0.531539
vt 0.326887 0.543695
vt 0.756222 0.959256
vt 0.759726 0.962587
vt 0.751157 0.971083
vt 0.318960 0.527734
vt 0.319367 0.541426
vt 0.985846 0.024470
vt 0.981248 0.037052
vt 0.426341 0.991117
vt 0.420684 0.978465
vt 0.426341 0.971830
vt 0.448325 0.961896
vt 0.452770 0.962798
vt 0.453199 0.973584
vt 0.381701 0.938310
vt 0.382278 0.952865
vt 0.370208 0.956474
vt 0.382278 0.966324
vt 0.374527 0.968813
vt 0.322936 0.577029
vt 0.346811 0.584785
vt 0.980648 0.415448
vt 0.982795 0.429938
vt 0.563834 0.961033
vt 0.565510 0.972612
vt 0.560463 0.974226
vt 0.307262 0.529794
vt 0.313282 0.542942
vt 0.317501 0.553384
vt 0.311198 0.555352
vt 0.278227 0.484473
vt 0.240896 0.505281
vt 0.207647 0.495890
vt 0.357979 0.642127
vt 0.347511 0.624715
vt 0.362868 0.603387
vt 0.296141 0.669476
vt 0.332475 0.674688
vt 0.329738 0.695821
vt 0.301110 0.651641
vt 0.328034 0.654184
vt 0.327830 0.634849
vt 0.372085 0.574196
vt 0.368086 0.543263
vt 0.384365 0.536844
vt 0.213160 0.554386
vt 0.221164 0.592451
vt 0.197349 0.597100
vt 0.233721 0.557225
vt 0.238366 0.588877
vt 0.250567 0.558992
vt 0.384363 0.879712
vt 0.363914 0.845904
vt 0.384363 0.823854
vt 0.347908 0.486489
vt 0.317319 0.477606
vt 0.317499 0.456845
vt 0.340918 0.503522
vt 0.315841 0.496387
vt 0.383720 0.499465
vt 0.358108 0.519202
vt 0.214092 0.642021
vt 0.237486 0.629539
vt 0.265603 0.650358
vt 0.251241 0.618443
vt 0.278781 0.638656
vt 0.363976 0.660690
vt 0.377391 0.614712
vt 0.233577 0.527028
vt 0.207766 0.519538
vt 0.187068 0.551706
vt 0.287283 0.689762
vt 0.951892 0.415448
vt 0.970642 0.422557
vt 0.955228 0.444850
vt 0.311141 0.432147
vt 0.262444 0.467348
vt 0.985846 0.115359
vt 0.981863 0.137613
vt 0.321070 0.565018
vt 0.565510 0.983502
vt 0.453199 0.950071
vt 0.325339 0.553887
vt 0.321310 0.552676
vt 0.765741 0.955815
vt 0.753876 0.955457
vt 0.982795 0.453950
vt 0.505826 0.970995
vt 0.778417 0.471703
vt 0.783028 0.463324
vt 0.783028 0.473522
vt 0.780308 0.430393
vt 0.781920 0.457837
vt 0.355705 0.548803
vt 0.333269 0.518315
vt 0.796491 0.452083
vt 0.329299 0.565926
vt 0.845645 0.463913
vt 0.851787 0.457765
vt 0.851787 0.470977
vt 0.657622 0.961376
vt 0.983423 0.065297
vt 0.328108 0.556736
vt 0.500545 0.970829
vt 0.479519 0.953118
vt 0.500545 0.921416
vt 0.789561 0.986386
vt 0.770674 0.985154
vt 0.789561 0.955457
vt 0.354494 0.467702
vt 0.248671 0.665723
vt 0.708932 0.998394
vt 0.693040 0.986145
vt 0.708932 0.955457
vt 0.382272 0.730393
vt 0.363914 0.753077
vt 0.364190 0.719398
vt 0.267921 0.939725
vt 0.290548 0.974985
vt 0.254346 0.972325
vt 0.187028 0.508512
vt 0.970642 0.452450
vt 0.249638 0.444613
vt 0.227177 0.966802
vt 0.906468 0.405584
vt 0.928123 0.397111
vt 0.928123 0.453630
vt 0.931293 0.410163
vt 0.948723 0.397111
vt 0.948723 0.452450
vt 0.290548 0.897618
vt 0.382272 0.820642
vt 0.001585 0.984239
vt 0.009756 0.935071
vt 0.030732 0.939385
vt 0.752033 0.889282
vt 0.776123 0.853554
vt 0.775004 0.890019
vt 0.051979 0.832137
vt 0.037197 0.809311
vt 0.047863 0.797238
vt 0.127554 0.917684
vt 0.139468 0.904199
vt 0.148844 0.925607
vt 0.165465 0.882515
vt 0.191461 0.860832
vt 0.204729 0.883757
vt 0.117579 0.843439
vt 0.094051 0.836111
vt 0.115809 0.822124
vt 0.454640 0.873456
vt 0.454640 0.914877
vt 0.421033 0.882998
vt 0.629871 0.875488
vt 0.603413 0.903099
vt 0.601575 0.863301
vt 0.474261 0.853730
vt 0.492662 0.834346
vt 0.493714 0.886195
vt 0.842895 0.877110
vt 0.857328 0.838020
vt 0.865451 0.872357
vt 0.098563 0.779981
vt 0.066618 0.764455
vt 0.083445 0.749342
vt 0.106479 0.740069
vt 0.871065 0.919778
vt 0.871065 0.961631
vt 0.842895 0.952583
vt 0.137462 0.821813
vt 0.133499 0.795453
vt 0.449965 0.854499
vt 0.428168 0.864826
vt 0.161060 0.808063
vt 0.150688 0.785107
vt 0.158774 0.780622
vt 0.158955 0.846088
vt 0.176069 0.814305
vt 0.147857 0.866129
vt 0.125177 0.848018
vt 0.106064 0.894692
vt 0.060277 0.858541
vt 0.094499 0.851002
vt 0.116208 0.877337
vt 0.406651 0.962765
vt 0.391330 0.974858
vt 0.387535 0.941015
vt 0.874235 0.952977
vt 0.887963 0.919778
vt 0.891637 0.932366
vt 0.179267 0.780634
vt 0.026974 0.900987
vt 0.075771 0.927586
vt 0.091707 0.909005
vt 0.053301 0.864131
vt 0.039434 0.835941
vt 0.020688 0.827997
vt 0.432814 0.857338
vt 0.432814 0.854590
vt 0.146024 0.801258
vt 0.016050 0.856821
vt 0.023616 0.846172
vt 0.046326 0.869721
vt 0.004798 0.831690
vt 0.015253 0.834149
vt 0.036182 0.882197
vt 0.088844 0.916032
vt 0.106858 0.941110
vt 0.462639 0.874220
vt 0.489808 0.894551
vt 0.485901 0.902906
vt 0.184406 0.925590
vt 0.214406 0.905462
vt 0.224007 0.945553
vt 0.091457 0.951872
vt 0.154407 0.945718
vt 0.198202 0.966914
vt 0.865451 0.884094
vt 0.865451 0.895831
vt 0.173085 0.903423
vt 0.682263 0.974378
vt 0.677348 0.936900
vt 0.687307 0.937266
vt 0.491761 0.890373
vt 0.112293 0.934958
vt 0.027212 0.120675
vt 0.264270 0.716186
vt 0.222821 0.690381
vt 0.008469 0.242830
vt 0.687135 0.038482
vt 0.661016 0.062093
vt 0.644677 0.026951
vt 0.570249 0.859115
vt 0.575888 0.834346
vt 0.001585 0.349337
vt 0.061541 0.745576
vt 0.575830 0.099420
vt 0.603609 0.076131
vt 0.040296 0.428602
vt 0.029959 0.793726
vt 0.527761 0.145753
vt 0.118710 0.468558
vt 0.644239 0.080599
vt 0.479159 0.208142
vt 0.152639 0.494050
vt 0.517494 0.909235
vt 0.012238 0.813785
vt 0.519591 0.904751
vt 0.437239 0.289679
vt 0.816789 0.825838
vt 0.820006 0.837275
vt 0.006404 0.820388
vt 0.396336 0.389857
vt 0.390662 0.878892
vt 0.398322 0.859386
vt 0.387535 0.468864
vt 0.839726 0.755693
vt 0.877533 0.014921
vt 0.839726 0.676621
vt 0.780132 0.073427
vt 0.827267 0.588689
vt 0.612345 0.920301
vt 0.581810 0.920301
vt 0.724465 0.141122
vt 0.875414 0.438404
vt 0.850293 0.454553
vt 0.845645 0.437523
vt 0.403309 0.851347
vt 0.572221 0.901836
vt 0.626667 0.046816
vt 0.871085 0.422539
vt 0.850293 0.410227
vt 0.521687 0.900266
vt 0.520558 0.844609
vt 0.845290 0.802052
vt 0.870003 0.783231
vt 0.882925 0.821841
vt 0.156651 0.521624
vt 0.891644 0.858699
vt 0.891644 0.871298
vt 0.891644 0.883897
vt 0.879685 0.906154
vt 0.156694 0.567990
vt 0.079604 0.729353
vt 0.167730 0.616718
vt 0.041408 0.780766
vt 0.808766 0.476981
vt 0.151787 0.767745
vt 0.185703 0.664939
vt 0.418119 0.922459
vt 0.387535 0.921251
vt 0.068146 0.030136
vt 0.151090 0.001606
vt 0.763721 0.952245
vt 0.606828 0.840228
vt 0.137276 0.758647
vt 0.849484 0.931480
vt 0.179506 0.854922
vt 0.406651 0.925671
vt 0.891637 0.972758
vt 0.187141 0.819208
vt 0.734914 0.918890
vt 0.447317 0.834346
vt 0.457810 0.918204
vt 0.160534 0.984239
vt 0.854310 0.916565
vt 0.687307 0.974581
vt 0.672714 0.001606
vt 0.513301 0.918204
vt 0.795575 0.842258
vt 0.949278 0.001606
vt 0.403309 0.848397
vt 0.875414 0.397111
vt 0.104330 0.719398
vt 0.160466 0.762930
vn -0.225400 0.828700 0.512300
vn -0.365900 0.750500 0.550200
vn -0.279600 0.941900 0.185900
vn -0.139500 0.770000 -0.622600
vn 0.120000 0.859100 -0.497400
vn 0.225300 0.767900 -0.599600
vn 0.145000 0.803900 0.576700
vn 0.032600 0.947500 0.317900
vn -0.063400 0.854900 0.514800
vn 0.413400 0.889800 -0.193400
vn 0.610100 0.779700 -0.140600
vn 0.628800 0.775800 -0.051200
vn 0.415600 0.827200 -0.378100
vn 0.514100 0.783100 -0.349700
vn -0.624800 0.734900 0.263600
vn -0.621400 0.769700 -0.146200
vn -0.564800 0.825200 0.009300
vn 0.553600 0.832500 0.022700
vn 0.084000 0.987800 0.131200
vn 0.401900 0.832400 0.381600
vn -0.616900 0.757700 -0.212500
vn -0.402500 0.801900 -0.441400
vn -0.302000 0.867600 -0.394900
vn -0.147900 0.751500 -0.643000
vn -0.026700 0.868400 -0.495100
vn 0.616300 0.785100 0.060500
vn -0.075100 0.808100 0.584200
vn -0.229600 0.771800 0.593000
vn -0.240700 0.852700 0.463500
vn -0.298800 0.712100 0.635300
vn -0.432100 0.838600 0.331700
vn -0.373300 0.878000 0.299400
vn -0.119100 0.955600 0.269400
vn 0.004300 0.865500 -0.500900
vn 0.121000 0.836400 -0.534500
vn -0.237100 0.769800 -0.592500
vn 0.272200 0.838900 -0.471300
vn -0.402700 0.674400 -0.618900
vn 0.408800 0.856100 -0.316100
vn 0.238200 0.909600 0.340500
vn 0.091200 0.789800 0.606500
vn 0.368800 0.652600 0.661900
vn 0.132700 0.850700 0.508600
vn 0.482700 0.811900 0.328300
vn 0.141700 0.921200 0.362300
vn 0.505900 0.826800 -0.245600
vn 0.549100 0.833000 -0.067600
vn 0.462800 0.839200 -0.285700
vn 0.528400 0.845200 0.080200
vn 0.393700 0.815200 -0.424700
vn 0.677900 0.668900 0.304900
vn 0.427400 0.881000 -0.202700
vn 0.426500 0.887500 -0.174200
vn 0.563300 0.697500 -0.442900
vn -0.322200 0.933700 0.156000
vn -0.508300 0.861100 0.000100
vn -0.483600 0.865600 0.129400
vn -0.143600 0.977800 0.152300
vn -0.510500 0.859800 -0.008800
vn -0.595000 0.803200 0.025800
vn 0.360300 0.878100 0.314800
vn 0.177900 0.876800 0.446600
vn 0.655000 0.751900 0.074600
vn 0.325400 0.827100 0.458100
vn 0.379500 0.776400 0.503200
vn 0.084900 0.973900 0.210500
vn -0.513600 0.818200 -0.258200
vn -0.184100 0.939500 -0.288700
vn -0.271300 0.934700 -0.229600
vn -0.075900 0.925000 -0.372200
vn -0.589200 0.779800 -0.211200
vn -0.423300 0.755700 -0.499600
vn -0.134100 0.873000 -0.468900
vn -0.140900 0.878900 -0.455600
vn -0.665900 0.620200 -0.414700
vn 0.204100 0.803700 -0.558900
vn 0.249700 0.960000 -0.126600
vn -0.194600 0.976700 0.089900
vn 0.192200 0.898900 -0.393700
vn 0.237300 0.912400 -0.333200
vn -0.420500 0.754200 0.504300
vn -0.457700 0.737100 0.497100
vn -0.508200 0.827700 0.238100
vn -0.307900 0.880500 0.360400
vn -0.460600 0.879600 0.118200
vn -0.381400 0.889000 0.253500
vn 0.005900 0.779300 0.626600
vn -0.242200 0.850900 0.466100
vn -0.262200 0.722400 0.639800
vn -0.030300 0.845800 0.532600
vn -0.168800 0.906900 0.386100
vn -0.222800 0.848600 0.479800
vn -0.478900 0.877700 0.013200
vn -0.574900 0.799300 -0.174400
vn -0.654800 0.683500 -0.322700
vn -0.559600 0.827800 0.040100
vn -0.448200 0.890500 -0.077400
vn -0.234300 0.968400 -0.084800
vn 0.722300 0.691300 -0.018700
vn 0.641700 0.744500 0.184300
vn 0.687700 0.683500 0.244500
vn 0.518800 0.854300 0.029700
vn 0.508400 0.845400 0.163900
vn 0.405700 0.913900 -0.008400
vn -0.200100 0.777300 -0.596400
vn -0.052600 0.801600 -0.595500
vn -0.063500 0.995700 -0.067700
vn -0.188000 0.850600 -0.491000
vn -0.005900 0.951900 -0.306200
vn -0.086300 0.879100 -0.468700
vn -0.467800 0.547100 -0.694100
vn -0.334500 0.810400 -0.480800
vn -0.186300 0.885800 -0.424900
vn 0.070700 0.828800 0.555000
vn 0.424000 0.835200 0.350200
vn 0.077200 0.793300 0.603900
vn 0.284000 0.917200 0.279400
vn 0.135000 0.853400 0.503400
vn -0.554800 0.784800 0.276200
vn 0.371900 0.928100 0.014000
vn 0.518500 0.827600 -0.214900
vn 0.321000 0.946500 -0.032500
vn -0.048700 0.733500 0.677900
vn -0.102900 0.994200 0.031600
vn -0.046100 0.853300 -0.519400
vn -0.653600 0.756500 -0.019500
vn -0.162400 0.981600 -0.100200
vn 0.046600 0.745500 0.664900
vn -0.267800 0.885300 0.380200
vn -0.214900 0.841100 0.496400
vn -0.380700 0.785600 0.487700
vn -0.253600 0.959600 0.122100
vn -0.130500 0.794600 -0.592900
vn 0.079100 0.869600 -0.487400
vn 0.217700 0.812600 -0.540600
vn 0.012600 0.983200 0.182200
vn -0.009600 0.990900 0.134300
vn -0.142200 0.892800 0.427400
vn 0.461200 0.865900 -0.193600
vn 0.687700 0.713900 -0.131800
vn 0.630400 0.764600 -0.133700
vn 0.459600 0.848000 -0.263700
vn 0.516300 0.790900 -0.328300
vn -0.638500 0.727300 0.251500
vn -0.616100 0.777800 -0.124300
vn -0.479500 0.877400 0.016400
vn 0.566500 0.823300 -0.034400
vn 0.157000 0.979500 0.125800
vn 0.405600 0.891300 0.202700
vn -0.592400 0.779900 -0.202100
vn -0.406500 0.801200 -0.439000
vn -0.273300 0.944800 -0.180600
vn -0.064200 0.876400 -0.477200
vn 0.117300 0.940500 -0.318700
vn 0.511400 0.858100 -0.046200
vn -0.259200 0.855700 0.447900
vn -0.201500 0.840000 0.503700
vn -0.152900 0.906300 0.393800
vn -0.215800 0.841500 0.495200
vn -0.342200 0.903700 0.257000
vn -0.344600 0.924000 0.165800
vn -0.061100 0.980200 0.188100
vn 0.046500 0.875800 -0.480300
vn 0.089800 0.864200 -0.495100
vn -0.192700 0.816200 -0.544700
vn 0.225700 0.885100 -0.406900
vn -0.208700 0.849100 -0.485200
vn 0.421700 0.898900 -0.118800
vn 0.157300 0.941900 0.296800
vn 0.048200 0.858500 0.510400
vn 0.270000 0.804700 0.528700
vn 0.155100 0.900600 0.406100
vn 0.324000 0.886600 0.330000
vn 0.112100 0.951100 0.287800
vn 0.539300 0.816700 -0.205200
vn 0.563900 0.819200 -0.103900
vn 0.365800 0.889000 -0.275400
vn 0.462800 0.886400 0.003100
vn 0.224000 0.880700 -0.417200
vn 0.473900 0.813100 0.337900
vn 0.328000 0.917800 -0.223900
vn 0.318600 0.937800 -0.137900
vn 0.458500 0.802900 -0.381000
vn -0.308900 0.931900 0.190000
vn -0.453000 0.891400 -0.013700
vn -0.369100 0.924800 0.091500
vn -0.103500 0.993200 0.052100
vn -0.359300 0.930800 -0.066200
vn -0.483400 0.871700 -0.080600
vn 0.376800 0.897000 0.231000
vn 0.183700 0.923400 0.336900
vn 0.490200 0.869500 0.059800
vn 0.227600 0.873000 0.431400
vn 0.264700 0.875900 0.403300
vn 0.017400 0.954400 0.297900
vn -0.455700 0.861300 -0.224500
vn -0.177300 0.937800 -0.298500
vn -0.245300 0.964000 -0.102100
vn -0.154100 0.905500 -0.395500
vn -0.539000 0.804900 0.248300
vn -0.498800 0.849600 -0.171300
vn -0.083300 0.893200 -0.441800
vn -0.106100 0.903400 -0.415400
vn -0.359600 0.840100 -0.406000
vn 0.170100 0.843500 -0.509500
vn 0.365100 0.899100 -0.241500
vn 0.354000 0.851000 -0.388000
vn 0.235200 0.900200 -0.366300
vn 0.291000 0.937100 -0.192800
vn -0.268900 0.961300 -0.059400
vn -0.249400 0.922000 0.296000
vn -0.279500 0.937200 0.208600
vn -0.094300 0.791800 0.603400
vn -0.250800 0.868000 0.428400
vn -0.183400 0.726700 0.661900
vn -0.180600 0.861400 0.474600
vn -0.175500 0.943600 0.280800
vn -0.226300 0.875400 0.427100
vn -0.627700 0.750800 -0.205400
vn -0.337600 0.674800 -0.656300
vn -0.429300 0.902700 0.027300
vn -0.409700 0.911500 -0.034000
vn -0.135200 0.990400 -0.027200
vn 0.581600 0.800600 -0.144500
vn 0.550400 0.827200 0.112600
vn 0.575700 0.793500 0.197100
vn 0.346100 0.928700 -0.132800
vn 0.351000 0.935300 0.045200
vn 0.307700 0.940200 -0.146200
vn -0.275100 0.612200 -0.741300
vn 0.089400 0.700600 -0.707900
vn -0.101300 0.502400 -0.858600
vn -0.136300 0.925900 -0.352300
vn 0.222900 0.956400 -0.188600
vn 0.071400 0.996400 -0.045500
vn -0.610200 0.435900 -0.661500
vn -0.495200 0.744700 -0.447400
vn -0.284600 0.934200 -0.215100
vn 0.411800 0.716500 0.563000
vn 0.415900 0.837000 0.355500
vn 0.118400 0.736700 0.665700
vn 0.368800 0.929300 0.017800
vn 0.072800 0.927400 0.366800
vn -0.364500 0.927800 0.079200
vn 0.456500 0.876500 -0.152800
vn 0.433300 0.880000 -0.194400
vn 0.595900 0.801400 -0.051400
vn 0.375100 0.841900 0.387800
vn -0.100700 0.991300 0.085000
vn 0.031300 0.723100 -0.690000
vn -0.204100 0.931100 -0.302100
vn -0.296100 0.443500 -0.845900
vn 0.327300 0.656500 0.679600
vn 0.457600 0.882600 -0.107200
vn -0.334100 0.937300 -0.099400
vn -0.091100 0.943600 0.318200
vn -0.241300 0.912400 0.330600
vn -0.151200 0.984400 0.089600
vn -0.095400 0.904800 -0.414900
vn 0.053300 0.943600 -0.326700
vn 0.110400 0.912400 -0.393900
vn 0.042600 0.992100 0.117700
vn 0.001200 0.996700 0.081300
vn -0.060800 0.960400 0.271900
vn 0.292100 0.952000 -0.091200
vn 0.489800 0.868600 -0.074400
vn 0.470700 0.877700 -0.089900
vn 0.273700 0.951000 -0.143800
vn 0.345900 0.913100 -0.216000
vn -0.436900 0.883100 0.170900
vn -0.425600 0.900500 -0.088400
vn -0.333600 0.942700 0.008400
vn 0.409100 0.912200 -0.023600
vn 0.103000 0.991500 0.079900
vn 0.346600 0.917500 0.195000
vn -0.439500 0.887000 -0.141700
vn -0.276700 0.910700 -0.306600
vn -0.150700 0.985500 -0.077500
vn -0.057500 0.932900 -0.355400
vn 0.067700 0.975100 -0.210900
vn 0.402300 0.915500 -0.001600
vn -0.127000 0.943400 0.306100
vn -0.092600 0.943800 0.317100
vn -0.063500 0.970400 0.232900
vn -0.104800 0.945300 0.308800
vn -0.230400 0.961500 0.150000
vn -0.213500 0.972700 0.091200
vn -0.024300 0.990800 0.132800
vn 0.030700 0.948500 -0.315200
vn 0.058100 0.939300 -0.338200
vn -0.143700 0.910300 -0.388100
vn 0.139400 0.949900 -0.279700
vn -0.143700 0.929800 -0.338800
vn 0.363500 0.930500 -0.043700
vn 0.115200 0.977300 0.177800
vn 0.060200 0.942800 0.327700
vn 0.200600 0.911400 0.359200
vn 0.143700 0.956200 0.254700
vn 0.217300 0.951600 0.217400
vn 0.084500 0.981200 0.173300
vn 0.372900 0.917100 -0.140800
vn 0.411000 0.908700 -0.073600
vn 0.247900 0.951200 -0.183400
vn 0.310700 0.950500 0.004500
vn 0.140600 0.914700 -0.378800
vn 0.339200 0.911600 0.232300
vn 0.210500 0.967000 -0.143300
vn 0.206100 0.975000 -0.082400
vn 0.342300 0.888800 -0.304800
vn -0.200400 0.973700 0.108300
vn -0.305700 0.951900 -0.018300
vn -0.251300 0.967200 0.036600
vn -0.062700 0.997700 0.024500
vn -0.270000 0.958600 -0.089700
vn -0.343200 0.935100 -0.087700
vn 0.249000 0.956200 0.153800
vn 0.125900 0.968000 0.216900
vn 0.323600 0.945300 0.039000
vn 0.160500 0.937900 0.307500
vn 0.175800 0.949200 0.260900
vn 0.014300 0.980000 0.198200
vn -0.337800 0.929200 -0.149900
vn -0.116100 0.975600 -0.186500
vn -0.156900 0.986000 -0.056400
vn -0.096700 0.960500 -0.260700
vn -0.362500 0.917800 0.162000
vn -0.326500 0.937600 -0.119700
vn -0.064400 0.945600 -0.318900
vn -0.076700 0.955200 -0.285700
vn -0.258000 0.920200 -0.294300
vn 0.145500 0.963400 -0.225200
vn 0.137000 0.989600 -0.042900
vn 0.408000 0.910800 -0.063000
vn -0.143200 0.965100 0.219100
vn -0.182300 0.974100 0.134000
vn 0.102700 0.867700 0.486400
vn -0.089800 0.923900 0.372000
vn -0.042300 0.803000 0.594500
vn -0.035200 0.933300 0.357300
vn -0.073200 0.979600 0.186700
vn -0.098200 0.956100 0.276000
vn -0.089100 0.995900 -0.015900
vn -0.085600 0.996200 0.016200
vn 0.440300 0.897400 0.028200
vn 0.478500 0.864400 0.154200
vn 0.579500 0.778500 0.241000
vn 0.254600 0.966200 -0.039900
vn 0.315200 0.946300 0.072100
vn 0.203300 0.976300 -0.073300
vn -0.048500 0.946000 -0.320500
vn 0.099200 0.883600 -0.457600
vn 0.122100 0.803700 -0.582400
vn -0.018600 0.986100 -0.164900
vn 0.130400 0.984100 -0.120200
vn 0.063000 0.997700 -0.024400
vn -0.124200 0.986400 -0.107600
vn 0.467400 0.768100 0.437600
vn 0.414400 0.857600 0.304500
vn 0.239100 0.745200 0.622500
vn 0.313400 0.947600 0.060700
vn 0.135700 0.925900 0.352500
vn -0.173300 0.936800 0.303900
vn -0.306400 0.951200 0.036300
vn 0.235200 0.971900 0.007800
vn 0.400500 0.908800 0.116400
vn 0.605800 0.788500 0.106000
vn 0.132800 0.791200 0.596900
vn 0.173600 0.912000 -0.371700
vn -0.062300 0.996900 0.048200
vn -0.448100 0.893800 0.019000
vn 0.293900 0.745600 0.598000
vn -0.071600 0.850600 0.521000
vn 0.559700 0.820900 0.112900
vn 0.193800 0.864900 -0.463000
vn -0.219400 0.974600 -0.044800
vn -0.226000 0.942600 -0.245900
vn 0.033700 0.972900 -0.228900
vn -0.125200 0.960400 -0.248800
vn -0.045800 0.968900 -0.243000
vn 0.612100 0.653500 -0.445200
vn 0.635100 0.716500 -0.288300
vn 0.112900 0.988800 -0.097000
vn 0.048700 0.990300 -0.129900
vn 0.080900 0.989700 -0.118300
vn -0.085200 0.995600 0.038200
vn -0.352900 0.919800 -0.171600
vn 0.020700 0.938600 -0.344400
vn -0.234700 0.915700 0.326200
vn 0.006600 0.996200 0.086900
vn -0.068200 0.992100 0.104800
vn -0.200400 0.966200 -0.162100
vn 0.152200 0.977800 -0.143900
vn -0.317300 0.771400 -0.551600
vn -0.197400 0.966900 -0.161600
vn -0.036200 0.745400 -0.665600
vn -0.383400 0.774300 -0.503400
vn -0.362800 0.753000 -0.548800
vn -0.276900 0.933000 0.229600
vn -0.647500 0.745900 0.155800
vn -0.667200 0.588900 0.456100
vn 0.719900 0.607500 -0.335600
vn 0.514000 0.678200 -0.525300
vn 0.119500 0.757600 -0.641700
vn -0.590600 0.790000 -0.164600
vn -0.173400 0.982500 0.068200
vn -0.281500 0.945300 -0.164500
vn -0.550800 0.714700 -0.431100
vn 0.261600 0.962900 -0.066000
vn 0.035300 0.826200 -0.562200
vn 0.370800 0.702500 -0.607400
vn 0.203400 0.977900 -0.047200
vn 0.234900 0.961800 -0.140700
vn 0.064000 0.997400 -0.033000
vn -0.049700 0.997100 0.058000
vn -0.118000 0.990800 -0.065400
vn 0.244500 0.967300 0.066700
vn -0.135300 0.990100 0.037700
vn -0.078800 0.981800 -0.172600
vn -0.223200 0.968400 0.111500
vn -0.051800 0.968300 0.244200
vn -0.147600 0.976400 -0.157700
vn 0.197800 0.942000 0.271100
vn 0.155400 0.966200 -0.205800
vn 0.760600 0.483900 -0.432800
vn -0.414200 0.758800 -0.502500
vn 0.275100 0.957000 -0.091600
vn 0.078600 0.991000 0.108600
vn 0.363400 0.607600 -0.706300
vn -0.128300 0.984100 -0.122500
vn -0.008800 0.929500 0.368600
vn -0.158800 0.984000 -0.080200
vn -0.516800 0.780400 -0.352000
vn -0.634200 0.759300 -0.145500
vn -0.013400 0.991900 -0.126300
vn 0.026300 0.965500 0.259200
vn -0.598200 0.573200 0.560000
vn -0.260600 0.451500 0.853400
vn 0.099900 0.975900 -0.193800
vn -0.494300 0.792600 -0.357000
vn 0.111700 0.991500 -0.065700
vn 0.558900 0.818600 -0.132500
vn 0.160100 0.783200 0.600800
vn 0.273700 0.784800 0.556000
vn 0.583600 0.811800 -0.015400
vn 0.002300 0.765800 0.643000
vn -0.463600 0.642400 -0.610200
vn -0.721000 0.613100 -0.322800
vn 0.561300 0.810700 0.166300
vn 0.821800 0.286100 -0.492600
vn 0.041400 0.760500 0.648000
vn -0.032600 0.755600 0.654200
vn 0.443300 0.754700 0.483700
vn 0.832500 0.259600 -0.489500
vn -0.060200 0.769000 0.636400
vn 0.302900 0.657100 0.690300
vn -0.238300 0.780800 0.577500
vn 0.541600 0.722600 0.429500
vn -0.641600 0.630400 -0.437000
vn -0.393000 0.779100 0.488300
vn -0.488100 0.298800 -0.820000
vn 0.506600 0.363000 -0.782000
vn -0.550300 0.774700 0.311500
vn -0.392300 0.609400 -0.689000
vn -0.643100 0.561600 -0.520600
vn -0.693400 0.720000 0.026900
vn -0.527100 0.339200 -0.779200
vn -0.727400 0.628500 -0.275400
vn -0.239200 0.474400 -0.847200
vn -0.594800 0.450800 -0.665600
vn -0.146000 0.517400 -0.843200
vn 0.325100 0.446400 -0.833600
vn -0.819300 0.404700 0.406200
vn -0.885600 0.411800 0.214900
vn -0.478800 0.589200 -0.650800
vn -0.125200 0.600200 -0.789900
vn -0.080400 0.753600 0.652400
vn -0.602000 0.712600 0.360100
vn -0.874400 0.484100 -0.032500
vn -0.484000 0.605000 -0.632200
vn -0.750400 0.625000 -0.215000
vn -0.821600 0.542300 0.175400
vn 0.717900 0.686600 0.114800
vn -0.770700 0.456300 0.444700
vn -0.678500 0.369200 0.635100
vn -0.501200 0.242800 0.830500
vn 0.683100 0.709400 0.173300
vn 0.571100 0.443600 -0.690700
vn 0.610600 0.740900 0.279700
vn 0.907800 0.193500 -0.372000
vn 0.134500 0.691900 -0.709300
vn 0.342200 0.432800 -0.834000
vn 0.427500 0.783500 0.451000
vn 0.076100 0.596100 -0.799200
vn 0.428100 0.812200 -0.396200
usemtl Material.001
s 1
f 33/1/1 21/2/2 85/3/3
f 29/4/4 28/5/5 117/6/6
f 114/7/7 27/8/8 31/9/9
f 82/10/10 19/11/11 18/12/12
f 126/13/13 32/14/14 19/11/11
f 20/15/15 23/16/16 102/17/17
f 22/18/18 25/19/19 108/20/20
f 24/21/21 26/22/22 111/23/23
f 108/20/20 25/19/19 27/8/8
f 111/23/23 26/22/22 30/24/24
f 30/24/24 29/25/4 88/26/25
f 18/12/12 22/18/18 99/27/26
f 102/28/17 23/29/16 24/21/21
f 123/30/27 31/31/9 33/1/1
f 85/3/3 21/2/2 20/15/15
f 117/6/6 28/5/5 32/14/14
f 70/32/28 78/33/29 21/2/2
f 71/34/30 77/35/31 78/33/29
f 72/36/32 76/37/33 77/38/31
f 81/39/34 58/40/35 28/41/5
f 80/42/36 59/43/37 58/40/35
f 79/44/38 60/45/39 59/43/37
f 55/46/40 64/47/41 31/9/9
f 56/48/42 65/49/43 64/47/41
f 57/50/44 66/51/45 65/49/43
f 19/11/11 75/52/46 34/53/47
f 74/54/48 35/55/49 34/53/47
f 74/54/48 73/56/50 36/57/51
f 32/14/14 67/58/52 75/52/46
f 67/58/52 68/59/53 74/54/48
f 69/60/54 73/61/50 74/62/48
f 20/15/15 37/63/55 43/64/56
f 38/65/57 44/66/58 43/67/56
f 38/68/57 39/69/59 45/70/60
f 22/18/18 40/71/61 49/72/62
f 41/73/63 50/74/64 49/72/62
f 42/75/65 51/76/66 50/77/64
f 46/78/67 52/79/68 26/22/22
f 46/78/67 47/80/69 53/81/70
f 47/82/69 48/83/71 54/84/72
f 25/19/19 49/72/62 55/46/40
f 49/85/62 50/86/64 56/87/42
f 50/74/64 51/88/66 57/50/44
f 26/22/22 52/79/68 61/89/73
f 52/79/68 53/81/70 62/90/74
f 54/91/72 63/92/75 62/90/74
f 61/89/73 81/39/34 29/25/4
f 61/89/73 62/90/74 80/42/36
f 63/92/75 79/44/38 80/42/36
f 34/53/47 40/71/61 22/18/18
f 35/55/49 41/73/63 40/71/61
f 35/55/49 36/57/51 42/93/65
f 23/29/16 43/94/56 46/78/67
f 43/94/56 44/95/58 47/80/69
f 45/96/60 48/97/71 47/98/69
f 31/31/9 64/99/41 70/32/28
f 64/99/41 65/100/43 71/34/30
f 65/49/43 66/51/45 72/101/32
f 21/2/2 78/33/29 37/63/55
f 78/102/29 77/103/31 38/68/57
f 77/104/31 76/105/33 39/106/59
f 58/107/35 67/58/52 32/14/14
f 58/107/35 59/108/37 68/59/53
f 59/108/37 60/109/39 69/110/54
f 115/111/76 124/112/77 4/113/78
f 116/114/79 125/115/80 124/112/77
f 116/114/79 117/6/6 126/13/13
f 12/116/81 87/117/82 94/118/83
f 87/117/82 86/119/84 95/120/85
f 86/121/84 85/122/3 96/123/86
f 121/124/87 127/125/88 11/126/89
f 122/127/90 128/128/91 127/129/88
f 122/130/90 123/30/27 129/131/92
f 100/132/93 103/133/94 15/134/95
f 101/135/96 104/136/97 103/137/94
f 102/138/17 105/139/98 104/140/97
f 91/141/99 97/142/100 7/143/101
f 91/141/99 92/144/102 98/145/103
f 93/146/104 99/27/26 98/145/103
f 118/147/105 90/148/106 2/149/107
f 119/150/108 89/151/109 90/148/106
f 120/152/110 88/153/25 89/154/109
f 16/155/111 109/156/112 118/147/105
f 109/156/112 110/157/113 119/150/108
f 110/157/113 111/23/23 120/158/110
f 8/159/114 106/160/115 112/161/116
f 106/160/115 107/162/117 113/163/118
f 107/162/117 108/20/20 114/7/7
f 103/133/94 109/156/112 16/155/111
f 104/164/97 110/157/113 109/156/112
f 104/140/97 105/139/98 111/165/23
f 97/142/100 106/160/115 8/159/114
f 98/145/103 107/162/117 106/160/115
f 99/27/26 108/20/20 107/162/117
f 13/166/119 94/118/83 100/167/93
f 94/168/83 95/169/85 101/170/96
f 95/171/85 96/123/86 102/172/17
f 4/113/78 124/112/77 84/173/120
f 124/112/77 125/115/80 83/174/121
f 126/13/13 82/10/10 83/174/121
f 84/173/120 91/141/99 6/175/122
f 83/174/121 92/144/102 91/141/99
f 83/174/121 82/10/10 93/146/104
f 112/176/116 121/124/87 10/177/123
f 112/161/116 113/163/118 122/127/90
f 113/163/118 114/7/7 123/178/27
f 2/149/107 90/148/106 115/179/76
f 90/180/106 89/154/109 116/114/79
f 88/26/25 117/181/6 116/182/79
f 11/126/89 127/125/88 87/117/82
f 128/183/91 86/119/84 87/117/82
f 129/184/92 85/122/3 86/121/84
f 60/109/39 1/185/124 69/110/54
f 76/186/33 1/187/124 39/188/59
f 66/189/45 1/187/124 72/190/32
f 45/96/60 1/191/124 48/97/71
f 36/57/51 1/185/124 42/93/65
f 63/92/75 1/192/124 79/44/38
f 54/193/72 1/194/124 63/195/75
f 51/88/66 1/185/124 57/50/44
f 48/83/71 1/196/124 54/84/72
f 42/75/65 1/197/124 51/76/66
f 39/69/59 1/198/124 45/70/60
f 69/60/54 1/199/124 73/61/50
f 73/56/50 1/185/124 36/57/51
f 57/50/44 1/185/124 66/51/45
f 79/44/38 1/192/124 60/45/39
f 72/190/32 1/187/124 76/186/33
f 129/131/92 33/1/1 85/3/3
f 88/26/25 29/25/4 117/181/6
f 123/178/27 114/7/7 31/9/9
f 93/146/104 82/10/10 18/12/12
f 82/10/10 126/13/13 19/11/11
f 96/200/86 20/15/15 102/17/17
f 99/27/26 22/18/18 108/20/20
f 105/201/98 24/21/21 111/23/23
f 114/7/7 108/20/20 27/8/8
f 120/158/110 111/23/23 30/24/24
f 120/158/110 30/24/24 88/26/25
f 93/146/104 18/12/12 99/27/26
f 105/201/98 102/28/17 24/21/21
f 129/131/92 123/30/27 33/1/1
f 96/200/86 85/3/3 20/15/15
f 126/13/13 117/6/6 32/14/14
f 33/1/1 70/32/28 21/2/2
f 70/32/28 71/34/30 78/33/29
f 71/34/30 72/202/32 77/35/31
f 29/25/4 81/39/34 28/41/5
f 81/39/34 80/42/36 58/40/35
f 80/42/36 79/44/38 59/43/37
f 27/8/8 55/46/40 31/9/9
f 55/46/40 56/48/42 64/47/41
f 56/48/42 57/50/44 65/49/43
f 18/12/12 19/11/11 34/53/47
f 75/52/46 74/54/48 34/53/47
f 35/55/49 74/54/48 36/57/51
f 19/11/11 32/14/14 75/52/46
f 75/52/46 67/58/52 74/54/48
f 68/59/53 69/110/54 74/54/48
f 23/16/16 20/15/15 43/64/56
f 37/203/55 38/204/57 43/205/56
f 44/206/58 38/207/57 45/208/60
f 25/19/19 22/18/18 49/72/62
f 40/71/61 41/73/63 49/72/62
f 41/73/63 42/93/65 50/74/64
f 24/21/21 46/78/67 26/22/22
f 52/79/68 46/78/67 53/81/70
f 53/209/70 47/210/69 54/211/72
f 27/8/8 25/19/19 55/46/40
f 55/46/40 49/72/62 56/48/42
f 56/87/42 50/86/64 57/212/44
f 30/24/24 26/22/22 61/89/73
f 61/89/73 52/79/68 62/90/74
f 53/209/70 54/211/72 62/213/74
f 30/24/24 61/89/73 29/25/4
f 81/39/34 61/89/73 80/42/36
f 62/90/74 63/92/75 80/42/36
f 18/12/12 34/53/47 22/18/18
f 34/53/47 35/55/49 40/71/61
f 41/73/63 35/55/49 42/93/65
f 24/21/21 23/29/16 46/78/67
f 46/78/67 43/94/56 47/80/69
f 44/206/58 45/208/60 47/214/69
f 33/1/1 31/31/9 70/32/28
f 70/32/28 64/99/41 71/34/30
f 71/34/30 65/100/43 72/202/32
f 20/15/15 21/2/2 37/63/55
f 37/203/55 78/215/29 38/204/57
f 38/68/57 77/103/31 39/69/59
f 28/5/5 58/107/35 32/14/14
f 67/58/52 58/107/35 68/59/53
f 68/59/53 59/108/37 69/110/54
f 3/216/125 115/179/76 4/217/78
f 115/111/76 116/114/79 124/112/77
f 125/115/80 116/114/79 126/13/13
f 13/166/119 12/116/81 94/118/83
f 94/118/83 87/117/82 95/120/85
f 95/171/85 86/121/84 96/123/86
f 10/177/123 121/124/87 11/126/89
f 121/218/87 122/127/90 127/129/88
f 128/183/91 122/130/90 129/131/92
f 14/219/126 100/132/93 15/134/95
f 100/220/93 101/221/96 103/222/94
f 101/135/96 102/223/17 104/136/97
f 6/175/122 91/141/99 7/143/101
f 97/142/100 91/141/99 98/145/103
f 92/144/102 93/146/104 98/145/103
f 17/224/127 118/147/105 2/149/107
f 118/147/105 119/150/108 90/148/106
f 119/150/108 120/158/110 89/151/109
f 17/224/127 16/155/111 118/147/105
f 118/147/105 109/156/112 119/150/108
f 119/150/108 110/157/113 120/158/110
f 9/225/128 8/226/114 112/176/116
f 112/161/116 106/160/115 113/163/118
f 113/163/118 107/162/117 114/7/7
f 15/134/95 103/133/94 16/155/111
f 103/133/94 104/164/97 109/156/112
f 110/157/113 104/164/97 111/23/23
f 7/143/101 97/142/100 8/159/114
f 97/142/100 98/145/103 106/160/115
f 98/145/103 99/27/26 107/162/117
f 14/227/126 13/166/119 100/167/93
f 100/220/93 94/228/83 101/221/96
f 101/135/96 95/229/85 102/223/17
f 5/230/129 4/113/78 84/173/120
f 84/173/120 124/112/77 83/174/121
f 125/115/80 126/13/13 83/174/121
f 5/230/129 84/173/120 6/175/122
f 84/173/120 83/174/121 91/141/99
f 92/144/102 83/174/121 93/146/104
f 9/225/128 112/176/116 10/177/123
f 121/218/87 112/161/116 122/127/90
f 122/130/90 113/231/118 123/30/27
f 3/216/125 2/149/107 115/179/76
f 115/111/76 90/180/106 116/114/79
f 89/154/109 88/153/25 116/114/79
f 12/116/81 11/126/89 87/117/82
f 127/129/88 128/128/91 87/232/82
f 128/183/91 129/131/92 86/119/84
f 160/233/130 148/234/131 212/235/132
f 156/236/133 155/237/134 242/238/135
f 239/239/136 154/240/137 158/241/138
f 209/242/139 146/243/140 145/244/141
f 251/245/142 159/246/143 146/243/140
f 147/247/144 150/248/145 227/249/146
f 149/250/147 152/251/148 233/252/149
f 151/253/150 153/254/151 236/255/152
f 233/252/149 152/251/148 154/240/137
f 236/256/152 153/257/151 157/258/153
f 157/258/153 156/259/133 214/260/154
f 145/244/141 149/250/147 224/261/155
f 227/262/146 150/263/145 151/264/150
f 248/265/156 158/266/138 160/233/130
f 212/235/132 148/234/131 147/247/144
f 242/238/135 155/237/134 159/246/143
f 197/267/157 205/268/158 148/269/131
f 198/270/159 204/271/160 205/272/158
f 199/273/161 203/274/162 204/275/160
f 208/276/163 185/277/164 155/278/134
f 207/279/165 186/280/166 185/277/164
f 206/281/167 187/282/168 186/280/166
f 182/283/169 191/284/170 158/241/138
f 183/285/171 192/286/172 191/284/170
f 184/287/173 193/288/174 192/286/172
f 146/243/140 202/289/175 161/290/176
f 201/291/177 162/292/178 161/290/176
f 201/291/177 200/293/179 163/294/180
f 159/246/143 194/295/181 202/289/175
f 194/295/181 195/296/182 201/291/177
f 196/297/183 200/298/179 201/299/177
f 147/247/144 164/300/184 170/301/185
f 165/302/186 171/303/187 170/304/185
f 165/305/186 166/306/188 172/307/189
f 149/250/147 167/308/190 176/309/191
f 168/310/192 177/311/193 176/309/191
f 169/312/194 178/313/195 177/314/193
f 173/315/196 179/316/197 153/257/151
f 173/317/196 174/318/198 180/319/199
f 174/320/198 175/321/200 181/322/201
f 152/251/148 176/309/191 182/283/169
f 176/323/191 177/324/193 183/325/171
f 177/311/193 178/326/195 184/287/173
f 153/257/151 179/316/197 188/327/202
f 179/316/197 180/328/199 189/329/203
f 181/330/201 190/331/204 189/329/203
f 188/332/202 208/333/163 156/334/133
f 188/332/202 189/335/203 207/336/165
f 190/331/204 206/281/167 207/279/165
f 161/290/176 167/308/190 149/250/147
f 162/292/178 168/310/192 167/308/190
f 162/292/178 163/294/180 169/337/194
f 150/263/145 170/338/185 173/315/196
f 170/339/185 171/340/187 174/341/198
f 172/342/189 175/321/200 174/320/198
f 158/266/138 191/343/170 197/344/157
f 191/343/170 192/345/172 198/270/159
f 192/286/172 193/288/174 199/346/161
f 148/269/131 205/268/158 164/347/184
f 205/348/158 204/349/160 165/305/186
f 204/350/160 203/351/162 166/352/188
f 185/353/164 194/295/181 159/246/143
f 185/353/164 186/354/166 195/296/182
f 186/354/166 187/355/168 196/356/183
f 240/357/205 249/358/206 133/359/207
f 241/360/208 250/361/209 249/358/206
f 241/360/208 242/238/135 251/245/142
f 3/362/125 4/363/78 225/364/210
f 213/365/211 212/366/132 221/367/212
f 246/368/213 252/369/214 140/370/215
f 247/371/216 253/372/217 252/373/214
f 247/374/216 248/265/156 254/375/218
f 225/376/210 228/377/219 142/378/220
f 226/379/221 229/380/222 228/381/219
f 227/382/146 230/383/223 229/384/222
f 217/385/224 222/386/225 136/387/226
f 217/385/224 218/388/227 223/389/228
f 219/390/229 224/261/155 223/389/228
f 243/391/230 216/392/231 131/393/232
f 244/394/233 215/395/234 216/396/231
f 245/397/235 214/398/154 215/395/234
f 143/399/236 234/400/237 243/391/230
f 234/400/237 235/401/238 244/402/233
f 235/401/238 236/403/152 245/404/235
f 137/405/239 231/406/240 237/407/241
f 231/406/240 232/408/242 238/409/243
f 232/408/242 233/252/149 239/239/136
f 228/377/219 234/400/237 143/399/236
f 229/410/222 235/401/238 234/400/237
f 229/384/222 230/383/223 236/411/152
f 222/386/225 231/406/240 137/405/239
f 223/389/228 232/408/242 231/406/240
f 224/261/155 233/252/149 232/408/242
f 252/373/214 253/372/217 5/412/129
f 220/413/244 221/367/212 227/414/146
f 133/359/207 249/358/206 211/415/245
f 249/358/206 250/361/209 210/416/246
f 251/245/142 209/242/139 210/416/246
f 211/415/245 217/385/224 135/417/247
f 210/416/246 218/388/227 217/385/224
f 210/416/246 209/242/139 219/390/229
f 237/418/241 246/368/213 139/419/248
f 237/418/241 238/420/243 247/374/216
f 238/420/243 239/421/136 248/265/156
f 131/393/232 216/392/231 240/422/205
f 216/396/231 215/395/234 241/360/208
f 214/260/154 242/423/135 241/424/208
f 254/425/218 212/366/132 213/365/211
f 187/355/168 130/426/249 196/356/183
f 203/427/162 130/428/249 166/429/188
f 193/430/174 130/428/249 199/431/161
f 172/342/189 130/432/249 175/321/200
f 163/294/180 130/426/249 169/337/194
f 190/433/204 130/434/249 206/435/167
f 181/330/201 130/436/249 190/331/204
f 178/326/195 130/426/249 184/287/173
f 175/321/200 130/432/249 181/322/201
f 169/337/194 130/426/249 178/326/195
f 166/306/188 130/437/249 172/307/189
f 196/297/183 130/438/249 200/298/179
f 200/293/179 130/426/249 163/294/180
f 184/287/173 130/426/249 193/288/174
f 206/281/167 130/436/249 187/282/168
f 199/431/161 130/428/249 203/427/162
f 254/375/218 160/233/130 212/235/132
f 214/260/154 156/259/133 242/423/135
f 248/265/156 239/421/136 158/266/138
f 219/390/229 209/242/139 145/244/141
f 209/242/139 251/245/142 146/243/140
f 221/439/212 147/247/144 227/249/146
f 224/261/155 149/250/147 233/252/149
f 230/440/223 151/264/150 236/256/152
f 239/239/136 233/252/149 154/240/137
f 245/397/235 236/441/152 157/442/153
f 245/397/235 157/442/153 214/398/154
f 219/390/229 145/244/141 224/261/155
f 230/440/223 227/262/146 151/264/150
f 254/375/218 248/265/156 160/233/130
f 221/439/212 212/235/132 147/247/144
f 251/245/142 242/238/135 159/246/143
f 160/443/130 197/267/157 148/269/131
f 197/344/157 198/270/159 205/272/158
f 198/444/159 199/445/161 204/446/160
f 156/259/133 208/276/163 155/278/134
f 208/276/163 207/279/165 185/277/164
f 207/279/165 206/281/167 186/280/166
f 154/240/137 182/283/169 158/241/138
f 182/283/169 183/285/171 191/284/170
f 183/285/171 184/287/173 192/286/172
f 145/244/141 146/243/140 161/290/176
f 202/289/175 201/291/177 161/290/176
f 162/292/178 201/291/177 163/294/180
f 146/243/140 159/246/143 202/289/175
f 202/289/175 194/295/181 201/291/177
f 195/296/182 196/356/183 201/291/177
f 150/248/145 147/247/144 170/301/185
f 164/347/184 165/447/186 170/448/185
f 171/449/187 165/450/186 172/451/189
f 152/251/148 149/250/147 176/309/191
f 167/308/190 168/310/192 176/309/191
f 168/310/192 169/337/194 177/311/193
f 151/264/150 173/315/196 153/257/151
f 179/316/197 173/315/196 180/328/199
f 180/328/199 174/452/198 181/330/201
f 154/240/137 152/251/148 182/283/169
f 182/283/169 176/309/191 183/285/171
f 183/325/171 177/324/193 184/453/173
f 157/258/153 153/257/151 188/327/202
f 188/332/202 179/454/197 189/335/203
f 180/328/199 181/330/201 189/329/203
f 157/258/153 188/327/202 156/259/133
f 208/333/163 188/332/202 207/336/165
f 189/329/203 190/331/204 207/279/165
f 145/244/141 161/290/176 149/250/147
f 161/290/176 162/292/178 167/308/190
f 168/310/192 162/292/178 169/337/194
f 151/264/150 150/263/145 173/315/196
f 173/317/196 170/455/185 174/318/198
f 171/449/187 172/451/189 174/456/198
f 160/233/130 158/266/138 197/344/157
f 197/344/157 191/343/170 198/270/159
f 198/270/159 192/345/172 199/457/161
f 147/247/144 148/234/131 164/300/184
f 164/347/184 205/268/158 165/447/186
f 165/305/186 204/349/160 166/306/188
f 155/237/134 185/353/164 159/246/143
f 194/295/181 185/353/164 195/296/182
f 195/296/182 186/354/166 196/356/183
f 132/458/250 240/357/205 133/359/207
f 240/357/205 241/360/208 249/358/206
f 250/361/209 241/360/208 251/245/142
f 253/459/217 213/460/211 5/461/129
f 140/370/215 252/369/214 5/461/129
f 220/413/244 213/365/211 221/367/212
f 139/419/248 246/368/213 140/370/215
f 246/462/213 247/371/216 252/373/214
f 253/459/217 247/374/216 254/375/218
f 225/376/210 142/378/220 400/463/251
f 225/364/210 226/464/221 228/465/219
f 226/379/221 227/466/146 229/380/222
f 135/417/247 217/385/224 136/387/226
f 222/386/225 217/385/224 223/389/228
f 218/388/227 219/390/229 223/389/228
f 144/467/252 243/391/230 131/393/232
f 243/391/230 244/402/233 216/392/231
f 244/394/233 245/397/235 215/395/234
f 144/467/252 143/399/236 243/391/230
f 243/391/230 234/400/237 244/402/233
f 244/394/233 235/468/238 245/397/235
f 138/469/253 137/405/239 237/407/241
f 237/407/241 231/406/240 238/409/243
f 238/409/243 232/408/242 239/239/136
f 142/378/220 228/377/219 143/399/236
f 228/377/219 229/410/222 234/400/237
f 235/401/238 229/410/222 236/403/152
f 136/387/226 222/386/225 137/405/239
f 222/386/225 223/389/228 231/406/240
f 223/389/228 224/261/155 232/408/242
f 5/461/129 213/460/211 220/470/244
f 226/471/221 220/472/244 227/473/146
f 134/474/254 133/359/207 211/415/245
f 211/415/245 249/358/206 210/416/246
f 250/361/209 251/245/142 210/416/246
f 134/474/254 211/415/245 135/417/247
f 211/415/245 210/416/246 217/385/224
f 218/388/227 210/416/246 219/390/229
f 138/469/253 237/407/241 139/475/248
f 246/368/213 237/418/241 247/374/216
f 247/374/216 238/420/243 248/265/156
f 132/476/250 131/393/232 240/422/205
f 240/357/205 216/396/231 241/360/208
f 215/395/234 214/398/154 241/360/208
f 253/459/217 254/375/218 213/460/211
f 6/175/122 140/477/215 5/230/129
f 4/478/78 220/472/244 226/471/221
f 141/479/255 3/480/125 225/376/210
f 225/364/210 4/363/78 226/464/221
f 4/481/78 5/461/129 220/470/244
f 282/482/256 270/483/257 334/484/258
f 278/485/259 277/486/260 361/487/261
f 358/488/262 276/489/263 280/490/264
f 331/491/265 268/492/266 267/493/267
f 370/494/268 281/495/269 268/492/266
f 269/496/270 272/497/271 348/498/272
f 271/499/273 274/500/274 353/501/275
f 273/502/276 275/503/277 355/504/278
f 353/501/275 274/500/274 276/489/263
f 355/504/278 275/503/277 279/505/279
f 279/505/279 278/506/259 336/507/280
f 267/493/267 271/499/273 346/508/281
f 348/509/272 272/510/271 273/502/276
f 367/511/282 280/490/264 282/512/256
f 334/484/258 270/483/257 269/513/270
f 361/487/261 277/486/260 281/495/269
f 319/514/283 327/515/284 270/516/257
f 320/517/285 326/518/286 327/515/284
f 321/519/287 325/520/288 326/521/286
f 330/522/289 307/523/290 277/524/260
f 329/525/291 308/526/292 307/527/290
f 328/528/293 309/529/294 308/526/292
f 304/530/295 313/531/296 280/490/264
f 305/532/297 314/533/298 313/531/296
f 306/534/299 315/535/300 314/533/298
f 268/492/266 324/536/301 283/537/302
f 323/538/303 284/539/304 283/537/302
f 323/538/303 322/540/305 285/541/306
f 281/495/269 316/542/307 324/536/301
f 316/542/307 317/543/308 323/538/303
f 318/544/309 322/545/305 323/546/303
f 269/513/270 286/547/310 292/548/311
f 287/549/312 293/550/313 292/551/311
f 287/552/312 288/553/314 294/554/315
f 271/499/273 289/555/316 298/556/317
f 290/557/318 299/558/319 298/556/317
f 291/559/320 300/560/321 299/558/319
f 295/561/322 301/562/323 275/563/277
f 295/561/322 296/564/324 302/565/325
f 296/566/324 297/567/326 303/568/327
f 274/500/274 298/556/317 304/530/295
f 298/569/317 299/570/319 305/571/297
f 299/558/319 300/560/321 306/534/299
f 275/563/277 301/562/323 310/572/328
f 301/562/323 302/565/325 311/573/329
f 303/574/327 312/575/330 311/576/329
f 310/572/328 330/577/289 278/485/259
f 310/572/328 311/573/329 329/578/291
f 312/575/330 328/528/293 329/525/291
f 283/537/302 289/555/316 271/499/273
f 284/539/304 290/557/318 289/555/316
f 284/539/304 285/541/306 291/559/320
f 272/510/271 292/579/311 295/580/322
f 292/581/311 293/582/313 296/583/324
f 294/584/315 297/585/326 296/586/324
f 280/587/264 313/588/296 319/589/283
f 313/588/296 314/590/298 320/591/285
f 314/533/298 315/535/300 321/592/287
f 270/516/257 327/515/284 286/593/310
f 327/594/284 326/595/286 287/552/312
f 326/596/286 325/597/288 288/598/314
f 307/599/290 316/542/307 281/495/269
f 307/599/290 308/600/292 317/543/308
f 308/600/292 309/601/294 318/602/309
f 360/603/331 369/604/332 368/605/333
f 360/603/331 361/487/261 370/494/268
f 335/606/334 334/607/258 343/608/335
f 365/609/336 371/610/337 266/611/338
f 366/612/339 372/613/340 371/610/337
f 366/612/339 367/511/282 373/614/341
f 348/615/272 350/616/342 349/617/343
f 339/618/344 344/619/345 262/620/346
f 339/618/344 340/621/347 345/622/348
f 341/623/349 346/508/281 345/622/348
f 362/624/350 338/625/351 258/626/352
f 363/627/353 337/628/354 338/629/351
f 364/630/355 336/631/280 337/628/354
f 354/632/356 355/633/278 364/630/355
f 263/634/357 351/635/358 356/636/359
f 351/635/358 352/637/360 357/638/361
f 352/637/360 353/501/275 358/488/262
f 349/617/343 350/616/342 355/633/278
f 344/619/345 351/635/358 263/634/357
f 345/622/348 352/637/360 351/635/358
f 346/508/281 353/501/275 352/637/360
f 371/610/337 372/613/340 255/639/362
f 342/640/363 343/608/335 348/615/272
f 368/605/333 369/604/332 332/641/364
f 370/494/268 331/491/265 332/641/364
f 333/642/365 339/618/344 261/643/366
f 332/641/364 340/621/347 339/618/344
f 332/641/364 331/491/265 341/623/349
f 356/636/359 365/609/336 265/644/367
f 356/645/359 357/646/361 366/647/339
f 357/638/361 358/488/262 367/511/282
f 258/648/352 338/629/351 359/649/368
f 338/629/351 337/628/354 360/603/331
f 336/507/280 361/650/261 360/651/331
f 373/614/341 334/607/258 335/606/334
f 309/601/294 257/652/369 318/602/309
f 325/597/288 257/653/369 288/598/314
f 315/535/300 257/652/369 321/592/287
f 294/584/315 257/654/369 297/585/326
f 285/541/306 257/652/369 291/559/320
f 312/655/330 257/652/369 328/656/293
f 303/574/327 257/657/369 312/575/330
f 300/560/321 257/652/369 306/534/299
f 297/658/326 257/657/369 303/574/327
f 291/559/320 257/652/369 300/560/321
f 288/553/314 257/659/369 294/554/315
f 318/544/309 257/660/369 322/545/305
f 322/540/305 257/652/369 285/541/306
f 306/534/299 257/652/369 315/535/300
f 328/656/293 257/652/369 309/601/294
f 321/661/287 257/662/369 325/663/288
f 373/614/341 282/512/256 334/607/258
f 336/507/280 278/506/259 361/650/261
f 367/511/282 358/488/262 280/490/264
f 341/623/349 331/491/265 267/493/267
f 331/491/265 370/494/268 268/492/266
f 343/664/335 269/513/270 348/665/272
f 346/508/281 271/499/273 353/501/275
f 350/616/342 273/666/276 355/633/278
f 358/488/262 353/501/275 276/489/263
f 364/630/355 355/633/278 279/667/279
f 364/630/355 279/667/279 336/631/280
f 341/623/349 267/493/267 346/508/281
f 350/616/342 348/615/272 273/666/276
f 373/614/341 367/511/282 282/512/256
f 343/664/335 334/484/258 269/513/270
f 370/494/268 361/487/261 281/495/269
f 282/512/256 319/514/283 270/516/257
f 319/514/283 320/517/285 327/515/284
f 320/517/285 321/592/287 326/518/286
f 278/485/259 330/577/289 277/486/260
f 330/577/289 329/578/291 307/599/290
f 329/525/291 328/528/293 308/526/292
f 276/489/263 304/530/295 280/490/264
f 304/530/295 305/532/297 313/531/296
f 305/532/297 306/534/299 314/533/298
f 267/493/267 268/492/266 283/537/302
f 324/536/301 323/538/303 283/537/302
f 284/539/304 323/538/303 285/541/306
f 268/492/266 281/495/269 324/536/301
f 324/536/301 316/542/307 323/538/303
f 317/543/308 318/602/309 323/538/303
f 272/668/271 269/513/270 292/548/311
f 286/593/310 287/549/312 292/551/311
f 293/550/313 287/549/312 294/669/315
f 274/500/274 271/499/273 298/556/317
f 289/555/316 290/557/318 298/556/317
f 290/557/318 291/559/320 299/558/319
f 273/502/276 295/580/322 275/503/277
f 301/562/323 295/561/322 302/565/325
f 302/670/325 296/671/324 303/672/327
f 276/489/263 274/500/274 304/530/295
f 304/530/295 298/556/317 305/532/297
f 305/571/297 299/570/319 306/673/299
f 279/505/279 275/503/277 310/674/328
f 310/572/328 301/562/323 311/573/329
f 302/565/325 303/675/327 311/573/329
f 279/505/279 310/674/328 278/506/259
f 330/577/289 310/572/328 329/578/291
f 311/576/329 312/575/330 329/525/291
f 267/493/267 283/537/302 271/499/273
f 283/537/302 284/539/304 289/555/316
f 290/557/318 284/539/304 291/559/320
f 273/502/276 272/510/271 295/580/322
f 295/561/322 292/551/311 296/564/324
f 293/550/313 294/669/315 296/564/324
f 282/512/256 280/490/264 319/514/283
f 319/589/283 313/588/296 320/591/285
f 320/517/285 314/533/298 321/592/287
f 269/513/270 270/483/257 286/547/310
f 286/593/310 327/515/284 287/549/312
f 287/552/312 326/595/286 288/553/314
f 277/486/260 307/599/290 281/495/269
f 316/542/307 307/599/290 317/543/308
f 317/543/308 308/600/292 318/602/309
f 359/649/368 360/603/331 368/605/333
f 369/604/332 360/603/331 370/494/268
f 372/613/340 335/606/334 255/639/362
f 266/676/338 371/677/337 255/678/362
f 342/640/363 335/606/334 343/608/335
f 265/644/367 365/609/336 266/611/338
f 365/609/336 366/612/339 371/610/337
f 372/613/340 366/612/339 373/614/341
f 347/679/370 348/680/272 349/681/343
f 261/643/366 339/618/344 262/620/346
f 344/619/345 339/618/344 345/622/348
f 340/621/347 341/623/349 345/622/348
f 362/682/350 363/627/353 338/629/351
f 363/627/353 364/630/355 337/628/354
f 363/627/353 354/632/356 364/630/355
f 264/683/371 263/634/357 356/636/359
f 356/636/359 351/635/358 357/638/361
f 357/638/361 352/637/360 358/488/262
f 354/632/356 349/617/343 355/633/278
f 262/620/346 344/619/345 263/634/357
f 344/619/345 345/622/348 351/635/358
f 345/622/348 346/508/281 352/637/360
f 255/684/362 335/685/334 342/686/363
f 347/687/370 342/688/363 348/689/272
f 255/690/362 8/691/114 256/692/372
f 333/642/365 368/605/333 332/641/364
f 369/604/332 370/494/268 332/641/364
f 260/693/373 333/642/365 261/643/366
f 333/642/365 332/641/364 339/618/344
f 340/621/347 332/641/364 341/623/349
f 264/683/371 356/636/359 265/644/367
f 365/609/336 356/636/359 366/612/339
f 366/647/339 357/646/361 367/694/282
f 259/695/374 258/648/352 359/649/368
f 359/649/368 338/629/351 360/603/331
f 337/628/354 336/631/280 360/603/331
f 372/613/340 373/614/341 335/606/334
f 256/692/372 266/696/338 255/690/362
f 6/697/122 362/698/350 258/699/352
f 359/649/368 368/605/333 139/475/248
f 139/475/248 368/605/333 333/642/365
f 259/695/374 359/649/368 139/475/248
f 260/693/373 139/475/248 333/642/365
f 362/700/350 6/701/122 354/702/356
f 363/627/353 362/682/350 354/632/356
f 255/690/362 342/703/363 8/691/114
f 347/687/370 8/704/114 342/688/363
f 3/705/125 141/706/255 410/707/375
f 416/708/376 411/709/377 395/710/378
f 417/711/379 406/712/380 375/713/381
f 407/714/382 374/715/383 433/716/384
f 426/717/385 377/718/386 434/719/387
f 431/720/388 412/721/389 392/722/390
f 394/723/391 388/724/392 378/725/393
f 389/726/394 379/727/395 381/728/396
f 434/729/387 377/730/386 383/731/397
f 427/732/398 376/733/399 385/734/400
f 388/735/392 375/713/381 386/736/401
f 388/735/392 391/737/402 387/738/403
f 377/739/386 389/740/394 390/741/404
f 392/722/390 375/713/381 388/735/392
f 413/742/405 392/722/390 394/743/391
f 415/744/406 394/723/391 393/745/407
f 399/746/408 398/747/409 404/748/410
f 397/749/411 399/746/408 405/750/412
f 430/751/413 429/752/414 397/749/411
f 409/753/415 408/754/416 396/755/417
f 407/714/382 409/753/415 402/756/418
f 426/757/385 430/758/413 403/759/419
f 403/760/419 405/761/412 389/762/394
f 405/750/412 404/748/410 379/763/395
f 410/707/375 416/764/376 401/765/420
f 438/766/421 409/753/415 407/714/382
f 438/766/421 437/767/422 408/754/416
f 439/768/423 436/769/424 406/712/380
f 437/767/422 439/768/423 417/711/379
f 141/479/255 400/463/251 416/708/376
f 415/744/406 414/770/425 398/771/409
f 413/742/405 415/772/406 399/746/408
f 429/752/414 431/720/388 413/742/405
f 408/754/416 417/711/379 412/721/389
f 400/463/251 142/378/220 411/709/377
f 392/722/390 412/721/389 375/713/381
f 411/773/377 425/774/426 423/775/427
f 142/776/220 422/777/428 425/774/426
f 395/778/378 423/775/427 424/779/429
f 401/765/420 424/779/429 418/780/430
f 420/781/431 421/782/432 382/783/433
f 432/784/434 420/785/431 376/786/399
f 2/787/107 418/780/430 419/788/435
f 419/788/435 432/784/434 427/789/398
f 396/755/417 412/721/389 431/720/388
f 374/715/383 402/756/418 430/751/413
f 402/756/418 396/755/417 429/752/414
f 427/732/398 428/790/436 384/791/437
f 374/715/383 426/717/385 441/792/438
f 433/716/384 441/792/438 432/784/434
f 425/774/426 439/768/423 437/767/422
f 425/774/426 422/777/428 436/769/424
f 423/775/427 437/767/422 438/766/421
f 418/793/430 424/794/429 438/795/421
f 420/781/431 434/729/387 435/796/439
f 441/792/438 434/719/387 420/785/431
f 418/780/430 440/797/440 433/716/384
f 133/359/207 134/474/254 455/798/441
f 265/644/367 470/799/442 469/800/443
f 134/474/254 135/417/247 456/801/444
f 265/802/367 266/803/338 471/804/445
f 381/728/396 478/805/446 485/806/447
f 136/387/226 457/807/448 456/801/444
f 391/737/402 386/736/401 483/808/449
f 9/225/128 443/809/450 442/810/451
f 136/387/226 137/405/239 458/811/452
f 375/713/381 406/712/380 490/812/453
f 10/177/123 444/813/454 443/809/450
f 137/405/239 138/469/253 459/814/455
f 256/815/372 8/226/114 442/810/451
f 11/126/89 445/816/456 444/813/454
f 138/469/253 139/475/248 460/817/457
f 382/783/433 421/782/432 492/818/458
f 406/712/380 436/769/424 496/819/453
f 421/782/432 435/796/439 495/820/458
f 11/126/89 12/116/81 446/821/459
f 142/378/220 461/822/460 493/823/461
f 436/769/424 422/777/428 493/824/461
f 12/116/81 13/166/119 447/825/462
f 378/725/393 475/826/463 487/827/464
f 13/166/119 14/227/126 448/828/465
f 143/399/236 462/829/466 461/822/460
f 14/219/126 15/134/95 449/830/467
f 144/467/252 463/831/468 462/829/466
f 15/134/95 16/155/111 450/832/469
f 131/393/232 452/833/470 463/831/468
f 379/727/395 404/834/410 489/835/471
f 16/155/111 17/224/127 451/836/472
f 390/837/404 485/838/447 477/839/473
f 398/771/409 414/770/425 491/840/474
f 381/728/396 379/727/395 476/841/475
f 266/803/338 256/815/372 464/842/476
f 380/843/477 477/839/473 474/844/478
f 393/745/407 487/827/464 491/840/474
f 435/796/439 383/731/397 480/845/479
f 383/731/397 377/730/386 474/846/478
f 382/847/433 479/848/480 473/849/481
f 260/693/373 465/850/482 460/817/457
f 385/734/400 482/851/483 494/852/484
f 428/790/436 494/852/484 481/853/485
f 376/733/399 473/849/481 482/851/483
f 384/791/437 481/853/485 451/854/472
f 261/643/366 466/855/486 465/850/482
f 387/738/403 391/737/402 486/856/487
f 262/620/346 467/857/488 466/855/486
f 386/736/401 375/713/381 472/858/489
f 132/476/250 453/859/490 452/833/470
f 404/748/410 398/747/409 488/860/491
f 263/634/357 468/861/492 467/857/488
f 378/725/393 387/862/403 484/863/493
f 133/359/207 454/864/494 453/865/490
f 263/634/357 264/683/371 469/800/443
f 141/479/255 225/376/210 400/463/251
f 2/787/107 3/705/125 410/707/375
f 401/866/420 416/708/376 395/710/378
f 412/721/389 417/711/379 375/713/381
f 440/797/440 407/714/382 433/716/384
f 441/792/438 426/717/385 434/719/387
f 413/742/405 431/720/388 392/722/390
f 393/745/407 394/723/391 378/725/393
f 390/867/404 389/726/394 381/728/396
f 435/796/439 434/729/387 383/731/397
f 428/790/436 427/732/398 385/734/400
f 391/737/402 388/735/392 386/736/401
f 378/868/393 388/735/392 387/738/403
f 380/869/477 377/739/386 390/741/404
f 394/743/391 392/722/390 388/735/392
f 415/772/406 413/742/405 394/743/391
f 414/770/425 415/744/406 393/745/407
f 405/750/412 399/746/408 404/748/410
f 403/870/419 397/749/411 405/750/412
f 403/870/419 430/751/413 397/749/411
f 402/756/418 409/753/415 396/755/417
f 374/715/383 407/714/382 402/756/418
f 377/871/386 426/757/385 403/759/419
f 377/872/386 403/760/419 389/762/394
f 389/873/394 405/750/412 379/763/395
f 2/787/107 410/707/375 401/765/420
f 440/797/440 438/766/421 407/714/382
f 409/753/415 438/766/421 408/754/416
f 417/711/379 439/768/423 406/712/380
f 408/754/416 437/767/422 417/711/379
f 410/874/375 141/479/255 416/708/376
f 399/875/408 415/744/406 398/771/409
f 397/749/411 413/742/405 399/746/408
f 397/749/411 429/752/414 413/742/405
f 396/755/417 408/754/416 412/721/389
f 416/708/376 400/463/251 411/709/377
f 395/778/378 411/773/377 423/775/427
f 411/773/377 142/776/220 425/774/426
f 401/765/420 395/778/378 424/779/429
f 2/787/107 401/765/420 418/780/430
f 376/876/399 420/781/431 382/783/433
f 427/789/398 432/784/434 376/786/399
f 17/877/127 2/787/107 419/788/435
f 17/877/127 419/788/435 427/789/398
f 429/752/414 396/755/417 431/720/388
f 426/717/385 374/715/383 430/751/413
f 430/751/413 402/756/418 429/752/414
f 17/878/127 427/732/398 384/791/437
f 433/716/384 374/715/383 441/792/438
f 419/788/435 433/716/384 432/784/434
f 423/775/427 425/774/426 437/767/422
f 439/768/423 425/774/426 436/769/424
f 424/779/429 423/775/427 438/766/421
f 440/879/440 418/793/430 438/795/421
f 421/782/432 420/781/431 435/796/439
f 432/784/434 441/792/438 420/785/431
f 419/788/435 418/780/430 433/716/384
f 454/864/494 133/359/207 455/798/441
f 264/683/371 265/644/367 469/800/443
f 455/798/441 134/474/254 456/801/444
f 470/880/442 265/802/367 471/804/445
f 390/867/404 381/728/396 485/806/447
f 135/417/247 136/387/226 456/801/444
f 486/856/487 391/737/402 483/808/449
f 8/226/114 9/225/128 442/810/451
f 457/807/448 136/387/226 458/811/452
f 472/858/489 375/713/381 490/812/453
f 9/225/128 10/177/123 443/809/450
f 458/811/452 137/405/239 459/814/455
f 464/842/476 256/815/372 442/810/451
f 10/177/123 11/126/89 444/813/454
f 459/814/455 138/469/253 460/817/457
f 479/881/480 382/783/433 492/818/458
f 490/812/453 406/712/380 496/819/453
f 492/818/458 421/782/432 495/820/458
f 445/816/456 11/126/89 446/821/459
f 422/882/428 142/378/220 493/823/461
f 496/819/453 436/769/424 493/824/461
f 446/821/459 12/116/81 447/825/462
f 393/745/407 378/725/393 487/827/464
f 447/825/462 13/166/119 448/828/465
f 142/378/220 143/399/236 461/822/460
f 448/883/465 14/219/126 449/830/467
f 143/399/236 144/467/252 462/829/466
f 449/830/467 15/134/95 450/832/469
f 144/467/252 131/393/232 463/831/468
f 476/841/475 379/727/395 489/835/471
f 450/832/469 16/155/111 451/836/472
f 380/843/477 390/837/404 477/839/473
f 488/884/491 398/771/409 491/840/474
f 478/805/446 381/728/396 476/841/475
f 471/804/445 266/803/338 464/842/476
f 377/885/386 380/843/477 474/844/478
f 414/770/425 393/745/407 491/840/474
f 495/820/458 435/796/439 480/845/479
f 480/845/479 383/731/397 474/846/478
f 376/733/399 382/847/433 473/849/481
f 139/475/248 260/693/373 460/817/457
f 428/790/436 385/734/400 494/852/484
f 384/791/437 428/790/436 481/853/485
f 385/734/400 376/733/399 482/851/483
f 17/878/127 384/791/437 451/854/472
f 260/693/373 261/643/366 465/850/482
f 484/886/493 387/738/403 486/856/487
f 261/643/366 262/620/346 466/855/486
f 483/808/449 386/736/401 472/858/489
f 131/393/232 132/476/250 452/833/470
f 489/887/471 404/748/410 488/860/491
f 262/620/346 263/634/357 467/857/488
f 475/826/463 378/725/393 484/863/493
f 132/458/250 133/359/207 453/865/490
f 468/861/492 263/634/357 469/800/443
