# Blender v2.75 (sub 0) OBJ File: 'Ash_2.blend'
# www.blender.org
mtllib Ash_2_COL.mtl
o Cylinder.001_Cylinder.002
v 0.177546 0.190703 0.012637
v 0.304272 0.026963 0.786345
v 0.107560 0.035405 1.117549
v 0.092303 -0.077667 1.275343
v -0.348892 -0.077667 1.292581
v -0.708522 -0.077667 1.204272
v -1.121224 -0.077667 0.839373
v -1.167051 -0.077667 0.428779
v -0.231934 0.439448 0.595720
v -0.399179 0.475725 0.450022
v -0.312513 0.533534 0.504441
v 0.035954 0.307544 0.667424
v 0.289251 0.058483 0.423492
v -0.708239 0.273188 0.615426
v -0.619573 0.316915 0.293425
v -0.470767 0.257564 0.948817
v -0.235190 0.209184 -0.017242
v -0.445106 0.454639 0.612785
v 0.340241 -0.077667 -0.781973
v 1.102181 -0.077667 -0.925755
v 1.430870 -0.077667 -0.757651
v 1.540525 -0.077667 0.176058
v 1.367128 -0.077667 0.441203
v 0.954750 -0.077667 0.619824
v 0.018830 0.054930 -0.487779
v 0.708566 0.451781 -0.168947
v 0.605982 0.430871 -0.174963
v 0.920027 0.340850 0.112096
v 0.379763 0.278178 -0.391349
v 0.955882 0.237595 -0.483868
v 0.581265 0.264996 -0.663573
v 0.464564 0.212776 0.210545
v 0.518748 0.044295 0.376361
v 0.587142 0.131740 1.012830
v 0.882046 0.029524 0.575728
v 0.209272 0.141289 0.592236
v 0.444855 0.185917 0.778158
v -0.780979 -0.077667 -0.133724
v -0.681384 -0.077667 -0.719399
v -0.392155 0.060784 -0.690357
v -0.334147 0.056792 -0.276623
v -0.667893 0.047503 -0.515739
v 0.047849 -0.077667 -0.515161
v 0.418354 -0.077667 1.321132
v 0.821532 -0.077667 1.115828
v -0.829747 -0.077667 -0.485037
v -0.410557 -0.077667 -0.820727
v -0.195754 -0.077667 -0.887182
vt 0.514353 0.690222
vt 0.631310 0.693153
vt 0.616862 0.749370
vt 0.666681 0.680962
vt 0.647562 0.659845
vt 0.619283 0.694295
vt 0.940828 0.197679
vt 0.948206 0.280455
vt 0.920133 0.292858
vt 0.894983 0.397111
vt 0.902512 0.452045
vt 0.879124 0.430057
vt 0.467372 0.231164
vt 0.595345 0.278681
vt 0.528378 0.395314
vt 0.730268 0.134128
vt 0.866186 0.203527
vt 0.747896 0.269742
vt 0.429879 0.827723
vt 0.588664 0.802088
vt 0.396333 0.389856
vt 0.482587 0.457944
vt 0.515945 0.485366
vt 0.641892 0.493988
vt 0.865351 0.225272
vt 0.806738 0.324807
vt 0.763116 0.316363
vt 0.630510 0.388072
vt 0.569162 0.386745
vt 0.527756 0.145748
vt 0.561768 0.289935
vt 0.435302 0.580785
vt 0.398455 0.692652
vt 0.690304 0.235264
vt 0.603770 0.075996
vt 0.622759 0.107908
vt 0.918509 0.007631
vt 0.387688 0.468886
vt 0.459199 0.525007
vt 0.701940 0.386623
vt 0.302702 0.734622
vt 0.354740 0.733402
vt 0.358170 0.824088
vt 0.218176 0.148825
vt 0.301481 0.255115
vt 0.222228 0.328734
vt 0.860544 0.629420
vt 0.846815 0.562807
vt 0.849109 0.537784
vt 0.926470 0.779892
vt 0.937995 0.587970
vt 0.998415 0.672145
vt 0.718744 0.869954
vt 0.707246 0.754552
vt 0.784729 0.847760
vt 0.002192 0.340773
vt 0.835691 0.709212
vt 0.735353 0.655148
vt 0.040327 0.428597
vt 0.182903 0.482454
vt 0.735079 0.561561
vt 0.268315 0.797714
vt 0.359079 0.882987
vt 0.888248 0.517798
vt 0.937093 0.478218
vt 0.247479 0.758926
vt 0.231136 0.723548
vt 0.151748 0.002086
vt 0.059034 0.050032
vt 0.150837 0.494925
vt 0.808260 0.477615
vt 0.316274 0.099827
vt 0.355327 0.178694
vt 0.810960 0.397111
vt 0.807331 0.431038
vt 0.783611 0.442525
vt 0.249996 0.444877
vt 0.314394 0.558762
vt 0.266411 0.627929
vt 0.364247 0.620315
vt 0.284204 0.700680
vt 0.353948 0.519276
vt 0.382363 0.506178
vt 0.181800 0.650554
vt 0.906468 0.405584
vt 0.928123 0.397111
vt 0.928123 0.453630
vt 0.441054 0.857088
vt 0.454640 0.914877
vt 0.387266 0.921341
vt 0.863908 0.923659
vt 0.871065 0.961631
vt 0.842895 0.952583
vt 0.637206 0.035304
vt 0.571625 0.858662
vt 0.613190 0.914718
vt 0.573284 0.903883
vt 0.873978 0.405544
vt 0.858477 0.448453
vt 0.850293 0.410227
vt 0.763721 0.952245
vt 0.891637 0.972758
vt 0.874235 0.952977
vt 0.889722 0.925804
vt 0.104517 0.922802
vt 0.028887 0.831855
vt 0.150837 0.795731
vt 0.169833 0.979511
vt 0.195955 0.883826
vt 0.400764 0.856288
vt 0.819084 0.833994
vt 0.888186 0.875150
vt 0.845290 0.802052
vt 0.871121 0.786572
vt 0.098287 0.721965
vt 0.007124 0.819573
vn 0.474900 0.858000 0.195500
vn 0.153700 0.711300 0.685800
vn -0.300100 0.895700 0.328000
vn 0.090700 0.995800 0.002700
vn -0.593100 0.790100 0.154700
vn -0.403700 0.865000 -0.298100
vn -0.349400 0.736600 0.579000
vn -0.191500 0.811900 0.551400
vn -0.438400 0.865700 -0.241300
vn -0.462900 0.816900 -0.344000
vn -0.028200 0.887100 -0.460600
vn 0.091900 0.866000 0.491600
vn -0.520100 0.814800 0.256300
vn -0.149300 0.988700 -0.012800
vn -0.052900 0.705500 0.706700
vn 0.260100 0.965500 0.011800
vn 0.662500 0.720400 0.205000
vn -0.154300 0.975200 -0.158600
vn 0.006500 0.794000 0.607900
vn -0.598500 0.794100 -0.106000
vn -0.212100 0.866500 0.451800
vn -0.236200 0.969600 -0.063900
vn 0.055800 0.995500 -0.076600
vn 0.304700 0.873700 -0.379300
vn 0.272000 0.918900 0.285600
vn 0.358300 0.854300 0.376400
vn -0.372300 0.875300 -0.308500
vn -0.094100 0.867800 -0.487900
vn 0.538500 0.835700 0.107800
vn -0.279900 0.614700 -0.737300
vn 0.035500 0.706600 -0.706700
vn 0.433900 0.779300 0.452000
vn 0.094100 0.824900 -0.557400
vn 0.414500 0.866400 -0.278500
vn 0.577600 0.613400 0.538700
vn 0.254300 0.897900 0.359100
vn 0.029400 0.999500 -0.003300
vn 0.119000 0.935700 -0.332100
vn 0.056500 0.804700 0.590900
vn -0.087600 0.980300 -0.176800
vn 0.519000 0.748200 0.413300
vn -0.084100 0.918600 -0.386000
vn 0.178900 0.808600 -0.560500
vn -0.384300 0.915500 -0.118800
vn -0.410400 0.757800 -0.507300
vn -0.234400 0.682800 -0.692000
vn -0.620400 0.778000 -0.098600
vn 0.019700 0.206300 -0.978300
usemtl Material.001
s 1
f 12/1/1 9/2/2 18/3/3
f 9/2/2 11/4/4 18/3/3
f 11/5/4 9/6/2 12/1/1
f 14/7/5 18/8/3 10/9/6
f 18/10/3 11/11/4 10/12/6
f 6/13/7 16/14/8 14/15/5
f 38/16/9 15/17/10 17/18/11
f 3/19/12 12/1/1 16/20/8
f 7/21/13 14/15/5 15/22/10
f 1/23/14 17/24/11 12/1/1
f 15/25/10 11/26/4 17/27/11
f 16/14/8 18/28/3 14/29/5
f 15/25/10 10/9/6 11/26/4
f 12/1/1 17/24/11 11/5/4
f 16/20/8 12/1/1 18/3/3
f 15/17/10 14/7/5 10/9/6
f 7/21/13 6/13/7 14/15/5
f 5/30/15 16/31/8 6/13/7
f 13/32/16 12/1/1 2/33/17
f 38/16/9 17/18/11 41/34/18
f 4/35/19 3/36/12 16/31/8
f 8/37/20 15/17/10 38/16/9
f 2/33/17 12/1/1 3/19/12
f 8/38/20 7/21/13 15/22/10
f 32/39/21 1/23/14 13/32/16
f 13/32/16 1/23/14 12/1/1
f 4/35/19 16/31/8 5/30/15
f 1/40/14 41/34/18 17/18/11
f 27/41/22 26/42/23 30/43/24
f 30/44/24 26/45/23 28/46/25
f 28/47/25 26/48/23 27/49/22
f 35/50/26 32/51/21 13/52/16
f 1/53/14 29/54/27 25/55/28
f 30/44/24 28/46/25 22/56/29
f 19/57/30 29/54/27 31/58/31
f 23/59/32 28/46/25 35/60/26
f 35/50/26 28/47/25 32/51/21
f 19/57/30 31/58/31 30/61/24
f 29/62/27 27/41/22 30/63/24
f 32/51/21 27/64/22 1/65/14
f 29/66/27 1/67/14 27/41/22
f 32/51/21 28/47/25 27/49/22
f 20/68/33 30/44/24 21/69/34
f 24/70/35 23/59/32 35/60/26
f 25/55/28 29/54/27 19/57/30
f 22/56/29 28/46/25 23/59/32
f 21/69/34 30/44/24 22/56/29
f 20/71/33 19/57/30 30/61/24
f 31/72/31 29/73/27 30/44/24
f 34/74/36 37/75/37 3/76/12
f 33/77/38 37/78/37 35/60/26
f 34/79/36 3/80/12 44/81/39
f 3/80/12 37/82/37 36/83/40
f 35/60/26 34/79/36 45/84/41
f 36/83/40 37/82/37 33/77/38
f 37/78/37 34/79/36 35/60/26
f 13/85/16 36/86/40 33/87/38
f 40/88/42 25/89/28 48/90/43
f 42/91/44 40/92/42 39/93/45
f 44/94/39 3/36/12 4/35/19
f 39/95/45 40/96/42 47/97/46
f 42/98/44 39/99/45 46/100/47
f 41/101/18 1/53/14 25/55/28
f 42/102/44 41/103/18 40/104/42
f 41/105/18 25/106/28 40/107/42
f 38/108/9 41/105/18 42/109/44
f 34/79/36 44/81/39 45/84/41
f 40/88/42 48/90/43 47/110/46
f 25/55/28 19/57/30 43/111/48
f 38/112/9 42/113/44 46/114/47
f 35/60/26 45/84/41 24/70/35
f 48/115/43 25/106/28 43/116/48
