# Blender v2.75 (sub 0) OBJ File: 'untitled.blend'
# www.blender.org
mtllib Apple_Bitten_COL.mtl
o Cube
v -2.509674 2.131814 0.000000
v 0.000000 2.131814 -2.509674
v 2.509674 2.131814 0.000000
v 0.000000 2.131814 2.509674
v 0.000000 -0.377861 0.000000
v 0.000000 4.641488 0.000000
v -1.882256 2.131814 1.882256
v -1.882256 4.014069 0.000000
v -1.882256 2.131814 -1.882256
v -1.882256 0.249558 0.000000
v 0.000000 4.014069 -1.882256
v 1.882256 2.131814 -1.882256
v 0.000000 0.249558 -1.882256
v 1.882256 4.014069 0.000000
v 1.882256 2.131814 1.882256
v 1.882256 0.249558 0.000000
v 0.000000 4.014069 1.882256
v 0.000000 0.249558 1.882256
v -1.394263 0.737550 1.394263
v -1.394263 3.526077 1.394263
v -1.394263 0.737550 -1.394263
v -1.394263 3.526077 -1.394263
v 1.394263 0.737550 1.394263
v 1.394263 3.526077 1.394263
v 1.394263 0.737550 -1.394263
v 1.394263 3.526077 -1.394263
vn -1.000000 0.000000 0.000000
vn -0.707100 0.000000 0.707100
vn -0.577300 0.577300 0.577300
vn -0.707100 0.707100 0.000000
vn -0.577300 0.577300 -0.577300
vn -0.707100 0.000000 -0.707100
vn -0.577300 -0.577300 -0.577300
vn -0.707100 -0.707100 0.000000
vn -0.577300 -0.577300 0.577300
vn 0.000000 0.000000 -1.000000
vn 0.000000 0.707100 -0.707100
vn 0.577300 0.577300 -0.577300
vn 0.707100 0.000000 -0.707100
vn 0.577300 -0.577300 -0.577300
vn 0.000000 -0.707100 -0.707100
vn 1.000000 0.000000 0.000000
vn 0.707100 0.707100 0.000000
vn 0.577300 0.577300 0.577300
vn 0.707100 0.000000 0.707100
vn 0.577300 -0.577300 0.577300
vn 0.707100 -0.707100 0.000000
vn 0.000000 0.000000 1.000000
vn 0.000000 0.707100 0.707100
vn 0.000000 -0.707100 0.707100
vn 0.000000 -1.000000 0.000000
vn 0.000000 1.000000 0.000000
usemtl None
s 1
f 1//1 7//2 20//3
f 1//1 8//4 22//5
f 1//1 9//6 21//7
f 1//1 10//8 19//9
f 2//10 9//6 22//5
f 2//10 11//11 26//12
f 2//10 12//13 25//14
f 2//10 13//15 21//7
f 3//16 12//13 26//12
f 3//16 14//17 24//18
f 3//16 15//19 23//20
f 3//16 16//21 25//14
f 4//22 15//19 24//18
f 4//22 17//23 20//3
f 4//22 7//2 19//9
f 4//22 18//24 23//20
f 5//25 18//24 19//9
f 5//25 10//8 21//7
f 5//25 13//15 25//14
f 5//25 16//21 23//20
f 6//26 17//23 24//18
f 6//26 14//17 26//12
f 6//26 11//11 22//5
f 6//26 8//4 20//3
f 8//4 1//1 20//3
f 9//6 1//1 22//5
f 10//8 1//1 21//7
f 7//2 1//1 19//9
f 11//11 2//10 22//5
f 12//13 2//10 26//12
f 13//15 2//10 25//14
f 9//6 2//10 21//7
f 14//17 3//16 26//12
f 15//19 3//16 24//18
f 16//21 3//16 23//20
f 12//13 3//16 25//14
f 17//23 4//22 24//18
f 7//2 4//22 20//3
f 18//24 4//22 19//9
f 15//19 4//22 23//20
f 10//8 5//25 19//9
f 13//15 5//25 21//7
f 16//21 5//25 25//14
f 18//24 5//25 23//20
f 14//17 6//26 24//18
f 11//11 6//26 26//12
f 8//4 6//26 22//5
f 17//23 6//26 20//3
