# Blender v2.75 (sub 0) OBJ File: 'books.blend'
# www.blender.org
mtllib Closed_Book.mtl
o Cube.002
v 0.090058 0.011258 -0.140008
v 0.090058 0.011258 0.140008
v 0.090058 0.000880 0.140007
v 0.090058 0.000880 -0.140008
v 0.091168 0.006069 0.164657
v 0.091168 0.006069 -0.164657
v 0.090058 0.000880 -0.162665
v 0.090058 0.011258 -0.162665
v 0.090058 0.000880 0.162665
v 0.090058 0.011258 0.162665
v 0.090058 0.057571 -0.140008
v 0.090058 0.057571 0.140008
v 0.090058 0.067949 0.140007
v 0.090058 0.067949 -0.140008
v 0.091168 0.062760 0.164657
v 0.091168 0.062760 -0.164657
v 0.090058 0.067949 -0.162665
v 0.090058 0.057571 -0.162665
v 0.090058 0.067949 0.162665
v 0.090058 0.057571 0.162665
v 0.115202 0.062760 -0.141722
v 0.115202 0.062760 0.141722
v 0.115202 0.006069 0.141722
v 0.115202 0.006069 -0.141722
v 0.112982 0.011258 -0.140008
v 0.112982 0.011258 0.140008
v 0.112982 0.000880 -0.140008
v 0.112982 0.000880 0.140008
v -0.111426 0.006705 -0.140008
v -0.111426 0.006705 0.140008
v -0.101292 0.013113 0.140008
v -0.101292 0.013113 -0.140008
v -0.096659 0.011258 -0.140008
v -0.096659 0.011258 0.140008
v -0.096659 0.000880 -0.140008
v -0.096659 0.000880 0.140007
v 0.112982 0.057571 -0.140008
v 0.112982 0.057571 0.140008
v 0.112982 0.067949 -0.140008
v 0.112982 0.067949 0.140008
v -0.111426 0.062124 -0.140008
v -0.111426 0.062124 0.140008
v -0.115202 0.034414 -0.140008
v -0.115202 0.034414 0.140008
v -0.101292 0.055716 0.140008
v -0.101292 0.055716 -0.140008
v -0.104824 0.034414 0.140008
v -0.104824 0.034414 -0.140007
v -0.096659 0.057571 -0.140008
v -0.096659 0.057571 0.140008
v -0.096659 0.067949 -0.140008
v -0.096659 0.067949 0.140007
v 0.115202 0.006069 -0.164657
v 0.115202 0.006069 0.164657
v -0.106359 0.009909 0.164657
v -0.106359 0.009909 -0.164657
v -0.096659 0.006069 -0.164657
v -0.096659 0.006069 0.164657
v 0.115202 0.062760 -0.164657
v 0.115202 0.062760 0.164657
v -0.106359 0.058920 0.164657
v -0.110013 0.034414 0.164657
v -0.106359 0.058920 -0.164657
v -0.110013 0.034414 -0.164657
v -0.096659 0.062760 -0.164657
v -0.096659 0.062760 0.164657
v 0.103871 0.021238 -0.157089
v 0.103030 0.034414 -0.157089
v 0.103871 0.047591 -0.157089
v 0.103871 0.047591 0.157089
v 0.103030 0.034414 0.157089
v 0.103871 0.021238 0.157089
v -0.107642 0.047591 -0.157089
v -0.107642 0.034414 -0.157089
v -0.107642 0.021238 -0.157089
v -0.107642 0.021238 0.157089
v -0.107642 0.034414 0.157089
v -0.107642 0.047591 0.157089
v 0.112982 0.011258 -0.162665
v 0.112982 0.011258 0.162665
v 0.112982 0.000880 -0.162665
v 0.112982 0.000880 0.162665
v -0.101292 0.013113 0.162665
v -0.104824 0.034414 0.162665
v -0.101292 0.013113 -0.162665
v -0.104824 0.034414 -0.162665
v -0.111426 0.006705 0.162665
v -0.115202 0.034414 0.162665
v -0.111426 0.006705 -0.162665
v -0.115202 0.034414 -0.162665
v -0.096659 0.011258 -0.162665
v -0.096659 0.011258 0.162665
v -0.096659 0.000880 -0.162665
v -0.096659 0.000880 0.162665
v -0.107642 0.060767 0.157089
v 0.105973 0.060767 0.157089
v -0.107642 0.060767 -0.157089
v 0.105973 0.060767 -0.157089
v -0.107642 0.008062 0.157089
v 0.105973 0.008062 0.157089
v -0.107642 0.008062 -0.157089
v 0.105973 0.008062 -0.157089
v 0.112982 0.057571 -0.162665
v 0.112982 0.057571 0.162665
v 0.112982 0.067949 -0.162665
v 0.112982 0.067949 0.162665
v -0.101292 0.055716 0.162665
v -0.101292 0.055716 -0.162665
v -0.111426 0.062124 0.162665
v -0.111426 0.062124 -0.162665
v -0.096659 0.057571 -0.162665
v -0.096659 0.057571 0.162665
v -0.096659 0.067949 -0.162665
v -0.096659 0.067949 0.162665
vt 0.892396 0.487928
vt 0.863081 0.489799
vt 0.863081 0.019222
vt 0.892395 0.019222
vt 0.921710 0.019222
vt 0.921711 0.489799
vt 0.951024 0.019222
vt 0.892396 0.963747
vt 0.863081 0.965618
vt 0.863081 0.495041
vt 0.892396 0.495041
vt 0.921711 0.495041
vt 0.921711 0.965618
vt 0.951025 0.495041
vt 0.833767 0.970296
vt 0.833767 0.495041
vt 0.833767 0.494477
vt 0.833767 0.019222
vt 0.951026 0.494476
vt 0.951026 0.970296
vt 0.545021 0.640920
vt 0.545019 0.342550
vt 0.553848 0.344313
vt 0.545080 0.001891
vt 0.581072 0.001950
vt 0.580585 0.298557
vt 0.535052 0.481474
vt 0.535052 0.779843
vt 0.526222 0.778079
vt 0.045417 0.778079
vt 0.009424 0.778079
vt 0.009425 0.481472
vt 0.589904 0.000202
vt 0.589414 0.298571
vt 0.000594 0.779843
vt 0.000595 0.481472
vt 0.490230 0.778079
vt 0.490230 0.481474
vt 0.045417 0.481472
vt 0.553850 0.640920
vt 0.589840 0.344313
vt 0.636466 0.386126
vt 0.645295 0.386126
vt 0.645295 0.682732
vt 0.626238 0.386126
vt 0.626238 0.682732
vt 0.590246 0.682732
vt 0.535052 0.342191
vt 0.526223 0.342191
vt 0.526224 0.045585
vt 0.009425 0.342189
vt 0.009427 0.045582
vt 0.045419 0.045583
vt 0.635068 0.386126
vt 0.635067 0.684495
vt 0.000595 0.342189
vt 0.000598 0.043819
vt 0.490230 0.342191
vt 0.490231 0.045585
vt 0.045417 0.342190
vt 0.681288 0.386126
vt 0.681288 0.682732
vt 0.490230 0.367407
vt 0.045417 0.367406
vt 0.526222 0.367408
vt 0.626238 0.378199
vt 0.590246 0.386126
vt 0.626238 0.343898
vt 0.590246 0.378199
vt 0.490230 0.411832
vt 0.045417 0.411831
vt 0.526222 0.411832
vt 0.042300 0.879772
vt 0.045023 0.870807
vt 0.489834 0.870826
vt 0.009031 0.870805
vt 0.045025 0.834391
vt 0.489836 0.834410
vt 0.009033 0.834390
vt 0.045419 0.009167
vt 0.490231 0.009169
vt 0.526224 0.009169
vt 0.490230 0.456257
vt 0.526222 0.456257
vt 0.526222 0.481474
vt 0.580572 0.306483
vt 0.544579 0.306424
vt 0.544592 0.298497
vt 0.580516 0.340784
vt 0.544523 0.340725
vt 0.045417 0.456256
vt 0.042301 0.880197
vt 0.492558 0.880199
vt 0.489835 0.889164
vt 0.045024 0.889163
vt 0.009031 0.889163
vt 0.045024 0.925579
vt 0.009031 0.925579
vt 0.490230 0.814495
vt 0.045417 0.814495
vt 0.526222 0.814495
vt 0.492953 0.823461
vt 0.009424 0.814495
vt 0.042693 0.823461
vt 0.042696 0.000202
vt 0.492954 0.000203
vt 0.009427 0.009167
vt 0.006263 0.000202
vt 0.000598 0.005640
vt 0.001111 0.361785
vt 0.001129 0.345214
vt 0.634579 0.372618
vt 0.634519 0.389189
vt 0.634964 0.342550
vt 0.635565 0.381904
vt 0.009425 0.411831
vt 0.000665 0.410718
vt 0.000202 0.371362
vt 0.529388 0.000203
vt 0.534658 0.836176
vt 0.534657 0.874355
vt 0.525827 0.870828
vt 0.000594 0.818022
vt 0.001129 0.478448
vt 0.001111 0.461876
vt 0.588871 0.295506
vt 0.589905 0.302793
vt 0.589239 0.342147
vt 0.009425 0.456256
vt 0.000202 0.452300
vt 0.529387 0.823461
vt 0.525827 0.889164
vt 0.534656 0.885638
vt 0.534656 0.923816
vt 0.772754 0.833472
vt 0.772754 0.134492
vt 0.802128 0.134492
vt 0.743379 0.833472
vt 0.743380 0.134492
vt 0.713695 0.134492
vt 0.535052 0.818022
vt 0.489835 0.925580
vt 0.528991 0.880199
vt 0.589842 0.683147
vt 0.553850 0.683148
vt 0.553850 0.648847
vt 0.545124 0.684496
vt 0.544523 0.645142
vt 0.535445 0.452301
vt 0.534536 0.461878
vt 0.534518 0.478449
vt 0.545569 0.637857
vt 0.000202 0.923816
vt 0.000202 0.885636
vt 0.589842 0.648846
vt 0.831813 0.134492
vt 0.831815 0.833472
vt 0.535053 0.043821
vt 0.525829 0.834412
vt 0.492557 0.879792
vt 0.009425 0.367406
vt 0.681287 0.343898
vt 0.681287 0.378199
vt 0.645295 0.378199
vt 0.636569 0.342550
vt 0.645295 0.343898
vt 0.535445 0.371364
vt 0.534536 0.361787
vt 0.637014 0.389189
vt 0.000203 0.836153
vt 0.589842 0.640920
vt 0.636466 0.684495
vt 0.590246 0.343898
vt 0.005866 0.879771
vt 0.005867 0.880197
vt 0.006259 0.823461
vt 0.588903 0.312078
vt 0.000665 0.412944
vt 0.525827 0.925580
vt 0.802129 0.833472
vt 0.713692 0.833472
vt 0.534981 0.412945
vt 0.545509 0.654428
vt 0.535053 0.005642
vt 0.528991 0.879794
vt 0.635968 0.381904
vt 0.534981 0.410720
vt 0.534518 0.345215
vt 0.636955 0.372618
vt 0.000202 0.874331
vn -0.000000 0.000000 -1.000000
vn -0.000000 0.000000 1.000000
vn -0.016800 -0.042700 0.998900
vn 0.000000 0.824100 0.566400
vn 0.000000 1.000000 0.000000
vn 0.000000 0.824100 -0.566400
vn 0.157700 0.786500 -0.597100
vn -0.016800 -0.042700 -0.998900
vn 0.000000 -0.824100 -0.566400
vn 0.000000 -1.000000 0.000000
vn 0.000000 -0.824100 0.566400
vn -0.154100 -0.830600 0.535100
vn -0.186700 -0.982400 0.000000
vn 0.157700 0.786500 0.597100
vn -0.016800 0.042700 0.998900
vn 0.157700 -0.786500 0.597100
vn 0.157700 -0.786500 -0.597100
vn -0.016800 0.042700 -0.998900
vn -0.154100 0.830600 -0.535100
vn -0.154100 0.830600 0.535100
vn -0.186700 0.982400 0.000000
vn 0.189200 -0.981900 0.000000
vn -0.786700 0.617200 0.000000
vn -0.679300 0.528400 -0.509200
vn 0.557500 -0.464000 -0.688300
vn 0.803200 0.000000 -0.595700
vn 0.779400 -0.626600 0.000000
vn -1.000000 0.000000 0.000000
vn -0.837900 0.000000 -0.545900
vn 1.000000 0.000000 0.000000
vn 0.550700 -0.834700 0.000000
vn 0.445600 -0.766700 0.462100
vn 0.550700 0.834700 0.000000
vn 0.445600 0.766700 -0.462100
vn -0.786700 -0.617200 0.000000
vn -0.679300 -0.528400 -0.509200
vn -0.154100 -0.830600 -0.535100
vn 0.557500 0.464000 -0.688300
vn 0.779400 0.626600 0.000000
vn 0.189200 0.981900 0.000000
vn 0.445600 0.766700 0.462100
vn 0.445600 -0.766700 -0.462100
vn 0.713500 0.000000 0.700600
vn -0.074600 0.077100 0.994200
vn -0.074600 0.077100 -0.994200
vn -0.035500 0.000000 -0.999400
vn -0.837900 0.000000 0.545900
vn -0.035500 0.000000 0.999400
vn 0.713500 0.000000 -0.700600
vn -0.074600 -0.077100 0.994200
vn -0.074600 -0.077100 -0.994200
vn -0.679300 -0.528400 0.509200
vn 0.692200 0.000000 0.721700
vn 0.692200 0.000000 -0.721700
vn 0.691900 -0.077100 -0.717900
vn 0.691900 0.077100 0.717900
vn 0.691900 0.077100 -0.717900
vn 0.734300 0.117200 -0.668700
vn 0.803200 0.000000 0.595700
vn 0.557500 0.464000 0.688300
vn 0.779300 0.626600 0.000000
vn 0.734300 -0.117200 -0.668700
vn 0.734300 -0.117200 0.668700
vn -0.679300 0.528400 0.509200
vn 0.779300 -0.626600 0.000000
vn 0.557500 -0.464000 0.688300
vn 0.691900 -0.077100 0.717900
vn 0.734300 0.117200 0.668700
usemtl Material
s off
f 68/1/1 67/2/1 75/3/1
f 68/1/1 74/4/1 73/5/1
f 69/6/1 73/5/1 97/7/1
f 71/8/2 70/9/2 78/10/2
f 71/8/2 77/11/2 76/12/2
f 72/13/2 76/12/2 99/14/2
f 70/9/2 96/15/2 95/16/2
f 67/2/1 102/17/1 101/18/1
f 74/4/1 68/1/1 75/3/1
f 69/6/1 68/1/1 73/5/1
f 98/19/1 69/6/1 97/7/1
f 77/11/2 71/8/2 78/10/2
f 72/13/2 71/8/2 76/12/2
f 100/20/2 72/13/2 99/14/2
f 78/10/2 70/9/2 95/16/2
f 75/3/1 67/2/1 101/18/1
s 1
f 58/21/3 5/22/2 10/23/4
f 1/24/5 8/25/6 91/26/7
f 57/27/8 6/28/1 7/29/9
f 3/30/10 9/31/11 94/32/12
f 8/25/6 6/33/1 57/34/8
f 9/31/11 5/35/2 58/36/3
f 7/29/9 4/37/10 35/38/13
f 4/37/10 3/30/10 36/39/13
f 92/40/14 10/23/4 2/41/5
f 66/42/15 112/43/16 20/44/11
f 111/45/17 18/46/9 11/47/10
f 65/48/18 113/49/19 17/50/6
f 114/51/20 19/52/4 13/53/5
f 65/54/18 16/55/1 18/46/9
f 66/56/15 15/57/2 19/52/4
f 51/58/21 14/59/5 17/50/6
f 52/60/21 13/53/5 14/59/5
f 112/43/16 50/61/22 12/62/10
f 41/63/23 42/64/23 52/60/21
f 110/65/24 41/63/23 51/58/21
f 108/66/25 111/45/17 49/67/22
f 86/68/26 108/66/25 46/69/27
f 43/70/28 44/71/28 42/64/23
f 90/72/29 43/70/28 41/63/23
f 22/73/30 38/74/31 37/75/31
f 104/76/32 38/74/31 22/73/30
f 12/77/10 11/78/10 37/75/31
f 20/79/11 12/77/10 38/74/31
f 13/53/5 40/80/33 39/81/33
f 14/59/5 39/81/33 105/82/34
f 29/83/35 35/38/13 36/39/13
f 89/84/36 93/85/37 35/38/13
f 85/86/38 32/87/39 33/88/40
f 86/89/26 48/90/30 32/87/39
f 43/70/28 29/83/35 30/91/35
f 90/72/29 89/84/36 29/83/35
f 23/92/30 24/93/30 25/94/33
f 23/92/30 26/95/33 80/96/41
f 2/97/5 26/95/33 25/94/33
f 10/98/4 80/96/41 26/95/33
f 27/99/31 28/100/31 3/30/10
f 81/101/42 27/99/31 4/37/10
f 28/100/31 27/99/31 24/102/30
f 82/103/32 28/100/31 23/104/30
f 40/80/33 22/105/30 21/106/30
f 106/107/41 60/108/43 22/105/30
f 15/57/2 60/109/43 106/107/41
f 61/110/44 66/111/15 114/51/20
f 108/66/25 63/112/45 65/113/18
f 64/114/46 63/115/45 108/66/25
f 88/116/47 62/117/48 61/118/44
f 21/106/30 59/119/49 105/82/34
f 16/120/1 59/121/49 103/122/42
f 82/103/32 54/123/43 5/35/2
f 94/32/12 58/124/3 55/125/50
f 85/86/38 91/26/7 57/126/8
f 85/86/38 56/127/51 64/128/46
f 88/116/47 87/129/52 55/130/50
f 81/101/42 53/131/49 24/102/30
f 79/132/34 53/133/49 6/134/1
f 71/135/53 68/136/54 69/137/55
f 72/138/56 67/139/57 68/136/54
f 102/140/58 67/139/57 72/138/56
f 28/100/31 82/103/32 9/31/11
f 6/28/1 53/141/49 81/101/42
f 1/142/5 25/94/33 79/132/34
f 24/93/30 53/143/49 79/132/34
f 44/71/28 30/91/35 87/129/52
f 47/144/30 84/145/59 83/146/60
f 62/147/48 55/148/50 83/146/60
f 56/149/51 89/84/36 90/72/29
f 56/150/51 57/151/8 93/85/37
f 58/152/3 92/40/14 83/146/60
f 5/153/2 54/154/43 80/96/41
f 31/155/61 83/146/60 92/40/14
f 30/91/35 36/39/13 94/32/12
f 69/137/55 98/156/62 96/157/63
f 19/52/4 106/107/41 40/80/33
f 16/158/1 17/50/6 105/82/34
f 11/78/10 18/159/9 103/122/42
f 21/160/30 37/75/31 103/122/42
f 44/71/28 88/116/47 109/161/64
f 47/162/30 45/163/65 107/164/66
f 62/165/48 84/166/59 107/164/66
f 90/72/29 110/65/24 63/167/45
f 63/168/45 110/65/24 113/49/19
f 107/164/66 112/43/16 66/169/15
f 15/170/2 20/79/11 104/76/32
f 45/163/65 50/61/22 112/43/16
f 42/64/23 109/161/64 114/51/20
f 92/40/14 58/21/3 10/23/4
f 33/88/40 1/24/5 91/26/7
f 93/85/37 57/27/8 7/29/9
f 36/39/13 3/30/10 94/32/12
f 91/26/7 8/25/6 57/34/8
f 94/32/12 9/31/11 58/36/3
f 93/85/37 7/29/9 35/38/13
f 35/38/13 4/37/10 36/39/13
f 34/171/40 92/40/14 2/41/5
f 15/172/2 66/42/15 20/44/11
f 49/67/22 111/45/17 11/47/10
f 16/158/1 65/48/18 17/50/6
f 52/60/21 114/51/20 13/53/5
f 111/45/17 65/54/18 18/46/9
f 114/51/20 66/56/15 19/52/4
f 113/49/19 51/58/21 17/50/6
f 51/58/21 52/60/21 14/59/5
f 20/44/11 112/43/16 12/62/10
f 51/58/21 41/63/23 52/60/21
f 113/49/19 110/65/24 51/58/21
f 46/69/27 108/66/25 49/67/22
f 48/173/30 86/68/26 46/69/27
f 41/63/23 43/70/28 42/64/23
f 110/65/24 90/72/29 41/63/23
f 21/160/30 22/73/30 37/75/31
f 60/174/43 104/76/32 22/73/30
f 38/74/31 12/77/10 37/75/31
f 104/76/32 20/79/11 38/74/31
f 14/59/5 13/53/5 39/81/33
f 17/50/6 14/59/5 105/82/34
f 30/91/35 29/83/35 36/39/13
f 29/83/35 89/84/36 35/38/13
f 91/26/7 85/86/38 33/88/40
f 85/86/38 86/89/26 32/87/39
f 44/71/28 43/70/28 30/91/35
f 43/70/28 90/72/29 29/83/35
f 26/95/33 23/92/30 25/94/33
f 54/175/43 23/92/30 80/96/41
f 1/142/5 2/97/5 25/94/33
f 2/97/5 10/98/4 26/95/33
f 4/37/10 27/99/31 3/30/10
f 7/29/9 81/101/42 4/37/10
f 23/104/30 28/100/31 24/102/30
f 54/176/43 82/103/32 23/104/30
f 39/81/33 40/80/33 21/106/30
f 40/80/33 106/107/41 22/105/30
f 19/52/4 15/57/2 106/107/41
f 109/161/64 61/110/44 114/51/20
f 111/45/17 108/66/25 65/113/18
f 86/68/26 64/114/46 108/66/25
f 109/161/64 88/116/47 61/118/44
f 39/81/33 21/106/30 105/82/34
f 18/159/9 16/120/1 103/122/42
f 9/31/11 82/103/32 5/35/2
f 87/129/52 94/32/12 55/125/50
f 56/177/51 85/86/38 57/126/8
f 86/89/26 85/86/38 64/128/46
f 62/178/48 88/116/47 55/130/50
f 27/99/31 81/101/42 24/102/30
f 8/179/6 79/132/34 6/134/1
f 70/180/67 71/135/53 69/137/55
f 71/135/53 72/138/56 68/136/54
f 100/181/68 102/140/58 72/138/56
f 3/30/10 28/100/31 9/31/11
f 7/29/9 6/28/1 81/101/42
f 8/179/6 1/142/5 79/132/34
f 25/94/33 24/93/30 79/132/34
f 88/116/47 44/71/28 87/129/52
f 31/155/61 47/144/30 83/146/60
f 84/145/59 62/147/48 83/146/60
f 64/182/46 56/149/51 90/72/29
f 89/84/36 56/150/51 93/85/37
f 55/183/50 58/152/3 83/146/60
f 10/98/4 5/153/2 80/96/41
f 34/171/40 31/155/61 92/40/14
f 87/129/52 30/91/35 94/32/12
f 70/180/67 69/137/55 96/157/63
f 13/53/5 19/52/4 40/80/33
f 59/184/49 16/158/1 105/82/34
f 37/75/31 11/78/10 103/122/42
f 59/185/49 21/160/30 103/122/42
f 42/64/23 44/71/28 109/161/64
f 84/166/59 47/162/30 107/164/66
f 61/186/44 62/165/48 107/164/66
f 64/187/46 90/72/29 63/167/45
f 65/188/18 63/168/45 113/49/19
f 61/189/44 107/164/66 66/169/15
f 60/190/43 15/170/2 104/76/32
f 107/164/66 45/163/65 112/43/16
f 52/60/21 42/64/23 114/51/20
