#name "Victory"
#participants 3

say 0 "" "..."
say 1 "Ghost" "[wait 0.2]Jairo!"
say 1 "Ghost" "You can come out now!"
say 2 "Jairo" "What..."
say 2 "Jairo" "What did you do?"
say 1 "Ghost" "I neutralised them."
say 2 "Jairo" "Yeah, [wait 0.2]but..."
say 2 "Jairo" "None of them are dead?"
say 1 "Ghost" "[wait 0.3]So?"
say 2 "Jairo" "...[wait 0.3]fine."
say 2 "Jairo" "If you want these scumbags to live for another day..."
say 2 "Jairo" "Then that's on you."
say 1 "Ghost" "It's not necessary to kill them."
say 1 "Ghost" "Anyways, [wait 0.3]are we gonna interrogate one, [wait 0.3]or not?"
